[{"page":7,"pages":7,"per_page":"50","total":304},[{"id":"YEM","iso2Code":"YE","name":"Yemen, Rep.","region":{"id":"MEA","value":"Middle East & North Africa"},"adminregion":{"id":"MNA","value":"Middle East & North Africa (excluding high income)"},"incomeLevel":{"id":"LMC","value":"Lower middle income"},"lendingType":{"id":"IDX","value":"IDA"},"capitalCity":"Sana'a","longitude":"44.2075","latitude":"15.352"},{"id":"ZAF","iso2Code":"ZA","name":"South Africa","region":{"id":"SSF","value":"Sub-Saharan Africa "},"adminregion":{"id":"SSA","value":"Sub-Saharan Africa (excluding high income)"},"incomeLevel":{"id":"UMC","value":"Upper middle income"},"lendingType":{"id":"IBD","value":"IBRD"},"capitalCity":"Pretoria","longitude":"28.1871","latitude":"-25.746"},{"id":"ZMB","iso2Code":"ZM","name":"Zambia","region":{"id":"SSF","value":"Sub-Saharan Africa "},"adminregion":{"id":"SSA","value":"Sub-Saharan Africa (excluding high income)"},"incomeLevel":{"id":"LMC","value":"Lower middle income"},"lendingType":{"id":"IDX","value":"IDA"},"capitalCity":"Lusaka","longitude":"28.2937","latitude":"-15.3982"},{"id":"ZWE","iso2Code":"ZW","name":"Zimbabwe","region":{"id":"SSF","value":"Sub-Saharan Africa "},"adminregion":{"id":"SSA","value":"Sub-Saharan Africa (excluding high income)"},"incomeLevel":{"id":"LIC","value":"Low income"},"lendingType":{"id":"IDB","value":"Blend"},"capitalCity":"Harare","longitude":"31.0672","latitude":"-17.8312"}]]