[{"page":6,"pages":7,"per_page":"50","total":304},[{"id":"SSA","iso2Code":"ZF","name":"Sub-Saharan Africa (excluding high income)","region":{"id":"NA","value":"Aggregates"},"adminregion":{"id":"","value":""},"incomeLevel":{"id":"NA","value":"Aggregates"},"lendingType":{"id":"","value":"Aggregates"},"capitalCity":"","longitude":"","latitude":""},{"id":"SSD","iso2Code":"SS","name":"South Sudan","region":{"id":"SSF","value":"Sub-Saharan Africa "},"adminregion":{"id":"SSA","value":"Sub-Saharan Africa (excluding high income)"},"incomeLevel":{"id":"LIC","value":"Low income"},"lendingType":{"id":"IDX","value":"IDA"},"capitalCity":"Juba","longitude":"31.6","latitude":"4.85"},{"id":"SSF","iso2Code":"ZG","name":"Sub-Saharan Africa ","region":{"id":"NA","value":"Aggregates"},"adminregion":{"id":"","value":""},"incomeLevel":{"id":"NA","value":"Aggregates"},"lendingType":{"id":"","value":"Aggregates"},"capitalCity":"","longitude":"","latitude":""},{"id":"SST","iso2Code":"S1","name":"Small states","region":{"id":"NA","value":"Aggregates"},"adminregion":{"id":"","value":""},"incomeLevel":{"id":"NA","value":"Aggregates"},"lendingType":{"id":"","value":"Aggregates"},"capitalCity":"","longitude":"","latitude":""},{"id":"STP","iso2Code":"ST","name":"Sao Tome and Principe","region":{"id":"SSF","value":"Sub-Saharan Africa "},"adminregion":{"id":"SSA","value":"Sub-Saharan Africa (excluding high income)"},"incomeLevel":{"id":"LMC","value":"Lower middle income"},"lendingType":{"id":"IDX","value":"IDA"},"capitalCity":"Sao Tome","longitude":"6.6071","latitude":"0.20618"},{"id":"SUR","iso2Code":"SR","name":"Suriname","region":{"id":"LCN","value":"Latin America & Caribbean "},"adminregion":{"id":"LAC","value":"Latin America & Caribbean (excluding high income)"},"incomeLevel":{"id":"UMC","value":"Upper middle income"},"lendingType":{"id":"IBD","value":"IBRD"},"capitalCity":"Paramaribo","longitude":"-55.1679","latitude":"5.8232"},{"id":"SVK","iso2Code":"SK","name":"Slovak Republic","region":{"id":"ECS","value":"Europe & Central Asia"},"adminregion":{"id":"","value":""},"incomeLevel":{"id":"HIC","value":"High income"},"lendingType":{"id":"LNX","value":"Not classified"},"capitalCity":"Bratislava","longitude":"17.1073","latitude":"48.1484"},{"id":"SVN","iso2Code":"SI","name":"Slovenia","region":{"id":"ECS","value":"Europe & Central Asia"},"adminregion":{"id":"","value":""},"incomeLevel":{"id":"HIC","value":"High income"},"lendingType":{"id":"LNX","value":"Not classified"},"capitalCity":"Ljubljana","longitude":"14.5044","latitude":"46.0546"},{"id":"SWE","iso2Code":"SE","name":"Sweden","region":{"id":"ECS","value":"Europe & Central Asia"},"adminregion":{"id":"","value":""},"incomeLevel":{"id":"HIC","value":"High income"},"lendingType":{"id":"LNX","value":"Not classified"},"capitalCity":"Stockholm","longitude":"18.0645","latitude":"59.3327"},{"id":"SWZ","iso2Code":"SZ","name":"Swaziland","region":{"id":"SSF","value":"Sub-Saharan Africa "},"adminregion":{"id":"SSA","value":"Sub-Saharan Africa (excluding high income)"},"incomeLevel":{"id":"LMC","value":"Lower middle income"},"lendingType":{"id":"IBD","value":"IBRD"},"capitalCity":"Mbabane","longitude":"31.4659","latitude":"-26.5225"},{"id":"SXM","iso2Code":"SX","name":"Sint Maarten (Dutch part)","region":{"id":"LCN","value":"Latin America & Caribbean "},"adminregion":{"id":"","value":""},"incomeLevel":{"id":"HIC","value":"High income"},"lendingType":{"id":"LNX","value":"Not classified"},"capitalCity":"Philipsburg","longitude":"","latitude":""},{"id":"SXZ","iso2Code":"A4","name":"Sub-Saharan Africa excluding South Africa","region":{"id":"NA","value":"Aggregates"},"adminregion":{"id":"","value":""},"incomeLevel":{"id":"NA","value":"Aggregates"},"lendingType":{"id":"","value":"Aggregates"},"capitalCity":"","longitude":"","latitude":""},{"id":"SYC","iso2Code":"SC","name":"Seychelles","region":{"id":"SSF","value":"Sub-Saharan Africa "},"adminregion":{"id":"","value":""},"incomeLevel":{"id":"HIC","value":"High income"},"lendingType":{"id":"IBD","value":"IBRD"},"capitalCity":"Victoria","longitude":"55.4466","latitude":"-4.6309"},{"id":"SYR","iso2Code":"SY","name":"Syrian Arab Republic","region":{"id":"MEA","value":"Middle East & North Africa"},"adminregion":{"id":"MNA","value":"Middle East & North Africa (excluding high income)"},"incomeLevel":{"id":"LMC","value":"Lower middle income"},"lendingType":{"id":"IDX","value":"IDA"},"capitalCity":"Damascus","longitude":"36.3119","latitude":"33.5146"},{"id":"TCA","iso2Code":"TC","name":"Turks and Caicos Islands","region":{"id":"LCN","value":"Latin America & Caribbean "},"adminregion":{"id":"","value":""},"incomeLevel":{"id":"HIC","value":"High income"},"lendingType":{"id":"LNX","value":"Not classified"},"capitalCity":"Grand Turk","longitude":"-71.141389","latitude":"21.4602778"},{"id":"TCD","iso2Code":"TD","name":"Chad","region":{"id":"SSF","value":"Sub-Saharan Africa "},"adminregion":{"id":"SSA","value":"Sub-Saharan Africa (excluding high income)"},"incomeLevel":{"id":"LIC","value":"Low income"},"lendingType":{"id":"IDX","value":"IDA"},"capitalCity":"N'Djamena","longitude":"15.0445","latitude":"12.1048"},{"id":"TEA","iso2Code":"T4","name":"East Asia & Pacific (IDA & IBRD countries)","region":{"id":"NA","value":"Aggregates"},"adminregion":{"id":"","value":""},"incomeLevel":{"id":"NA","value":"Aggregates"},"lendingType":{"id":"","value":"Aggregates"},"capitalCity":"","longitude":"","latitude":""},{"id":"TEC","iso2Code":"T7","name":"Europe & Central Asia (IDA & IBRD countries)","region":{"id":"NA","value":"Aggregates"},"adminregion":{"id":"","value":""},"incomeLevel":{"id":"NA","value":"Aggregates"},"lendingType":{"id":"","value":"Aggregates"},"capitalCity":"","longitude":"","latitude":""},{"id":"TGO","iso2Code":"TG","name":"Togo","region":{"id":"SSF","value":"Sub-Saharan Africa "},"adminregion":{"id":"SSA","value":"Sub-Saharan Africa (excluding high income)"},"incomeLevel":{"id":"LIC","value":"Low income"},"lendingType":{"id":"IDX","value":"IDA"},"capitalCity":"Lome","longitude":"1.2255","latitude":"6.1228"},{"id":"THA","iso2Code":"TH","name":"Thailand","region":{"id":"EAS","value":"East Asia & Pacific"},"adminregion":{"id":"EAP","value":"East Asia & Pacific (excluding high income)"},"incomeLevel":{"id":"UMC","value":"Upper middle income"},"lendingType":{"id":"IBD","value":"IBRD"},"capitalCity":"Bangkok","longitude":"100.521","latitude":"13.7308"},{"id":"TJK","iso2Code":"TJ","name":"Tajikistan","region":{"id":"ECS","value":"Europe & Central Asia"},"adminregion":{"id":"ECA","value":"Europe & Central Asia (excluding high income)"},"incomeLevel":{"id":"LMC","value":"Lower middle income"},"lendingType":{"id":"IDX","value":"IDA"},"capitalCity":"Dushanbe","longitude":"68.7864","latitude":"38.5878"},{"id":"TKM","iso2Code":"TM","name":"Turkmenistan","region":{"id":"ECS","value":"Europe & Central Asia"},"adminregion":{"id":"ECA","value":"Europe & Central Asia (excluding high income)"},"incomeLevel":{"id":"UMC","value":"Upper middle income"},"lendingType":{"id":"IBD","value":"IBRD"},"capitalCity":"Ashgabat","longitude":"58.3794","latitude":"37.9509"},{"id":"TLA","iso2Code":"T2","name":"Latin America & the Caribbean (IDA & IBRD countries)","region":{"id":"NA","value":"Aggregates"},"adminregion":{"id":"","value":""},"incomeLevel":{"id":"NA","value":"Aggregates"},"lendingType":{"id":"","value":"Aggregates"},"capitalCity":"","longitude":"","latitude":""},{"id":"TLS","iso2Code":"TL","name":"Timor-Leste","region":{"id":"EAS","value":"East Asia & Pacific"},"adminregion":{"id":"EAP","value":"East Asia & Pacific (excluding high income)"},"incomeLevel":{"id":"LMC","value":"Lower middle income"},"lendingType":{"id":"IDB","value":"Blend"},"capitalCity":"Dili","longitude":"125.567","latitude":"-8.56667"},{"id":"TMN","iso2Code":"T3","name":"Middle East & North Africa (IDA & IBRD countries)","region":{"id":"NA","value":"Aggregates"},"adminregion":{"id":"","value":""},"incomeLevel":{"id":"NA","value":"Aggregates"},"lendingType":{"id":"","value":"Aggregates"},"capitalCity":"","longitude":"","latitude":""},{"id":"TON","iso2Code":"TO","name":"Tonga","region":{"id":"EAS","value":"East Asia & Pacific"},"adminregion":{"id":"EAP","value":"East Asia & Pacific (excluding high income)"},"incomeLevel":{"id":"LMC","value":"Lower middle income"},"lendingType":{"id":"IDX","value":"IDA"},"capitalCity":"Nuku'alofa","longitude":"-175.216","latitude":"-21.136"},{"id":"TSA","iso2Code":"T5","name":"South Asia (IDA & IBRD)","region":{"id":"NA","value":"Aggregates"},"adminregion":{"id":"","value":""},"incomeLevel":{"id":"NA","value":"Aggregates"},"lendingType":{"id":"","value":"Aggregates"},"capitalCity":"","longitude":"","latitude":""},{"id":"TSS","iso2Code":"T6","name":"Sub-Saharan Africa (IDA & IBRD countries)","region":{"id":"NA","value":"Aggregates"},"adminregion":{"id":"","value":""},"incomeLevel":{"id":"NA","value":"Aggregates"},"lendingType":{"id":"","value":"Aggregates"},"capitalCity":"","longitude":"","latitude":""},{"id":"TTO","iso2Code":"TT","name":"Trinidad and Tobago","region":{"id":"LCN","value":"Latin America & Caribbean "},"adminregion":{"id":"","value":""},"incomeLevel":{"id":"HIC","value":"High income"},"lendingType":{"id":"IBD","value":"IBRD"},"capitalCity":"Port-of-Spain","longitude":"-61.4789","latitude":"10.6596"},{"id":"TUN","iso2Code":"TN","name":"Tunisia","region":{"id":"MEA","value":"Middle East & North Africa"},"adminregion":{"id":"MNA","value":"Middle East & North Africa (excluding high income)"},"incomeLevel":{"id":"LMC","value":"Lower middle income"},"lendingType":{"id":"IBD","value":"IBRD"},"capitalCity":"Tunis","longitude":"10.21","latitude":"36.7899"},{"id":"TUR","iso2Code":"TR","name":"Turkey","region":{"id":"ECS","value":"Europe & Central Asia"},"adminregion":{"id":"ECA","value":"Europe & Central Asia (excluding high income)"},"incomeLevel":{"id":"UMC","value":"Upper middle income"},"lendingType":{"id":"IBD","value":"IBRD"},"capitalCity":"Ankara","longitude":"32.3606","latitude":"39.7153"},{"id":"TUV","iso2Code":"TV","name":"Tuvalu","region":{"id":"EAS","value":"East Asia & Pacific"},"adminregion":{"id":"EAP","value":"East Asia & Pacific (excluding high income)"},"incomeLevel":{"id":"UMC","value":"Upper middle income"},"lendingType":{"id":"IDX","value":"IDA"},"capitalCity":"Funafuti","longitude":"179.089567","latitude":"-8.6314877"},{"id":"TWN","iso2Code":"TW","name":"Taiwan, China","region":{"id":"EAS","value":"East Asia & Pacific"},"adminregion":{"id":"","value":""},"incomeLevel":{"id":"HIC","value":"High income"},"lendingType":{"id":"LNX","value":"Not classified"},"capitalCity":"","longitude":"","latitude":""},{"id":"TZA","iso2Code":"TZ","name":"Tanzania","region":{"id":"SSF","value":"Sub-Saharan Africa "},"adminregion":{"id":"SSA","value":"Sub-Saharan Africa (excluding high income)"},"incomeLevel":{"id":"LIC","value":"Low income"},"lendingType":{"id":"IDX","value":"IDA"},"capitalCity":"Dodoma","longitude":"35.7382","latitude":"-6.17486"},{"id":"UGA","iso2Code":"UG","name":"Uganda","region":{"id":"SSF","value":"Sub-Saharan Africa "},"adminregion":{"id":"SSA","value":"Sub-Saharan Africa (excluding high income)"},"incomeLevel":{"id":"LIC","value":"Low income"},"lendingType":{"id":"IDX","value":"IDA"},"capitalCity":"Kampala","longitude":"32.5729","latitude":"0.314269"},{"id":"UKR","iso2Code":"UA","name":"Ukraine","region":{"id":"ECS","value":"Europe & Central Asia"},"adminregion":{"id":"ECA","value":"Europe & Central Asia (excluding high income)"},"incomeLevel":{"id":"LMC","value":"Lower middle income"},"lendingType":{"id":"IBD","value":"IBRD"},"capitalCity":"Kiev","longitude":"30.5038","latitude":"50.4536"},{"id":"UMC","iso2Code":"XT","name":"Upper middle income","region":{"id":"NA","value":"Aggregates"},"adminregion":{"id":"","value":""},"incomeLevel":{"id":"NA","value":"Aggregates"},"lendingType":{"id":"","value":"Aggregates"},"capitalCity":"","longitude":"","latitude":""},{"id":"URY","iso2Code":"UY","name":"Uruguay","region":{"id":"LCN","value":"Latin America & Caribbean "},"adminregion":{"id":"","value":""},"incomeLevel":{"id":"HIC","value":"High income"},"lendingType":{"id":"IBD","value":"IBRD"},"capitalCity":"Montevideo","longitude":"-56.0675","latitude":"-34.8941"},{"id":"USA","iso2Code":"US","name":"United States","region":{"id":"NAC","value":"North America"},"adminregion":{"id":"","value":""},"incomeLevel":{"id":"HIC","value":"High income"},"lendingType":{"id":"LNX","value":"Not classified"},"capitalCity":"Washington D.C.","longitude":"-77.032","latitude":"38.8895"},{"id":"UZB","iso2Code":"UZ","name":"Uzbekistan","region":{"id":"ECS","value":"Europe & Central Asia"},"adminregion":{"id":"ECA","value":"Europe & Central Asia (excluding high income)"},"incomeLevel":{"id":"LMC","value":"Lower middle income"},"lendingType":{"id":"IDB","value":"Blend"},"capitalCity":"Tashkent","longitude":"69.269","latitude":"41.3052"},{"id":"VCT","iso2Code":"VC","name":"St. Vincent and the Grenadines","region":{"id":"LCN","value":"Latin America & Caribbean "},"adminregion":{"id":"LAC","value":"Latin America & Caribbean (excluding high income)"},"incomeLevel":{"id":"UMC","value":"Upper middle income"},"lendingType":{"id":"IDB","value":"Blend"},"capitalCity":"Kingstown","longitude":"-61.2653","latitude":"13.2035"},{"id":"VEN","iso2Code":"VE","name":"Venezuela, RB","region":{"id":"LCN","value":"Latin America & Caribbean "},"adminregion":{"id":"LAC","value":"Latin America & Caribbean (excluding high income)"},"incomeLevel":{"id":"UMC","value":"Upper middle income"},"lendingType":{"id":"IBD","value":"IBRD"},"capitalCity":"Caracas","longitude":"-69.8371","latitude":"9.08165"},{"id":"VGB","iso2Code":"VG","name":"British Virgin Islands","region":{"id":"LCN","value":"Latin America & Caribbean "},"adminregion":{"id":"","value":""},"incomeLevel":{"id":"HIC","value":"High income"},"lendingType":{"id":"LNX","value":"Not classified"},"capitalCity":"Road Town","longitude":"-64.623056","latitude":"18.431389"},{"id":"VIR","iso2Code":"VI","name":"Virgin Islands (U.S.)","region":{"id":"LCN","value":"Latin America & Caribbean "},"adminregion":{"id":"","value":""},"incomeLevel":{"id":"HIC","value":"High income"},"lendingType":{"id":"LNX","value":"Not classified"},"capitalCity":"Charlotte Amalie","longitude":"-64.8963","latitude":"18.3358"},{"id":"VNM","iso2Code":"VN","name":"Vietnam","region":{"id":"EAS","value":"East Asia & Pacific"},"adminregion":{"id":"EAP","value":"East Asia & Pacific (excluding high income)"},"incomeLevel":{"id":"LMC","value":"Lower middle income"},"lendingType":{"id":"IDB","value":"Blend"},"capitalCity":"Hanoi","longitude":"105.825","latitude":"21.0069"},{"id":"VUT","iso2Code":"VU","name":"Vanuatu","region":{"id":"EAS","value":"East Asia & Pacific"},"adminregion":{"id":"EAP","value":"East Asia & Pacific (excluding high income)"},"incomeLevel":{"id":"LMC","value":"Lower middle income"},"lendingType":{"id":"IDX","value":"IDA"},"capitalCity":"Port-Vila","longitude":"168.321","latitude":"-17.7404"},{"id":"WLD","iso2Code":"1W","name":"World","region":{"id":"NA","value":"Aggregates"},"adminregion":{"id":"","value":""},"incomeLevel":{"id":"NA","value":"Aggregates"},"lendingType":{"id":"","value":"Aggregates"},"capitalCity":"","longitude":"","latitude":""},{"id":"WSM","iso2Code":"WS","name":"Samoa","region":{"id":"EAS","value":"East Asia & Pacific"},"adminregion":{"id":"EAP","value":"East Asia & Pacific (excluding high income)"},"incomeLevel":{"id":"LMC","value":"Lower middle income"},"lendingType":{"id":"IDX","value":"IDA"},"capitalCity":"Apia","longitude":"-171.752","latitude":"-13.8314"},{"id":"XKX","iso2Code":"XK","name":"Kosovo","region":{"id":"ECS","value":"Europe & Central Asia"},"adminregion":{"id":"ECA","value":"Europe & Central Asia (excluding high income)"},"incomeLevel":{"id":"LMC","value":"Lower middle income"},"lendingType":{"id":"IDX","value":"IDA"},"capitalCity":"Pristina","longitude":"20.926","latitude":"42.565"},{"id":"XZN","iso2Code":"A5","name":"Sub-Saharan Africa excluding South Africa and Nigeria","region":{"id":"NA","value":"Aggregates"},"adminregion":{"id":"","value":""},"incomeLevel":{"id":"NA","value":"Aggregates"},"lendingType":{"id":"","value":"Aggregates"},"capitalCity":"","longitude":"","latitude":""}]]