[{"page":2,"pages":7,"per_page":"50","total":304},[{"id":"CIV","iso2Code":"CI","name":"Cote d'Ivoire","region":{"id":"SSF","value":"Sub-Saharan Africa "},"adminregion":{"id":"SSA","value":"Sub-Saharan Africa (excluding high income)"},"incomeLevel":{"id":"LMC","value":"Lower middle income"},"lendingType":{"id":"IDX","value":"IDA"},"capitalCity":"Yamoussoukro","longitude":"-4.0305","latitude":"5.332"},{"id":"CLA","iso2Code":"C6","name":"Latin America and the Caribbean (IFC classification)","region":{"id":"NA","value":"Aggregates"},"adminregion":{"id":"","value":""},"incomeLevel":{"id":"NA","value":"Aggregates"},"lendingType":{"id":"","value":"Aggregates"},"capitalCity":"","longitude":"","latitude":""},{"id":"CME","iso2Code":"C7","name":"Middle East and North Africa (IFC classification)","region":{"id":"NA","value":"Aggregates"},"adminregion":{"id":"","value":""},"incomeLevel":{"id":"NA","value":"Aggregates"},"lendingType":{"id":"","value":"Aggregates"},"capitalCity":"","longitude":"","latitude":""},{"id":"CMR","iso2Code":"CM","name":"Cameroon","region":{"id":"SSF","value":"Sub-Saharan Africa "},"adminregion":{"id":"SSA","value":"Sub-Saharan Africa (excluding high income)"},"incomeLevel":{"id":"LMC","value":"Lower middle income"},"lendingType":{"id":"IDB","value":"Blend"},"capitalCity":"Yaounde","longitude":"11.5174","latitude":"3.8721"},{"id":"COD","iso2Code":"CD","name":"Congo, Dem. Rep.","region":{"id":"SSF","value":"Sub-Saharan Africa "},"adminregion":{"id":"SSA","value":"Sub-Saharan Africa (excluding high income)"},"incomeLevel":{"id":"LIC","value":"Low income"},"lendingType":{"id":"IDX","value":"IDA"},"capitalCity":"Kinshasa","longitude":"15.3222","latitude":"-4.325"},{"id":"COG","iso2Code":"CG","name":"Congo, Rep.","region":{"id":"SSF","value":"Sub-Saharan Africa "},"adminregion":{"id":"SSA","value":"Sub-Saharan Africa (excluding high income)"},"incomeLevel":{"id":"LMC","value":"Lower middle income"},"lendingType":{"id":"IDB","value":"Blend"},"capitalCity":"Brazzaville","longitude":"15.2662","latitude":"-4.2767"},{"id":"COL","iso2Code":"CO","name":"Colombia","region":{"id":"LCN","value":"Latin America & Caribbean "},"adminregion":{"id":"LAC","value":"Latin America & Caribbean (excluding high income)"},"incomeLevel":{"id":"UMC","value":"Upper middle income"},"lendingType":{"id":"IBD","value":"IBRD"},"capitalCity":"Bogota","longitude":"-74.082","latitude":"4.60987"},{"id":"COM","iso2Code":"KM","name":"Comoros","region":{"id":"SSF","value":"Sub-Saharan Africa "},"adminregion":{"id":"SSA","value":"Sub-Saharan Africa (excluding high income)"},"incomeLevel":{"id":"LIC","value":"Low income"},"lendingType":{"id":"IDX","value":"IDA"},"capitalCity":"Moroni","longitude":"43.2418","latitude":"-11.6986"},{"id":"CPV","iso2Code":"CV","name":"Cabo Verde","region":{"id":"SSF","value":"Sub-Saharan Africa "},"adminregion":{"id":"SSA","value":"Sub-Saharan Africa (excluding high income)"},"incomeLevel":{"id":"LMC","value":"Lower middle income"},"lendingType":{"id":"IDB","value":"Blend"},"capitalCity":"Praia","longitude":"-23.5087","latitude":"14.9218"},{"id":"CRI","iso2Code":"CR","name":"Costa Rica","region":{"id":"LCN","value":"Latin America & Caribbean "},"adminregion":{"id":"LAC","value":"Latin America & Caribbean (excluding high income)"},"incomeLevel":{"id":"UMC","value":"Upper middle income"},"lendingType":{"id":"IBD","value":"IBRD"},"capitalCity":"San Jose","longitude":"-84.0089","latitude":"9.63701"},{"id":"CSA","iso2Code":"C8","name":"South Asia (IFC classification)","region":{"id":"NA","value":"Aggregates"},"adminregion":{"id":"","value":""},"incomeLevel":{"id":"NA","value":"Aggregates"},"lendingType":{"id":"","value":"Aggregates"},"capitalCity":"","longitude":"","latitude":""},{"id":"CSS","iso2Code":"S3","name":"Caribbean small states","region":{"id":"NA","value":"Aggregates"},"adminregion":{"id":"","value":""},"incomeLevel":{"id":"NA","value":"Aggregates"},"lendingType":{"id":"","value":"Aggregates"},"capitalCity":"","longitude":"","latitude":""},{"id":"CUB","iso2Code":"CU","name":"Cuba","region":{"id":"LCN","value":"Latin America & Caribbean "},"adminregion":{"id":"LAC","value":"Latin America & Caribbean (excluding high income)"},"incomeLevel":{"id":"UMC","value":"Upper middle income"},"lendingType":{"id":"LNX","value":"Not classified"},"capitalCity":"Havana","longitude":"-82.3667","latitude":"23.1333"},{"id":"CUW","iso2Code":"CW","name":"Curacao","region":{"id":"LCN","value":"Latin America & Caribbean "},"adminregion":{"id":"","value":""},"incomeLevel":{"id":"HIC","value":"High income"},"lendingType":{"id":"LNX","value":"Not classified"},"capitalCity":"Willemstad","longitude":"","latitude":""},{"id":"CYM","iso2Code":"KY","name":"Cayman Islands","region":{"id":"LCN","value":"Latin America & Caribbean "},"adminregion":{"id":"","value":""},"incomeLevel":{"id":"HIC","value":"High income"},"lendingType":{"id":"LNX","value":"Not classified"},"capitalCity":"George Town","longitude":"-81.3857","latitude":"19.3022"},{"id":"CYP","iso2Code":"CY","name":"Cyprus","region":{"id":"ECS","value":"Europe & Central Asia"},"adminregion":{"id":"","value":""},"incomeLevel":{"id":"HIC","value":"High income"},"lendingType":{"id":"LNX","value":"Not classified"},"capitalCity":"Nicosia","longitude":"33.3736","latitude":"35.1676"},{"id":"CZE","iso2Code":"CZ","name":"Czech Republic","region":{"id":"ECS","value":"Europe & Central Asia"},"adminregion":{"id":"","value":""},"incomeLevel":{"id":"HIC","value":"High income"},"lendingType":{"id":"LNX","value":"Not classified"},"capitalCity":"Prague","longitude":"14.4205","latitude":"50.0878"},{"id":"DEA","iso2Code":"D4","name":"East Asia & Pacific (IDA-eligible countries)","region":{"id":"NA","value":"Aggregates"},"adminregion":{"id":"","value":""},"incomeLevel":{"id":"NA","value":"Aggregates"},"lendingType":{"id":"","value":"Aggregates"},"capitalCity":"","longitude":"","latitude":""},{"id":"DEC","iso2Code":"D7","name":"Europe & Central Asia (IDA-eligible countries)","region":{"id":"NA","value":"Aggregates"},"adminregion":{"id":"","value":""},"incomeLevel":{"id":"NA","value":"Aggregates"},"lendingType":{"id":"","value":"Aggregates"},"capitalCity":"","longitude":"","latitude":""},{"id":"DEU","iso2Code":"DE","name":"Germany","region":{"id":"ECS","value":"Europe & Central Asia"},"adminregion":{"id":"","value":""},"incomeLevel":{"id":"HIC","value":"High income"},"lendingType":{"id":"LNX","value":"Not classified"},"capitalCity":"Berlin","longitude":"13.4115","latitude":"52.5235"},{"id":"DFS","iso2Code":"D8","name":"IDA countries classified as Fragile Situations","region":{"id":"NA","value":"Aggregates"},"adminregion":{"id":"","value":""},"incomeLevel":{"id":"NA","value":"Aggregates"},"lendingType":{"id":"","value":"Aggregates"},"capitalCity":"","longitude":"","latitude":""},{"id":"DJI","iso2Code":"DJ","name":"Djibouti","region":{"id":"MEA","value":"Middle East & North Africa"},"adminregion":{"id":"MNA","value":"Middle East & North Africa (excluding high income)"},"incomeLevel":{"id":"LMC","value":"Lower middle income"},"lendingType":{"id":"IDX","value":"IDA"},"capitalCity":"Djibouti","longitude":"43.1425","latitude":"11.5806"},{"id":"DLA","iso2Code":"D2","name":"Latin America & the Caribbean (IDA-eligible countries)","region":{"id":"NA","value":"Aggregates"},"adminregion":{"id":"","value":""},"incomeLevel":{"id":"NA","value":"Aggregates"},"lendingType":{"id":"","value":"Aggregates"},"capitalCity":"","longitude":"","latitude":""},{"id":"DMA","iso2Code":"DM","name":"Dominica","region":{"id":"LCN","value":"Latin America & Caribbean "},"adminregion":{"id":"LAC","value":"Latin America & Caribbean (excluding high income)"},"incomeLevel":{"id":"UMC","value":"Upper middle income"},"lendingType":{"id":"IDB","value":"Blend"},"capitalCity":"Roseau","longitude":"-61.39","latitude":"15.2976"},{"id":"DMN","iso2Code":"D3","name":"Middle East & North Africa (IDA-eligible countries)","region":{"id":"NA","value":"Aggregates"},"adminregion":{"id":"","value":""},"incomeLevel":{"id":"NA","value":"Aggregates"},"lendingType":{"id":"","value":"Aggregates"},"capitalCity":"","longitude":"","latitude":""},{"id":"DNF","iso2Code":"D9","name":"IDA countries not classified as Fragile Situations","region":{"id":"NA","value":"Aggregates"},"adminregion":{"id":"","value":""},"incomeLevel":{"id":"NA","value":"Aggregates"},"lendingType":{"id":"","value":"Aggregates"},"capitalCity":"","longitude":"","latitude":""},{"id":"DNK","iso2Code":"DK","name":"Denmark","region":{"id":"ECS","value":"Europe & Central Asia"},"adminregion":{"id":"","value":""},"incomeLevel":{"id":"HIC","value":"High income"},"lendingType":{"id":"LNX","value":"Not classified"},"capitalCity":"Copenhagen","longitude":"12.5681","latitude":"55.6763"},{"id":"DNS","iso2Code":"N6","name":"IDA countries in Sub-Saharan Africa not classified as fragile situations ","region":{"id":"NA","value":"Aggregates"},"adminregion":{"id":"","value":""},"incomeLevel":{"id":"NA","value":"Aggregates"},"lendingType":{"id":"","value":"Aggregates"},"capitalCity":"","longitude":"","latitude":""},{"id":"DOM","iso2Code":"DO","name":"Dominican Republic","region":{"id":"LCN","value":"Latin America & Caribbean "},"adminregion":{"id":"LAC","value":"Latin America & Caribbean (excluding high income)"},"incomeLevel":{"id":"UMC","value":"Upper middle income"},"lendingType":{"id":"IBD","value":"IBRD"},"capitalCity":"Santo Domingo","longitude":"-69.8908","latitude":"18.479"},{"id":"DSA","iso2Code":"D5","name":"South Asia (IDA-eligible countries)","region":{"id":"NA","value":"Aggregates"},"adminregion":{"id":"","value":""},"incomeLevel":{"id":"NA","value":"Aggregates"},"lendingType":{"id":"","value":"Aggregates"},"capitalCity":"","longitude":"","latitude":""},{"id":"DSF","iso2Code":"F6","name":"IDA countries in Sub-Saharan Africa classified as fragile situations ","region":{"id":"NA","value":"Aggregates"},"adminregion":{"id":"","value":""},"incomeLevel":{"id":"NA","value":"Aggregates"},"lendingType":{"id":"","value":"Aggregates"},"capitalCity":"","longitude":"","latitude":""},{"id":"DSS","iso2Code":"D6","name":"Sub-Saharan Africa (IDA-eligible countries)","region":{"id":"NA","value":"Aggregates"},"adminregion":{"id":"","value":""},"incomeLevel":{"id":"NA","value":"Aggregates"},"lendingType":{"id":"","value":"Aggregates"},"capitalCity":"","longitude":"","latitude":""},{"id":"DXS","iso2Code":"6D","name":"IDA total, excluding Sub-Saharan Africa","region":{"id":"NA","value":"Aggregates"},"adminregion":{"id":"","value":""},"incomeLevel":{"id":"NA","value":"Aggregates"},"lendingType":{"id":"","value":"Aggregates"},"capitalCity":"","longitude":"","latitude":""},{"id":"DZA","iso2Code":"DZ","name":"Algeria","region":{"id":"MEA","value":"Middle East & North Africa"},"adminregion":{"id":"MNA","value":"Middle East & North Africa (excluding high income)"},"incomeLevel":{"id":"UMC","value":"Upper middle income"},"lendingType":{"id":"IBD","value":"IBRD"},"capitalCity":"Algiers","longitude":"3.05097","latitude":"36.7397"},{"id":"EAP","iso2Code":"4E","name":"East Asia & Pacific (excluding high income)","region":{"id":"NA","value":"Aggregates"},"adminregion":{"id":"","value":""},"incomeLevel":{"id":"NA","value":"Aggregates"},"lendingType":{"id":"","value":"Aggregates"},"capitalCity":"","longitude":"","latitude":""},{"id":"EAR","iso2Code":"V2","name":"Early-demographic dividend","region":{"id":"NA","value":"Aggregates"},"adminregion":{"id":"","value":""},"incomeLevel":{"id":"NA","value":"Aggregates"},"lendingType":{"id":"","value":"Aggregates"},"capitalCity":"","longitude":"","latitude":""},{"id":"EAS","iso2Code":"Z4","name":"East Asia & Pacific","region":{"id":"NA","value":"Aggregates"},"adminregion":{"id":"","value":""},"incomeLevel":{"id":"NA","value":"Aggregates"},"lendingType":{"id":"","value":"Aggregates"},"capitalCity":"","longitude":"","latitude":""},{"id":"ECA","iso2Code":"7E","name":"Europe & Central Asia (excluding high income)","region":{"id":"NA","value":"Aggregates"},"adminregion":{"id":"","value":""},"incomeLevel":{"id":"NA","value":"Aggregates"},"lendingType":{"id":"","value":"Aggregates"},"capitalCity":"","longitude":"","latitude":""},{"id":"ECS","iso2Code":"Z7","name":"Europe & Central Asia","region":{"id":"NA","value":"Aggregates"},"adminregion":{"id":"","value":""},"incomeLevel":{"id":"NA","value":"Aggregates"},"lendingType":{"id":"","value":"Aggregates"},"capitalCity":"","longitude":"","latitude":""},{"id":"ECU","iso2Code":"EC","name":"Ecuador","region":{"id":"LCN","value":"Latin America & Caribbean "},"adminregion":{"id":"LAC","value":"Latin America & Caribbean (excluding high income)"},"incomeLevel":{"id":"UMC","value":"Upper middle income"},"lendingType":{"id":"IBD","value":"IBRD"},"capitalCity":"Quito","longitude":"-78.5243","latitude":"-0.229498"},{"id":"EGY","iso2Code":"EG","name":"Egypt, Arab Rep.","region":{"id":"MEA","value":"Middle East & North Africa"},"adminregion":{"id":"MNA","value":"Middle East & North Africa (excluding high income)"},"incomeLevel":{"id":"LMC","value":"Lower middle income"},"lendingType":{"id":"IBD","value":"IBRD"},"capitalCity":"Cairo","longitude":"31.2461","latitude":"30.0982"},{"id":"EMU","iso2Code":"XC","name":"Euro area","region":{"id":"NA","value":"Aggregates"},"adminregion":{"id":"","value":""},"incomeLevel":{"id":"NA","value":"Aggregates"},"lendingType":{"id":"","value":"Aggregates"},"capitalCity":"","longitude":"","latitude":""},{"id":"ERI","iso2Code":"ER","name":"Eritrea","region":{"id":"SSF","value":"Sub-Saharan Africa "},"adminregion":{"id":"SSA","value":"Sub-Saharan Africa (excluding high income)"},"incomeLevel":{"id":"LIC","value":"Low income"},"lendingType":{"id":"IDX","value":"IDA"},"capitalCity":"Asmara","longitude":"38.9183","latitude":"15.3315"},{"id":"ESP","iso2Code":"ES","name":"Spain","region":{"id":"ECS","value":"Europe & Central Asia"},"adminregion":{"id":"","value":""},"incomeLevel":{"id":"HIC","value":"High income"},"lendingType":{"id":"LNX","value":"Not classified"},"capitalCity":"Madrid","longitude":"-3.70327","latitude":"40.4167"},{"id":"EST","iso2Code":"EE","name":"Estonia","region":{"id":"ECS","value":"Europe & Central Asia"},"adminregion":{"id":"","value":""},"incomeLevel":{"id":"HIC","value":"High income"},"lendingType":{"id":"LNX","value":"Not classified"},"capitalCity":"Tallinn","longitude":"24.7586","latitude":"59.4392"},{"id":"ETH","iso2Code":"ET","name":"Ethiopia","region":{"id":"SSF","value":"Sub-Saharan Africa "},"adminregion":{"id":"SSA","value":"Sub-Saharan Africa (excluding high income)"},"incomeLevel":{"id":"LIC","value":"Low income"},"lendingType":{"id":"IDX","value":"IDA"},"capitalCity":"Addis Ababa","longitude":"38.7468","latitude":"9.02274"},{"id":"EUU","iso2Code":"EU","name":"European Union","region":{"id":"NA","value":"Aggregates"},"adminregion":{"id":"","value":""},"incomeLevel":{"id":"NA","value":"Aggregates"},"lendingType":{"id":"","value":"Aggregates"},"capitalCity":"","longitude":"","latitude":""},{"id":"FCS","iso2Code":"F1","name":"Fragile and conflict affected situations","region":{"id":"NA","value":"Aggregates"},"adminregion":{"id":"","value":""},"incomeLevel":{"id":"NA","value":"Aggregates"},"lendingType":{"id":"","value":"Aggregates"},"capitalCity":"","longitude":"","latitude":""},{"id":"FIN","iso2Code":"FI","name":"Finland","region":{"id":"ECS","value":"Europe & Central Asia"},"adminregion":{"id":"","value":""},"incomeLevel":{"id":"HIC","value":"High income"},"lendingType":{"id":"LNX","value":"Not classified"},"capitalCity":"Helsinki","longitude":"24.9525","latitude":"60.1608"},{"id":"FJI","iso2Code":"FJ","name":"Fiji","region":{"id":"EAS","value":"East Asia & Pacific"},"adminregion":{"id":"EAP","value":"East Asia & Pacific (excluding high income)"},"incomeLevel":{"id":"UMC","value":"Upper middle income"},"lendingType":{"id":"IBD","value":"IBRD"},"capitalCity":"Suva","longitude":"178.399","latitude":"-18.1149"}]]