[{"page":5,"pages":7,"per_page":"50","total":304},[{"id":"NAM","iso2Code":"NA","name":"Namibia","region":{"id":"SSF","value":"Sub-Saharan Africa "},"adminregion":{"id":"SSA","value":"Sub-Saharan Africa (excluding high income)"},"incomeLevel":{"id":"UMC","value":"Upper middle income"},"lendingType":{"id":"IBD","value":"IBRD"},"capitalCity":"Windhoek","longitude":"17.0931","latitude":"-22.5648"},{"id":"NCL","iso2Code":"NC","name":"New Caledonia","region":{"id":"EAS","value":"East Asia & Pacific"},"adminregion":{"id":"","value":""},"incomeLevel":{"id":"HIC","value":"High income"},"lendingType":{"id":"LNX","value":"Not classified"},"capitalCity":"Noum'ea","longitude":"166.464","latitude":"-22.2677"},{"id":"NER","iso2Code":"NE","name":"Niger","region":{"id":"SSF","value":"Sub-Saharan Africa "},"adminregion":{"id":"SSA","value":"Sub-Saharan Africa (excluding high income)"},"incomeLevel":{"id":"LIC","value":"Low income"},"lendingType":{"id":"IDX","value":"IDA"},"capitalCity":"Niamey","longitude":"2.1073","latitude":"13.514"},{"id":"NGA","iso2Code":"NG","name":"Nigeria","region":{"id":"SSF","value":"Sub-Saharan Africa "},"adminregion":{"id":"SSA","value":"Sub-Saharan Africa (excluding high income)"},"incomeLevel":{"id":"LMC","value":"Lower middle income"},"lendingType":{"id":"IDB","value":"Blend"},"capitalCity":"Abuja","longitude":"7.48906","latitude":"9.05804"},{"id":"NIC","iso2Code":"NI","name":"Nicaragua","region":{"id":"LCN","value":"Latin America & Caribbean "},"adminregion":{"id":"LAC","value":"Latin America & Caribbean (excluding high income)"},"incomeLevel":{"id":"LMC","value":"Lower middle income"},"lendingType":{"id":"IDX","value":"IDA"},"capitalCity":"Managua","longitude":"-86.2734","latitude":"12.1475"},{"id":"NLD","iso2Code":"NL","name":"Netherlands","region":{"id":"ECS","value":"Europe & Central Asia"},"adminregion":{"id":"","value":""},"incomeLevel":{"id":"HIC","value":"High income"},"lendingType":{"id":"LNX","value":"Not classified"},"capitalCity":"Amsterdam","longitude":"4.89095","latitude":"52.3738"},{"id":"NLS","iso2Code":"6L","name":"Non-resource rich Sub-Saharan Africa countries, of which landlocked","region":{"id":"NA","value":"Aggregates"},"adminregion":{"id":"","value":""},"incomeLevel":{"id":"NA","value":"Aggregates"},"lendingType":{"id":"","value":"Aggregates"},"capitalCity":"","longitude":"","latitude":""},{"id":"NOR","iso2Code":"NO","name":"Norway","region":{"id":"ECS","value":"Europe & Central Asia"},"adminregion":{"id":"","value":""},"incomeLevel":{"id":"HIC","value":"High income"},"lendingType":{"id":"LNX","value":"Not classified"},"capitalCity":"Oslo","longitude":"10.7387","latitude":"59.9138"},{"id":"NPL","iso2Code":"NP","name":"Nepal","region":{"id":"SAS","value":"South Asia"},"adminregion":{"id":"SAS","value":"South Asia"},"incomeLevel":{"id":"LIC","value":"Low income"},"lendingType":{"id":"IDX","value":"IDA"},"capitalCity":"Kathmandu","longitude":"85.3157","latitude":"27.6939"},{"id":"NRS","iso2Code":"6X","name":"Non-resource rich Sub-Saharan Africa countries","region":{"id":"NA","value":"Aggregates"},"adminregion":{"id":"","value":""},"incomeLevel":{"id":"NA","value":"Aggregates"},"lendingType":{"id":"","value":"Aggregates"},"capitalCity":"","longitude":"","latitude":""},{"id":"NRU","iso2Code":"NR","name":"Nauru","region":{"id":"EAS","value":"East Asia & Pacific"},"adminregion":{"id":"","value":""},"incomeLevel":{"id":"HIC","value":"High income"},"lendingType":{"id":"IBD","value":"IBRD"},"capitalCity":"Yaren District","longitude":"166.920867","latitude":"-0.5477"},{"id":"NXS","iso2Code":"6N","name":"IDA countries not classified as fragile situations, excluding Sub-Saharan Africa","region":{"id":"NA","value":"Aggregates"},"adminregion":{"id":"","value":""},"incomeLevel":{"id":"NA","value":"Aggregates"},"lendingType":{"id":"","value":"Aggregates"},"capitalCity":"","longitude":"","latitude":""},{"id":"NZL","iso2Code":"NZ","name":"New Zealand","region":{"id":"EAS","value":"East Asia & Pacific"},"adminregion":{"id":"","value":""},"incomeLevel":{"id":"HIC","value":"High income"},"lendingType":{"id":"LNX","value":"Not classified"},"capitalCity":"Wellington","longitude":"174.776","latitude":"-41.2865"},{"id":"OED","iso2Code":"OE","name":"OECD members","region":{"id":"NA","value":"Aggregates"},"adminregion":{"id":"","value":""},"incomeLevel":{"id":"NA","value":"Aggregates"},"lendingType":{"id":"","value":"Aggregates"},"capitalCity":"","longitude":"","latitude":""},{"id":"OMN","iso2Code":"OM","name":"Oman","region":{"id":"MEA","value":"Middle East & North Africa"},"adminregion":{"id":"","value":""},"incomeLevel":{"id":"HIC","value":"High income"},"lendingType":{"id":"LNX","value":"Not classified"},"capitalCity":"Muscat","longitude":"58.5874","latitude":"23.6105"},{"id":"OSS","iso2Code":"S4","name":"Other small states","region":{"id":"NA","value":"Aggregates"},"adminregion":{"id":"","value":""},"incomeLevel":{"id":"NA","value":"Aggregates"},"lendingType":{"id":"","value":"Aggregates"},"capitalCity":"","longitude":"","latitude":""},{"id":"PAK","iso2Code":"PK","name":"Pakistan","region":{"id":"SAS","value":"South Asia"},"adminregion":{"id":"SAS","value":"South Asia"},"incomeLevel":{"id":"LMC","value":"Lower middle income"},"lendingType":{"id":"IDB","value":"Blend"},"capitalCity":"Islamabad","longitude":"72.8","latitude":"30.5167"},{"id":"PAN","iso2Code":"PA","name":"Panama","region":{"id":"LCN","value":"Latin America & Caribbean "},"adminregion":{"id":"LAC","value":"Latin America & Caribbean (excluding high income)"},"incomeLevel":{"id":"UMC","value":"Upper middle income"},"lendingType":{"id":"IBD","value":"IBRD"},"capitalCity":"Panama City","longitude":"-79.5188","latitude":"8.99427"},{"id":"PER","iso2Code":"PE","name":"Peru","region":{"id":"LCN","value":"Latin America & Caribbean "},"adminregion":{"id":"LAC","value":"Latin America & Caribbean (excluding high income)"},"incomeLevel":{"id":"UMC","value":"Upper middle income"},"lendingType":{"id":"IBD","value":"IBRD"},"capitalCity":"Lima","longitude":"-77.0465","latitude":"-12.0931"},{"id":"PHL","iso2Code":"PH","name":"Philippines","region":{"id":"EAS","value":"East Asia & Pacific"},"adminregion":{"id":"EAP","value":"East Asia & Pacific (excluding high income)"},"incomeLevel":{"id":"LMC","value":"Lower middle income"},"lendingType":{"id":"IBD","value":"IBRD"},"capitalCity":"Manila","longitude":"121.035","latitude":"14.5515"},{"id":"PLW","iso2Code":"PW","name":"Palau","region":{"id":"EAS","value":"East Asia & Pacific"},"adminregion":{"id":"EAP","value":"East Asia & Pacific (excluding high income)"},"incomeLevel":{"id":"UMC","value":"Upper middle income"},"lendingType":{"id":"IBD","value":"IBRD"},"capitalCity":"Koror","longitude":"134.479","latitude":"7.34194"},{"id":"PNG","iso2Code":"PG","name":"Papua New Guinea","region":{"id":"EAS","value":"East Asia & Pacific"},"adminregion":{"id":"EAP","value":"East Asia & Pacific (excluding high income)"},"incomeLevel":{"id":"LMC","value":"Lower middle income"},"lendingType":{"id":"IDB","value":"Blend"},"capitalCity":"Port Moresby","longitude":"147.194","latitude":"-9.47357"},{"id":"POL","iso2Code":"PL","name":"Poland","region":{"id":"ECS","value":"Europe & Central Asia"},"adminregion":{"id":"","value":""},"incomeLevel":{"id":"HIC","value":"High income"},"lendingType":{"id":"IBD","value":"IBRD"},"capitalCity":"Warsaw","longitude":"21.02","latitude":"52.26"},{"id":"PRE","iso2Code":"V1","name":"Pre-demographic dividend","region":{"id":"NA","value":"Aggregates"},"adminregion":{"id":"","value":""},"incomeLevel":{"id":"NA","value":"Aggregates"},"lendingType":{"id":"","value":"Aggregates"},"capitalCity":"","longitude":"","latitude":""},{"id":"PRI","iso2Code":"PR","name":"Puerto Rico","region":{"id":"LCN","value":"Latin America & Caribbean "},"adminregion":{"id":"","value":""},"incomeLevel":{"id":"HIC","value":"High income"},"lendingType":{"id":"LNX","value":"Not classified"},"capitalCity":"San Juan","longitude":"-66","latitude":"18.23"},{"id":"PRK","iso2Code":"KP","name":"Korea, Dem. People’s Rep.","region":{"id":"EAS","value":"East Asia & Pacific"},"adminregion":{"id":"EAP","value":"East Asia & Pacific (excluding high income)"},"incomeLevel":{"id":"LIC","value":"Low income"},"lendingType":{"id":"LNX","value":"Not classified"},"capitalCity":"Pyongyang","longitude":"125.754","latitude":"39.0319"},{"id":"PRT","iso2Code":"PT","name":"Portugal","region":{"id":"ECS","value":"Europe & Central Asia"},"adminregion":{"id":"","value":""},"incomeLevel":{"id":"HIC","value":"High income"},"lendingType":{"id":"LNX","value":"Not classified"},"capitalCity":"Lisbon","longitude":"-9.13552","latitude":"38.7072"},{"id":"PRY","iso2Code":"PY","name":"Paraguay","region":{"id":"LCN","value":"Latin America & Caribbean "},"adminregion":{"id":"LAC","value":"Latin America & Caribbean (excluding high income)"},"incomeLevel":{"id":"UMC","value":"Upper middle income"},"lendingType":{"id":"IBD","value":"IBRD"},"capitalCity":"Asuncion","longitude":"-57.6362","latitude":"-25.3005"},{"id":"PSE","iso2Code":"PS","name":"West Bank and Gaza","region":{"id":"MEA","value":"Middle East & North Africa"},"adminregion":{"id":"MNA","value":"Middle East & North Africa (excluding high income)"},"incomeLevel":{"id":"LMC","value":"Lower middle income"},"lendingType":{"id":"LNX","value":"Not classified"},"capitalCity":"","longitude":"","latitude":""},{"id":"PSS","iso2Code":"S2","name":"Pacific island small states","region":{"id":"NA","value":"Aggregates"},"adminregion":{"id":"","value":""},"incomeLevel":{"id":"NA","value":"Aggregates"},"lendingType":{"id":"","value":"Aggregates"},"capitalCity":"","longitude":"","latitude":""},{"id":"PST","iso2Code":"V4","name":"Post-demographic dividend","region":{"id":"NA","value":"Aggregates"},"adminregion":{"id":"","value":""},"incomeLevel":{"id":"NA","value":"Aggregates"},"lendingType":{"id":"","value":"Aggregates"},"capitalCity":"","longitude":"","latitude":""},{"id":"PYF","iso2Code":"PF","name":"French Polynesia","region":{"id":"EAS","value":"East Asia & Pacific"},"adminregion":{"id":"","value":""},"incomeLevel":{"id":"HIC","value":"High income"},"lendingType":{"id":"LNX","value":"Not classified"},"capitalCity":"Papeete","longitude":"-149.57","latitude":"-17.535"},{"id":"QAT","iso2Code":"QA","name":"Qatar","region":{"id":"MEA","value":"Middle East & North Africa"},"adminregion":{"id":"","value":""},"incomeLevel":{"id":"HIC","value":"High income"},"lendingType":{"id":"LNX","value":"Not classified"},"capitalCity":"Doha","longitude":"51.5082","latitude":"25.2948"},{"id":"ROU","iso2Code":"RO","name":"Romania","region":{"id":"ECS","value":"Europe & Central Asia"},"adminregion":{"id":"ECA","value":"Europe & Central Asia (excluding high income)"},"incomeLevel":{"id":"UMC","value":"Upper middle income"},"lendingType":{"id":"IBD","value":"IBRD"},"capitalCity":"Bucharest","longitude":"26.0979","latitude":"44.4479"},{"id":"RRS","iso2Code":"R6","name":"Resource rich Sub-Saharan Africa countries","region":{"id":"NA","value":"Aggregates"},"adminregion":{"id":"","value":""},"incomeLevel":{"id":"NA","value":"Aggregates"},"lendingType":{"id":"","value":"Aggregates"},"capitalCity":"","longitude":"","latitude":""},{"id":"RSO","iso2Code":"O6","name":"Resource rich Sub-Saharan Africa countries, of which oil exporters","region":{"id":"NA","value":"Aggregates"},"adminregion":{"id":"","value":""},"incomeLevel":{"id":"NA","value":"Aggregates"},"lendingType":{"id":"","value":"Aggregates"},"capitalCity":"","longitude":"","latitude":""},{"id":"RUS","iso2Code":"RU","name":"Russian Federation","region":{"id":"ECS","value":"Europe & Central Asia"},"adminregion":{"id":"ECA","value":"Europe & Central Asia (excluding high income)"},"incomeLevel":{"id":"UMC","value":"Upper middle income"},"lendingType":{"id":"IBD","value":"IBRD"},"capitalCity":"Moscow","longitude":"37.6176","latitude":"55.7558"},{"id":"RWA","iso2Code":"RW","name":"Rwanda","region":{"id":"SSF","value":"Sub-Saharan Africa "},"adminregion":{"id":"SSA","value":"Sub-Saharan Africa (excluding high income)"},"incomeLevel":{"id":"LIC","value":"Low income"},"lendingType":{"id":"IDX","value":"IDA"},"capitalCity":"Kigali","longitude":"30.0587","latitude":"-1.95325"},{"id":"SAS","iso2Code":"8S","name":"South Asia","region":{"id":"NA","value":"Aggregates"},"adminregion":{"id":"","value":""},"incomeLevel":{"id":"NA","value":"Aggregates"},"lendingType":{"id":"","value":"Aggregates"},"capitalCity":"","longitude":"","latitude":""},{"id":"SAU","iso2Code":"SA","name":"Saudi Arabia","region":{"id":"MEA","value":"Middle East & North Africa"},"adminregion":{"id":"","value":""},"incomeLevel":{"id":"HIC","value":"High income"},"lendingType":{"id":"LNX","value":"Not classified"},"capitalCity":"Riyadh","longitude":"46.6977","latitude":"24.6748"},{"id":"SCE","iso2Code":"L7","name":"Southern Cone","region":{"id":"NA","value":"Aggregates"},"adminregion":{"id":"","value":""},"incomeLevel":{"id":"NA","value":"Aggregates"},"lendingType":{"id":"","value":"Aggregates"},"capitalCity":"","longitude":"","latitude":""},{"id":"SDN","iso2Code":"SD","name":"Sudan","region":{"id":"SSF","value":"Sub-Saharan Africa "},"adminregion":{"id":"SSA","value":"Sub-Saharan Africa (excluding high income)"},"incomeLevel":{"id":"LMC","value":"Lower middle income"},"lendingType":{"id":"IDX","value":"IDA"},"capitalCity":"Khartoum","longitude":"32.5363","latitude":"15.5932"},{"id":"SEN","iso2Code":"SN","name":"Senegal","region":{"id":"SSF","value":"Sub-Saharan Africa "},"adminregion":{"id":"SSA","value":"Sub-Saharan Africa (excluding high income)"},"incomeLevel":{"id":"LIC","value":"Low income"},"lendingType":{"id":"IDX","value":"IDA"},"capitalCity":"Dakar","longitude":"-17.4734","latitude":"14.7247"},{"id":"SGP","iso2Code":"SG","name":"Singapore","region":{"id":"EAS","value":"East Asia & Pacific"},"adminregion":{"id":"","value":""},"incomeLevel":{"id":"HIC","value":"High income"},"lendingType":{"id":"LNX","value":"Not classified"},"capitalCity":"Singapore","longitude":"103.85","latitude":"1.28941"},{"id":"SLB","iso2Code":"SB","name":"Solomon Islands","region":{"id":"EAS","value":"East Asia & Pacific"},"adminregion":{"id":"EAP","value":"East Asia & Pacific (excluding high income)"},"incomeLevel":{"id":"LMC","value":"Lower middle income"},"lendingType":{"id":"IDX","value":"IDA"},"capitalCity":"Honiara","longitude":"159.949","latitude":"-9.42676"},{"id":"SLE","iso2Code":"SL","name":"Sierra Leone","region":{"id":"SSF","value":"Sub-Saharan Africa "},"adminregion":{"id":"SSA","value":"Sub-Saharan Africa (excluding high income)"},"incomeLevel":{"id":"LIC","value":"Low income"},"lendingType":{"id":"IDX","value":"IDA"},"capitalCity":"Freetown","longitude":"-13.2134","latitude":"8.4821"},{"id":"SLV","iso2Code":"SV","name":"El Salvador","region":{"id":"LCN","value":"Latin America & Caribbean "},"adminregion":{"id":"LAC","value":"Latin America & Caribbean (excluding high income)"},"incomeLevel":{"id":"LMC","value":"Lower middle income"},"lendingType":{"id":"IBD","value":"IBRD"},"capitalCity":"San Salvador","longitude":"-89.2073","latitude":"13.7034"},{"id":"SMR","iso2Code":"SM","name":"San Marino","region":{"id":"ECS","value":"Europe & Central Asia"},"adminregion":{"id":"","value":""},"incomeLevel":{"id":"HIC","value":"High income"},"lendingType":{"id":"LNX","value":"Not classified"},"capitalCity":"San Marino","longitude":"12.4486","latitude":"43.9322"},{"id":"SOM","iso2Code":"SO","name":"Somalia","region":{"id":"SSF","value":"Sub-Saharan Africa "},"adminregion":{"id":"SSA","value":"Sub-Saharan Africa (excluding high income)"},"incomeLevel":{"id":"LIC","value":"Low income"},"lendingType":{"id":"IDX","value":"IDA"},"capitalCity":"Mogadishu","longitude":"45.3254","latitude":"2.07515"},{"id":"SRB","iso2Code":"RS","name":"Serbia","region":{"id":"ECS","value":"Europe & Central Asia"},"adminregion":{"id":"ECA","value":"Europe & Central Asia (excluding high income)"},"incomeLevel":{"id":"UMC","value":"Upper middle income"},"lendingType":{"id":"IBD","value":"IBRD"},"capitalCity":"Belgrade","longitude":"20.4656","latitude":"44.8024"}]]