[{"page":98,"pages":324,"per_page":"50","total":16174},[{"id":"EG.CFT.ACCS.ZS","name":"Access to clean fuels and technologies for cooking  (% of population)","source":{"id":"2","value":"World Development Indicators"},"sourceNote":"Access to clean fuels and technologies for cooking is the proportion of total population primarily using clean cooking fuels and technologies for cooking. Under WHO guidelines, kerosene is excluded from clean cooking fuels.","sourceOrganization":"World Bank, Sustainable Energy for All (SE4ALL) database from WHO Global Household Energy database.","topics":[{"id":"6","value":"Environment "}]},{"id":"EE.BOD.TOTL.KG","name":"Organic water pollutant (BOD) emissions (kg per day)","source":{"id":"11","value":"Africa Development Indicators"},"sourceNote":"Emissions of organic water pollutants are measured by biochemical oxygen demand, which refers to the amount of oxygen that bacteria in water will consume in breaking down waste. This is a standard water-treatment test for the presence of organic pollutants.","sourceOrganization":"1998 study by Hemamala Hettige, Muthukumara Mani, and David Wheeler, \"Industrial Pollution in Economic Development: Kuznets Revisited\" (available at www.worldbank.org\/nipr). The data were updated by the World Bank's Development Research Group using the same methodology as the initial study.","topics":[{"id":"6","value":"Environment "}]},{"id":"EC.XPD.TOTL.CR","name":"Total Expenditure (in IDR)","source":{"id":"45","value":"INDO-DAPOER"},"sourceNote":"","sourceOrganization":"Ministry of Finance, SIKD (Information System for Sub-National Budget)","topics":[]},{"id":"EC.XPD.STAF.CR","name":"Personnel expenditure (in IDR)","source":{"id":"45","value":"INDO-DAPOER"},"sourceNote":"","sourceOrganization":"Ministry of Finance, SIKD (Information System for Sub-National Budget)","topics":[]},{"id":"EC.XPD.OTHR.CR","name":"Others expenditure (in IDR)","source":{"id":"45","value":"INDO-DAPOER"},"sourceNote":"","sourceOrganization":"Ministry of Finance, SIKD (Information System for Sub-National Budget)","topics":[]},{"id":"EC.XPD.GSR.CR","name":"Goods and services expenditure (in IDR)","source":{"id":"45","value":"INDO-DAPOER"},"sourceNote":"","sourceOrganization":"Ministry of Finance, SIKD (Information System for Sub-National Budget)","topics":[]},{"id":"EC.XPD. CAP.CR","name":"Capital expenditure (in IDR)","source":{"id":"45","value":"INDO-DAPOER"},"sourceNote":"","sourceOrganization":"Ministry of Finance, SIKD (Information System for Sub-National Budget)","topics":[]},{"id":"EA.PRD.AGRI.KD","name":"Agriculture value added per worker (constant 2010 US$)","source":{"id":"2","value":"World Development Indicators"},"sourceNote":"Agriculture value added per worker is a measure of agricultural productivity. Value added in agriculture measures the output of the agricultural sector (ISIC divisions 1-5) less the value of intermediate inputs. Agriculture comprises value added from forestry, hunting, and fishing as well as cultivation of crops and livestock production. Data are in constant 2010 U.S. dollars.","sourceOrganization":"Derived from World Bank national accounts files and Food and Agriculture Organization, Production Yearbook and data files.","topics":[{"id":"1","value":"Agriculture & Rural Development  "}]},{"id":"E6iii","name":"98.Destination Survival Rate of 2-year Incumbents: StDev","source":{"id":"30","value":"Exporter Dynamics Database: Country-Year"},"sourceNote":"Exporter-level information on export transactions - Customs","sourceOrganization":"","topics":[]},{"id":"E6ii","name":"97.Destination Survival Rate of 2-year Incumbents: Median","source":{"id":"30","value":"Exporter Dynamics Database: Country-Year"},"sourceNote":"Exporter-level information on export transactions - Customs","sourceOrganization":"","topics":[]},{"id":"E6i","name":"96.Destination Survival Rate of 2-year Incumbents: Mean","source":{"id":"30","value":"Exporter Dynamics Database: Country-Year"},"sourceNote":"Exporter-level information on export transactions - Customs","sourceOrganization":"","topics":[]},{"id":"E5iii","name":"95.Destination Exit Rate of Incumbents: StDev","source":{"id":"30","value":"Exporter Dynamics Database: Country-Year"},"sourceNote":"Exporter-level information on export transactions - Customs","sourceOrganization":"","topics":[]},{"id":"E5ii","name":"94.Destination Exit Rate of Incumbents: Median","source":{"id":"30","value":"Exporter Dynamics Database: Country-Year"},"sourceNote":"Exporter-level information on export transactions - Customs","sourceOrganization":"","topics":[]},{"id":"E5i","name":"93.Destination Exit Rate of Incumbents: Mean","source":{"id":"30","value":"Exporter Dynamics Database: Country-Year"},"sourceNote":"Exporter-level information on export transactions - Customs","sourceOrganization":"","topics":[]},{"id":"E4iii","name":"92.Share of New Destinations in TEV of Survivors: StDev","source":{"id":"30","value":"Exporter Dynamics Database: Country-Year"},"sourceNote":"Exporter-level information on export transactions - Customs","sourceOrganization":"","topics":[]},{"id":"E4ii","name":"91.Share of New Destinations in TEV of Survivors: Median","source":{"id":"30","value":"Exporter Dynamics Database: Country-Year"},"sourceNote":"Exporter-level information on export transactions - Customs","sourceOrganization":"","topics":[]},{"id":"E4i","name":"90.Share of New Destinations in TEV of Survivors: Mean","source":{"id":"30","value":"Exporter Dynamics Database: Country-Year"},"sourceNote":"Exporter-level information on export transactions - Customs","sourceOrganization":"","topics":[]},{"id":"E3iii","name":"89.Share of New Destinations in TEV of Incumbents: StDev","source":{"id":"30","value":"Exporter Dynamics Database: Country-Year"},"sourceNote":"Exporter-level information on export transactions - Customs","sourceOrganization":"","topics":[]},{"id":"E3ii","name":"88.Share of New Destinations in TEV of Incumbents: Median","source":{"id":"30","value":"Exporter Dynamics Database: Country-Year"},"sourceNote":"Exporter-level information on export transactions - Customs","sourceOrganization":"","topics":[]},{"id":"E3i","name":"87.Share of New Destinations in TEV of Incumbents: Mean","source":{"id":"30","value":"Exporter Dynamics Database: Country-Year"},"sourceNote":"Exporter-level information on export transactions - Customs","sourceOrganization":"","topics":[]},{"id":"E2iii","name":"86.Destination Entry Rate of Survivors: StDev","source":{"id":"30","value":"Exporter Dynamics Database: Country-Year"},"sourceNote":"Exporter-level information on export transactions - Customs","sourceOrganization":"","topics":[]},{"id":"E2ii","name":"85.Destination Entry Rate of Survivors: Median","source":{"id":"30","value":"Exporter Dynamics Database: Country-Year"},"sourceNote":"Exporter-level information on export transactions - Customs","sourceOrganization":"","topics":[]},{"id":"E2i","name":"84.Destination Entry Rate of Survivors: Mean","source":{"id":"30","value":"Exporter Dynamics Database: Country-Year"},"sourceNote":"Exporter-level information on export transactions - Customs","sourceOrganization":"","topics":[]},{"id":"E1iii","name":"83.Destination Entry Rate of Incumbents: StDev","source":{"id":"30","value":"Exporter Dynamics Database: Country-Year"},"sourceNote":"Exporter-level information on export transactions - Customs","sourceOrganization":"","topics":[]},{"id":"E1ii","name":"82.Destination Entry Rate of Incumbents: Median","source":{"id":"30","value":"Exporter Dynamics Database: Country-Year"},"sourceNote":"Exporter-level information on export transactions - Customs","sourceOrganization":"","topics":[]},{"id":"E1i","name":"81.Destination Entry Rate of Incumbents: Mean","source":{"id":"30","value":"Exporter Dynamics Database: Country-Year"},"sourceNote":"Exporter-level information on export transactions - Customs","sourceOrganization":"","topics":[]},{"id":"DXGSRMRCHSAXD","name":"Exports Merchandise, Customs, Price, US$, seas. adj.","source":{"id":"15","value":"Global Economic Monitor"},"sourceNote":"The price index of Merchandise (goods) exports,  free on board (f.o.b.), in US$ seasonally adjusted.","sourceOrganization":"World Bank staff calculations based on Datastream and IMF International Finance Statistics data.","topics":[]},{"id":"DXGSRMRCHSAKD","name":"Exports Merchandise, Customs, constant US$, millions, seas. adj.","source":{"id":"15","value":"Global Economic Monitor"},"sourceNote":"Merchandise (goods) exports,  free on board (f.o.b.), in constant US$ millions, seasonally adjusted. The base year is 2005.","sourceOrganization":"World Bank staff calculations based on Datastream and IMF International Finance Statistics data.","topics":[]},{"id":"DXGSRMRCHSACD","name":"Exports Merchandise, Customs, current US$, millions, seas. adj.","source":{"id":"15","value":"Global Economic Monitor"},"sourceNote":"Merchandise (goods) exports,  free on board (f.o.b.), in current US$ millions, seasonally adjusted.","sourceOrganization":"World Bank staff calculations based on Datastream and IMF International Finance Statistics data.","topics":[]},{"id":"DXGSRMRCHNSXD","name":"Exports Merchandise, Customs, Price, US$","source":{"id":"15","value":"Global Economic Monitor"},"sourceNote":"The price index of Merchandise (goods) exports,  free on board (f.o.b.), in currrent US$ millions. Not seasonally adjusted.","sourceOrganization":"World Bank staff calculations based on Datastream and IMF International Finance Statistics data.","topics":[]},{"id":"DXGSRMRCHNSKD","name":"Exports Merchandise, Customs, constant US$, millions","source":{"id":"15","value":"Global Economic Monitor"},"sourceNote":"Merchandise (goods) exports,  free on board (f.o.b.), in constant US$ millions not seasonally adjusted. The base year is 2005.","sourceOrganization":"World Bank staff calculations based on Datastream and IMF International Finance Statistics data.","topics":[]},{"id":"DXGSRMRCHNSCD","name":"Exports Merchandise, Customs, current US$, millions","source":{"id":"15","value":"Global Economic Monitor"},"sourceNote":"Merchandise (goods) exports,  free on board (f.o.b.), in current US$ millions, not seasonally adjusted.","sourceOrganization":"World Bank staff calculations based on Datastream and IMF International Finance Statistics data.","topics":[]},{"id":"DT.UND.PRVT.CD","name":"Undisbursed external debt, private creditors (UND, current US$)","source":{"id":"2","value":"World Development Indicators"},"sourceNote":"Undisbursed debt is the total public and publicly guaranteed debt undrawn at year end; data for private nonguaranteed debt are not available. Debt from private creditors include bonds that are either publicly issued or privately placed; commercial bank loans from private banks and other private financial institutions; and other private credits from manufacturers, exporters, and other suppliers of goods, and bank credits covered by a guarantee of an export credit agency. Data are in current U.S. dollars.","sourceOrganization":"World Bank, International Debt Statistics.","topics":[{"id":"20","value":"External Debt"}]},{"id":"DT.UND.OFFT.CD","name":"Undisbursed external debt, official creditors (UND, current US$)","source":{"id":"2","value":"World Development Indicators"},"sourceNote":"Undisbursed debt is the total public and publicly guaranteed debt undrawn at year end; data for private nonguaranteed debt are not available. Debt from official creditors includes loans from international organizations (multilateral loans) and loans from governments (bilateral loans). Loans from international organization include loans and credits from the World Bank, regional development banks, and other multilateral and intergovernmental agencies. Excluded are loans from funds administered by an international organization on behalf of a single donor government; these are classified as loans from governments. Government loans include loans from governments and their agencies (including central banks), loans from autonomous bodies, and direct loans from official export credit agencies. Data are in current U.S. dollars.","sourceOrganization":"World Bank, International Debt Statistics.","topics":[{"id":"20","value":"External Debt"}]},{"id":"DT.UND.DPPG.CD","name":"Undisbursed external debt, total (UND, current US$)","source":{"id":"2","value":"World Development Indicators"},"sourceNote":"Undisbursed debt is the total public and publicly guaranteed debt undrawn at year end; data for private nonguaranteed debt are not available. Public and publicly guaranteed long-term debt are aggregated. Public debt is an external obligation of a public debtor, including the national government, a political subdivision (or an agency of either), and autonomous public bodies. Publicly guaranteed debt is an external obligation of a private debtor that is guaranteed for repayment by a public entity. Data are in current U.S. dollars.","sourceOrganization":"World Bank, International Debt Statistics.","topics":[{"id":"20","value":"External Debt"}]},{"id":"DT.TXR.DPPG.CD","name":"Total amount of debt rescheduled (current US$)","source":{"id":"2","value":"World Development Indicators"},"sourceNote":"Total amount of debt rescheduled includes the debt stock, principal, interest, charges and penalties rescheduled. Data are in current U.S. dollars.","sourceOrganization":"World Bank, International Debt Statistics.","topics":[{"id":"20","value":"External Debt"}]},{"id":"DT.TXA.DIIE.CD.IL.US","name":"Gross Ext. Debt Pos., Debt liab. of dir. investors to DI ent., All maturities, All instruments, Prin. and Int., USD","source":{"id":"22","value":"Quarterly External Debt Statistics\/SDDS (New)"},"sourceNote":"","sourceOrganization":"","topics":[]},{"id":"DT.TXA.DIFE.CD.IL.US","name":"Gross Ext. Debt Pos., Debt liab. to fellow ent., All maturities, All instruments, Prin. and Int., USD","source":{"id":"22","value":"Quarterly External Debt Statistics\/SDDS (New)"},"sourceNote":"","sourceOrganization":"","topics":[]},{"id":"DT.TXA.DIDI.CD.IL.US","name":"Gross Ext. Debt Pos., Debt liab. of DI ent. to dir. investors, All maturities, All instruments, Prin. and Int., USD","source":{"id":"22","value":"Quarterly External Debt Statistics\/SDDS (New)"},"sourceNote":"","sourceOrganization":"","topics":[]},{"id":"DT.TXA.DECT.CD.TO.US","name":"Gross Ext. Debt Pos., All Other Sectors, All maturities, All instruments, Prin. and Int., USD","source":{"id":"22","value":"Quarterly External Debt Statistics\/SDDS (New)"},"sourceNote":"","sourceOrganization":"","topics":[]},{"id":"DT.TXA.DECT.CD.OT.US","name":"Gross Ext. Debt Pos., Other Sectors, All maturities, All instruments, Prin. and Int., USD","source":{"id":"22","value":"Quarterly External Debt Statistics\/SDDS (New)"},"sourceNote":"","sourceOrganization":"","topics":[]},{"id":"DT.TXA.DECT.CD.OT.NF.US","name":"Gross Ext. Debt Pos., Nonfinancial corporations, All maturities, All instruments, Prin. and Int., USD","source":{"id":"22","value":"Quarterly External Debt Statistics\/SDDS (New)"},"sourceNote":"","sourceOrganization":"","topics":[]},{"id":"DT.TXA.DECT.CD.OT.NB.US","name":"Gross Ext. Debt Pos., Other financial corporations, All maturities, All instruments, Prin. and Int., USD","source":{"id":"22","value":"Quarterly External Debt Statistics\/SDDS (New)"},"sourceNote":"","sourceOrganization":"","topics":[]},{"id":"DT.TXA.DECT.CD.OT.HH.US","name":"Gross Ext. Debt Pos., HH and nonprofit institu. (NPISHs), All maturities, All instruments, Prin. and Int., USD","source":{"id":"22","value":"Quarterly External Debt Statistics\/SDDS (New)"},"sourceNote":"","sourceOrganization":"","topics":[]},{"id":"DT.TXA.DECT.CD.MA.US","name":"Gross Ext. Debt Pos., Central Bank, All maturities, All instruments, Prin. and Int., USD","source":{"id":"22","value":"Quarterly External Debt Statistics\/SDDS (New)"},"sourceNote":"","sourceOrganization":"","topics":[]},{"id":"DT.TXA.DECT.CD.IL.US","name":"Gross Ext. Debt Pos., DI: Intercom Lending, All maturities, All instruments, Prin. and Int., USD","source":{"id":"22","value":"Quarterly External Debt Statistics\/SDDS (New)"},"sourceNote":"","sourceOrganization":"","topics":[]},{"id":"DT.TXA.DECT.CD.IL.PR.US","name":"Gross Ext. Debt Pos., DI: Intercom Lending, All maturities, All instruments, Principal, USD","source":{"id":"22","value":"Quarterly External Debt Statistics\/SDDS (New)"},"sourceNote":"","sourceOrganization":"","topics":[]},{"id":"DT.TXA.DECT.CD.IL.IN.US","name":"Gross Ext. Debt Pos., DI: Intercom Lending, All maturities, All instruments, Interest, USD","source":{"id":"22","value":"Quarterly External Debt Statistics\/SDDS (New)"},"sourceNote":"","sourceOrganization":"","topics":[]},{"id":"DT.TXA.DECT.CD.GG.US","name":"Gross Ext. Debt Pos., General Government, All maturities, All instruments, Prin. and Int., Arrears, USD","source":{"id":"22","value":"Quarterly External Debt Statistics\/SDDS (New)"},"sourceNote":"","sourceOrganization":"","topics":[]},{"id":"DT.TXA.DECT.CD.CB.US","name":"Gross Ext. Debt Pos., Deposit-Taking Corp., exc. CB, All maturities, All instruments, Prin. and Int., USD","source":{"id":"22","value":"Quarterly External Debt Statistics\/SDDS (New)"},"sourceNote":"","sourceOrganization":"","topics":[{}]}]]