[{"page":79,"pages":324,"per_page":"50","total":16174},[{"id":"DT.INP.DECT.CD.SA.AR.IQ.US","name":"Gross Ext. Debt Pmt, Interest payments on SDR allocations, Immediate, USD","source":{"id":"22","value":"Quarterly External Debt Statistics\/SDDS (New)"},"sourceNote":"","sourceOrganization":"","topics":[]},{"id":"DT.INP.DECT.CD.SA.AR.69.US","name":"Gross Ext. Debt Pmt, Interest payments on SDR allocations, More than 6 to 9, USD","source":{"id":"22","value":"Quarterly External Debt Statistics\/SDDS (New)"},"sourceNote":"","sourceOrganization":"","topics":[]},{"id":"DT.INP.DECT.CD.SA.AR.36.US","name":"Gross Ext. Debt Pmt, Interest payments on SDR allocations, More than 3 to 6, USD","source":{"id":"22","value":"Quarterly External Debt Statistics\/SDDS (New)"},"sourceNote":"","sourceOrganization":"","topics":[]},{"id":"DT.INP.DECT.CD.SA.AR.1824.US","name":"Gross Ext. Debt Pmt, Interest payments on SDR allocations, More than 18 to 24, USD","source":{"id":"22","value":"Quarterly External Debt Statistics\/SDDS (New)"},"sourceNote":"","sourceOrganization":"","topics":[]},{"id":"DT.INP.DECT.CD.SA.AR.1218.US","name":"Gross Ext. Debt Pmt, Interest payments on SDR allocations, More than 12 to 18, USD","source":{"id":"22","value":"Quarterly External Debt Statistics\/SDDS (New)"},"sourceNote":"","sourceOrganization":"","topics":[]},{"id":"DT.INP.DECT.CD.SA.AR.0912.US","name":"Gross Ext. Debt Pmt, Interest payments on SDR allocations, More than 9 to 12, USD","source":{"id":"22","value":"Quarterly External Debt Statistics\/SDDS (New)"},"sourceNote":"","sourceOrganization":"","topics":[]},{"id":"DT.INP.DECT.CD.SA.AR.03.US","name":"Gross Ext. Debt Pmt, Interest payments on SDR allocations, More than 0 to 3, USD","source":{"id":"22","value":"Quarterly External Debt Statistics\/SDDS (New)"},"sourceNote":"","sourceOrganization":"","topics":[]},{"id":"DT.INP.DECT.CD.SA.69.US","name":"Ext. Debt Service Pmt, Interest payments on SDR allocations, More than 6 to 9, USD","source":{"id":"22","value":"Quarterly External Debt Statistics\/SDDS (New)"},"sourceNote":"","sourceOrganization":"","topics":[]},{"id":"DT.INP.DECT.CD.SA.36.US","name":"Ext. Debt Service Pmt, Interest payments on SDR allocations, More than 3 to 6, USD","source":{"id":"22","value":"Quarterly External Debt Statistics\/SDDS (New)"},"sourceNote":"","sourceOrganization":"","topics":[]},{"id":"DT.INP.DECT.CD.SA.1824.US","name":"Ext. Debt Service Pmt, Interest payments on SDR allocations, More than 18 to 24, USD","source":{"id":"22","value":"Quarterly External Debt Statistics\/SDDS (New)"},"sourceNote":"","sourceOrganization":"","topics":[]},{"id":"DT.INP.DECT.CD.SA.1218.US","name":"Ext. Debt Service Pmt, Interest payments on SDR allocations, More than 12 to 18, USD","source":{"id":"22","value":"Quarterly External Debt Statistics\/SDDS (New)"},"sourceNote":"","sourceOrganization":"","topics":[]},{"id":"DT.INP.DECT.CD.SA.0912.US","name":"Ext. Debt Service Pmt, Interest payments on SDR allocations, More than 9 to 12, USD","source":{"id":"22","value":"Quarterly External Debt Statistics\/SDDS (New)"},"sourceNote":"","sourceOrganization":"","topics":[]},{"id":"DT.INP.DECT.CD.SA.03.US","name":"Ext. Debt Service Pmt, Interest payments on SDR allocations, More than 0 to 3, USD","source":{"id":"22","value":"Quarterly External Debt Statistics\/SDDS (New)"},"sourceNote":"","sourceOrganization":"","topics":[]},{"id":"DT.INP.DECT.19.24.MO.SA.US","name":"Ext. Debt Service Pmt, Interest payments on SDR allocations, 18 to 24 mo., All instruments, USD","source":{"id":"23","value":"Quarterly External Debt Statistics\/GDDS (New)"},"sourceNote":"","sourceOrganization":"","topics":[]},{"id":"DT.INP.DECT.13.18.MO.SA.US","name":"Ext. Debt Service Pmt, Interest payments on SDR allocations, 12 to 18 mo., All instruments, USD","source":{"id":"23","value":"Quarterly External Debt Statistics\/GDDS (New)"},"sourceNote":"","sourceOrganization":"","topics":[]},{"id":"DT.INP.DECT.10.15.YR.SA.US","name":"Ext. Debt Service Pmt, Interest payments on SDR allocations, 10 to 15 yrs, All instruments, USD","source":{"id":"23","value":"Quarterly External Debt Statistics\/GDDS (New)"},"sourceNote":"","sourceOrganization":"","topics":[]},{"id":"DT.INP.DECT.10.12.MO.SA.US","name":"Ext. Debt Service Pmt, Interest payments on SDR allocations, 9 to 12 mo., All instruments, USD","source":{"id":"23","value":"Quarterly External Debt Statistics\/GDDS (New)"},"sourceNote":"","sourceOrganization":"","topics":[]},{"id":"DT.INP.DECT.07.09.MO.SA.US","name":"Ext. Debt Service Pmt, Interest payments on SDR allocations, 6 to 9 mo., All instruments, USD","source":{"id":"23","value":"Quarterly External Debt Statistics\/GDDS (New)"},"sourceNote":"","sourceOrganization":"","topics":[]},{"id":"DT.INP.DECT.05.YR.SA.US","name":"Ext. Debt Service Pmt, Interest payments on SDR allocations, 5yrs, All instruments, USD","source":{"id":"23","value":"Quarterly External Debt Statistics\/GDDS (New)"},"sourceNote":"","sourceOrganization":"","topics":[]},{"id":"DT.INP.DECT.05.10.YR.SA.US","name":"Ext. Debt Service Pmt, Interest payments on SDR allocations, 5 to 10 yrs, All instruments, USD","source":{"id":"23","value":"Quarterly External Debt Statistics\/GDDS (New)"},"sourceNote":"","sourceOrganization":"","topics":[]},{"id":"DT.INP.DECT.04.YR.SA.US","name":"Ext. Debt Service Pmt, Interest payments on SDR allocations, 4yrs, All instruments, USD","source":{"id":"23","value":"Quarterly External Debt Statistics\/GDDS (New)"},"sourceNote":"","sourceOrganization":"","topics":[]},{"id":"DT.INP.DECT.04.06.MO.SA.US","name":"Ext. Debt Service Pmt, Interest payments on SDR allocations, 3 to 6 mo., All instruments, USD","source":{"id":"23","value":"Quarterly External Debt Statistics\/GDDS (New)"},"sourceNote":"","sourceOrganization":"","topics":[]},{"id":"DT.INP.DECT.03.YR.SA.US","name":"Ext. Debt Service Pmt, Interest payments on SDR allocations, 3yrs, All instruments, USD","source":{"id":"23","value":"Quarterly External Debt Statistics\/GDDS (New)"},"sourceNote":"","sourceOrganization":"","topics":[]},{"id":"DT.INP.DECT.00.03.MO.SA.US","name":"Ext. Debt Service Pmt, Interest payments on SDR allocations, 0 to 3 mo., All instruments, USD","source":{"id":"23","value":"Quarterly External Debt Statistics\/GDDS (New)"},"sourceNote":"","sourceOrganization":"","topics":[]},{"id":"DT.IND.DEXF.CD","name":"Interest due, total long-term and short term, including IMF per BOP (current US$)","source":{"id":"11","value":"Africa Development Indicators"},"sourceNote":"Interest due is actual amounts of interest due in currency, goods, or services in the year specified.  ","sourceOrganization":"World Bank, Global Development Finance.","topics":[]},{"id":"DT.INA.DECT.CD","name":"Adjustments to scheduled interest (current US$)","source":{"id":"11","value":"Africa Development Indicators"},"sourceNote":"Interest due is actual amounts of interest due in currency, goods, or services in the year specified.  Interest payments are actual amounts of interest paid in currency, goods, or services in the year specified. This item includes interest paid on long-term debt, IMF charges, and interest paid on short-term debt. Long-term external debt is defined as debt that has an original or extended maturity of more than one year and that is owed to nonresidents and repayable in currency, goods, or services. Short-term external debt is defined as debt that has an original maturity of one year or less. Available data permit no distinction between public and private nonguaranteed short-term debt.  Data are in current U.S. dollars.  ","sourceOrganization":"World Bank, Global Development Finance.","topics":[]},{"id":"DT.HPC.STTS","name":"Status under enhanced HIPC initiative","source":{"id":"19","value":"Millennium Development Goals"},"sourceNote":"Indicator shows the status of heavily indebted poor countries country under the enhanced HIPC initiative. Heavily indebted poor countries reach HIPC decision point if they have a track record of macroeconomic stability, have prepared an Interim Poverty Reduction Strategy through a participatory process, and have cleared or reached an agreement on a process to clear, the outstanding arrears to multilateral creditors. The amount of debt relief necessary to bring countries’ debt indicators to HIPC thresholds is calculated, and countries begin receiving debt relief. Heavily indebted poor countries reach HIPC completion point if they maintain macroeconomic stability under a Poverty Reduction and Growth Facility (PRGF) supported program, carry out key structural and social reforms agreed on at the decision point, and implement satisfactorily Poverty Reduction Strategy for one year. Debt relief is then provided irrevocably by the country’s creditors.","sourceOrganization":"World Bank, Economic Policy and Debt Department.","topics":[{"id":"18","value":"Millenium development goals"}]},{"id":"DT.HPC.MDRI.PV","name":"Debt relief delivered in full under MDRI initiative, cumulative US$ in end-2013 NPV terms","source":{"id":"19","value":"Millennium Development Goals"},"sourceNote":"Debt relief delivered in full under MDRI initiative is the net present value of debt relief from International Development Association, International Monetary Fund, African Development Fund, and Inter-American Development Bank and delivered to countries having reached the HIPC completion point converted to end-2010 terms.","sourceOrganization":"World Bank, Economic Policy and Debt Department.","topics":[{"id":"18","value":"Millenium development goals"}]},{"id":"DT.HPC.COMR.PV","name":"Debt relief committed under HIPC initiative, cumulative US$ in end-2013 NPV terms","source":{"id":"19","value":"Millennium Development Goals"},"sourceNote":"Debt relief is committed as of the decision point (assuming full participation of creditors) under the enhanced HIPC Initiative. It is calculated as the amount needed to bring the net present value (NPV) of the country's debt level to the thresholds established by the HIPC Initiative (150 percent of exports or in certain cases 250 percent of fiscal revenues). Topping-up assistance and assistance provided under the original HIPC Initiative were committed in net present value terms as of the decision point and are converted to end-20109 terms.","sourceOrganization":"World Bank, Economic Policy and Debt Department.","topics":[{"id":"18","value":"Millenium development goals"}]},{"id":"DT.GRE.PRVT","name":"Average grant element on new external debt commitments, private (%)","source":{"id":"2","value":"World Development Indicators"},"sourceNote":"The grant element of a loan is the grant equivalent expressed as a percentage of the amount committed. It is used as a measure of the overall cost of borrowing. To obtain the average, the grant elements for all public and publicly guaranteed loans have been weighted by the amounts of the loans. The grant equivalent of a loan is its commitment (present) value, less the discounted present value of its contractual debt service; conventionally, future service payments are discounted at 10 percent. Commitments cover the total amount of loans for which contracts were signed in the year specified. Debt from private creditors include bonds that are either publicly issued or privately placed; commercial bank loans from private banks and other private financial institutions; and other private credits from manufacturers, exporters, and other suppliers of goods, and bank credits covered by a guarantee of an export credit agency.","sourceOrganization":"World Bank, International Debt Statistics.","topics":[{"id":"20","value":"External Debt"}]},{"id":"DT.GRE.OFFT","name":"Average grant element on new external debt commitments, official (%)","source":{"id":"2","value":"World Development Indicators"},"sourceNote":"The grant element of a loan is the grant equivalent expressed as a percentage of the amount committed. It is used as a measure of the overall cost of borrowing. To obtain the average, the grant elements for all public and publicly guaranteed loans have been weighted by the amounts of the loans. The grant equivalent of a loan is its commitment (present) value, less the discounted present value of its contractual debt service; conventionally, future service payments are discounted at 10 percent. Commitments cover the total amount of loans for which contracts were signed in the year specified. Debt from official creditors includes loans from international organizations (multilateral loans) and loans from governments (bilateral loans). Loans from international organization include loans and credits from the World Bank, regional development banks, and other multilateral and intergovernmental agencies. Excluded are loans from funds administered by an international organization on behalf of a single donor government; these are classified as loans from governments. Government loans include loans from governments and their agencies (including central banks), loans from autonomous bodies, and direct loans from official export credit agencies.","sourceOrganization":"World Bank, International Debt Statistics.","topics":[{"id":"20","value":"External Debt"}]},{"id":"DT.GRE.DPPG","name":"Average grant element on new external debt commitments (%)","source":{"id":"2","value":"World Development Indicators"},"sourceNote":"The grant element of a loan is the grant equivalent expressed as a percentage of the amount committed. It is used as a measure of the overall cost of borrowing. To obtain the average, the grant elements for all public and publicly guaranteed loans have been weighted by the amounts of the loans. The grant equivalent of a loan is its commitment (present) value, less the discounted present value of its contractual debt service; conventionally, future service payments are discounted at 10 percent. Commitments cover the total amount of loans for which contracts were signed in the year specified. Public debt is an external obligation of a public debtor, including the national government, a political subdivision (or an agency of either), and autonomous public bodies. Publicly guaranteed debt is an external obligation of a private debtor that is guaranteed for repayment by a public entity. Data for private nonguaranteed debt are not available.","sourceOrganization":"World Bank, International Debt Statistics.","topics":[{"id":"20","value":"External Debt"}]},{"id":"DT.GPA.PRVT","name":"Average grace period on new external debt commitments, private (years)","source":{"id":"2","value":"World Development Indicators"},"sourceNote":"Grace period is the period from the date of signature of the loan or the issue of the financial instrument to the first repayment of principal. To obtain the average, the grace periods for all public and publicly guaranteed loans have been weighted by the amounts of the loans. Debt from private creditors include bonds that are either publicly issued or privately placed; commercial bank loans from private banks and other private financial institutions; and other private credits from manufacturers, exporters, and other suppliers of goods, and bank credits covered by a guarantee of an export credit agency.","sourceOrganization":"World Bank, International Debt Statistics.","topics":[{"id":"20","value":"External Debt"}]},{"id":"DT.GPA.OFFT","name":"Average grace period on new external debt commitments, official (years)","source":{"id":"2","value":"World Development Indicators"},"sourceNote":"Grace period is the period from the date of signature of the loan or the issue of the financial instrument to the first repayment of principal. To obtain the average, the grace periods for all public and publicly guaranteed loans have been weighted by the amounts of the loans. Debt from official creditors includes loans from international organizations (multilateral loans) and loans from governments (bilateral loans). Loans from international organization include loans and credits from the World Bank, regional development banks, and other multilateral and intergovernmental agencies. Excluded are loans from funds administered by an international organization on behalf of a single donor government; these are classified as loans from governments. Government loans include loans from governments and their agencies (including central banks), loans from autonomous bodies, and direct loans from official export credit agencies.","sourceOrganization":"World Bank, International Debt Statistics.","topics":[{"id":"20","value":"External Debt"}]},{"id":"DT.GPA.DPPG","name":"Average grace period on new external debt commitments (years)","source":{"id":"2","value":"World Development Indicators"},"sourceNote":"Grace period is the period from the date of signature of the loan or the issue of the financial instrument to the first repayment of principal. To obtain the average, the grace periods for all public and publicly guaranteed loans have been weighted by the amounts of the loans. Public debt is an external obligation of a public debtor, including the national government, a political subdivision (or an agency of either), and autonomous public bodies. Publicly guaranteed debt is an external obligation of a private debtor that is guaranteed for repayment by a public entity.","sourceOrganization":"World Bank, International Debt Statistics.","topics":[{"id":"20","value":"External Debt"}]},{"id":"DT.DXR.DPPG.CD","name":"Debt stock rescheduled (current US$)","source":{"id":"2","value":"World Development Indicators"},"sourceNote":"Debt stocks rescheduled is the amount of debt outstanding rescheduled in any given year. Data are in current U.S. dollars.","sourceOrganization":"World Bank, International Debt Statistics.","topics":[{"id":"20","value":"External Debt"}]},{"id":"DT.DTA.OADJ.CD","name":"Adjustment to Arrears","source":{"id":"11","value":"Africa Development Indicators"},"sourceNote":"Adjustment to Arrears. ","sourceOrganization":"World Bank country economists.","topics":[]},{"id":"DT.DTA.DLXF.CD","name":"Total stock of arrears (principal and interest payments) (current US$)","source":{"id":"11","value":"Africa Development Indicators"},"sourceNote":"Principal and interest payments due but not paid.  ","sourceOrganization":"World Bank, Global Development Finance.","topics":[]},{"id":"DT.DSF.DPPG.CD","name":"Debt stock reduction (current US$)","source":{"id":"2","value":"World Development Indicators"},"sourceNote":"Debt stock reductions show the amount that has been netted out of the stock of debt using debt conversion schemes such as buybacks and equity swaps or the discounted value of long-term bonds that were issued in exchange for outstanding debt. It includes the effect of any financial operation that will reduce the debt stock other than debt stock restructuring, repayment of principal and debt forgiven. In particular, debt stock reduction will include the face value of debt bought back, the face value of debt swapped for equity (or \"nature\" or \"development\"), any face value reduction that might result as the consequence of a bond exchange, and any face value reduction resulting from an exchange of debt for discount bonds. Data are in current U.S. dollars.","sourceOrganization":"World Bank, International Debt Statistics.","topics":[{"id":"20","value":"External Debt"}]},{"id":"DT.DSB.DPPG.CD","name":"Debt buyback (current US$)","source":{"id":"2","value":"World Development Indicators"},"sourceNote":"Debt buyback is the repurchase by a debtor of its own debt, discounted or at par. In the event of a buyback of long-term debt, the face value of the debt bought back will be recorded as a decline in the long-term debt stock, and the cash amount received by creditors will be recorded as a principal repayment. Data are in current U.S. dollars.","sourceOrganization":"World Bank, International Debt Statistics.","topics":[{"id":"20","value":"External Debt"}]},{"id":"DT.DOR.LTOT.CD.IL.RM.AR.US","name":"Gross Ext. Debt Pos., ST Rem., DI: Intercom Lending, LT debt obg pmt 1year or less, All instruments, USD","source":{"id":"22","value":"Quarterly External Debt Statistics\/SDDS (New)"},"sourceNote":"","sourceOrganization":"","topics":[]},{"id":"DT.DOR.LTIE.CD.IL.RM.AR.US","name":"Gross Ext. Debt Pos., ST Rem., DI: Intercom Lending, LT debt obg pmt 1year or less, Debt liab. of dir. investors to DI ent., USD","source":{"id":"22","value":"Quarterly External Debt Statistics\/SDDS (New)"},"sourceNote":"","sourceOrganization":"","topics":[]},{"id":"DT.DOR.LTFE.CD.IL.RM.US","name":"Gross Ext. Debt Pos., ST Rem., DI: Intercom Lending, LT debt obg pmt 1year or less, Debt liab. to fellow ent., USD","source":{"id":"22","value":"Quarterly External Debt Statistics\/SDDS (New)"},"sourceNote":"","sourceOrganization":"","topics":[]},{"id":"DT.DOR.LTDI.CD.IL.RM.AR.US","name":"Gross Ext. Debt Pos., ST Rem., DI: Intercom Lending, LT debt obg pmt 1year or less, Debt liab. of DI ent. to dir. investors, USD","source":{"id":"22","value":"Quarterly External Debt Statistics\/SDDS (New)"},"sourceNote":"","sourceOrganization":"","topics":[]},{"id":"DT.DOR.DSTT.CD.OT.AR.US","name":"Gross Ext. Debt Pos., ST Rem., Other Sectors, ST debt on orig. maturity, Trade credit and advances, USD","source":{"id":"22","value":"Quarterly External Debt Statistics\/SDDS (New)"},"sourceNote":"","sourceOrganization":"","topics":[]},{"id":"DT.DOR.DSTT.CD.MA.AR.US","name":"Gross Ext. Debt Pos., ST Rem., Central Bank, ST debt on orig. maturity, Trade credit and advances, USD","source":{"id":"22","value":"Quarterly External Debt Statistics\/SDDS (New)"},"sourceNote":"","sourceOrganization":"","topics":[]},{"id":"DT.DOR.DSTT.CD.GG.AR.US","name":"Gross Ext. Debt Pos., ST Rem., General Government, ST debt on orig. maturity, Trade credit and advances, USD","source":{"id":"22","value":"Quarterly External Debt Statistics\/SDDS (New)"},"sourceNote":"","sourceOrganization":"","topics":[]},{"id":"DT.DOR.DSTT.CD.CB.AR.US","name":"Gross Ext. Debt Pos., ST Rem., Deposit-Taking Corp., exc. CB, ST debt on orig. maturity, Trade credit and advances, USD","source":{"id":"22","value":"Quarterly External Debt Statistics\/SDDS (New)"},"sourceNote":"","sourceOrganization":"","topics":[]},{"id":"DT.DOR.DSTM.CD.OT.AR.US","name":"Gross Ext. Debt Pos., ST Rem., Other Sectors, ST debt on orig. maturity, Debt securities, USD","source":{"id":"22","value":"Quarterly External Debt Statistics\/SDDS (New)"},"sourceNote":"","sourceOrganization":"","topics":[]},{"id":"DT.DOR.DSTM.CD.MA.AR.US","name":"Gross Ext. Debt Pos., ST Rem., Central Bank, ST debt on orig. maturity, Debt securities, USD","source":{"id":"22","value":"Quarterly External Debt Statistics\/SDDS (New)"},"sourceNote":"","sourceOrganization":"","topics":[{}]}]]