[{"page":320,"pages":324,"per_page":"50","total":16174},[{"id":"WP14944_3.9","name":"Used an account to receive wages, income, richest 60% (% ages 15+) [w2]","source":{"id":"28","value":"Global Findex ( Global Financial Inclusion database)"},"sourceNote":"Denotes the percentage of respondents who report receiving a salary or wages directly into an account at a bank or another type of financial institution, into a card, or through a mobile phone in the past 12 months (income, richest 60%, % age 15+). [w2: data are available for wave 2].","sourceOrganization":"Demirguc-Kunt et al., 2015","topics":[{"id":"7","value":"Financial Sector "}]},{"id":"WP14944_3.8","name":"Used an account to receive wages, income, poorest 40% (% ages 15+) [w2]","source":{"id":"28","value":"Global Findex ( Global Financial Inclusion database)"},"sourceNote":"Denotes the percentage of respondents who report receiving a salary or wages directly into an account at a bank or another type of financial institution, into a card, or through a mobile phone in the past 12 months (income, poorest 40%, % age 15+). [w2: data are available for wave 2].","sourceOrganization":"Demirguc-Kunt et al., 2015","topics":[{"id":"7","value":"Financial Sector "}]},{"id":"WP14944_3.7","name":"Used an account to receive wages, secondary education or more (% ages 15+) [w2]","source":{"id":"28","value":"Global Findex ( Global Financial Inclusion database)"},"sourceNote":"Denotes the percentage of respondents who report receiving a salary or wages directly into an account at a bank or another type of financial institution, into a card, or through a mobile phone in the past 12 months (secondary education or more, % age 15+). [w2: data are available for wave 2].","sourceOrganization":"Demirguc-Kunt et al., 2015","topics":[{"id":"7","value":"Financial Sector "}]},{"id":"WP14944_3.6","name":"Used an account to receive wages, primary education or less (% ages 15+) [w2]","source":{"id":"28","value":"Global Findex ( Global Financial Inclusion database)"},"sourceNote":"Denotes the percentage of respondents who report receiving a salary or wages directly into an account at a bank or another type of financial institution, into a card, or through a mobile phone in the past 12 months (primary education or less, % age 15+). [w2: data are available for wave 2].","sourceOrganization":"Demirguc-Kunt et al., 2015","topics":[{"id":"7","value":"Financial Sector "}]},{"id":"WP14944_3.5","name":"Used an account to receive wages, older adults (% ages 25+) [w2]","source":{"id":"28","value":"Global Findex ( Global Financial Inclusion database)"},"sourceNote":"Denotes the percentage of respondents who report receiving a salary or wages directly into an account at a bank or another type of financial institution, into a card, or through a mobile phone in the past 12 months (% age 25+). [w2: data are available for wave 2].","sourceOrganization":"Demirguc-Kunt et al., 2015","topics":[{"id":"7","value":"Financial Sector "}]},{"id":"WP14944_3.4","name":"Used an account to receive wages, young adults (% ages 15-24) [w2]","source":{"id":"28","value":"Global Findex ( Global Financial Inclusion database)"},"sourceNote":"Denotes the percentage of respondents who report receiving a salary or wages directly into an account at a bank or another type of financial institution, into a card, or through a mobile phone in the past 12 months (% ages 15-24). [w2: data are available for wave 2].","sourceOrganization":"Demirguc-Kunt et al., 2015","topics":[{"id":"7","value":"Financial Sector "}]},{"id":"WP14944_3.3","name":"Used an account to receive wages, female (% age 15+) [w2]","source":{"id":"28","value":"Global Findex ( Global Financial Inclusion database)"},"sourceNote":"Denotes the percentage of respondents who report receiving a salary or wages directly into an account at a bank or another type of financial institution, into a card, or through a mobile phone in the past 12 months (female, % age 15+). [w2: data are available for wave 2].","sourceOrganization":"Demirguc-Kunt et al., 2015","topics":[{"id":"7","value":"Financial Sector "}]},{"id":"WP14944_3.2","name":"Used an account to receive wages, male (% age 15+) [w2]","source":{"id":"28","value":"Global Findex ( Global Financial Inclusion database)"},"sourceNote":"Denotes the percentage of respondents who report receiving a salary or wages directly into an account at a bank or another type of financial institution, into a card, or through a mobile phone in the past 12 months (male, % age 15+). [w2: data are available for wave 2].","sourceOrganization":"Demirguc-Kunt et al., 2015","topics":[{"id":"7","value":"Financial Sector "}]},{"id":"WP14944_3.10","name":"Used an account to receive wages, rural (% age 15+) [w2]","source":{"id":"28","value":"Global Findex ( Global Financial Inclusion database)"},"sourceNote":"Denotes the percentage of respondents who report receiving a salary or wages directly into an account at a bank or another type of financial institution, into a card, or through a mobile phone in the past 12 months (rural, % age 15+). [w2: data are available for wave 2].","sourceOrganization":"Demirguc-Kunt et al., 2015","topics":[{"id":"7","value":"Financial Sector "}]},{"id":"WP14944_3.1","name":"Used an account to receive wages (% age 15+) [w2]","source":{"id":"28","value":"Global Findex ( Global Financial Inclusion database)"},"sourceNote":"Denotes the percentage of respondents who report receiving a salary or wages directly into an account at a bank or another type of financial institution, into a card, or through a mobile phone in the past 12 months (% age 15+). [w2: data are available for wave 2].","sourceOrganization":"Demirguc-Kunt et al., 2015","topics":[{"id":"7","value":"Financial Sector "}]},{"id":"WP14944.9","name":"Received wages in the past year, income, richest 60% (% ages 15+) [w2]","source":{"id":"28","value":"Global Findex ( Global Financial Inclusion database)"},"sourceNote":"Denotes the percentage of respondents who report receiving any money from an employer in the past 12 months in the form of a salary or wages for doing work. This does not include any money received directly from clients or customers (income, richest 60%, % age 15+). [w2: data are available for wave 2].","sourceOrganization":"Demirguc-Kunt et al., 2015","topics":[{"id":"7","value":"Financial Sector "}]},{"id":"WP14944.8","name":"Received wages in the past year, income, poorest 40% (% ages 15+) [w2]","source":{"id":"28","value":"Global Findex ( Global Financial Inclusion database)"},"sourceNote":"Denotes the percentage of respondents who report receiving any money from an employer in the past 12 months in the form of a salary or wages for doing work. This does not include any money received directly from clients or customers (income, poorest 40%, % age 15+). [w2: data are available for wave 2].","sourceOrganization":"Demirguc-Kunt et al., 2015","topics":[{"id":"7","value":"Financial Sector "}]},{"id":"WP14944.7","name":"Received wages in the past year, secondary education or more (% ages 15+) [w2]","source":{"id":"28","value":"Global Findex ( Global Financial Inclusion database)"},"sourceNote":"Denotes the percentage of respondents who report receiving any money from an employer in the past 12 months in the form of a salary or wages for doing work. This does not include any money received directly from clients or customers (secondary education or more, % age 15+). [w2: data are available for wave 2].","sourceOrganization":"Demirguc-Kunt et al., 2015","topics":[{"id":"7","value":"Financial Sector "}]},{"id":"WP14944.6","name":"Received wages in the past year, primary education or less (% ages 15+) [w2]","source":{"id":"28","value":"Global Findex ( Global Financial Inclusion database)"},"sourceNote":"Denotes the percentage of respondents who report receiving any money from an employer in the past 12 months in the form of a salary or wages for doing work. This does not include any money received directly from clients or customers (primary education or less, % age 15+). [w2: data are available for wave 2].","sourceOrganization":"Demirguc-Kunt et al., 2015","topics":[{"id":"7","value":"Financial Sector "}]},{"id":"WP14944.5","name":"Received wages in the past year, older adults (% ages 25+) [w2]","source":{"id":"28","value":"Global Findex ( Global Financial Inclusion database)"},"sourceNote":"Denotes the percentage of respondents who report receiving any money from an employer in the past 12 months in the form of a salary or wages for doing work. This does not include any money received directly from clients or customers (% age 25+). [w2: data are available for wave 2].","sourceOrganization":"Demirguc-Kunt et al., 2015","topics":[{"id":"7","value":"Financial Sector "}]},{"id":"WP14944.4","name":"Received wages in the past year, young adults (% ages 15-24) [w2]","source":{"id":"28","value":"Global Findex ( Global Financial Inclusion database)"},"sourceNote":"Denotes the percentage of respondents who report receiving any money from an employer in the past 12 months in the form of a salary or wages for doing work. This does not include any money received directly from clients or customers (% ages 15-24). [w2: data are available for wave 2].","sourceOrganization":"Demirguc-Kunt et al., 2015","topics":[{"id":"7","value":"Financial Sector "}]},{"id":"WP14944.3","name":"Received wages in the past year, female (% age 15+) [w2]","source":{"id":"28","value":"Global Findex ( Global Financial Inclusion database)"},"sourceNote":"Denotes the percentage of respondents who report receiving any money from an employer in the past 12 months in the form of a salary or wages for doing work. This does not include any money received directly from clients or customers (female, % age 15+). [w2: data are available for wave 2].","sourceOrganization":"Demirguc-Kunt et al., 2015","topics":[{"id":"7","value":"Financial Sector "}]},{"id":"WP14944.2","name":"Received wages in the past year, male (% age 15+) [w2]","source":{"id":"28","value":"Global Findex ( Global Financial Inclusion database)"},"sourceNote":"Denotes the percentage of respondents who report receiving any money from an employer in the past 12 months in the form of a salary or wages for doing work. This does not include any money received directly from clients or customers (male, % age 15+). [w2: data are available for wave 2].","sourceOrganization":"Demirguc-Kunt et al., 2015","topics":[{"id":"7","value":"Financial Sector "}]},{"id":"WP14944.10","name":"Received wages in the past year, rural (% age 15+) [w2]","source":{"id":"28","value":"Global Findex ( Global Financial Inclusion database)"},"sourceNote":"Denotes the percentage of respondents who report receiving any money from an employer in the past 12 months in the form of a salary or wages for doing work. This does not include any money received directly from clients or customers (rural, % age 15+). [w2: data are available for wave 2].","sourceOrganization":"Demirguc-Kunt et al., 2015","topics":[{"id":"7","value":"Financial Sector "}]},{"id":"WP14944.1","name":"Received wages in the past year (% age 15+) [w2]","source":{"id":"28","value":"Global Findex ( Global Financial Inclusion database)"},"sourceNote":"Denotes the percentage of respondents who report receiving any money from an employer in the past 12 months in the form of a salary or wages for doing work. This does not include any money received directly from clients or customers (% age 15+). [w2: data are available for wave 2].","sourceOrganization":"Demirguc-Kunt et al., 2015","topics":[{"id":"7","value":"Financial Sector "}]},{"id":"WP14943.1","name":"Paid utility bills: using a mobile phone (% paying utility bills, age 15+) [w2]","source":{"id":"28","value":"Global Findex ( Global Financial Inclusion database)"},"sourceNote":"Denotes, among respondents reporting personally making regular payments in the past 12 months for water, electricity, or trash collection, the percentage who made these payments through a mobile phone (% paying utility bills, age 15+). [w2: data are available for wave 2].","sourceOrganization":"Demirguc-Kunt et al., 2015","topics":[{"id":"7","value":"Financial Sector "}]},{"id":"WP14942.1","name":"Paid utility bills: using an account at a financial institution (% paying utility bills, age 15+) [w2]","source":{"id":"28","value":"Global Findex ( Global Financial Inclusion database)"},"sourceNote":"Denotes, among respondents reporting personally making regular payments in the past 12 months for water, electricity, or trash collection, the percentage who made these payments directly from an account at a bank or another type of financial institution. This includes using a debit card, a bank transfer, or a check (% paying utility bills, age 15+). [w2: data are available for wave 2].","sourceOrganization":"Demirguc-Kunt et al., 2015","topics":[{"id":"7","value":"Financial Sector "}]},{"id":"WP14941.1","name":"Paid utility bills: using cash (% paying utility bills, age 15+) [w2]","source":{"id":"28","value":"Global Findex ( Global Financial Inclusion database)"},"sourceNote":"Denotes, among respondents reporting personally making regular payments in the past 12 months for water, electricity, or trash collection, the percentage who made these payments using cash (% paying utility bills, age 15+). [w2: data are available for wave 2].","sourceOrganization":"Demirguc-Kunt et al., 2015","topics":[{"id":"7","value":"Financial Sector "}]},{"id":"WP14940_4.9","name":"Used a mobile phone to pay utility bills, income, richest 60% (% ages 15+) [w2]","source":{"id":"28","value":"Global Findex ( Global Financial Inclusion database)"},"sourceNote":"Denotes the percentage of respondents who report making a payment in the past 12 months for water, electricity, or trash collection through a mobile phone (income, richest 60%, % age 15+). [w2: data are available for wave 2].","sourceOrganization":"Demirguc-Kunt et al., 2015","topics":[{"id":"7","value":"Financial Sector "}]},{"id":"WP14940_4.8","name":"Used a mobile phone to pay utility bills, income, poorest 40% (% ages 15+) [w2]","source":{"id":"28","value":"Global Findex ( Global Financial Inclusion database)"},"sourceNote":"Denotes the percentage of respondents who report making a payment in the past 12 months for water, electricity, or trash collection through a mobile phone (income, poorest 40%, % age 15+). [w2: data are available for wave 2].","sourceOrganization":"Demirguc-Kunt et al., 2015","topics":[{"id":"7","value":"Financial Sector "}]},{"id":"WP14940_4.7","name":"Used a mobile phone to pay utility bills, secondary education or more (% ages 15+) [w2]","source":{"id":"28","value":"Global Findex ( Global Financial Inclusion database)"},"sourceNote":"Denotes the percentage of respondents who report making a payment in the past 12 months for water, electricity, or trash collection through a mobile phone (secondary education or more, % age 15+). [w2: data are available for wave 2].","sourceOrganization":"Demirguc-Kunt et al., 2015","topics":[{"id":"7","value":"Financial Sector "}]},{"id":"WP14940_4.6","name":"Used a mobile phone to pay utility bills, primary education or less (% ages 15+) [w2]","source":{"id":"28","value":"Global Findex ( Global Financial Inclusion database)"},"sourceNote":"Denotes the percentage of respondents who report making a payment in the past 12 months for water, electricity, or trash collection through a mobile phone (primary education or less, % age 15+). [w2: data are available for wave 2].","sourceOrganization":"Demirguc-Kunt et al., 2015","topics":[{"id":"7","value":"Financial Sector "}]},{"id":"WP14940_4.5","name":"Used a mobile phone to pay utility bills, older adults (% ages 25+) [w2]","source":{"id":"28","value":"Global Findex ( Global Financial Inclusion database)"},"sourceNote":"Denotes the percentage of respondents who report making a payment in the past 12 months for water, electricity, or trash collection through a mobile phone (% age 25+). [w2: data are available for wave 2].","sourceOrganization":"Demirguc-Kunt et al., 2015","topics":[{"id":"7","value":"Financial Sector "}]},{"id":"WP14940_4.4","name":"Used a mobile phone to pay utility bills, young adults (% ages 15-24) [w2]","source":{"id":"28","value":"Global Findex ( Global Financial Inclusion database)"},"sourceNote":"Denotes the percentage of respondents who report making a payment in the past 12 months for water, electricity, or trash collection through a mobile phone (% ages 15-24). [w2: data are available for wave 2].","sourceOrganization":"Demirguc-Kunt et al., 2015","topics":[{"id":"7","value":"Financial Sector "}]},{"id":"WP14940_4.3","name":"Used a mobile phone to pay utility bills, female (% age 15+) [w2]","source":{"id":"28","value":"Global Findex ( Global Financial Inclusion database)"},"sourceNote":"Denotes the percentage of respondents who report making a payment in the past 12 months for water, electricity, or trash collection through a mobile phone (female, % age 15+). [w2: data are available for wave 2].","sourceOrganization":"Demirguc-Kunt et al., 2015","topics":[{"id":"7","value":"Financial Sector "}]},{"id":"WP14940_4.2","name":"Used a mobile phone to pay utility bills, male (% age 15+) [w2]","source":{"id":"28","value":"Global Findex ( Global Financial Inclusion database)"},"sourceNote":"Denotes the percentage of respondents who report making a payment in the past 12 months for water, electricity, or trash collection through a mobile phone (male, % age 15+). [w2: data are available for wave 2].","sourceOrganization":"Demirguc-Kunt et al., 2015","topics":[{"id":"7","value":"Financial Sector "}]},{"id":"WP14940_4.10","name":"Used a mobile phone to pay utility bills, rural (% age 15+) [w2]","source":{"id":"28","value":"Global Findex ( Global Financial Inclusion database)"},"sourceNote":"Denotes the percentage of respondents who report making a payment in the past 12 months for water, electricity, or trash collection through a mobile phone (rural, % age 15+). [w2: data are available for wave 2].","sourceOrganization":"Demirguc-Kunt et al., 2015","topics":[{"id":"7","value":"Financial Sector "}]},{"id":"WP14940_4.1","name":"Used a mobile phone to pay utility bills (% age 15+) [w2]","source":{"id":"28","value":"Global Findex ( Global Financial Inclusion database)"},"sourceNote":"Denotes the percentage of respondents who report making a payment in the past 12 months for water, electricity, or trash collection through a mobile phone (% age 15+). [w2: data are available for wave 2].","sourceOrganization":"Demirguc-Kunt et al., 2015","topics":[{"id":"7","value":"Financial Sector "}]},{"id":"WP14940_3.9","name":"Used an account at a financial institution to pay utility bills, income, richest 60% (% ages 15+) [w2]","source":{"id":"28","value":"Global Findex ( Global Financial Inclusion database)"},"sourceNote":"Denotes the percentage of respondents who report making a payment in the past 12 months for water, electricity, or trash collection directly from an account at a bank or another type of financial institution (income, richest 60%, % age 15+). [w2: data are available for wave 2].","sourceOrganization":"Demirguc-Kunt et al., 2015","topics":[{"id":"7","value":"Financial Sector "}]},{"id":"WP14940_3.8","name":"Used an account at a financial institution to pay utility bills, income, poorest 40% (% ages 15+) [w2]","source":{"id":"28","value":"Global Findex ( Global Financial Inclusion database)"},"sourceNote":"Denotes the percentage of respondents who report making a payment in the past 12 months for water, electricity, or trash collection directly from an account at a bank or another type of financial institution (income, poorest 40%, % age 15+). [w2: data are available for wave 2].","sourceOrganization":"Demirguc-Kunt et al., 2015","topics":[{"id":"7","value":"Financial Sector "}]},{"id":"WP14940_3.7","name":"Used an account at a financial institution to pay utility bills, secondary education or more (% ages 15+) [w2]","source":{"id":"28","value":"Global Findex ( Global Financial Inclusion database)"},"sourceNote":"Denotes the percentage of respondents who report making a payment in the past 12 months for water, electricity, or trash collection directly from an account at a bank or another type of financial institution (secondary education or more, % age 15+). [w2: data are available for wave 2].","sourceOrganization":"Demirguc-Kunt et al., 2015","topics":[{"id":"7","value":"Financial Sector "}]},{"id":"WP14940_3.6","name":"Used an account at a financial institution to pay utility bills, primary education or less (% ages 15+) [w2]","source":{"id":"28","value":"Global Findex ( Global Financial Inclusion database)"},"sourceNote":"Denotes the percentage of respondents who report making a payment in the past 12 months for water, electricity, or trash collection directly from an account at a bank or another type of financial institution (primary education or less, % age 15+). [w2: data are available for wave 2].","sourceOrganization":"Demirguc-Kunt et al., 2015","topics":[{"id":"7","value":"Financial Sector "}]},{"id":"WP14940_3.5","name":"Used an account at a financial institution to pay utility bills, older adults (% ages 25+) [w2]","source":{"id":"28","value":"Global Findex ( Global Financial Inclusion database)"},"sourceNote":"Denotes the percentage of respondents who report making a payment in the past 12 months for water, electricity, or trash collection directly from an account at a bank or another type of financial institution (% age 25+). [w2: data are available for wave 2].","sourceOrganization":"Demirguc-Kunt et al., 2015","topics":[{"id":"7","value":"Financial Sector "}]},{"id":"WP14940_3.4","name":"Used an account at a financial institution to pay utility bills, young adults (% ages 15-24) [w2]","source":{"id":"28","value":"Global Findex ( Global Financial Inclusion database)"},"sourceNote":"Denotes the percentage of respondents who report making a payment in the past 12 months for water, electricity, or trash collection directly from an account at a bank or another type of financial institution (% ages 15-24). [w2: data are available for wave 2].","sourceOrganization":"Demirguc-Kunt et al., 2015","topics":[{"id":"7","value":"Financial Sector "}]},{"id":"WP14940_3.3","name":"Used an account at a financial institution to pay utility bills, female (% age 15+) [w2]","source":{"id":"28","value":"Global Findex ( Global Financial Inclusion database)"},"sourceNote":"Denotes the percentage of respondents who report making a payment in the past 12 months for water, electricity, or trash collection directly from an account at a bank or another type of financial institution (female, % age 15+). [w2: data are available for wave 2].","sourceOrganization":"Demirguc-Kunt et al., 2015","topics":[{"id":"7","value":"Financial Sector "}]},{"id":"WP14940_3.2","name":"Used an account at a financial institution to pay utility bills, male (% age 15+) [w2]","source":{"id":"28","value":"Global Findex ( Global Financial Inclusion database)"},"sourceNote":"Denotes the percentage of respondents who report making a payment in the past 12 months for water, electricity, or trash collection directly from an account at a bank or another type of financial institution (male, % age 15+). [w2: data are available for wave 2].","sourceOrganization":"Demirguc-Kunt et al., 2015","topics":[{"id":"7","value":"Financial Sector "}]},{"id":"WP14940_3.10","name":"Used an account at a financial institution to pay utility bills, rural (% age 15+) [w2]","source":{"id":"28","value":"Global Findex ( Global Financial Inclusion database)"},"sourceNote":"Denotes the percentage of respondents who report making a payment in the past 12 months for water, electricity, or trash collection directly from an account at a bank or another type of financial institution (rural, % age 15+). [w2: data are available for wave 2].","sourceOrganization":"Demirguc-Kunt et al., 2015","topics":[{"id":"7","value":"Financial Sector "}]},{"id":"WP14940_3.1","name":"Used an account at a financial institution to pay utility bills (% age 15+) [w2]","source":{"id":"28","value":"Global Findex ( Global Financial Inclusion database)"},"sourceNote":"Denotes the percentage of respondents who report making a payment in the past 12 months for water, electricity, or trash collection directly from an account at a bank or another type of financial institution (% age 15+). [w2: data are available for wave 2].","sourceOrganization":"Demirguc-Kunt et al., 2015","topics":[{"id":"7","value":"Financial Sector "}]},{"id":"WP14940.9","name":"Paid utility bills in the past year, income, richest 60% (% ages 15+) [w2]","source":{"id":"28","value":"Global Findex ( Global Financial Inclusion database)"},"sourceNote":"Denotes the percentage of respondents who report personally making regular payments in the past 12 months for water, electricity, or trash collection (income, richest 60%, % age 15+). [w2: data are available for wave 2].","sourceOrganization":"Demirguc-Kunt et al., 2015","topics":[{"id":"7","value":"Financial Sector "}]},{"id":"WP14940.8","name":"Paid utility bills in the past year, income, poorest 40% (% ages 15+) [w2]","source":{"id":"28","value":"Global Findex ( Global Financial Inclusion database)"},"sourceNote":"Denotes the percentage of respondents who report personally making regular payments in the past 12 months for water, electricity, or trash collection (income, poorest 40%, % age 15+). [w2: data are available for wave 2].","sourceOrganization":"Demirguc-Kunt et al., 2015","topics":[{"id":"7","value":"Financial Sector "}]},{"id":"WP14940.7","name":"Paid utility bills in the past year, secondary education or more (% ages 15+) [w2]","source":{"id":"28","value":"Global Findex ( Global Financial Inclusion database)"},"sourceNote":"Denotes the percentage of respondents who report personally making regular payments in the past 12 months for water, electricity, or trash collection (secondary education or more, % age 15+). [w2: data are available for wave 2].","sourceOrganization":"Demirguc-Kunt et al., 2015","topics":[{"id":"7","value":"Financial Sector "}]},{"id":"WP14940.6","name":"Paid utility bills in the past year, primary education or less (% ages 15+) [w2]","source":{"id":"28","value":"Global Findex ( Global Financial Inclusion database)"},"sourceNote":"Denotes the percentage of respondents who report personally making regular payments in the past 12 months for water, electricity, or trash collection (primary education or less, % age 15+). [w2: data are available for wave 2].","sourceOrganization":"Demirguc-Kunt et al., 2015","topics":[{"id":"7","value":"Financial Sector "}]},{"id":"WP14940.5","name":"Paid utility bills in the past year, older adults (% ages 25+) [w2]","source":{"id":"28","value":"Global Findex ( Global Financial Inclusion database)"},"sourceNote":"Denotes the percentage of respondents who report personally making regular payments in the past 12 months for water, electricity, or trash collection (% age 25+). [w2: data are available for wave 2].","sourceOrganization":"Demirguc-Kunt et al., 2015","topics":[{"id":"7","value":"Financial Sector "}]},{"id":"WP14940.4","name":"Paid utility bills in the past year, young adults (% ages 15-24) [w2]","source":{"id":"28","value":"Global Findex ( Global Financial Inclusion database)"},"sourceNote":"Denotes the percentage of respondents who report personally making regular payments in the past 12 months for water, electricity, or trash collection (% ages 15-24). [w2: data are available for wave 2].","sourceOrganization":"Demirguc-Kunt et al., 2015","topics":[{"id":"7","value":"Financial Sector "}]},{"id":"WP14940.3","name":"Paid utility bills in the past year, female (% age 15+) [w2]","source":{"id":"28","value":"Global Findex ( Global Financial Inclusion database)"},"sourceNote":"Denotes the percentage of respondents who report personally making regular payments in the past 12 months for water, electricity, or trash collection (female, % age 15+). [w2: data are available for wave 2].","sourceOrganization":"Demirguc-Kunt et al., 2015","topics":[{"id":"7","value":"Financial Sector "}]}]]