[{"page":119,"pages":324,"per_page":"50","total":16174},[{"id":"IC.FRM.GEN.GEND1","name":"Percent of firms with female participation in ownership","source":{"id":"13","value":"Enterprise Surveys"},"sourceNote":"Percent of firms with female participation in ownership.   Source:World Bank, Enterprise Surveys Project(http:\/\/www.enterprisesurveys.org\/Data\/ExploreTopics\/gender).","sourceOrganization":"World Bank, Enterprise Surveys Project(http:\/\/www.enterprisesurveys.org\/Data\/ExploreTopics\/gender).","topics":[]},{"id":"IC.FRM.FREG.ZS","name":"Firms formally registered when operations started (% of firms)","source":{"id":"2","value":"World Development Indicators"},"sourceNote":"Firms formally registered when operations started are the percentage of firms formally registered when they started operations in the country.","sourceOrganization":"World Bank, Enterprise Surveys (http:\/\/www.enterprisesurveys.org\/).","topics":[{"id":"12","value":"Private Sector"}]},{"id":"IC.FRM.FINPUT.ZS","name":"Firms that use material inputs and\/or supplies of foreign origin","source":{"id":"11","value":"Africa Development Indicators"},"sourceNote":"Percentage of firms that use material inputs and\/or supplies of foreign origin.","sourceOrganization":"World Bank, Enterprise Surveys (http:\/\/www.enterprisesurveys.org\/).","topics":[]},{"id":"IC.FRM.FINA.ZS","name":"Access to finance (% of firms identifying this as a major constraint)","source":{"id":"11","value":"Africa Development Indicators"},"sourceNote":"Percentage of firms identifying access\/cost of finance as a major constraint. The computation of the indicator is based on the rating of the obstacle as a potential constraint to the current operations of the establishment.  ","sourceOrganization":"World Bank, Enterprise Surveys (http:\/\/www.enterprisesurveys.org\/).","topics":[]},{"id":"IC.FRM.FIN.FIN9","name":"Proportion of working capital financed by other financing (%)","source":{"id":"13","value":"Enterprise Surveys"},"sourceNote":"Proportion of working capital that was financed by other sources, i.e. moneylenders, friends, relatives, bonds, etc.   Source:World Bank, Enterprise Surveys Project(http:\/\/www.enterprisesurveys.org\/Data\/ExploreTopics\/finance).","sourceOrganization":"World Bank, Enterprise Surveys Project(http:\/\/www.enterprisesurveys.org\/Data\/ExploreTopics\/finance).","topics":[]},{"id":"IC.FRM.FIN.FIN8","name":"Proportion of working capital financed  by supplier credit (%)","source":{"id":"13","value":"Enterprise Surveys"},"sourceNote":"Proportion of working capital that was financed by supplier credit.   Source:World Bank, Enterprise Surveys Project(http:\/\/www.enterprisesurveys.org\/Data\/ExploreTopics\/finance).","sourceOrganization":"World Bank, Enterprise Surveys Project(http:\/\/www.enterprisesurveys.org\/Data\/ExploreTopics\/finance).","topics":[]},{"id":"IC.FRM.FIN.FIN7","name":"Proportion of working capital financed by banks (%)","source":{"id":"13","value":"Enterprise Surveys"},"sourceNote":"Proportion of working capital that was financed from bank loans.   Source:World Bank, Enterprise Surveys Project(http:\/\/www.enterprisesurveys.org\/Data\/ExploreTopics\/finance).","sourceOrganization":"World Bank, Enterprise Surveys Project(http:\/\/www.enterprisesurveys.org\/Data\/ExploreTopics\/finance).","topics":[]},{"id":"IC.FRM.FIN.FIN5","name":"Proportion of investment financed by other financing (%)","source":{"id":"13","value":"Enterprise Surveys"},"sourceNote":"Proportion of purchases of fixed assets that was financed by other sources, i.e. moneylenders, friends, relatives, bonds, etc.   Source:World Bank, Enterprise Surveys Project(http:\/\/www.enterprisesurveys.org\/Data\/ExploreTopics\/finance).","sourceOrganization":"World Bank, Enterprise Surveys Project(http:\/\/www.enterprisesurveys.org\/Data\/ExploreTopics\/finance).","topics":[]},{"id":"IC.FRM.FIN.FIN4","name":"Proportion of investment financed by equity or stock sales (%)","source":{"id":"13","value":"Enterprise Surveys"},"sourceNote":"Proportion of purchases of fixed assets that was financed by owners’ contribution or issue of new equity shares.   Source:World Bank, Enterprise Surveys Project(http:\/\/www.enterprisesurveys.org\/Data\/ExploreTopics\/finance).","sourceOrganization":"World Bank, Enterprise Surveys Project(http:\/\/www.enterprisesurveys.org\/Data\/ExploreTopics\/finance).","topics":[]},{"id":"IC.FRM.FIN.FIN3","name":"Proportion of investment financed by supplier credit (%)","source":{"id":"13","value":"Enterprise Surveys"},"sourceNote":"Proportion of purchases of fixed assets that was financed by supplier credit.   Source:World Bank, Enterprise Surveys Project(http:\/\/www.enterprisesurveys.org\/Data\/ExploreTopics\/finance).","sourceOrganization":"World Bank, Enterprise Surveys Project(http:\/\/www.enterprisesurveys.org\/Data\/ExploreTopics\/finance).","topics":[]},{"id":"IC.FRM.FIN.FIN21","name":"Percent of firms whose recent loan application was rejected","source":{"id":"13","value":"Enterprise Surveys"},"sourceNote":"Percent of firms whose recent loan application was rejected.   Source:World Bank, Enterprise Surveys Project(http:\/\/www.enterprisesurveys.org\/Data\/ExploreTopics\/finance).","sourceOrganization":"World Bank, Enterprise Surveys Project(http:\/\/www.enterprisesurveys.org\/Data\/ExploreTopics\/finance).","topics":[]},{"id":"IC.FRM.FIN.FIN20","name":"Percent of firms not needing a loan","source":{"id":"13","value":"Enterprise Surveys"},"sourceNote":"Percent of firms that did not apply for a loan in the last fiscal year because they did not need a loan.   Source:World Bank, Enterprise Surveys Project(http:\/\/www.enterprisesurveys.org\/Data\/ExploreTopics\/finance).","sourceOrganization":"World Bank, Enterprise Surveys Project(http:\/\/www.enterprisesurveys.org\/Data\/ExploreTopics\/finance).","topics":[]},{"id":"IC.FRM.FIN.FIN2","name":"Proportion of investment financed by banks (%)","source":{"id":"13","value":"Enterprise Surveys"},"sourceNote":"Proportion of purchases of fixed assets that was financed from bank loans.   Source:World Bank, Enterprise Surveys Project(http:\/\/www.enterprisesurveys.org\/Data\/ExploreTopics\/finance).","sourceOrganization":"World Bank, Enterprise Surveys Project(http:\/\/www.enterprisesurveys.org\/Data\/ExploreTopics\/finance).","topics":[]},{"id":"IC.FRM.FIN.FIN18","name":"Proportion of sales sold on credit (%)","source":{"id":"13","value":"Enterprise Surveys"},"sourceNote":"Percentage of total annual sales of goods or services sold on credit.   Source:World Bank, Enterprise Surveys Project(http:\/\/www.enterprisesurveys.org\/Data\/ExploreTopics\/finance).","sourceOrganization":"World Bank, Enterprise Surveys Project(http:\/\/www.enterprisesurveys.org\/Data\/ExploreTopics\/finance).","topics":[]},{"id":"IC.FRM.FIN.FIN16","name":"Percent of firms identifying access to finance as a major constraint","source":{"id":"13","value":"Enterprise Surveys"},"sourceNote":"Percent of firms identifying access to finance as a major constraint. The computation of the indicator is based on the rating of the obstacle as a potential constraint to the current operations of the establishment.   Source:World Bank, Enterprise Surveys Project(http:\/\/www.enterprisesurveys.org\/Data\/ExploreTopics\/finance).","sourceOrganization":"World Bank, Enterprise Surveys Project(http:\/\/www.enterprisesurveys.org\/Data\/ExploreTopics\/finance).","topics":[]},{"id":"IC.FRM.FIN.FIN15","name":"Percent of firms with a checking or savings account","source":{"id":"13","value":"Enterprise Surveys"},"sourceNote":"Percent of firms with a checking or savings account.   Source:World Bank, Enterprise Surveys Project(http:\/\/www.enterprisesurveys.org\/Data\/ExploreTopics\/finance).","sourceOrganization":"World Bank, Enterprise Surveys Project(http:\/\/www.enterprisesurveys.org\/Data\/ExploreTopics\/finance).","topics":[]},{"id":"IC.FRM.FIN.FIN14","name":"Percent of firms with a bank loan\/line of credit","source":{"id":"13","value":"Enterprise Surveys"},"sourceNote":"Percent of firms with a bank loan\/line of credit.   Source:World Bank, Enterprise Surveys Project(http:\/\/www.enterprisesurveys.org\/Data\/ExploreTopics\/finance).","sourceOrganization":"World Bank, Enterprise Surveys Project(http:\/\/www.enterprisesurveys.org\/Data\/ExploreTopics\/finance).","topics":[]},{"id":"IC.FRM.FIN.FIN13","name":"Percent of firms using banks to finance working capital","source":{"id":"13","value":"Enterprise Surveys"},"sourceNote":"Percent of firms using banks to finance working capital.   Source:World Bank, Enterprise Surveys Project(http:\/\/www.enterprisesurveys.org\/Data\/ExploreTopics\/finance).","sourceOrganization":"World Bank, Enterprise Surveys Project(http:\/\/www.enterprisesurveys.org\/Data\/ExploreTopics\/finance).","topics":[]},{"id":"IC.FRM.FIN.FIN12","name":"Percent of firms using banks to finance investments","source":{"id":"13","value":"Enterprise Surveys"},"sourceNote":"Percent of firms using banks to finance purchases of fixed assets.   Source:World Bank, Enterprise Surveys Project(http:\/\/www.enterprisesurveys.org\/Data\/ExploreTopics\/finance).","sourceOrganization":"World Bank, Enterprise Surveys Project(http:\/\/www.enterprisesurveys.org\/Data\/ExploreTopics\/finance).","topics":[]},{"id":"IC.FRM.FIN.FIN11","name":"Proportion of loans requiring collateral (%)","source":{"id":"13","value":"Enterprise Surveys"},"sourceNote":"Proportion of loans requiring collateral in order to get the financing.   Source:World Bank, Enterprise Surveys Project(http:\/\/www.enterprisesurveys.org\/Data\/ExploreTopics\/finance).","sourceOrganization":"World Bank, Enterprise Surveys Project(http:\/\/www.enterprisesurveys.org\/Data\/ExploreTopics\/finance).","topics":[]},{"id":"IC.FRM.FIN.FIN10","name":"Value of collateral needed for a loan (% of the loan amount)","source":{"id":"13","value":"Enterprise Surveys"},"sourceNote":"Value of collateral needed for a loan or line of credit as a percentage of the loan value or the value of the line of credit.   Source:World Bank, Enterprise Surveys Project(http:\/\/www.enterprisesurveys.org\/Data\/ExploreTopics\/finance).","sourceOrganization":"World Bank, Enterprise Surveys Project(http:\/\/www.enterprisesurveys.org\/Data\/ExploreTopics\/finance).","topics":[]},{"id":"IC.FRM.FIN.FIN1","name":"Proportion of investment financed internally (%)","source":{"id":"13","value":"Enterprise Surveys"},"sourceNote":"Proportion of purchases of fixed assets that was financed from internal funds\/retained earnings.   Source:World Bank, Enterprise Surveys Project(http:\/\/www.enterprisesurveys.org\/Data\/ExploreTopics\/finance).","sourceOrganization":"World Bank, Enterprise Surveys Project(http:\/\/www.enterprisesurveys.org\/Data\/ExploreTopics\/finance).","topics":[]},{"id":"IC.FRM.FEMW.ZS","name":"Full time female workers (%)","source":{"id":"11","value":"Africa Development Indicators"},"sourceNote":"Percentage of full-time workers that are female.","sourceOrganization":"World Bank, Enterprise Surveys (http:\/\/www.enterprisesurveys.org\/).","topics":[]},{"id":"IC.FRM.FEMO.ZS","name":"Firms with female participation in ownership (% of firms)","source":{"id":"2","value":"World Development Indicators"},"sourceNote":"Firms with female participation in ownership are the percentage of firms with a woman among the principal owners.","sourceOrganization":"World Bank, Enterprise Surveys (http:\/\/www.enterprisesurveys.org\/).","topics":[{"id":"12","value":"Private Sector"},{"id":"17","value":"Gender"}]},{"id":"IC.FRM.FEMM.ZS","name":"Firms with female top manager (% of firms)","source":{"id":"2","value":"World Development Indicators"},"sourceNote":"Firms with female top manager refers to the percentage of firms in the private sector who have females as top managers. Top manager refers to the highest ranking manager or CEO of the establishment. This person may be the owner if he\/she works as the manager of the firm. The results are based on surveys of more than 100,000 private firms.","sourceOrganization":"World Bank, Enterprise Surveys (http:\/\/www.enterprisesurveys.org\/).","topics":[{"id":"12","value":"Private Sector"},{"id":"17","value":"Gender"}]},{"id":"IC.FRM.FCHAR.LFORM5","name":"Percent of firms with legal status of Limited Partnership","source":{"id":"13","value":"Enterprise Surveys"},"sourceNote":"Percent of firms with legal status of Limited Partnership   Source:World Bank, Enterprise Surveys Project(http:\/\/www.enterprisesurveys.org\/CustomQuery).","sourceOrganization":"World Bank, Enterprise Surveys Project(http:\/\/www.enterprisesurveys.org\/CustomQuery).","topics":[]},{"id":"IC.FRM.FCHAR.LFORM4","name":"Percent of firms with legal status of Partnership","source":{"id":"13","value":"Enterprise Surveys"},"sourceNote":"Percent of firms with legal status of Partnership   Source:World Bank, Enterprise Surveys Project(http:\/\/www.enterprisesurveys.org\/CustomQuery).","sourceOrganization":"World Bank, Enterprise Surveys Project(http:\/\/www.enterprisesurveys.org\/CustomQuery).","topics":[]},{"id":"IC.FRM.FCHAR.LFORM3","name":"Percent of firms with legal status of Sole Proprietorship","source":{"id":"13","value":"Enterprise Surveys"},"sourceNote":"Percent of firms with legal status of Sole Proprietorship   Source:World Bank, Enterprise Surveys Project(http:\/\/www.enterprisesurveys.org\/CustomQuery).","sourceOrganization":"World Bank, Enterprise Surveys Project(http:\/\/www.enterprisesurveys.org\/CustomQuery).","topics":[]},{"id":"IC.FRM.FCHAR.LFORM2","name":"Percent of firms with legal status of privately held Limited Liability Company ","source":{"id":"13","value":"Enterprise Surveys"},"sourceNote":"Percent of firms with legal status of privately held Limited Liability Company    Source:World Bank, Enterprise Surveys Project(http:\/\/www.enterprisesurveys.org\/CustomQuery).","sourceOrganization":"World Bank, Enterprise Surveys Project(http:\/\/www.enterprisesurveys.org\/CustomQuery).","topics":[]},{"id":"IC.FRM.FCHAR.LFORM1","name":"Percent of firms with legal status of publicly listed company","source":{"id":"13","value":"Enterprise Surveys"},"sourceNote":"Percent of firms with legal status of publicly listed company   Source:World Bank, Enterprise Surveys Project(http:\/\/www.enterprisesurveys.org\/CustomQuery).","sourceOrganization":"World Bank, Enterprise Surveys Project(http:\/\/www.enterprisesurveys.org\/CustomQuery).","topics":[]},{"id":"IC.FRM.FCHAR.CAR6","name":"Proportion of a firm held by the largest owner(s) (%)","source":{"id":"13","value":"Enterprise Surveys"},"sourceNote":"Percentage of a firm held by the largest owner(s).   Source:World Bank, Enterprise Surveys Project(http:\/\/www.enterprisesurveys.org\/CustomQuery).","sourceOrganization":"World Bank, Enterprise Surveys Project(http:\/\/www.enterprisesurveys.org\/CustomQuery).","topics":[]},{"id":"IC.FRM.FCHAR.CAR4","name":"Proportion of government\/state ownership in a firm (%)","source":{"id":"13","value":"Enterprise Surveys"},"sourceNote":"Percentage of government\/state ownership in a firm.   Source:World Bank, Enterprise Surveys Project(http:\/\/www.enterprisesurveys.org\/CustomQuery).","sourceOrganization":"World Bank, Enterprise Surveys Project(http:\/\/www.enterprisesurveys.org\/CustomQuery).","topics":[]},{"id":"IC.FRM.FCHAR.CAR3","name":"Proportion of private foreign ownership in a firm (%)","source":{"id":"13","value":"Enterprise Surveys"},"sourceNote":"Percentage of private foreign ownership in a firm.   Source:World Bank, Enterprise Surveys Project(http:\/\/www.enterprisesurveys.org\/CustomQuery).","sourceOrganization":"World Bank, Enterprise Surveys Project(http:\/\/www.enterprisesurveys.org\/CustomQuery).","topics":[]},{"id":"IC.FRM.FCHAR.CAR2","name":"Proportion of private domestic ownership in a firm (%)","source":{"id":"13","value":"Enterprise Surveys"},"sourceNote":"Percentage of private domestic ownership in a firm.   Source:World Bank, Enterprise Surveys Project(http:\/\/www.enterprisesurveys.org\/CustomQuery).","sourceOrganization":"World Bank, Enterprise Surveys Project(http:\/\/www.enterprisesurveys.org\/CustomQuery).","topics":[]},{"id":"IC.FRM.FCHAR.CAR1","name":"Age of the establishment (years)","source":{"id":"13","value":"Enterprise Surveys"},"sourceNote":"Age of the establishment in years.   Source:World Bank, Enterprise Surveys Project(http:\/\/www.enterprisesurveys.org\/CustomQuery).","sourceOrganization":"World Bank, Enterprise Surveys Project(http:\/\/www.enterprisesurveys.org\/CustomQuery).","topics":[]},{"id":"IC.FRM.EXP.ZS","name":"Exporter firms (% of firms)","source":{"id":"11","value":"Africa Development Indicators"},"sourceNote":"Percentage of firms that export directly or indirectly.","sourceOrganization":"World Bank, Enterprise Surveys (http:\/\/www.enterprisesurveys.org\/).","topics":[]},{"id":"IC.FRM.EMPL.UNSKILL","name":"Average number of unskilled production workers","source":{"id":"11","value":"Africa Development Indicators"},"sourceNote":"Average number of unskilled production workers.  For survey data collected in 2006 and 2007, this indicator is computed for the Manufacturing module only.","sourceOrganization":"World Bank, Enterprise Surveys (http:\/\/www.enterprisesurveys.org\/).","topics":[]},{"id":"IC.FRM.EMPL.TEMP","name":"Average number of seasonal\/temporary, full-time employees","source":{"id":"11","value":"Africa Development Indicators"},"sourceNote":"Average number of temporary workers.","sourceOrganization":"World Bank, Enterprise Surveys (http:\/\/www.enterprisesurveys.org\/).","topics":[]},{"id":"IC.FRM.EMPL.SKILL","name":"Average number of skilled production employees","source":{"id":"11","value":"Africa Development Indicators"},"sourceNote":"Average number of skilled production workers","sourceOrganization":"World Bank, Enterprise Surveys (http:\/\/www.enterprisesurveys.org\/).","topics":[]},{"id":"IC.FRM.EMPL.PERM","name":"Average number of permanent, full time employees","source":{"id":"11","value":"Africa Development Indicators"},"sourceNote":"Average number of permanent, full time workers.","sourceOrganization":"World Bank, Enterprise Surveys (http:\/\/www.enterprisesurveys.org\/).","topics":[]},{"id":"IC.FRM.EMAIL.ZS","name":"Firms using email to communicate with clients\/suppliers (% of firms)","source":{"id":"11","value":"Africa Development Indicators"},"sourceNote":"Percentage of firms using the email for communication with clients or suppliers.  ","sourceOrganization":"World Bank, Enterprise Surveys (http:\/\/www.enterprisesurveys.org\/).","topics":[]},{"id":"IC.FRM.ELEC.ZS","name":"Electricity (% of firms identifying this as a major constraint)","source":{"id":"11","value":"Africa Development Indicators"},"sourceNote":"Percentage of firms identifying corruption as a major constraint. The computation of the indicator is based on the rating of the obstacle as a potential constraint to the current operations of the establishment. ","sourceOrganization":"World Bank, Enterprise Surveys (http:\/\/www.enterprisesurveys.org\/).","topics":[]},{"id":"IC.FRM.DURS","name":"Time required to obtain an operating license (days)","source":{"id":"2","value":"World Development Indicators"},"sourceNote":"Time required to obtain operating license is the average wait to obtain an operating license from the day the establishment applied for it to the day it was granted.","sourceOrganization":"World Bank, Enterprise Surveys (http:\/\/www.enterprisesurveys.org\/).","topics":[{"id":"12","value":"Private Sector"}]},{"id":"IC.FRM.CUS.ZS","name":"Firms that trade identifying customs & trade regulations as a major constraint (% of firms)","source":{"id":"11","value":"Africa Development Indicators"},"sourceNote":"Percentage of firms that trade identifying customs & trade regulations as a major constraint. The computation of the indicator is based on the rating of the obstacle as a potential constraint to the current operations of the establishment.  ","sourceOrganization":"World Bank, Enterprise Surveys (http:\/\/www.enterprisesurveys.org\/).","topics":[]},{"id":"IC.FRM.CRT.ZS","name":"Believing the court system is fair, impartial and uncorrupted (% of firms identifying this as a major contraint)","source":{"id":"11","value":"Africa Development Indicators"},"sourceNote":"Percentage of firms believing the court system is fair, impartial and uncorrupted as a major constraint. The computation of the indicator is based on the rating of the obstacle as a potential constraint to the current operations of the establishment.  ","sourceOrganization":"World Bank, Enterprise Surveys (http:\/\/www.enterprisesurveys.org\/).","topics":[]},{"id":"IC.FRM.CRM.CRIME8","name":"Percent of firms identifying crime, theft and disorder as a major constraint              ","source":{"id":"13","value":"Enterprise Surveys"},"sourceNote":"Percent of firms identifying crime, theft and disorder as a major constraint. The computation of the indicator is based on the rating of the obstacle as a potential constraint to the current operations of the establishment.   Source:World Bank, Enterprise Surveys Project(http:\/\/www.enterprisesurveys.org\/Data\/ExploreTopics\/crime).","sourceOrganization":"World Bank, Enterprise Surveys Project(http:\/\/www.enterprisesurveys.org\/Data\/ExploreTopics\/crime).","topics":[]},{"id":"IC.FRM.CRM.CRIME5","name":"Products shipped to supply domestic markets that were lost due to theft (% of product value)","source":{"id":"13","value":"Enterprise Surveys"},"sourceNote":"Products shipped to supply domestic markets that were lost due to theft, as a percentage of total product value.   Source:World Bank, Enterprise Surveys Project(http:\/\/www.enterprisesurveys.org\/Data\/ExploreTopics\/crime).","sourceOrganization":"World Bank, Enterprise Surveys Project(http:\/\/www.enterprisesurveys.org\/Data\/ExploreTopics\/crime).","topics":[]},{"id":"IC.FRM.CRM.CRIME3_C","name":"If there were losses, average losses due to theft and vandalism (% of annual sales)","source":{"id":"13","value":"Enterprise Surveys"},"sourceNote":"If there were losses, average losses as a result of theft, robbery, vandalism or arson that occurred on the establishment’s premises calculated as a percentage of annual sales.   Source:World Bank, Enterprise Surveys Project(http:\/\/www.enterprisesurveys.org\/Data\/ExploreTopics\/crime).","sourceOrganization":"World Bank, Enterprise Surveys Project(http:\/\/www.enterprisesurveys.org\/Data\/ExploreTopics\/crime).","topics":[]},{"id":"IC.FRM.CRM.CRIME3","name":"Losses due to theft and vandalism against the firm (% of annual sales)","source":{"id":"13","value":"Enterprise Surveys"},"sourceNote":"Losses as a result of theft, robbery, vandalism or arson that occurred on the establishment’s premises calculated as a percentage of annual sales.   Source:World Bank, Enterprise Surveys Project(http:\/\/www.enterprisesurveys.org\/Data\/ExploreTopics\/crime).","sourceOrganization":"World Bank, Enterprise Surveys Project(http:\/\/www.enterprisesurveys.org\/Data\/ExploreTopics\/crime).","topics":[]},{"id":"IC.FRM.CRM.CRIME2_C","name":"If the establishment pays for security, average security costs (% of annual sales)","source":{"id":"13","value":"Enterprise Surveys"},"sourceNote":"If the establishment pays for security, for example equipment, personnel, or professional security services, the average security costs as a percentage of total annual sales.   Source:World Bank, Enterprise Surveys Project(http:\/\/www.enterprisesurveys.org\/Data\/ExploreTopics\/crime).","sourceOrganization":"World Bank, Enterprise Surveys Project(http:\/\/www.enterprisesurveys.org\/Data\/ExploreTopics\/crime).","topics":[{}]}]]