[{"page":102,"pages":324,"per_page":"50","total":16174},[{"id":"FLEAD","name":"Lead, nominal, $\/mt","source":{"id":"55","value":"Commodity Prices- History and Projections, updated quarterly"},"sourceNote":"","sourceOrganization":"","topics":[]},{"id":"FITIMBER","name":"Timber, nominal, index, 2010=100","source":{"id":"55","value":"Commodity Prices- History and Projections, updated quarterly"},"sourceNote":"","sourceOrganization":"","topics":[]},{"id":"FISH_MEAL","name":"Fishmeal, $\/mt, current$","source":{"id":"21","value":"Global Economic Monitor (GEM) Commodities"},"sourceNote":"Fishmeal (any origin), 64-65%,  c&f Bremen, estimates based on wholesale price, beginning 2004; previously c&f Hamburg","sourceOrganization":"ISTA Mielke GmbH, Oil World; US Department of Agriculture; World Bank.","topics":[]},{"id":"FIRON_ORE","name":"Iron ore, cfr spot, nominal, $\/dmtu","source":{"id":"55","value":"Commodity Prices- History and Projections, updated quarterly"},"sourceNote":"","sourceOrganization":"","topics":[]},{"id":"FIRAW_MATERIAL","name":"Raw Materials, nominal, index, 2010=100","source":{"id":"55","value":"Commodity Prices- History and Projections, updated quarterly"},"sourceNote":"","sourceOrganization":"","topics":[]},{"id":"FIPRECIOUSMET","name":"Precious metals, nominal, index, 2010=100","source":{"id":"55","value":"Commodity Prices- History and Projections, updated quarterly"},"sourceNote":"","sourceOrganization":"","topics":[]},{"id":"FIOTHERRAWMAT","name":"Other raw mat., nominal, index, 2010=100","source":{"id":"55","value":"Commodity Prices- History and Projections, updated quarterly"},"sourceNote":"","sourceOrganization":"","topics":[]},{"id":"FIOTHERFOOD","name":"Other food, nominal, index, 2010=100","source":{"id":"55","value":"Commodity Prices- History and Projections, updated quarterly"},"sourceNote":"","sourceOrganization":"","topics":[]},{"id":"Finx2.2","name":"SMEs that have a POS terminal (%)","source":{"id":"33","value":"G20 Basic Set of Financial Inclusion Indicators"},"sourceNote":"Denotes the percentage of SMEs (5-99 employees) with at least one female owner that have a POS terminal","sourceOrganization":"World Bank, Enterprise Surveys (http:\/\/www.enterprisesurveys.org\/).","topics":[]},{"id":"Finx2.1","name":"SMEs with at least one female owner that have a POS terminal (%)","source":{"id":"33","value":"G20 Basic Set of Financial Inclusion Indicators"},"sourceNote":"Denotes the percentage of SMEs (5-99 employees) that have a POS terminal","sourceOrganization":"World Bank, Enterprise Surveys (http:\/\/www.enterprisesurveys.org\/).","topics":[]},{"id":"Finx1.2","name":"SMEs that send or receive digital payments from an account (%)","source":{"id":"33","value":"G20 Basic Set of Financial Inclusion Indicators"},"sourceNote":"Denotes the percentage of SMEs (5-99 employees) that send or receive digital payments from an account","sourceOrganization":"World Bank, Enterprise Surveys (http:\/\/www.enterprisesurveys.org\/).","topics":[]},{"id":"Finx1.1","name":"SMEs with at least one female owner  that send or receive digital payments from an account (%)","source":{"id":"33","value":"G20 Basic Set of Financial Inclusion Indicators"},"sourceNote":"Denotes the percentage of SMEs (5-99 employees) with at least one female owner that send or receive digital payments from an account","sourceOrganization":"World Bank, Enterprise Surveys (http:\/\/www.enterprisesurveys.org\/).","topics":[]},{"id":"FINONFUEL","name":"Non-energy, nominal, index, 2010=100","source":{"id":"55","value":"Commodity Prices- History and Projections, updated quarterly"},"sourceNote":"","sourceOrganization":"","topics":[]},{"id":"fin15.2","name":"SMEs with an account at a formal financial institution (%)","source":{"id":"33","value":"G20 Basic Set of Financial Inclusion Indicators"},"sourceNote":"Denotes the percentage of SMEs (5-99 employees) with a checking or savings account at a bank or other financial institution","sourceOrganization":"World Bank, Enterprise Surveys (http:\/\/www.enterprisesurveys.org\/).","topics":[]},{"id":"fin15.1","name":"SMEs with at least one female owner with an account at a formal financial institution (%)","source":{"id":"33","value":"G20 Basic Set of Financial Inclusion Indicators"},"sourceNote":"Denotes the percentage of SMEs (5-99 employees) with at least one female owner with a checking or savings account at a bank or other financial institution","sourceOrganization":"World Bank, Enterprise Surveys (http:\/\/www.enterprisesurveys.org\/).","topics":[]},{"id":"fin14.2","name":"SMEs with an outstanding loan or line of credit (%)","source":{"id":"33","value":"G20 Basic Set of Financial Inclusion Indicators"},"sourceNote":"Denotes the percentage of SMEs (5-99 employees) with an outstanding loan or line of credit  from a bank or other formal financial institution","sourceOrganization":"World Bank, Enterprise Surveys (http:\/\/www.enterprisesurveys.org\/).","topics":[]},{"id":"fin14.1","name":"SMEs with at least one female owner with an outstanding loan or line of credit (%)","source":{"id":"33","value":"G20 Basic Set of Financial Inclusion Indicators"},"sourceNote":"Denotes the percentage of SMEs (5-99 employees) with at least one female owner with an outstanding loan or line of credit from a bank or other formal financial institution","sourceOrganization":"World Bank, Enterprise Surveys (http:\/\/www.enterprisesurveys.org\/).","topics":[]},{"id":"fin11.2","name":"SMEs with a proportion of loans requiring collateral (%)","source":{"id":"33","value":"G20 Basic Set of Financial Inclusion Indicators"},"sourceNote":"Denotes the percentage of SMEs (5-99 employees) required to provide collateral on their last bank loan (reflects the tightness of credit conditions)","sourceOrganization":"World Bank, Enterprise Surveys (http:\/\/www.enterprisesurveys.org\/) and Financing SMEs and Entrepreneurs 2016: An OECD Scoreboard","topics":[]},{"id":"fin11.1","name":"SMEs with at least one female owner with a proportion of loans requiring collateral (%)","source":{"id":"33","value":"G20 Basic Set of Financial Inclusion Indicators"},"sourceNote":"Denotes the percentage of SMEs (5-99 employees) with at least one female owner required to provide collateral on their last bank loan (reflects the tightness of credit conditions)","sourceOrganization":"World Bank, Enterprise Surveys (http:\/\/www.enterprisesurveys.org\/).","topics":[]},{"id":"FIMETMIN","name":"Metals & minerals, nominal, index, 2010=100","source":{"id":"55","value":"Commodity Prices- History and Projections, updated quarterly"},"sourceNote":"","sourceOrganization":"","topics":[]},{"id":"FIGRAINS","name":"Grains, nominal, index, 2010=100","source":{"id":"55","value":"Commodity Prices- History and Projections, updated quarterly"},"sourceNote":"","sourceOrganization":"","topics":[]},{"id":"FIFOOD","name":"Food, nominal, index, 2010=100","source":{"id":"55","value":"Commodity Prices- History and Projections, updated quarterly"},"sourceNote":"","sourceOrganization":"","topics":[]},{"id":"FIFERTILIZERS","name":"Fertilizers, nominal, index, 2010=100","source":{"id":"55","value":"Commodity Prices- History and Projections, updated quarterly"},"sourceNote":"","sourceOrganization":"","topics":[]},{"id":"FIFATS_OILS","name":"Edible oils & meals, nominal, index, 2010=100","source":{"id":"55","value":"Commodity Prices- History and Projections, updated quarterly"},"sourceNote":"","sourceOrganization":"","topics":[]},{"id":"FIENERGY","name":"Energy, nominal, index, 2010=100","source":{"id":"55","value":"Commodity Prices- History and Projections, updated quarterly"},"sourceNote":"","sourceOrganization":"","topics":[]},{"id":"FIBEVERAGES","name":"Beverages, nominal, index, 2010=100","source":{"id":"55","value":"Commodity Prices- History and Projections, updated quarterly"},"sourceNote":"","sourceOrganization":"","topics":[]},{"id":"FIBASEMET","name":"Base Metals (ex. iron ore), nominal, index, 2010=100","source":{"id":"55","value":"Commodity Prices- History and Projections, updated quarterly"},"sourceNote":"","sourceOrganization":"","topics":[]},{"id":"FIAGRICULTURE","name":"Agriculture, nominal, index, 2010=100","source":{"id":"55","value":"Commodity Prices- History and Projections, updated quarterly"},"sourceNote":"","sourceOrganization":"","topics":[]},{"id":"FI.RES.XGLD.CD","name":"Total reserves minus gold (current US$)","source":{"id":"2","value":"World Development Indicators"},"sourceNote":"Total reserves minus gold comprise special drawing rights, reserves of IMF members held by the IMF, and holdings of foreign exchange under the control of monetary authorities. Gold holdings are excluded. Data are in current U.S. dollars.","sourceOrganization":"International Monetary Fund, International Financial Statistics and data files.","topics":[{"id":"3","value":"Economy & Growth"},{"id":"7","value":"Financial Sector "}]},{"id":"FI.RES.TOTL.MO.WB","name":"Total reserves in months of imports of goods and services","source":{"id":"11","value":"Africa Development Indicators"},"sourceNote":"The number of months for which a country's reserves can sustain its imports. Gross international reserves comprise holdings of monetary gold, special drawing rights, the reserve position of members in the International Monetary Fund (IMF), and holdings of foreign exchange under the control of monetary authorities. The gold component is valued at end-of-year London prices. Imports of goods, services and income is the sum of goods (merchandise) imports, imports of (nonfactor) services and income (factor) payments.  Data are in current US dollars. ","sourceOrganization":"International Monetary Fund, World Bank country economists.","topics":[]},{"id":"FI.RES.TOTL.MO","name":"Total reserves in months of imports","source":{"id":"2","value":"World Development Indicators"},"sourceNote":"Total reserves comprise holdings of monetary gold, special drawing rights, reserves of IMF members held by the IMF, and holdings of foreign exchange under the control of monetary authorities. The gold component of these reserves is valued at year-end (December 31) London prices. This item shows reserves expressed in terms of the number of months of imports of goods and services they could pay for [Reserves\/(Imports\/12)].","sourceOrganization":"International Monetary Fund, International Financial Statistics and data files.","topics":[{"id":"7","value":"Financial Sector "},{"id":"20","value":"External Debt"}]},{"id":"FI.RES.TOTL.DT.ZS","name":"Total reserves (% of total external debt)","source":{"id":"2","value":"World Development Indicators"},"sourceNote":"International reserves to total external debt stocks.","sourceOrganization":"World Bank, International Debt Statistics.","topics":[{"id":"7","value":"Financial Sector "},{"id":"20","value":"External Debt"}]},{"id":"FI.RES.TOTL.CD.ZS","name":"Total reserves includes gold (% of GDP)","source":{"id":"11","value":"Africa Development Indicators"},"sourceNote":"Total reserves comprise holdings of monetary gold, special drawing rights, reserves of IMF members held by the IMF, and holdings of foreign exchange under the control of monetary authorities. The gold component of these reserves is valued at year-end (December 31) London prices. ","sourceOrganization":"International Monetary Fund, International Financial Statistics and data files.","topics":[]},{"id":"FI.RES.TOTL.CD.WB","name":"Total reserves including gold valued at London gold price (current US$)","source":{"id":"11","value":"Africa Development Indicators"},"sourceNote":"Gross international reserves comprise holdings of monetary gold, special drawing rights, the reserve position of members in the International Monetary Fund (IMF), and holdings of foreign exchange under the control of monetary authorities. The gold component is valued at end-of-year London prices. ","sourceOrganization":"International Monetary Fund.","topics":[]},{"id":"FI.RES.TOTL.CD","name":"Total reserves (includes gold, current US$)","source":{"id":"2","value":"World Development Indicators"},"sourceNote":"Total reserves comprise holdings of monetary gold, special drawing rights, reserves of IMF members held by the IMF, and holdings of foreign exchange under the control of monetary authorities. The gold component of these reserves is valued at year-end (December 31) London prices. Data are in current U.S. dollars.","sourceOrganization":"International Monetary Fund, International Financial Statistics and data files.","topics":[{"id":"3","value":"Economy & Growth"},{"id":"7","value":"Financial Sector "},{"id":"20","value":"External Debt"}]},{"id":"FI.RES.GOLD.CD.WB","name":"Gold, valued at year-end London prices (current US$)","source":{"id":"11","value":"Africa Development Indicators"},"sourceNote":"The gold component of reserves is valued at year-end (December 31) London prices.  ","sourceOrganization":"International Monetary Fund.","topics":[]},{"id":"FGRNUT_OIL","name":"Groundnut oil, nominal, $\/mt","source":{"id":"55","value":"Commodity Prices- History and Projections, updated quarterly"},"sourceNote":"","sourceOrganization":"","topics":[]},{"id":"FGRNUT","name":"Groundnuts, nominal, $\/mt","source":{"id":"55","value":"Commodity Prices- History and Projections, updated quarterly"},"sourceNote":"","sourceOrganization":"","topics":[]},{"id":"FGOLD","name":"Gold, nominal, $\/troy oz","source":{"id":"55","value":"Commodity Prices- History and Projections, updated quarterly"},"sourceNote":"","sourceOrganization":"","topics":[]},{"id":"FDAP","name":"DAP, nominal, $\/mt","source":{"id":"55","value":"Commodity Prices- History and Projections, updated quarterly"},"sourceNote":"","sourceOrganization":"","topics":[]},{"id":"FD.RES.LIQU.AS.ZS","name":"Bank liquid reserves to bank assets ratio (%)","source":{"id":"2","value":"World Development Indicators"},"sourceNote":"Ratio of bank liquid reserves to bank assets is the ratio of domestic currency holdings and deposits with the monetary authorities to claims on other governments, nonfinancial public enterprises, the private sector, and other banking institutions.","sourceOrganization":"International Monetary Fund, International Financial Statistics and data files.","topics":[{"id":"7","value":"Financial Sector "}]},{"id":"FD.AST.PRVT.GD.ZS","name":"Domestic credit to private sector by banks (% of GDP)","source":{"id":"2","value":"World Development Indicators"},"sourceNote":"Domestic credit to private sector by banks refers to financial resources provided to the private sector by other depository corporations (deposit taking corporations except central banks), such as through loans, purchases of nonequity securities, and trade credits and other accounts receivable, that establish a claim for repayment. For some countries these claims include credit to public enterprises.","sourceOrganization":"International Monetary Fund, International Financial Statistics and data files, and World Bank and OECD GDP estimates.","topics":[{"id":"7","value":"Financial Sector "}]},{"id":"FCRUDE_PETRO","name":"Crude oil, average, nominal, $\/bbl","source":{"id":"55","value":"Commodity Prices- History and Projections, updated quarterly"},"sourceNote":"","sourceOrganization":"","topics":[]},{"id":"FCOTTON_A_INDX","name":"Cotton, nominal, $\/kg","source":{"id":"55","value":"Commodity Prices- History and Projections, updated quarterly"},"sourceNote":"","sourceOrganization":"","topics":[]},{"id":"FCOPPER","name":"Copper, nominal, $\/mt","source":{"id":"55","value":"Commodity Prices- History and Projections, updated quarterly"},"sourceNote":"","sourceOrganization":"","topics":[]},{"id":"FCOFFEE_ROBUS","name":"Coffee, robusta, nominal, $\/kg","source":{"id":"55","value":"Commodity Prices- History and Projections, updated quarterly"},"sourceNote":"","sourceOrganization":"","topics":[]},{"id":"FCOFFEE_ARABIC","name":"Coffee, arabica, nominal, $\/kg","source":{"id":"55","value":"Commodity Prices- History and Projections, updated quarterly"},"sourceNote":"","sourceOrganization":"","topics":[]},{"id":"FCOCONUT_OIL","name":"Coconut oil, nominal, $\/mt","source":{"id":"55","value":"Commodity Prices- History and Projections, updated quarterly"},"sourceNote":"","sourceOrganization":"","topics":[]},{"id":"FCOCOA","name":"Cocoa, nominal, $\/kg","source":{"id":"55","value":"Commodity Prices- History and Projections, updated quarterly"},"sourceNote":"","sourceOrganization":"","topics":[]},{"id":"FCOAL_AUS","name":"Coal, Australian, nominal, $\/mt","source":{"id":"55","value":"Commodity Prices- History and Projections, updated quarterly"},"sourceNote":"","sourceOrganization":"","topics":[{}]}]]