[{"page":279,"pages":324,"per_page":"50","total":16174},[{"id":"SP.POP.AG15.FE.UN","name":"Population, age 15, female","source":{"id":"12","value":"Education Statistics"},"sourceNote":"Age population, female refers to female population at the specified age level, as estimated by the UNESCO Institute for Statistics.","sourceOrganization":"UNESCO Institute for Statistics.","topics":[{"id":"4","value":"Education "}]},{"id":"SP.POP.AG15.FE.IN","name":"Age population, age 15, female, interpolated","source":{"id":"16","value":"Health Nutrition and Population Statistics"},"sourceNote":"Age population, female refers to female population at the specified age level, as estimated by World Bank staff.","sourceOrganization":"World Bank staff estimates from various sources including census reports, the United Nations Population Division's World Population Prospects, national statistical offices, household surveys conducted by national agencies, and Macro International.","topics":[]},{"id":"SP.POP.AG14.TO.UN","name":"Population, age 14, total","source":{"id":"12","value":"Education Statistics"},"sourceNote":"Age population, total refers to total population at the specified age level, as estimated by the UNESCO Institute for Statistics.","sourceOrganization":"UNESCO Institute for Statistics.","topics":[{"id":"4","value":"Education "}]},{"id":"SP.POP.AG14.MA.UN","name":"Population, age 14, male","source":{"id":"12","value":"Education Statistics"},"sourceNote":"Population, age 14, male refers to the male population at the specified age.","sourceOrganization":"UNESCO Institute for Statistics","topics":[{"id":"4","value":"Education "}]},{"id":"SP.POP.AG14.MA.IN","name":"Age population, age 14, male","source":{"id":"16","value":"Health Nutrition and Population Statistics"},"sourceNote":"Age population, male refers to male population at the specified age level, as estimated by World Bank staff.","sourceOrganization":"World Bank staff estimates from various sources including census reports, the United Nations Population Division's World Population Prospects, national statistical offices, household surveys conducted by national agencies, and Macro International.","topics":[]},{"id":"SP.POP.AG14.FE.UN","name":"Population, age 14, female","source":{"id":"12","value":"Education Statistics"},"sourceNote":"Age population, female refers to female population at the specified age level, as estimated by the UNESCO Institute for Statistics.","sourceOrganization":"UNESCO Institute for Statistics.","topics":[{"id":"4","value":"Education "}]},{"id":"SP.POP.AG14.FE.IN","name":"Age population, age 14, female, interpolated","source":{"id":"16","value":"Health Nutrition and Population Statistics"},"sourceNote":"Age population, female refers to female population at the specified age level, as estimated by World Bank staff.","sourceOrganization":"World Bank staff estimates from various sources including census reports, the United Nations Population Division's World Population Prospects, national statistical offices, household surveys conducted by national agencies, and Macro International.","topics":[]},{"id":"SP.POP.AG13.TO.UN","name":"Population, age 13, total","source":{"id":"12","value":"Education Statistics"},"sourceNote":"Age population, total refers to total population at the specified age level, as estimated by the UNESCO Institute for Statistics.","sourceOrganization":"UNESCO Institute for Statistics.","topics":[{"id":"4","value":"Education "}]},{"id":"SP.POP.AG13.MA.UN","name":"Population, age 13, male","source":{"id":"12","value":"Education Statistics"},"sourceNote":"Population, age 13, male refers to the male population at the specified age.","sourceOrganization":"UNESCO Institute for Statistics","topics":[{"id":"4","value":"Education "}]},{"id":"SP.POP.AG13.MA.IN","name":"Age population, age 13, male","source":{"id":"16","value":"Health Nutrition and Population Statistics"},"sourceNote":"Age population, male refers to male population at the specified age level, as estimated by World Bank staff.","sourceOrganization":"World Bank staff estimates from various sources including census reports, the United Nations Population Division's World Population Prospects, national statistical offices, household surveys conducted by national agencies, and Macro International.","topics":[]},{"id":"SP.POP.AG13.FE.UN","name":"Population, age 13, female","source":{"id":"12","value":"Education Statistics"},"sourceNote":"Age population, female refers to female population at the specified age level, as estimated by the UNESCO Institute for Statistics.","sourceOrganization":"UNESCO Institute for Statistics.","topics":[{"id":"4","value":"Education "}]},{"id":"SP.POP.AG13.FE.IN","name":"Age population, age 13, female, interpolated","source":{"id":"16","value":"Health Nutrition and Population Statistics"},"sourceNote":"Age population, female refers to female population at the specified age level, as estimated by World Bank staff.","sourceOrganization":"World Bank staff estimates from various sources including census reports, the United Nations Population Division's World Population Prospects, national statistical offices, household surveys conducted by national agencies, and Macro International.","topics":[]},{"id":"SP.POP.AG12.TO.UN","name":"Population, age 12, total","source":{"id":"12","value":"Education Statistics"},"sourceNote":"Age population, total refers to total population at the specified age level, as estimated by the UNESCO Institute for Statistics.","sourceOrganization":"UNESCO Institute for Statistics.","topics":[{"id":"4","value":"Education "}]},{"id":"SP.POP.AG12.MA.UN","name":"Population, age 12, male","source":{"id":"12","value":"Education Statistics"},"sourceNote":"Population, age 12, male refers to the male population at the specified age.","sourceOrganization":"UNESCO Institute for Statistics","topics":[{"id":"4","value":"Education "}]},{"id":"SP.POP.AG12.MA.IN","name":"Age population, age 12, male","source":{"id":"16","value":"Health Nutrition and Population Statistics"},"sourceNote":"Age population, male refers to male population at the specified age level, as estimated by World Bank staff.","sourceOrganization":"World Bank staff estimates from various sources including census reports, the United Nations Population Division's World Population Prospects, national statistical offices, household surveys conducted by national agencies, and Macro International.","topics":[]},{"id":"SP.POP.AG12.FE.UN","name":"Population, age 12, female","source":{"id":"12","value":"Education Statistics"},"sourceNote":"Age population, female refers to female population at the specified age level, as estimated by the UNESCO Institute for Statistics.","sourceOrganization":"UNESCO Institute for Statistics.","topics":[{"id":"4","value":"Education "}]},{"id":"SP.POP.AG12.FE.IN","name":"Age population, age 12, female, interpolated","source":{"id":"16","value":"Health Nutrition and Population Statistics"},"sourceNote":"Age population, female refers to female population at the specified age level, as estimated by World Bank staff.","sourceOrganization":"World Bank staff estimates from various sources including census reports, the United Nations Population Division's World Population Prospects, national statistical offices, household surveys conducted by national agencies, and Macro International.","topics":[]},{"id":"SP.POP.AG11.TO.UN","name":"Population, age 11, total","source":{"id":"12","value":"Education Statistics"},"sourceNote":"Age population, total refers to total population at the specified age level, as estimated by the UNESCO Institute for Statistics.","sourceOrganization":"UNESCO Institute for Statistics.","topics":[{"id":"4","value":"Education "}]},{"id":"SP.POP.AG11.MA.UN","name":"Population, age 11, male","source":{"id":"12","value":"Education Statistics"},"sourceNote":"Population, age 11, male refers to the male population at the specified age.","sourceOrganization":"UNESCO Institute for Statistics","topics":[{"id":"4","value":"Education "}]},{"id":"SP.POP.AG11.MA.IN","name":"Age population, age 11, male","source":{"id":"16","value":"Health Nutrition and Population Statistics"},"sourceNote":"Age population, male refers to male population at the specified age level, as estimated by World Bank staff.","sourceOrganization":"World Bank staff estimates from various sources including census reports, the United Nations Population Division's World Population Prospects, national statistical offices, household surveys conducted by national agencies, and Macro International.","topics":[]},{"id":"SP.POP.AG11.FE.UN","name":"Population, age 11, female","source":{"id":"12","value":"Education Statistics"},"sourceNote":"Age population, female refers to female population at the specified age level, as estimated by the UNESCO Institute for Statistics.","sourceOrganization":"UNESCO Institute for Statistics.","topics":[{"id":"4","value":"Education "}]},{"id":"SP.POP.AG11.FE.IN","name":"Age population, age 11, female, interpolated","source":{"id":"16","value":"Health Nutrition and Population Statistics"},"sourceNote":"Age population, female refers to female population at the specified age level, as estimated by World Bank staff.","sourceOrganization":"World Bank staff estimates from various sources including census reports, the United Nations Population Division's World Population Prospects, national statistical offices, household surveys conducted by national agencies, and Macro International.","topics":[]},{"id":"SP.POP.AG10.TO.UN","name":"Population, age 10, total","source":{"id":"12","value":"Education Statistics"},"sourceNote":"Age population, total refers to total population at the specified age level, as estimated by the UNESCO Institute for Statistics.","sourceOrganization":"UNESCO Institute for Statistics.","topics":[{"id":"4","value":"Education "}]},{"id":"SP.POP.AG10.MA.UN","name":"Population, age 10, male","source":{"id":"12","value":"Education Statistics"},"sourceNote":"Population, age 10, male refers to the male population at the specified age.","sourceOrganization":"UNESCO Institute for Statistics","topics":[{"id":"4","value":"Education "}]},{"id":"SP.POP.AG10.MA.IN","name":"Age population, age 10, male","source":{"id":"16","value":"Health Nutrition and Population Statistics"},"sourceNote":"Age population, male refers to male population at the specified age level, as estimated by World Bank staff.","sourceOrganization":"World Bank staff estimates from various sources including census reports, the United Nations Population Division's World Population Prospects, national statistical offices, household surveys conducted by national agencies, and Macro International.","topics":[]},{"id":"SP.POP.AG10.FE.UN","name":"Population, age 10, female","source":{"id":"12","value":"Education Statistics"},"sourceNote":"Age population, female refers to female population at the specified age level, as estimated by the UNESCO Institute for Statistics.","sourceOrganization":"UNESCO Institute for Statistics.","topics":[{"id":"4","value":"Education "}]},{"id":"SP.POP.AG10.FE.IN","name":"Age population, age 10, female, interpolated","source":{"id":"16","value":"Health Nutrition and Population Statistics"},"sourceNote":"Age population, female refers to female population at the specified age level, as estimated by World Bank staff.","sourceOrganization":"World Bank staff estimates from various sources including census reports, the United Nations Population Division's World Population Prospects, national statistical offices, household surveys conducted by national agencies, and Macro International.","topics":[]},{"id":"SP.POP.AG09.TO.UN","name":"Population, age 9, total","source":{"id":"12","value":"Education Statistics"},"sourceNote":"Age population, total refers to total population at the specified age level, as estimated by the UNESCO Institute for Statistics.","sourceOrganization":"UNESCO Institute for Statistics.","topics":[{"id":"4","value":"Education "}]},{"id":"SP.POP.AG09.MA.UN","name":"Population, age 9, male","source":{"id":"12","value":"Education Statistics"},"sourceNote":"Population, age 9, male refers to the male population at the specified age.","sourceOrganization":"UNESCO Institute for Statistics","topics":[{"id":"4","value":"Education "}]},{"id":"SP.POP.AG09.MA.IN","name":"Age population, age 09, male, interpolated","source":{"id":"16","value":"Health Nutrition and Population Statistics"},"sourceNote":"Age population, male refers to male population at the specified age level, as estimated by World Bank staff.","sourceOrganization":"World Bank staff estimates from various sources including census reports, the United Nations Population Division's World Population Prospects, national statistical offices, household surveys conducted by national agencies, and Macro International.","topics":[]},{"id":"SP.POP.AG09.FE.UN","name":"Population, age 9, female","source":{"id":"12","value":"Education Statistics"},"sourceNote":"Age population, female refers to female population at the specified age level, as estimated by the UNESCO Institute for Statistics.","sourceOrganization":"UNESCO Institute for Statistics.","topics":[{"id":"4","value":"Education "}]},{"id":"SP.POP.AG09.FE.IN","name":"Age population, age 09, female, interpolated","source":{"id":"16","value":"Health Nutrition and Population Statistics"},"sourceNote":"Age population, female refers to female population at the specified age level, as estimated by World Bank staff.","sourceOrganization":"World Bank staff estimates from various sources including census reports, the United Nations Population Division's World Population Prospects, national statistical offices, household surveys conducted by national agencies, and Macro International.","topics":[]},{"id":"SP.POP.AG08.TO.UN","name":"Population, age 8, total","source":{"id":"12","value":"Education Statistics"},"sourceNote":"Age population, total refers to total population at the specified age level, as estimated by the UNESCO Institute for Statistics.","sourceOrganization":"UNESCO Institute for Statistics.","topics":[{"id":"4","value":"Education "}]},{"id":"SP.POP.AG08.MA.UN","name":"Population, age 8, male","source":{"id":"12","value":"Education Statistics"},"sourceNote":"Population, age 8, male refers to the male population at the specified age.","sourceOrganization":"UNESCO Institute for Statistics","topics":[{"id":"4","value":"Education "}]},{"id":"SP.POP.AG08.MA.IN","name":"Age population, age 08, male, interpolated","source":{"id":"16","value":"Health Nutrition and Population Statistics"},"sourceNote":"Age population, male refers to male population at the specified age level, as estimated by World Bank staff.","sourceOrganization":"World Bank staff estimates from various sources including census reports, the United Nations Population Division's World Population Prospects, national statistical offices, household surveys conducted by national agencies, and Macro International.","topics":[]},{"id":"SP.POP.AG08.FE.UN","name":"Population, age 8, female","source":{"id":"12","value":"Education Statistics"},"sourceNote":"Age population, female refers to female population at the specified age level, as estimated by the UNESCO Institute for Statistics.","sourceOrganization":"UNESCO Institute for Statistics.","topics":[{"id":"4","value":"Education "}]},{"id":"SP.POP.AG08.FE.IN","name":"Age population, age 08, female, interpolated","source":{"id":"16","value":"Health Nutrition and Population Statistics"},"sourceNote":"Age population, female refers to female population at the specified age level, as estimated by World Bank staff.","sourceOrganization":"World Bank staff estimates from various sources including census reports, the United Nations Population Division's World Population Prospects, national statistical offices, household surveys conducted by national agencies, and Macro International.","topics":[]},{"id":"SP.POP.AG07.TO.UN","name":"Population, age 7, total","source":{"id":"12","value":"Education Statistics"},"sourceNote":"Age population, total refers to total population at the specified age level, as estimated by the UNESCO Institute for Statistics.","sourceOrganization":"UNESCO Institute for Statistics.","topics":[{"id":"4","value":"Education "}]},{"id":"SP.POP.AG07.MA.UN","name":"Population, age 7, male","source":{"id":"12","value":"Education Statistics"},"sourceNote":"Population, age 7, male refers to the male population at the specified age.","sourceOrganization":"UNESCO Institute for Statistics","topics":[{"id":"4","value":"Education "}]},{"id":"SP.POP.AG07.MA.IN","name":"Age population, age 07, male, interpolated","source":{"id":"16","value":"Health Nutrition and Population Statistics"},"sourceNote":"Age population, male refers to male population at the specified age level, as estimated by World Bank staff.","sourceOrganization":"World Bank staff estimates from various sources including census reports, the United Nations Population Division's World Population Prospects, national statistical offices, household surveys conducted by national agencies, and Macro International.","topics":[]},{"id":"SP.POP.AG07.FE.UN","name":"Population, age 7, female","source":{"id":"12","value":"Education Statistics"},"sourceNote":"Age population, female refers to female population at the specified age level, as estimated by the UNESCO Institute for Statistics.","sourceOrganization":"UNESCO Institute for Statistics.","topics":[{"id":"4","value":"Education "}]},{"id":"SP.POP.AG07.FE.IN","name":"Age population, age 07, female, interpolated","source":{"id":"16","value":"Health Nutrition and Population Statistics"},"sourceNote":"Age population, female refers to female population at the specified age level, as estimated by World Bank staff.","sourceOrganization":"World Bank staff estimates from various sources including census reports, the United Nations Population Division's World Population Prospects, national statistical offices, household surveys conducted by national agencies, and Macro International.","topics":[]},{"id":"SP.POP.AG06.TO.UN","name":"Population, age 6, total","source":{"id":"12","value":"Education Statistics"},"sourceNote":"Age population, total refers to total population at the specified age level, as estimated by the UNESCO Institute for Statistics.","sourceOrganization":"UNESCO Institute for Statistics.","topics":[{"id":"4","value":"Education "}]},{"id":"SP.POP.AG06.MA.UN","name":"Population, age 6, male","source":{"id":"12","value":"Education Statistics"},"sourceNote":"Population, age 6, male refers to the male population at the specified age.","sourceOrganization":"UNESCO Institute for Statistics","topics":[{"id":"4","value":"Education "}]},{"id":"SP.POP.AG06.MA.IN","name":"Age population, age 06, male, interpolated","source":{"id":"16","value":"Health Nutrition and Population Statistics"},"sourceNote":"Age population, male refers to male population at the specified age level, as estimated by World Bank staff.","sourceOrganization":"World Bank staff estimates from various sources including census reports, the United Nations Population Division's World Population Prospects, national statistical offices, household surveys conducted by national agencies, and Macro International.","topics":[]},{"id":"SP.POP.AG06.FE.UN","name":"Population, age 6, female","source":{"id":"12","value":"Education Statistics"},"sourceNote":"Age population, female refers to female population at the specified age level, as estimated by the UNESCO Institute for Statistics.","sourceOrganization":"UNESCO Institute for Statistics.","topics":[{"id":"4","value":"Education "}]},{"id":"SP.POP.AG06.FE.IN","name":"Age population, age 06, female, interpolated","source":{"id":"16","value":"Health Nutrition and Population Statistics"},"sourceNote":"Age population, female refers to female population at the specified age level, as estimated by World Bank staff.","sourceOrganization":"World Bank staff estimates from various sources including census reports, the United Nations Population Division's World Population Prospects, national statistical offices, household surveys conducted by national agencies, and Macro International.","topics":[]},{"id":"SP.POP.AG05.TO.UN","name":"Population, age 5, total","source":{"id":"12","value":"Education Statistics"},"sourceNote":"Age population, total refers to total population at the specified age level, as estimated by the UNESCO Institute for Statistics.","sourceOrganization":"UNESCO Institute for Statistics.","topics":[{"id":"4","value":"Education "}]},{"id":"SP.POP.AG05.MA.UN","name":"Population, age 5, male","source":{"id":"12","value":"Education Statistics"},"sourceNote":"Population, age 5, male refers to the male population at the specified age.","sourceOrganization":"UNESCO Institute for Statistics","topics":[{"id":"4","value":"Education "}]},{"id":"SP.POP.AG05.FE.UN","name":"Population, age 5, female","source":{"id":"12","value":"Education Statistics"},"sourceNote":"Age population, female refers to female population at the specified age level, as estimated by the UNESCO Institute for Statistics.","sourceOrganization":"UNESCO Institute for Statistics.","topics":[{"id":"4","value":"Education "}]}]]