[{"page":36,"pages":324,"per_page":"50","total":16174},[{"id":"COCONUT_OIL","name":"Coconut oil, $\/mt, current$","source":{"id":"21","value":"Global Economic Monitor (GEM) Commodities"},"sourceNote":"Coconut oil (Philippines\/Indonesia), bulk, c.i.f. Rotterdam","sourceOrganization":"ISTA Mielke GmbH, Oil World; US Department of Agriculture; World Bank.","topics":[]},{"id":"COCOA","name":"Cocoa, cents\/kg, current$","source":{"id":"21","value":"Global Economic Monitor (GEM) Commodities"},"sourceNote":"Cocoa (ICCO), International Cocoa Organization daily price, average of  the first three positions on the terminal markets of New York and London, nearest three future trading months.","sourceOrganization":"International Cocoa Organization Secretariat; World Bank.","topics":[]},{"id":"COAL_SAFRICA","name":"Coal, South African, $\/mt, nominal$","source":{"id":"21","value":"Global Economic Monitor (GEM) Commodities"},"sourceNote":"","sourceOrganization":"","topics":[]},{"id":"COAL_COL","name":"Coal, Colombian, $\/mt, nominal$","source":{"id":"21","value":"Global Economic Monitor (GEM) Commodities"},"sourceNote":"","sourceOrganization":"","topics":[]},{"id":"COAL_AUS","name":"Coal, Australia, $\/mt, current$","source":{"id":"21","value":"Global Economic Monitor (GEM) Commodities"},"sourceNote":"Coal (Australia), thermal, f.o.b. piers, Newcastle\/Port Kembla, 6,300 kcal\/kg (11,340 btu\/lb), less than 0.8%, sulfur 13% ash beginning January 2002; previously 6,667 kcal\/kg (12,000 btu\/lb), less than 1.0% sulfur, 14%  ash","sourceOrganization":"Coal Week International; Coal Week; World Bank.","topics":[]},{"id":"CM.MKT.TRNR","name":"Stocks traded, turnover ratio of domestic shares (%)","source":{"id":"2","value":"World Development Indicators"},"sourceNote":"Turnover ratio is the value of domestic shares traded divided by their market capitalization. The value is annualized by multiplying the monthly average by 12.","sourceOrganization":"World Federation of Exchanges database.","topics":[{"id":"7","value":"Financial Sector "}]},{"id":"CM.MKT.TRAD.GD.ZS","name":"Stocks traded, total value (% of GDP)","source":{"id":"2","value":"World Development Indicators"},"sourceNote":"The value of shares traded is the total number of shares traded, both domestic and foreign, multiplied by their respective matching prices. Figures are single counted (only one side of the transaction is considered). Companies admitted to listing and admitted to trading are included in the data. Data are end of year values.","sourceOrganization":"World Federation of Exchanges database.","topics":[{"id":"7","value":"Financial Sector "}]},{"id":"CM.MKT.TRAD.CD","name":"Stocks traded, total value (current US$)","source":{"id":"2","value":"World Development Indicators"},"sourceNote":"The value of shares traded is the total number of shares traded, both domestic and foreign, multiplied by their respective matching prices. Figures are single counted (only one side of the transaction is considered). Companies admitted to listing and admitted to trading are included in the data. Data are end of year values converted to U.S. dollars using corresponding year-end foreign exchange rates.","sourceOrganization":"World Federation of Exchanges database.","topics":[{"id":"7","value":"Financial Sector "}]},{"id":"CM.MKT.LDOM.NO","name":"Listed domestic companies, total","source":{"id":"2","value":"World Development Indicators"},"sourceNote":"Listed domestic companies, including foreign companies which are exclusively listed, are those which have shares listed on an exchange at the end of the year. Investment funds, unit trusts, and companies whose only business goal is to hold shares of other listed companies, such as holding companies and investment companies, regardless of their legal status, are excluded. A company with several classes of shares is counted once. Only companies admitted to listing on the exchange are included.","sourceOrganization":"World Federation of Exchanges database.","topics":[{"id":"7","value":"Financial Sector "}]},{"id":"CM.MKT.LCAP.GD.ZS","name":"Market capitalization of listed domestic companies (% of GDP)","source":{"id":"2","value":"World Development Indicators"},"sourceNote":"Market capitalization (also known as market value) is the share price times the number of shares outstanding (including their several classes) for listed domestic companies. Investment funds, unit trusts, and companies whose only business goal is to hold shares of other listed companies are excluded. Data are end of year values.","sourceOrganization":"World Federation of Exchanges database.","topics":[{"id":"7","value":"Financial Sector "}]},{"id":"CM.MKT.LCAP.CD","name":"Market capitalization of listed domestic companies (current US$)","source":{"id":"2","value":"World Development Indicators"},"sourceNote":"Market capitalization (also known as market value) is the share price times the number of shares outstanding (including their several classes) for listed domestic companies. Investment funds, unit trusts, and companies whose only business goal is to hold shares of other listed companies are excluded. Data are end of year values converted to U.S. dollars using corresponding year-end foreign exchange rates.","sourceOrganization":"World Federation of Exchanges database.","topics":[{"id":"7","value":"Financial Sector "}]},{"id":"CM.MKT.INDX.ZG","name":"S&P Global Equity Indices (annual % change)","source":{"id":"2","value":"World Development Indicators"},"sourceNote":"S&P Global Equity Indices measure the U.S. dollar price change in the stock markets covered by the S&P\/IFCI and S&P\/Frontier BMI country indices.","sourceOrganization":"Standard & Poor's, Global Stock Markets Factbook and supplemental S&P data.","topics":[{"id":"7","value":"Financial Sector "}]},{"id":"CHICKEN","name":"Meat, chicken, cents\/kg, current$","source":{"id":"21","value":"Global Economic Monitor (GEM) Commodities"},"sourceNote":"Meat, sheep (New Zealand), frozen whole carcasses Prime Medium (PM) wholesale, Smithfield, London  beginning January 2006; previously Prime Light (PL)","sourceOrganization":"US Department of Agriculture; Bloomberg; World Bank.","topics":[]},{"id":"ccx_you_pop_urb","name":"Share of youth (15-24) in total population  - urban","source":{"id":"29","value":"Global Social Protection"},"sourceNote":"NULL","sourceOrganization":"The Atlas of Social Protection: Indicators of Resilience and Equity (ASPIRE)","topics":[{"id":"10","value":"Social Protection & Labor"}]},{"id":"ccx_you_pop_tot","name":"Share of youth (15-24) in total population ","source":{"id":"29","value":"Global Social Protection"},"sourceNote":"NULL","sourceOrganization":"The Atlas of Social Protection: Indicators of Resilience and Equity (ASPIRE)","topics":[{"id":"10","value":"Social Protection & Labor"}]},{"id":"ccx_you_pop_rur","name":"Share of youth (15-24) in total population  - rural","source":{"id":"29","value":"Global Social Protection"},"sourceNote":"NULL","sourceOrganization":"The Atlas of Social Protection: Indicators of Resilience and Equity (ASPIRE)","topics":[{"id":"10","value":"Social Protection & Labor"}]},{"id":"ccx_you_pop_mal","name":"Share of youth (15-24) in total population  - male","source":{"id":"29","value":"Global Social Protection"},"sourceNote":"NULL","sourceOrganization":"The Atlas of Social Protection: Indicators of Resilience and Equity (ASPIRE)","topics":[{"id":"10","value":"Social Protection & Labor"}]},{"id":"ccx_you_pop_fem","name":"Share of youth (15-24) in total population  - female","source":{"id":"29","value":"Global Social Protection"},"sourceNote":"NULL","sourceOrganization":"The Atlas of Social Protection: Indicators of Resilience and Equity (ASPIRE)","topics":[{"id":"10","value":"Social Protection & Labor"}]},{"id":"ccx_yaurr_pop_urb","name":"Youth to adult unemployment rate - urban","source":{"id":"29","value":"Global Social Protection"},"sourceNote":"NULL","sourceOrganization":"The Atlas of Social Protection: Indicators of Resilience and Equity (ASPIRE)","topics":[{"id":"10","value":"Social Protection & Labor"}]},{"id":"ccx_yaurr_pop_tot","name":"Youth to adult unemployment rate in total population","source":{"id":"29","value":"Global Social Protection"},"sourceNote":"NULL","sourceOrganization":"The Atlas of Social Protection: Indicators of Resilience and Equity (ASPIRE)","topics":[{"id":"10","value":"Social Protection & Labor"}]},{"id":"ccx_yaurr_pop_rur","name":"Youth to adult unemployment rate - rural","source":{"id":"29","value":"Global Social Protection"},"sourceNote":"NULL","sourceOrganization":"The Atlas of Social Protection: Indicators of Resilience and Equity (ASPIRE)","topics":[{"id":"10","value":"Social Protection & Labor"}]},{"id":"ccx_yaurr_pop_mal","name":"Youth to adult unemployment rate - male","source":{"id":"29","value":"Global Social Protection"},"sourceNote":"NULL","sourceOrganization":"The Atlas of Social Protection: Indicators of Resilience and Equity (ASPIRE)","topics":[{"id":"10","value":"Social Protection & Labor"}]},{"id":"ccx_yaurr_pop_fem","name":"Youth to adult unemployment rate - female","source":{"id":"29","value":"Global Social Protection"},"sourceNote":"NULL","sourceOrganization":"The Atlas of Social Protection: Indicators of Resilience and Equity (ASPIRE)","topics":[{"id":"10","value":"Social Protection & Labor"}]},{"id":"ccx_wka_pop_urb","name":"Share of working age (25-59) in total population  - urban","source":{"id":"29","value":"Global Social Protection"},"sourceNote":"NULL","sourceOrganization":"The Atlas of Social Protection: Indicators of Resilience and Equity (ASPIRE)","topics":[{"id":"10","value":"Social Protection & Labor"}]},{"id":"ccx_wka_pop_tot","name":"Share of working age (25-59) in total population ","source":{"id":"29","value":"Global Social Protection"},"sourceNote":"NULL","sourceOrganization":"The Atlas of Social Protection: Indicators of Resilience and Equity (ASPIRE)","topics":[{"id":"10","value":"Social Protection & Labor"}]},{"id":"ccx_wka_pop_rur","name":"Share of working age (25-59) in total population  - rural","source":{"id":"29","value":"Global Social Protection"},"sourceNote":"NULL","sourceOrganization":"The Atlas of Social Protection: Indicators of Resilience and Equity (ASPIRE)","topics":[{"id":"10","value":"Social Protection & Labor"}]},{"id":"ccx_wka_pop_mal","name":"Share of working age (25-59) in total population  - male","source":{"id":"29","value":"Global Social Protection"},"sourceNote":"NULL","sourceOrganization":"The Atlas of Social Protection: Indicators of Resilience and Equity (ASPIRE)","topics":[{"id":"10","value":"Social Protection & Labor"}]},{"id":"ccx_wka_pop_fem","name":"Share of working age (25-59) in total population  - female","source":{"id":"29","value":"Global Social Protection"},"sourceNote":"NULL","sourceOrganization":"The Atlas of Social Protection: Indicators of Resilience and Equity (ASPIRE)","topics":[{"id":"10","value":"Social Protection & Labor"}]},{"id":"ccx_wage_pop_you","name":"Share of employed workers who are wage employees - youth","source":{"id":"29","value":"Global Social Protection"},"sourceNote":"NULL","sourceOrganization":"The Atlas of Social Protection: Indicators of Resilience and Equity (ASPIRE)","topics":[{"id":"10","value":"Social Protection & Labor"}]},{"id":"ccx_wage_pop_wrk","name":"Share of employed workers who are wage employees - working age","source":{"id":"29","value":"Global Social Protection"},"sourceNote":"NULL","sourceOrganization":"The Atlas of Social Protection: Indicators of Resilience and Equity (ASPIRE)","topics":[{"id":"10","value":"Social Protection & Labor"}]},{"id":"ccx_wage_pop_urb","name":"Share of employed workers who are wage employees - urban","source":{"id":"29","value":"Global Social Protection"},"sourceNote":"NULL","sourceOrganization":"The Atlas of Social Protection: Indicators of Resilience and Equity (ASPIRE)","topics":[{"id":"10","value":"Social Protection & Labor"}]},{"id":"ccx_wage_pop_tot","name":"Share of employed workers who are wage employees in total population","source":{"id":"29","value":"Global Social Protection"},"sourceNote":"NULL","sourceOrganization":"The Atlas of Social Protection: Indicators of Resilience and Equity (ASPIRE)","topics":[{"id":"10","value":"Social Protection & Labor"}]},{"id":"ccx_wage_pop_rur","name":"Share of employed workers who are wage employees - rural","source":{"id":"29","value":"Global Social Protection"},"sourceNote":"NULL","sourceOrganization":"The Atlas of Social Protection: Indicators of Resilience and Equity (ASPIRE)","topics":[{"id":"10","value":"Social Protection & Labor"}]},{"id":"ccx_wage_pop_mal","name":"Share of employed workers who are wage employees - male","source":{"id":"29","value":"Global Social Protection"},"sourceNote":"NULL","sourceOrganization":"The Atlas of Social Protection: Indicators of Resilience and Equity (ASPIRE)","topics":[{"id":"10","value":"Social Protection & Labor"}]},{"id":"ccx_wage_pop_fem","name":"Share of employed workers who are wage employees - female","source":{"id":"29","value":"Global Social Protection"},"sourceNote":"NULL","sourceOrganization":"The Atlas of Social Protection: Indicators of Resilience and Equity (ASPIRE)","topics":[{"id":"10","value":"Social Protection & Labor"}]},{"id":"ccx_wage_pop_eld","name":"Share of employed workers who are wage employees - elderly","source":{"id":"29","value":"Global Social Protection"},"sourceNote":"NULL","sourceOrganization":"The Atlas of Social Protection: Indicators of Resilience and Equity (ASPIRE)","topics":[{"id":"10","value":"Social Protection & Labor"}]},{"id":"ccx_unpaid_pop_you","name":"Share of employed workers who are unpaid - youth","source":{"id":"29","value":"Global Social Protection"},"sourceNote":"NULL","sourceOrganization":"The Atlas of Social Protection: Indicators of Resilience and Equity (ASPIRE)","topics":[{"id":"10","value":"Social Protection & Labor"}]},{"id":"ccx_unpaid_pop_wrk","name":"Share of employed workers who are unpaid - working age","source":{"id":"29","value":"Global Social Protection"},"sourceNote":"NULL","sourceOrganization":"The Atlas of Social Protection: Indicators of Resilience and Equity (ASPIRE)","topics":[{"id":"10","value":"Social Protection & Labor"}]},{"id":"ccx_unpaid_pop_urb","name":"Share of employed workers who are unpaid - urban","source":{"id":"29","value":"Global Social Protection"},"sourceNote":"NULL","sourceOrganization":"The Atlas of Social Protection: Indicators of Resilience and Equity (ASPIRE)","topics":[{"id":"10","value":"Social Protection & Labor"}]},{"id":"ccx_unpaid_pop_tot","name":"Share of employed workers who are unpaid in total population","source":{"id":"29","value":"Global Social Protection"},"sourceNote":"NULL","sourceOrganization":"The Atlas of Social Protection: Indicators of Resilience and Equity (ASPIRE)","topics":[{"id":"10","value":"Social Protection & Labor"}]},{"id":"ccx_unpaid_pop_rur","name":"Share of employed workers who are unpaid - rural","source":{"id":"29","value":"Global Social Protection"},"sourceNote":"NULL","sourceOrganization":"The Atlas of Social Protection: Indicators of Resilience and Equity (ASPIRE)","topics":[{"id":"10","value":"Social Protection & Labor"}]},{"id":"ccx_unpaid_pop_mal","name":"Share of employed workers who are unpaid - male","source":{"id":"29","value":"Global Social Protection"},"sourceNote":"NULL","sourceOrganization":"The Atlas of Social Protection: Indicators of Resilience and Equity (ASPIRE)","topics":[{"id":"10","value":"Social Protection & Labor"}]},{"id":"ccx_unpaid_pop_fem","name":"Share of employed workers who are unpaid - female","source":{"id":"29","value":"Global Social Protection"},"sourceNote":"NULL","sourceOrganization":"The Atlas of Social Protection: Indicators of Resilience and Equity (ASPIRE)","topics":[{"id":"10","value":"Social Protection & Labor"}]},{"id":"ccx_unpaid_pop_eld","name":"Share of employed workers who are unpaid - elderly","source":{"id":"29","value":"Global Social Protection"},"sourceNote":"NULL","sourceOrganization":"The Atlas of Social Protection: Indicators of Resilience and Equity (ASPIRE)","topics":[{"id":"10","value":"Social Protection & Labor"}]},{"id":"ccx_unempr_pop_you","name":"Unemployment rate - youth","source":{"id":"29","value":"Global Social Protection"},"sourceNote":"NULL","sourceOrganization":"The Atlas of Social Protection: Indicators of Resilience and Equity (ASPIRE)","topics":[{"id":"10","value":"Social Protection & Labor"}]},{"id":"ccx_unempr_pop_wrk","name":"Unemployment rate - working age","source":{"id":"29","value":"Global Social Protection"},"sourceNote":"NULL","sourceOrganization":"The Atlas of Social Protection: Indicators of Resilience and Equity (ASPIRE)","topics":[{"id":"10","value":"Social Protection & Labor"}]},{"id":"ccx_unempr_pop_urb","name":"Unemployment rate - urban","source":{"id":"29","value":"Global Social Protection"},"sourceNote":"NULL","sourceOrganization":"The Atlas of Social Protection: Indicators of Resilience and Equity (ASPIRE)","topics":[{"id":"10","value":"Social Protection & Labor"}]},{"id":"ccx_unempr_pop_tot","name":"Unemployment rate in total population","source":{"id":"29","value":"Global Social Protection"},"sourceNote":"NULL","sourceOrganization":"The Atlas of Social Protection: Indicators of Resilience and Equity (ASPIRE)","topics":[{"id":"10","value":"Social Protection & Labor"}]},{"id":"ccx_unempr_pop_rur","name":"Unemployment rate - rural","source":{"id":"29","value":"Global Social Protection"},"sourceNote":"NULL","sourceOrganization":"The Atlas of Social Protection: Indicators of Resilience and Equity (ASPIRE)","topics":[{"id":"10","value":"Social Protection & Labor"}]},{"id":"ccx_unempr_pop_mal","name":"Unemployment rate - male","source":{"id":"29","value":"Global Social Protection"},"sourceNote":"NULL","sourceOrganization":"The Atlas of Social Protection: Indicators of Resilience and Equity (ASPIRE)","topics":[{"id":"10","value":"Social Protection & Labor"}]}]]