[{"page":277,"pages":324,"per_page":"50","total":16174},[{"id":"SP.POP.4549.MA","name":"Male population 45-49","source":{"id":"16","value":"Health Nutrition and Population Statistics"},"sourceNote":"Male population between the ages 45-49.","sourceOrganization":"World Bank staff estimates using the World Bank's total population and age distributions of the United Nations Population Division's World Population Prospects.","topics":[]},{"id":"SP.POP.4549.FE.5Y","name":"Population ages 45-49, female (% of female population)","source":{"id":"2","value":"World Development Indicators"},"sourceNote":"Female population between the ages 45 to 49 as a percentage of the total female population.","sourceOrganization":"World Bank staff estimates based on age\/sex distributions of United Nations Population Division's World Population Prospects.","topics":[{"id":"8","value":"Health "}]},{"id":"SP.POP.4549.FE","name":"Female population 45-49","source":{"id":"16","value":"Health Nutrition and Population Statistics"},"sourceNote":"Female population between the ages 45-49.","sourceOrganization":"World Bank staff estimates using the World Bank's total population and age distributions of the United Nations Population Division's World Population Prospects.","topics":[]},{"id":"SP.POP.4044.MA.5Y","name":"Population ages 40-44, male (% of male population)","source":{"id":"2","value":"World Development Indicators"},"sourceNote":"Male population between the ages 40 to 44 as a percentage of the total male population.","sourceOrganization":"World Bank staff estimates based on age\/sex distributions of United Nations Population Division's World Population Prospects.","topics":[{"id":"8","value":"Health "}]},{"id":"SP.POP.4044.MA","name":"Male population 40-44","source":{"id":"16","value":"Health Nutrition and Population Statistics"},"sourceNote":"Male population between the ages 40-44.","sourceOrganization":"World Bank staff estimates using the World Bank's total population and age distributions of the United Nations Population Division's World Population Prospects.","topics":[]},{"id":"SP.POP.4044.FE.5Y","name":"Population ages 40-44, female (% of female population)","source":{"id":"2","value":"World Development Indicators"},"sourceNote":"Female population between the ages 40 to 44 as a percentage of the total female population.","sourceOrganization":"World Bank staff estimates based on age\/sex distributions of United Nations Population Division's World Population Prospects.","topics":[{"id":"8","value":"Health "}]},{"id":"SP.POP.4044.FE","name":"Female population 40-44","source":{"id":"16","value":"Health Nutrition and Population Statistics"},"sourceNote":"Female population between the ages 40-44.","sourceOrganization":"World Bank staff estimates using the World Bank's total population and age distributions of the United Nations Population Division's World Population Prospects.","topics":[]},{"id":"SP.POP.3539.MA.5Y","name":"Population ages 35-39, male (% of male population)","source":{"id":"2","value":"World Development Indicators"},"sourceNote":"Male population between the ages 35 to 39 as a percentage of the total male population.","sourceOrganization":"World Bank staff estimates based on age\/sex distributions of United Nations Population Division's World Population Prospects.","topics":[{"id":"8","value":"Health "}]},{"id":"SP.POP.3539.MA","name":"Male population 35-39","source":{"id":"16","value":"Health Nutrition and Population Statistics"},"sourceNote":"Male population between the ages 35-39.","sourceOrganization":"World Bank staff estimates using the World Bank's total population and age distributions of the United Nations Population Division's World Population Prospects.","topics":[]},{"id":"SP.POP.3539.FE.5Y","name":"Population ages 35-39, female (% of female population)","source":{"id":"2","value":"World Development Indicators"},"sourceNote":"Female population between the ages 35 to 39 as a percentage of the total female population.","sourceOrganization":"World Bank staff estimates based on age\/sex distributions of United Nations Population Division's World Population Prospects.","topics":[{"id":"8","value":"Health "}]},{"id":"SP.POP.3539.FE","name":"Female population 35-39","source":{"id":"16","value":"Health Nutrition and Population Statistics"},"sourceNote":"Female population between the ages 35-39.","sourceOrganization":"World Bank staff estimates using the World Bank's total population and age distributions of the United Nations Population Division's World Population Prospects.","topics":[]},{"id":"SP.POP.3034.MA.5Y","name":"Population ages 30-34, male (% of male population)","source":{"id":"2","value":"World Development Indicators"},"sourceNote":"Male population between the ages 30 to 34 as a percentage of the total male population.","sourceOrganization":"World Bank staff estimates based on age\/sex distributions of United Nations Population Division's World Population Prospects.","topics":[{"id":"8","value":"Health "}]},{"id":"SP.POP.3034.MA","name":"Male population 30-34","source":{"id":"16","value":"Health Nutrition and Population Statistics"},"sourceNote":"Male population between the ages 30-34.","sourceOrganization":"World Bank staff estimates using the World Bank's total population and age distributions of the United Nations Population Division's World Population Prospects.","topics":[]},{"id":"SP.POP.3034.FE.5Y","name":"Population ages 30-34, female (% of female population)","source":{"id":"2","value":"World Development Indicators"},"sourceNote":"Female population between the ages 30 to 34 as a percentage of the total female population.","sourceOrganization":"World Bank staff estimates based on age\/sex distributions of United Nations Population Division's World Population Prospects.","topics":[{"id":"8","value":"Health "}]},{"id":"SP.POP.3034.FE","name":"Female population 30-34","source":{"id":"16","value":"Health Nutrition and Population Statistics"},"sourceNote":"Female population between the ages 30-34.","sourceOrganization":"World Bank staff estimates using the World Bank's total population and age distributions of the United Nations Population Division's World Population Prospects.","topics":[]},{"id":"SP.POP.2DAY.TO","name":"Number of people living on less than $2.00 a day (PPP)","source":{"id":"19","value":"Millennium Development Goals"},"sourceNote":"Number of people living on less than $2.00 a day (PPP) is the population living on less than $2.00 a day at 2005 international prices.","sourceOrganization":"World Bank, Development Research Group. Data are based on primary household survey data obtained from government statistical agencies and World Bank country departments. Data for high-income economies are from the Luxembourg Income Study database. For more information and methodology, please see PovcalNet (http:\/\/iresearch.worldbank.org\/PovcalNet\/index.htm).","topics":[{"id":"18","value":"Millenium development goals"}]},{"id":"SP.POP.2529.MA.5Y","name":"Population ages 25-29, male (% of male population)","source":{"id":"2","value":"World Development Indicators"},"sourceNote":"Male population between the ages 25 to 29 as a percentage of the total male population.","sourceOrganization":"World Bank staff estimates based on age\/sex distributions of United Nations Population Division's World Population Prospects.","topics":[{"id":"8","value":"Health "}]},{"id":"SP.POP.2529.MA","name":"Male population 25-29","source":{"id":"16","value":"Health Nutrition and Population Statistics"},"sourceNote":"Male population between the ages 25-29.","sourceOrganization":"World Bank staff estimates using the World Bank's total population and age distributions of the United Nations Population Division's World Population Prospects.","topics":[]},{"id":"SP.POP.2529.FE.5Y","name":"Population ages 25-29, female (% of female population)","source":{"id":"2","value":"World Development Indicators"},"sourceNote":"Female population between the ages 25 to 29 as a percentage of the total female population.","sourceOrganization":"World Bank staff estimates based on age\/sex distributions of United Nations Population Division's World Population Prospects.","topics":[{"id":"8","value":"Health "}]},{"id":"SP.POP.2529.FE","name":"Female population 25-29","source":{"id":"16","value":"Health Nutrition and Population Statistics"},"sourceNote":"Female population between the ages 25-29.","sourceOrganization":"World Bank staff estimates using the World Bank's total population and age distributions of the United Nations Population Division's World Population Prospects.","topics":[]},{"id":"SP.POP.2024.MA.5Y","name":"Population ages 20-24, male (% of male population)","source":{"id":"2","value":"World Development Indicators"},"sourceNote":"Male population between the ages 20 to 24 as a percentage of the total male population.","sourceOrganization":"World Bank staff estimates based on age\/sex distributions of United Nations Population Division's World Population Prospects.","topics":[{"id":"8","value":"Health "}]},{"id":"SP.POP.2024.MA","name":"Male population 20-24","source":{"id":"16","value":"Health Nutrition and Population Statistics"},"sourceNote":"Male population between the ages 20-24.","sourceOrganization":"World Bank staff estimates using the World Bank's total population and age distributions of the United Nations Population Division's World Population Prospects.","topics":[]},{"id":"SP.POP.2024.FE.5Y","name":"Population ages 20-24, female (% of female population)","source":{"id":"2","value":"World Development Indicators"},"sourceNote":"Female population between the ages 20 to 24 as a percentage of the total female population.","sourceOrganization":"World Bank staff estimates based on age\/sex distributions of United Nations Population Division's World Population Prospects.","topics":[{"id":"8","value":"Health "}]},{"id":"SP.POP.2024.FE","name":"Female population 20-24","source":{"id":"16","value":"Health Nutrition and Population Statistics"},"sourceNote":"Female population between the ages 20-24.","sourceOrganization":"World Bank staff estimates using the World Bank's total population and age distributions of the United Nations Population Division's World Population Prospects.","topics":[]},{"id":"SP.POP.1564.TO.ZS","name":"Population ages 15-64 (% of total)","source":{"id":"2","value":"World Development Indicators"},"sourceNote":"Total population between the ages 15 to 64 as a percentage of the total population. Population is based on the de facto definition of population, which counts all residents regardless of legal status or citizenship.","sourceOrganization":"World Bank staff estimates based on age\/sex distributions of United Nations Population Division's World Population Prospects.","topics":[{"id":"4","value":"Education "},{"id":"8","value":"Health "}]},{"id":"SP.POP.1564.TO","name":"Population ages 15-64, total","source":{"id":"11","value":"Africa Development Indicators"},"sourceNote":"Total population between the ages 15 to 64. Population is based on the de facto definition of population, which counts all residents regardless of legal status or citizenship.","sourceOrganization":"World Bank staff estimates using the World Bank's population and age distributions of the United Nations Population Division's World Population Prospects. The World Bank's population estimates are from various sources including the United Nations Population Division's World Population Prospects; census reports and statistical publications from national statistical offices; Eurostat's Demographic Statistics; United Nations Statistical Division, Population and Vital Statistics Report (various years); U.S. Census Bureau: International Database; and Secretariat of the Pacific Community, Statistics and Demography Programme.","topics":[{"id":"4","value":"Education "}]},{"id":"SP.POP.1564.MA.ZS","name":"Population ages 15-64, male (% of total)","source":{"id":"11","value":"Africa Development Indicators"},"sourceNote":"Male population between the ages 15 to 64 is the number of males who could potentially be economically active. Population is based on the de facto definition of population, which counts all residents regardless of legal status or citizenship--except for refugees not permanently settled in the country of asylum, who are generally considered part of the population of the country of origin.","sourceOrganization":"The United Nations Population Division's World Population Prospects.","topics":[]},{"id":"SP.POP.1564.MA.IN","name":"Population ages 15-64, male","source":{"id":"11","value":"Africa Development Indicators"},"sourceNote":"Male population between the ages 15 to 64. Population is based on the de facto definition of population, which counts all residents regardless of legal status or citizenship.","sourceOrganization":"World Bank staff estimates using the World Bank's population and age distributions of the United Nations Population Division's World Population Prospects. The World Bank's population estimates are from various sources including the United Nations Population Division's World Population Prospects; census reports and statistical publications from national statistical offices; Eurostat's Demographic Statistics; United Nations Statistical Division, Population and Vital Statistics Report (various years); U.S. Census Bureau: International Database; and Secretariat of the Pacific Community, Statistics and Demography Programme.","topics":[{"id":"4","value":"Education "}]},{"id":"SP.POP.1564.FE.ZS","name":"Population ages 15-64, female (% of total)","source":{"id":"11","value":"Africa Development Indicators"},"sourceNote":"Female population between the ages 15 to 64 is the number of females who could potentially be economically active. Population is based on the de facto definition of population, which counts all residents regardless of legal status or citizenship--except for refugees not permanently settled in the country of asylum, who are generally considered part of the population of the country of origin.","sourceOrganization":"The United Nations Population Division's World Population Prospects.","topics":[]},{"id":"SP.POP.1564.FE.IN","name":"Population ages 15-64, female","source":{"id":"11","value":"Africa Development Indicators"},"sourceNote":"Female population between the ages 15 to 64. Population is based on the de facto definition of population, which counts all residents regardless of legal status or citizenship.","sourceOrganization":"World Bank staff estimates using the World Bank's population and age distributions of the United Nations Population Division's World Population Prospects. The World Bank's population estimates are from various sources including the United Nations Population Division's World Population Prospects; census reports and statistical publications from national statistical offices; Eurostat's Demographic Statistics; United Nations Statistical Division, Population and Vital Statistics Report (various years); U.S. Census Bureau: International Database; and Secretariat of the Pacific Community, Statistics and Demography Programme.","topics":[{"id":"4","value":"Education "}]},{"id":"SP.POP.1524.TO.UN","name":"Population, ages 15-24, total","source":{"id":"12","value":"Education Statistics"},"sourceNote":"Population, ages 15-24, total is the total population age 15-24.","sourceOrganization":"UNESCO Institute for Statistics (Derived)","topics":[{"id":"4","value":"Education "}]},{"id":"SP.POP.1524.MA.UN","name":"Population, ages 15-24, male","source":{"id":"12","value":"Education Statistics"},"sourceNote":"Population, ages 15-24, male is the total number of males age 15-24.","sourceOrganization":"UNESCO Institute for Statistics (Derived)","topics":[{"id":"4","value":"Education "}]},{"id":"SP.POP.1524.FE.UN","name":"Population, ages 15-24, female","source":{"id":"12","value":"Education Statistics"},"sourceNote":"Population, ages 15-24, female is the total number of females age 15-24.","sourceOrganization":"UNESCO Institute for Statistics (Derived)","topics":[{"id":"4","value":"Education "}]},{"id":"SP.POP.1519.MA.5Y","name":"Population ages 15-19, male (% of male population)","source":{"id":"2","value":"World Development Indicators"},"sourceNote":"Male population between the ages 15 to 19 as a percentage of the total male population.","sourceOrganization":"World Bank staff estimates based on age\/sex distributions of United Nations Population Division's World Population Prospects.","topics":[{"id":"8","value":"Health "}]},{"id":"SP.POP.1519.MA","name":"Male population 15-19","source":{"id":"16","value":"Health Nutrition and Population Statistics"},"sourceNote":"Male population between the ages 15-19.","sourceOrganization":"World Bank staff estimates using the World Bank's total population and age distributions of the United Nations Population Division's World Population Prospects.","topics":[]},{"id":"SP.POP.1519.FE.5Y","name":"Population ages 15-19, female (% of female population)","source":{"id":"2","value":"World Development Indicators"},"sourceNote":"Female population between the ages 15 to 19 as a percentage of the total female population.","sourceOrganization":"World Bank staff estimates based on age\/sex distributions of United Nations Population Division's World Population Prospects.","topics":[{"id":"8","value":"Health "}]},{"id":"SP.POP.1519.FE","name":"Female population 15-19","source":{"id":"16","value":"Health Nutrition and Population Statistics"},"sourceNote":"Female population between the ages 15-19.","sourceOrganization":"World Bank staff estimates using the World Bank's total population and age distributions of the United Nations Population Division's World Population Prospects.","topics":[]},{"id":"SP.POP.1419.TO.UN","name":"Population, ages 14-19, total","source":{"id":"12","value":"Education Statistics"},"sourceNote":"Population, ages 14-19, total is the total population age 14-19.","sourceOrganization":"UNESCO Institute for Statistics (Derived)","topics":[{"id":"4","value":"Education "}]},{"id":"SP.POP.1419.MA.UN","name":"Population, ages 14-19, male","source":{"id":"12","value":"Education Statistics"},"sourceNote":"Population, ages 14-19, male is the total number of males age 14-19.","sourceOrganization":"UNESCO Institute for Statistics (Derived)","topics":[{"id":"4","value":"Education "}]},{"id":"SP.POP.1419.FE.UN","name":"Population, ages 14-19, female","source":{"id":"12","value":"Education Statistics"},"sourceNote":"Population, ages 14-19, female is the total number of females age 14-19.","sourceOrganization":"UNESCO Institute for Statistics (Derived)","topics":[{"id":"4","value":"Education "}]},{"id":"SP.POP.1418.TO.UN","name":"Population, ages 14-18, total","source":{"id":"12","value":"Education Statistics"},"sourceNote":"Population, ages 14-18, total is the total population age 14-18.","sourceOrganization":"UNESCO Institute for Statistics (Derived)","topics":[{"id":"4","value":"Education "}]},{"id":"SP.POP.1418.MA.UN","name":"Population, ages 14-18, male","source":{"id":"12","value":"Education Statistics"},"sourceNote":"Population, ages 14-18, male is the total number of males age 14-18.","sourceOrganization":"UNESCO Institute for Statistics (Derived)","topics":[{"id":"4","value":"Education "}]},{"id":"SP.POP.1418.FE.UN","name":"Population, ages 14-18, female","source":{"id":"12","value":"Education Statistics"},"sourceNote":"Population, ages 14-18, female is the total number of females age 14-18.","sourceOrganization":"UNESCO Institute for Statistics (Derived)","topics":[{"id":"4","value":"Education "}]},{"id":"SP.POP.1319.TO.UN","name":"Population, ages 13-19, total","source":{"id":"12","value":"Education Statistics"},"sourceNote":"Population, ages 13-19, total is the total population age 13-19.","sourceOrganization":"UNESCO Institute for Statistics (Derived)","topics":[{"id":"4","value":"Education "}]},{"id":"SP.POP.1319.MA.UN","name":"Population, ages 13-19, male","source":{"id":"12","value":"Education Statistics"},"sourceNote":"Population, ages 13-19, male is the total number of males age 13-19.","sourceOrganization":"UNESCO Institute for Statistics (Derived)","topics":[{"id":"4","value":"Education "}]},{"id":"SP.POP.1319.FE.UN","name":"Population, ages 13-19, female","source":{"id":"12","value":"Education Statistics"},"sourceNote":"Population, ages 13-19, female is the total number of females age 13-19.","sourceOrganization":"UNESCO Institute for Statistics (Derived)","topics":[{"id":"4","value":"Education "}]},{"id":"SP.POP.1318.TO.UN","name":"Population, ages 13-18, total","source":{"id":"12","value":"Education Statistics"},"sourceNote":"Population, ages 13-18, total is the total population age 13-18.","sourceOrganization":"UNESCO Institute for Statistics (Derived)","topics":[{"id":"4","value":"Education "}]},{"id":"SP.POP.1318.MA.UN","name":"Population, ages 13-18, male","source":{"id":"12","value":"Education Statistics"},"sourceNote":"Population, ages 13-18, male is the total number of males age 13-18.","sourceOrganization":"UNESCO Institute for Statistics (Derived)","topics":[{"id":"4","value":"Education "}]},{"id":"SP.POP.1318.FE.UN","name":"Population, ages 13-18, female","source":{"id":"12","value":"Education Statistics"},"sourceNote":"Population, ages 13-18, female is the total number of females age 13-18.","sourceOrganization":"UNESCO Institute for Statistics (Derived)","topics":[{"id":"4","value":"Education "}]},{"id":"SP.POP.1317.TO.UN","name":"Population, ages 13-17, total","source":{"id":"12","value":"Education Statistics"},"sourceNote":"Population, ages 13-17, total is the total population age 13-17.","sourceOrganization":"UNESCO Institute for Statistics (Derived)","topics":[{"id":"4","value":"Education "}]}]]