[{"page":315,"pages":324,"per_page":"50","total":16174},[{"id":"WP14892.2","name":"Credit card used in the past year, male (% age 15+) [w2]","source":{"id":"28","value":"Global Findex ( Global Financial Inclusion database)"},"sourceNote":"Denotes the percentage of respondents who report using their own credit card in the past 12 months (male, % age 15+). [w2: data are available for wave 2].","sourceOrganization":"Demirguc-Kunt et al., 2015","topics":[{"id":"7","value":"Financial Sector "}]},{"id":"WP14892.10","name":"Credit card used in the past year, rural (% age 15+) [w2]","source":{"id":"28","value":"Global Findex ( Global Financial Inclusion database)"},"sourceNote":"Denotes the percentage of respondents who report using their own credit card in the past 12 months (rural, % age 15+). [w2: data are available for wave 2].","sourceOrganization":"Demirguc-Kunt et al., 2015","topics":[{"id":"7","value":"Financial Sector "}]},{"id":"WP14892.1","name":"Credit card used in the past year (% age 15+) [w2]","source":{"id":"28","value":"Global Findex ( Global Financial Inclusion database)"},"sourceNote":"Denotes the percentage of respondents who report using their own credit card in the past 12 months (% age 15+). [w2: data are available for wave 2].","sourceOrganization":"Demirguc-Kunt et al., 2015","topics":[{"id":"7","value":"Financial Sector "}]},{"id":"WP14891.9","name":"Credit card, income, richest 60% (% ages 15+) [w2]","source":{"id":"28","value":"Global Findex ( Global Financial Inclusion database)"},"sourceNote":"Denotes the percentage of respondents with a credit card (income, richest 60%, % age 15+). [w2: data are available for wave 2].","sourceOrganization":"Demirguc-Kunt et al., 2015","topics":[{"id":"7","value":"Financial Sector "}]},{"id":"WP14891.8","name":"Credit card, income, poorest 40% (% ages 15+) [w2]","source":{"id":"28","value":"Global Findex ( Global Financial Inclusion database)"},"sourceNote":"Denotes the percentage of respondents with a credit card (income, poorest 40%, % age 15+). [w2: data are available for wave 2].","sourceOrganization":"Demirguc-Kunt et al., 2015","topics":[{"id":"7","value":"Financial Sector "}]},{"id":"WP14891.7","name":"Credit card, secondary education or more (% ages 15+) [w2]","source":{"id":"28","value":"Global Findex ( Global Financial Inclusion database)"},"sourceNote":"Denotes the percentage of respondents with a credit card (secondary education or more, % age 15+). [w2: data are available for wave 2].","sourceOrganization":"Demirguc-Kunt et al., 2015","topics":[{"id":"7","value":"Financial Sector "}]},{"id":"WP14891.6","name":"Credit card, primary education or less (% ages 15+) [w2]","source":{"id":"28","value":"Global Findex ( Global Financial Inclusion database)"},"sourceNote":"Denotes the percentage of respondents with a credit card (primary education or less, % age 15+). [w2: data are available for wave 2].","sourceOrganization":"Demirguc-Kunt et al., 2015","topics":[{"id":"7","value":"Financial Sector "}]},{"id":"WP14891.5","name":"Credit card, older adults (% ages 25+) [w2]","source":{"id":"28","value":"Global Findex ( Global Financial Inclusion database)"},"sourceNote":"Denotes the percentage of respondents with a credit card (% age 25+). [w2: data are available for wave 2].","sourceOrganization":"Demirguc-Kunt et al., 2015","topics":[{"id":"7","value":"Financial Sector "}]},{"id":"WP14891.4","name":"Credit card, young adults (% ages 15-24) [w2]","source":{"id":"28","value":"Global Findex ( Global Financial Inclusion database)"},"sourceNote":"Denotes the percentage of respondents with a credit card (% ages 15-24). [w2: data are available for wave 2].","sourceOrganization":"Demirguc-Kunt et al., 2015","topics":[{"id":"7","value":"Financial Sector "}]},{"id":"WP14891.3","name":"Credit card, female (% age 15+) [w2]","source":{"id":"28","value":"Global Findex ( Global Financial Inclusion database)"},"sourceNote":"Denotes the percentage of respondents with a credit card (female, % age 15+). [w2: data are available for wave 2].","sourceOrganization":"Demirguc-Kunt et al., 2015","topics":[{"id":"7","value":"Financial Sector "}]},{"id":"WP14891.2","name":"Credit card, male (% age 15+) [w2]","source":{"id":"28","value":"Global Findex ( Global Financial Inclusion database)"},"sourceNote":"Denotes the percentage of respondents with a credit card (male, % age 15+). [w2: data are available for wave 2].","sourceOrganization":"Demirguc-Kunt et al., 2015","topics":[{"id":"7","value":"Financial Sector "}]},{"id":"WP14891.10","name":"Credit card, rural (% age 15+) [w2]","source":{"id":"28","value":"Global Findex ( Global Financial Inclusion database)"},"sourceNote":"Denotes the percentage of respondents with a credit card (rural, % age 15+). [w2: data are available for wave 2].","sourceOrganization":"Demirguc-Kunt et al., 2015","topics":[{"id":"7","value":"Financial Sector "}]},{"id":"WP14891.1","name":"Credit card (% age 15+) [w2]","source":{"id":"28","value":"Global Findex ( Global Financial Inclusion database)"},"sourceNote":"Denotes the percentage of respondents with a credit card (% age 15+). [w2: data are available for wave 2].","sourceOrganization":"Demirguc-Kunt et al., 2015","topics":[{"id":"7","value":"Financial Sector "}]},{"id":"WP14890.9","name":"Debit card used in the past year, income, richest 60% (% ages 15+) [w2]","source":{"id":"28","value":"Global Findex ( Global Financial Inclusion database)"},"sourceNote":"Denotes the percentage of respondents who report using their own debit card directly to make a purchase in the past 12 months (income, richest 60%, % age 15+). [w2: data are available for wave 2].","sourceOrganization":"Demirguc-Kunt et al., 2015","topics":[{"id":"7","value":"Financial Sector "}]},{"id":"WP14890.8","name":"Debit card used in the past year, income, poorest 40% (% ages 15+) [w2]","source":{"id":"28","value":"Global Findex ( Global Financial Inclusion database)"},"sourceNote":"Denotes the percentage of respondents who report using their own debit card directly to make a purchase in the past 12 months (income, poorest 40%, % age 15+). [w2: data are available for wave 2].","sourceOrganization":"Demirguc-Kunt et al., 2015","topics":[{"id":"7","value":"Financial Sector "}]},{"id":"WP14890.7","name":"Debit card used in the past year, secondary education or more (% ages 15+) [w2]","source":{"id":"28","value":"Global Findex ( Global Financial Inclusion database)"},"sourceNote":"Denotes the percentage of respondents who report using their own debit card directly to make a purchase in the past 12 months (secondary education or more, % age 15+). [w2: data are available for wave 2].","sourceOrganization":"Demirguc-Kunt et al., 2015","topics":[{"id":"7","value":"Financial Sector "}]},{"id":"WP14890.6","name":"Debit card used in the past year, primary education or less (% ages 15+) [w2]","source":{"id":"28","value":"Global Findex ( Global Financial Inclusion database)"},"sourceNote":"Denotes the percentage of respondents who report using their own debit card directly to make a purchase in the past 12 months (primary education or less, % age 15+). [w2: data are available for wave 2].","sourceOrganization":"Demirguc-Kunt et al., 2015","topics":[{"id":"7","value":"Financial Sector "}]},{"id":"WP14890.5","name":"Debit card used in the past year, older adults (% ages 25+) [w2]","source":{"id":"28","value":"Global Findex ( Global Financial Inclusion database)"},"sourceNote":"Denotes the percentage of respondents who report using their own debit card directly to make a purchase in the past 12 months (% age 25+). [w2: data are available for wave 2].","sourceOrganization":"Demirguc-Kunt et al., 2015","topics":[{"id":"7","value":"Financial Sector "}]},{"id":"WP14890.4","name":"Debit card used in the past year, young adults (% ages 15-24) [w2]","source":{"id":"28","value":"Global Findex ( Global Financial Inclusion database)"},"sourceNote":"Denotes the percentage of respondents who report using their own debit card directly to make a purchase in the past 12 months (% ages 15-24). [w2: data are available for wave 2].","sourceOrganization":"Demirguc-Kunt et al., 2015","topics":[{"id":"7","value":"Financial Sector "}]},{"id":"WP14890.3","name":"Debit card used in the past year, female (% age 15+) [w2]","source":{"id":"28","value":"Global Findex ( Global Financial Inclusion database)"},"sourceNote":"Denotes the percentage of respondents who report using their own debit card directly to make a purchase in the past 12 months (female, % age 15+). [w2: data are available for wave 2].","sourceOrganization":"Demirguc-Kunt et al., 2015","topics":[{"id":"7","value":"Financial Sector "}]},{"id":"WP14890.2","name":"Debit card used in the past year, male (% age 15+) [w2]","source":{"id":"28","value":"Global Findex ( Global Financial Inclusion database)"},"sourceNote":"Denotes the percentage of respondents who report using their own debit card directly to make a purchase in the past 12 months (male, % age 15+). [w2: data are available for wave 2].","sourceOrganization":"Demirguc-Kunt et al., 2015","topics":[{"id":"7","value":"Financial Sector "}]},{"id":"WP14890.10","name":"Debit card used in the past year, rural (% age 15+) [w2]","source":{"id":"28","value":"Global Findex ( Global Financial Inclusion database)"},"sourceNote":"Denotes the percentage of respondents who report using their own debit card directly to make a purchase in the past 12 months (rural, % age 15+). [w2: data are available for wave 2].","sourceOrganization":"Demirguc-Kunt et al., 2015","topics":[{"id":"7","value":"Financial Sector "}]},{"id":"WP14890.1","name":"Debit card used in the past year (% age 15+) [w2]","source":{"id":"28","value":"Global Findex ( Global Financial Inclusion database)"},"sourceNote":"Denotes the percentage of respondents who report using their own debit card directly to make a purchase in the past 12 months (% age 15+). [w2: data are available for wave 2].","sourceOrganization":"Demirguc-Kunt et al., 2015","topics":[{"id":"7","value":"Financial Sector "}]},{"id":"WP14889.9","name":"Debit card in own name, income, richest 60% (% ages 15+) [w2]","source":{"id":"28","value":"Global Findex ( Global Financial Inclusion database)"},"sourceNote":"Denotes the percentage of respondents with a debit card linked to an account with their name on it (income, richest 60%, % age 15+). [w2: data are available for wave 2].","sourceOrganization":"Demirguc-Kunt et al., 2015","topics":[{"id":"7","value":"Financial Sector "}]},{"id":"WP14889.8","name":"Debit card in own name, income, poorest 40% (% ages 15+) [w2]","source":{"id":"28","value":"Global Findex ( Global Financial Inclusion database)"},"sourceNote":"Denotes the percentage of respondents with a debit card linked to an account with their name on it (income, poorest 40%, % age 15+). [w2: data are available for wave 2].","sourceOrganization":"Demirguc-Kunt et al., 2015","topics":[{"id":"7","value":"Financial Sector "}]},{"id":"WP14889.7","name":"Debit card in own name, secondary education or more (% ages 15+) [w2]","source":{"id":"28","value":"Global Findex ( Global Financial Inclusion database)"},"sourceNote":"Denotes the percentage of respondents with a debit card linked to an account with their name on it (secondary education or more, % age 15+). [w2: data are available for wave 2].","sourceOrganization":"Demirguc-Kunt et al., 2015","topics":[{"id":"7","value":"Financial Sector "}]},{"id":"WP14889.6","name":"Debit card in own name, primary education or less (% ages 15+) [w2]","source":{"id":"28","value":"Global Findex ( Global Financial Inclusion database)"},"sourceNote":"Denotes the percentage of respondents with a debit card linked to an account with their name on it (primary education or less, % age 15+). [w2: data are available for wave 2].","sourceOrganization":"Demirguc-Kunt et al., 2015","topics":[{"id":"7","value":"Financial Sector "}]},{"id":"WP14889.5","name":"Debit card in own name, older adults (% ages 25+) [w2]","source":{"id":"28","value":"Global Findex ( Global Financial Inclusion database)"},"sourceNote":"Denotes the percentage of respondents with a debit card linked to an account with their name on it (% age 25+). [w2: data are available for wave 2].","sourceOrganization":"Demirguc-Kunt et al., 2015","topics":[{"id":"7","value":"Financial Sector "}]},{"id":"WP14889.4","name":"Debit card in own name, young adults (% ages 15-24) [w2]","source":{"id":"28","value":"Global Findex ( Global Financial Inclusion database)"},"sourceNote":"Denotes the percentage of respondents with a debit card linked to an account with their name on it (% ages 15-24). [w2: data are available for wave 2].","sourceOrganization":"Demirguc-Kunt et al., 2015","topics":[{"id":"7","value":"Financial Sector "}]},{"id":"WP14889.3","name":"Debit card in own name, female (% age 15+) [w2]","source":{"id":"28","value":"Global Findex ( Global Financial Inclusion database)"},"sourceNote":"Denotes the percentage of respondents with a debit card linked to an account with their name on it (female, % age 15+). [w2: data are available for wave 2].","sourceOrganization":"Demirguc-Kunt et al., 2015","topics":[{"id":"7","value":"Financial Sector "}]},{"id":"WP14889.2","name":"Debit card in own name, male (% age 15+) [w2]","source":{"id":"28","value":"Global Findex ( Global Financial Inclusion database)"},"sourceNote":"Denotes the percentage of respondents with a debit card linked to an account with their name on it (male, % age 15+). [w2: data are available for wave 2].","sourceOrganization":"Demirguc-Kunt et al., 2015","topics":[{"id":"7","value":"Financial Sector "}]},{"id":"WP14889.10","name":"Debit card in own name, rural (% age 15+) [w2]","source":{"id":"28","value":"Global Findex ( Global Financial Inclusion database)"},"sourceNote":"Denotes the percentage of respondents with a debit card linked to an account with their name on it (rural, % age 15+). [w2: data are available for wave 2].","sourceOrganization":"Demirguc-Kunt et al., 2015","topics":[{"id":"7","value":"Financial Sector "}]},{"id":"WP14889.1","name":"Debit card in own name (% age 15+) [w2]","source":{"id":"28","value":"Global Findex ( Global Financial Inclusion database)"},"sourceNote":"Denotes the percentage of respondents with a debit card linked to an account with their name on it (% age 15+). [w2: data are available for wave 2].","sourceOrganization":"Demirguc-Kunt et al., 2015","topics":[{"id":"7","value":"Financial Sector "}]},{"id":"WP14888.9","name":"Debit card, income, richest 60% (% ages 15+) [w2]","source":{"id":"28","value":"Global Findex ( Global Financial Inclusion database)"},"sourceNote":"Denotes the percentage of respondents with a debit card (income, richest 60%, % age 15+). [w2: data are available for wave 2].","sourceOrganization":"Demirguc-Kunt et al., 2015","topics":[{"id":"7","value":"Financial Sector "}]},{"id":"WP14888.8","name":"Debit card, income, poorest 40% (% ages 15+) [w2]","source":{"id":"28","value":"Global Findex ( Global Financial Inclusion database)"},"sourceNote":"Denotes the percentage of respondents with a debit card (income, poorest 40%, % age 15+). [w2: data are available for wave 2].","sourceOrganization":"Demirguc-Kunt et al., 2015","topics":[{"id":"7","value":"Financial Sector "}]},{"id":"WP14888.7","name":"Debit card, secondary education or more (% ages 15+) [w2]","source":{"id":"28","value":"Global Findex ( Global Financial Inclusion database)"},"sourceNote":"Denotes the percentage of respondents with a debit card (secondary education or more, % age 15+). [w2: data are available for wave 2].","sourceOrganization":"Demirguc-Kunt et al., 2015","topics":[{"id":"7","value":"Financial Sector "}]},{"id":"WP14888.6","name":"Debit card, primary education or less (% ages 15+) [w2]","source":{"id":"28","value":"Global Findex ( Global Financial Inclusion database)"},"sourceNote":"Denotes the percentage of respondents with a debit card (primary education or less, % age 15+). [w2: data are available for wave 2].","sourceOrganization":"Demirguc-Kunt et al., 2015","topics":[{"id":"7","value":"Financial Sector "}]},{"id":"WP14888.5","name":"Debit card, older adults (% ages 25+) [w2]","source":{"id":"28","value":"Global Findex ( Global Financial Inclusion database)"},"sourceNote":"Denotes the percentage of respondents with a debit card (% age 25+). [w2: data are available for wave 2].","sourceOrganization":"Demirguc-Kunt et al., 2015","topics":[{"id":"7","value":"Financial Sector "}]},{"id":"WP14888.4","name":"Debit card, young adults (% ages 15-24) [w2]","source":{"id":"28","value":"Global Findex ( Global Financial Inclusion database)"},"sourceNote":"Denotes the percentage of respondents with a debit card (% ages 15-24). [w2: data are available for wave 2].","sourceOrganization":"Demirguc-Kunt et al., 2015","topics":[{"id":"7","value":"Financial Sector "}]},{"id":"WP14888.3","name":"Debit card, female (% age 15+) [w2]","source":{"id":"28","value":"Global Findex ( Global Financial Inclusion database)"},"sourceNote":"Denotes the percentage of respondents with a debit card (female, % age 15+). [w2: data are available for wave 2].","sourceOrganization":"Demirguc-Kunt et al., 2015","topics":[{"id":"7","value":"Financial Sector "}]},{"id":"WP14888.2","name":"Debit card, male (% age 15+) [w2]","source":{"id":"28","value":"Global Findex ( Global Financial Inclusion database)"},"sourceNote":"Denotes the percentage of respondents with a debit card (male, % age 15+). [w2: data are available for wave 2].","sourceOrganization":"Demirguc-Kunt et al., 2015","topics":[{"id":"7","value":"Financial Sector "}]},{"id":"WP14888.10","name":"Debit card, rural (% age 15+) [w2]","source":{"id":"28","value":"Global Findex ( Global Financial Inclusion database)"},"sourceNote":"Denotes the percentage of respondents with a debit card (rural, % age 15+). [w2: data are available for wave 2].","sourceOrganization":"Demirguc-Kunt et al., 2015","topics":[{"id":"7","value":"Financial Sector "}]},{"id":"WP14888.1","name":"Debit card (% age 15+) [w2]","source":{"id":"28","value":"Global Findex ( Global Financial Inclusion database)"},"sourceNote":"Denotes the percentage of respondents with a debit card (% age 15+). [w2: data are available for wave 2].","sourceOrganization":"Demirguc-Kunt et al., 2015","topics":[{"id":"7","value":"Financial Sector "}]},{"id":"WP14887_a.9","name":"Account, income, richest 60% (% ages 15+) [w2]","source":{"id":"28","value":"Global Findex ( Global Financial Inclusion database)"},"sourceNote":"Denotes the percentage of respondents who report having an account (by themselves or together with someone else) at a bank or another type of financial institution; having a debit card in their own name; receiving wages, government transfers, or payments for agricultural products into an account at a financial institution or through a mobile phone in the past 12 months; paying utility bills or school fees from an account at a financial institution in the past 12 months; receiving wages or government transfers into a card in the past 12 months; or personally using a mobile phone to pay bills or to send or receive money through a GSM Association (GSMA) Mobile Money for the Unbanked (MMU) service in the past 12 months (income, richest 60%, % age 15+). [w2: data are available for wave 2].","sourceOrganization":"Demirguc-Kunt et al., 2015","topics":[{"id":"7","value":"Financial Sector "}]},{"id":"WP14887_a.8","name":"Account, income, poorest 40% (% ages 15+) [w2]","source":{"id":"28","value":"Global Findex ( Global Financial Inclusion database)"},"sourceNote":"Denotes the percentage of respondents who report having an account (by themselves or together with someone else) at a bank or another type of financial institution; having a debit card in their own name; receiving wages, government transfers, or payments for agricultural products into an account at a financial institution or through a mobile phone in the past 12 months; paying utility bills or school fees from an account at a financial institution in the past 12 months; receiving wages or government transfers into a card in the past 12 months; or personally using a mobile phone to pay bills or to send or receive money through a GSM Association (GSMA) Mobile Money for the Unbanked (MMU) service in the past 12 months (income, poorest 40%, % age 15+). [w2: data are available for wave 2].","sourceOrganization":"Demirguc-Kunt et al., 2015","topics":[{"id":"7","value":"Financial Sector "}]},{"id":"WP14887_a.7","name":"Account, secondary education or more (% ages 15+) [w2]","source":{"id":"28","value":"Global Findex ( Global Financial Inclusion database)"},"sourceNote":"Denotes the percentage of respondents who report having an account (by themselves or together with someone else) at a bank or another type of financial institution; having a debit card in their own name; receiving wages, government transfers, or payments for agricultural products into an account at a financial institution or through a mobile phone in the past 12 months; paying utility bills or school fees from an account at a financial institution in the past 12 months; receiving wages or government transfers into a card in the past 12 months; or personally using a mobile phone to pay bills or to send or receive money through a GSM Association (GSMA) Mobile Money for the Unbanked (MMU) service in the past 12 months (secondary education or more, % age 15+). [w2: data are available for wave 2].","sourceOrganization":"Demirguc-Kunt et al., 2015","topics":[{"id":"7","value":"Financial Sector "}]},{"id":"WP14887_a.6","name":"Account, primary education or less (% ages 15+) [w2]","source":{"id":"28","value":"Global Findex ( Global Financial Inclusion database)"},"sourceNote":"Denotes the percentage of respondents who report having an account (by themselves or together with someone else) at a bank or another type of financial institution; having a debit card in their own name; receiving wages, government transfers, or payments for agricultural products into an account at a financial institution or through a mobile phone in the past 12 months; paying utility bills or school fees from an account at a financial institution in the past 12 months; receiving wages or government transfers into a card in the past 12 months; or personally using a mobile phone to pay bills or to send or receive money through a GSM Association (GSMA) Mobile Money for the Unbanked (MMU) service in the past 12 months (primary education or less, % age 15+). [w2: data are available for wave 2].","sourceOrganization":"Demirguc-Kunt et al., 2015","topics":[{"id":"7","value":"Financial Sector "}]},{"id":"WP14887_a.5","name":"Account, older adults (% ages 25+) [w2]","source":{"id":"28","value":"Global Findex ( Global Financial Inclusion database)"},"sourceNote":"Denotes the percentage of respondents who report having an account (by themselves or together with someone else) at a bank or another type of financial institution; having a debit card in their own name; receiving wages, government transfers, or payments for agricultural products into an account at a financial institution or through a mobile phone in the past 12 months; paying utility bills or school fees from an account at a financial institution in the past 12 months; receiving wages or government transfers into a card in the past 12 months; or personally using a mobile phone to pay bills or to send or receive money through a GSM Association (GSMA) Mobile Money for the Unbanked (MMU) service in the past 12 months (% age 25+). [w2: data are available for wave 2].","sourceOrganization":"Demirguc-Kunt et al., 2015","topics":[{"id":"7","value":"Financial Sector "}]},{"id":"WP14887_a.4","name":"Account, young adults (% ages 15-24) [w2]","source":{"id":"28","value":"Global Findex ( Global Financial Inclusion database)"},"sourceNote":"Denotes the percentage of respondents who report having an account (by themselves or together with someone else) at a bank or another type of financial institution; having a debit card in their own name; receiving wages, government transfers, or payments for agricultural products into an account at a financial institution or through a mobile phone in the past 12 months; paying utility bills or school fees from an account at a financial institution in the past 12 months; receiving wages or government transfers into a card in the past 12 months; or personally using a mobile phone to pay bills or to send or receive money through a GSM Association (GSMA) Mobile Money for the Unbanked (MMU) service in the past 12 months (% ages 15-24). [w2: data are available for wave 2].","sourceOrganization":"Demirguc-Kunt et al., 2015","topics":[{"id":"7","value":"Financial Sector "}]},{"id":"WP14887_a.3","name":"Account, female (% age 15+) [w2]","source":{"id":"28","value":"Global Findex ( Global Financial Inclusion database)"},"sourceNote":"Denotes the percentage of respondents who report having an account (by themselves or together with someone else) at a bank or another type of financial institution; having a debit card in their own name; receiving wages, government transfers, or payments for agricultural products into an account at a financial institution or through a mobile phone in the past 12 months; paying utility bills or school fees from an account at a financial institution in the past 12 months; receiving wages or government transfers into a card in the past 12 months; or personally using a mobile phone to pay bills or to send or receive money through a GSM Association (GSMA) Mobile Money for the Unbanked (MMU) service in the past 12 months (female, % age 15+). [w2: data are available for wave 2].","sourceOrganization":"Demirguc-Kunt et al., 2015","topics":[{"id":"7","value":"Financial Sector "}]}]]