[{"page":47,"pages":324,"per_page":"50","total":16174},[{"id":"DP.DOD.DLTC.CR.PS.CD","name":"168.Long-term, by original maturity (PSDT, LT) US$","source":{"id":"20","value":"Quarterly Public Sector Debt"},"sourceNote":"Member Country","sourceOrganization":"World Bank.","topics":[]},{"id":"DP.DOD.DLTC.CR.PS","name":"392.Long-term, by original maturity (PSDT, LT)","source":{"id":"20","value":"Quarterly Public Sector Debt"},"sourceNote":"","sourceOrganization":"","topics":[]},{"id":"DP.DOD.DLTC.CR.NF.Z1","name":"552.Long-term, by original maturity (PSDNFPC, LT)(% of GDP)","source":{"id":"20","value":"Quarterly Public Sector Debt"},"sourceNote":"The source of non-seasonally adjusted Gross Domestic Product (GDP) data in national currency, at current prices, is the International Finance Statistics quarterly database of the IMF, annualized by the World Bank, unless otherwise specified","sourceOrganization":"","topics":[]},{"id":"DP.DOD.DLTC.CR.NF.CD","name":"104.Long-term, by original maturity (PSDNFPC, LT) US$","source":{"id":"20","value":"Quarterly Public Sector Debt"},"sourceNote":"Member Country","sourceOrganization":"World Bank.","topics":[]},{"id":"DP.DOD.DLTC.CR.NF","name":"328.Long-term, by original maturity (PSDNFPC, LT)","source":{"id":"20","value":"Quarterly Public Sector Debt"},"sourceNote":"","sourceOrganization":"","topics":[]},{"id":"DP.DOD.DLTC.CR.M1.PS.CD","name":"175.With payment due in more than one year (PSDT, LT, >1yr) US$","source":{"id":"20","value":"Quarterly Public Sector Debt"},"sourceNote":"Member Country","sourceOrganization":"World Bank.","topics":[]},{"id":"DP.DOD.DLTC.CR.M1.PS","name":"399.With payment due in more than one year (PSDT, LT, >1yr)","source":{"id":"20","value":"Quarterly Public Sector Debt"},"sourceNote":"","sourceOrganization":"","topics":[]},{"id":"DP.DOD.DLTC.CR.M1.NF.Z1","name":"559.With payment due in more than one year (PSDNFPC, LT, >1yr)(% of GDP)","source":{"id":"20","value":"Quarterly Public Sector Debt"},"sourceNote":"The source of non-seasonally adjusted Gross Domestic Product (GDP) data in national currency, at current prices, is the International Finance Statistics quarterly database of the IMF, annualized by the World Bank, unless otherwise specified","sourceOrganization":"","topics":[]},{"id":"DP.DOD.DLTC.CR.M1.NF.CD","name":"111.With payment due in more than one year (PSDNFPC, LT, >1yr) US$","source":{"id":"20","value":"Quarterly Public Sector Debt"},"sourceNote":"Member Country","sourceOrganization":"World Bank.","topics":[]},{"id":"DP.DOD.DLTC.CR.M1.NF","name":"335.With payment due in more than one year (PSDNFPC, LT, >1yr)","source":{"id":"20","value":"Quarterly Public Sector Debt"},"sourceNote":"","sourceOrganization":"","topics":[]},{"id":"DP.DOD.DLTC.CR.M1.GG.Z1","name":"463.With payment due in more than one year (PSDGG, LT, >1yr)(% of GDP)","source":{"id":"20","value":"Quarterly Public Sector Debt"},"sourceNote":"The source of non-seasonally adjusted Gross Domestic Product (GDP) data in national currency, at current prices, is the International Finance Statistics quarterly database of the IMF, annualized by the World Bank, unless otherwise specified","sourceOrganization":"","topics":[]},{"id":"DP.DOD.DLTC.CR.M1.GG.CD","name":"015.With payment due in more than one year (PSDGG, LT, >1yr) US$","source":{"id":"20","value":"Quarterly Public Sector Debt"},"sourceNote":"Member Country","sourceOrganization":"World Bank.","topics":[]},{"id":"DP.DOD.DLTC.CR.M1.GG","name":"239.With payment due in more than one year (PSDGG, LT, >1yr)","source":{"id":"20","value":"Quarterly Public Sector Debt"},"sourceNote":"","sourceOrganization":"","topics":[]},{"id":"DP.DOD.DLTC.CR.M1.FC.Z1","name":"591.With payment due in more than one year (PSDFPC, LT, >1yr)(% of GDP)","source":{"id":"20","value":"Quarterly Public Sector Debt"},"sourceNote":"The source of non-seasonally adjusted Gross Domestic Product (GDP) data in national currency, at current prices, is the International Finance Statistics quarterly database of the IMF, annualized by the World Bank, unless otherwise specified","sourceOrganization":"","topics":[]},{"id":"DP.DOD.DLTC.CR.M1.FC.CD","name":"143.With payment due in more than one year (PSDFPC, LT, >1yr) US$","source":{"id":"20","value":"Quarterly Public Sector Debt"},"sourceNote":"Member Country","sourceOrganization":"World Bank.","topics":[]},{"id":"DP.DOD.DLTC.CR.M1.FC","name":"367.With payment due in more than one year (PSDFPC, LT, >1yr)","source":{"id":"20","value":"Quarterly Public Sector Debt"},"sourceNote":"","sourceOrganization":"","topics":[]},{"id":"DP.DOD.DLTC.CR.M1.CG.Z1","name":"495.With payment due in more than one year (PSDCG, LT, >1yr)(% of GDP)","source":{"id":"20","value":"Quarterly Public Sector Debt"},"sourceNote":"The source of non-seasonally adjusted Gross Domestic Product (GDP) data in national currency, at current prices, is the International Finance Statistics quarterly database of the IMF, annualized by the World Bank, unless otherwise specified","sourceOrganization":"","topics":[]},{"id":"DP.DOD.DLTC.CR.M1.CG.CD","name":"047.With payment due in more than one year (PSDCG, LT, >1yr) US$","source":{"id":"20","value":"Quarterly Public Sector Debt"},"sourceNote":"Member Country","sourceOrganization":"World Bank.","topics":[]},{"id":"DP.DOD.DLTC.CR.M1.CG","name":"271.With payment due in more than one year (PSDCG, LT, >1yr)","source":{"id":"20","value":"Quarterly Public Sector Debt"},"sourceNote":"","sourceOrganization":"","topics":[]},{"id":"DP.DOD.DLTC.CR.M1.BC.Z1","name":"527.With payment due in more than one year (PSDCGGB, LT, >1yr)(% of GDP)","source":{"id":"20","value":"Quarterly Public Sector Debt"},"sourceNote":"The source of non-seasonally adjusted Gross Domestic Product (GDP) data in national currency, at current prices, is the International Finance Statistics quarterly database of the IMF, annualized by the World Bank, unless otherwise specified","sourceOrganization":"","topics":[]},{"id":"DP.DOD.DLTC.CR.M1.BC.CD","name":"079.With payment due in more than one year (PSDCGGB, LT, >1yr) US$","source":{"id":"20","value":"Quarterly Public Sector Debt"},"sourceNote":"Member Country","sourceOrganization":"World Bank.","topics":[]},{"id":"DP.DOD.DLTC.CR.M1.BC","name":"303.With payment due in more than one year (PSDCGGB, LT, >1yr)","source":{"id":"20","value":"Quarterly Public Sector Debt"},"sourceNote":"","sourceOrganization":"","topics":[]},{"id":"DP.DOD.DLTC.CR.L1.PS.CD","name":"169.With payment due in one year or less (PSDT, LT,<1yr) US$","source":{"id":"20","value":"Quarterly Public Sector Debt"},"sourceNote":"Member Country","sourceOrganization":"World Bank.","topics":[]},{"id":"DP.DOD.DLTC.CR.L1.PS","name":"393.With payment due in one year or less (PSDT, LT,<1yr)","source":{"id":"20","value":"Quarterly Public Sector Debt"},"sourceNote":"","sourceOrganization":"","topics":[]},{"id":"DP.DOD.DLTC.CR.L1.NF.Z1","name":"553.With payment due in one year or less (PSDNFPC, LT, <1yr)(% of GDP)","source":{"id":"20","value":"Quarterly Public Sector Debt"},"sourceNote":"The source of non-seasonally adjusted Gross Domestic Product (GDP) data in national currency, at current prices, is the International Finance Statistics quarterly database of the IMF, annualized by the World Bank, unless otherwise specified","sourceOrganization":"","topics":[]},{"id":"DP.DOD.DLTC.CR.L1.NF.CD","name":"105.With payment due in one year or less (PSDNFPC, LT, <1yr) US$","source":{"id":"20","value":"Quarterly Public Sector Debt"},"sourceNote":"Member Country","sourceOrganization":"World Bank.","topics":[]},{"id":"DP.DOD.DLTC.CR.L1.NF","name":"329.With payment due in one year or less (PSDNFPC, LT, <1yr)","source":{"id":"20","value":"Quarterly Public Sector Debt"},"sourceNote":"","sourceOrganization":"","topics":[]},{"id":"DP.DOD.DLTC.CR.L1.GG.Z1","name":"457.With payment due in one year or less (PSDGG, LT, <1yr)(% of GDP)","source":{"id":"20","value":"Quarterly Public Sector Debt"},"sourceNote":"The source of non-seasonally adjusted Gross Domestic Product (GDP) data in national currency, at current prices, is the International Finance Statistics quarterly database of the IMF, annualized by the World Bank, unless otherwise specified","sourceOrganization":"","topics":[]},{"id":"DP.DOD.DLTC.CR.L1.GG.CD","name":"009.With payment due in one year or less (PSDGG, LT, <1yr) US$","source":{"id":"20","value":"Quarterly Public Sector Debt"},"sourceNote":"Member Country","sourceOrganization":"World Bank.","topics":[]},{"id":"DP.DOD.DLTC.CR.L1.GG","name":"233.With payment due in one year or less (PSDGG, LT, <1yr)","source":{"id":"20","value":"Quarterly Public Sector Debt"},"sourceNote":"","sourceOrganization":"","topics":[]},{"id":"DP.DOD.DLTC.CR.L1.FC.Z1","name":"585.With payment due in one year or less (PSDFPC, LT, <1yr)(% of GDP)","source":{"id":"20","value":"Quarterly Public Sector Debt"},"sourceNote":"The source of non-seasonally adjusted Gross Domestic Product (GDP) data in national currency, at current prices, is the International Finance Statistics quarterly database of the IMF, annualized by the World Bank, unless otherwise specified","sourceOrganization":"","topics":[]},{"id":"DP.DOD.DLTC.CR.L1.FC.CD","name":"137.With payment due in one year or less (PSDFPC, LT, <1yr) US$","source":{"id":"20","value":"Quarterly Public Sector Debt"},"sourceNote":"Member Country","sourceOrganization":"World Bank.","topics":[]},{"id":"DP.DOD.DLTC.CR.L1.FC","name":"361.With payment due in one year or less (PSDFPC, LT, <1yr)","source":{"id":"20","value":"Quarterly Public Sector Debt"},"sourceNote":"","sourceOrganization":"","topics":[]},{"id":"DP.DOD.DLTC.CR.L1.CG.Z1","name":"489.With payment due in one year or less (PSDCG, LT, <1yr)(% of GDP)","source":{"id":"20","value":"Quarterly Public Sector Debt"},"sourceNote":"The source of non-seasonally adjusted Gross Domestic Product (GDP) data in national currency, at current prices, is the International Finance Statistics quarterly database of the IMF, annualized by the World Bank, unless otherwise specified","sourceOrganization":"","topics":[]},{"id":"DP.DOD.DLTC.CR.L1.CG.CD","name":"041.With payment due in one year or less (PSDCG, LT, <1yr) US$","source":{"id":"20","value":"Quarterly Public Sector Debt"},"sourceNote":"Member Country","sourceOrganization":"World Bank.","topics":[]},{"id":"DP.DOD.DLTC.CR.L1.CG","name":"265.With payment due in one year or less (PSDCG, LT, <1yr)","source":{"id":"20","value":"Quarterly Public Sector Debt"},"sourceNote":"","sourceOrganization":"","topics":[]},{"id":"DP.DOD.DLTC.CR.L1.BC.Z1","name":"521.With payment due in one year or less (PSDCGGB, LT, <1yr)(% of GDP)","source":{"id":"20","value":"Quarterly Public Sector Debt"},"sourceNote":"The source of non-seasonally adjusted Gross Domestic Product (GDP) data in national currency, at current prices, is the International Finance Statistics quarterly database of the IMF, annualized by the World Bank, unless otherwise specified","sourceOrganization":"","topics":[]},{"id":"DP.DOD.DLTC.CR.L1.BC.CD","name":"073.With payment due in one year or less (PSDCGGB, LT, <1yr) US$","source":{"id":"20","value":"Quarterly Public Sector Debt"},"sourceNote":"Member Country","sourceOrganization":"World Bank.","topics":[]},{"id":"DP.DOD.DLTC.CR.L1.BC","name":"297.With payment due in one year or less (PSDCGGB, LT, <1yr)","source":{"id":"20","value":"Quarterly Public Sector Debt"},"sourceNote":"","sourceOrganization":"","topics":[]},{"id":"DP.DOD.DLTC.CR.GG.Z1","name":"456.Long-term, by original maturity (PSDGG, LT)(% of GDP)","source":{"id":"20","value":"Quarterly Public Sector Debt"},"sourceNote":"The source of non-seasonally adjusted Gross Domestic Product (GDP) data in national currency, at current prices, is the International Finance Statistics quarterly database of the IMF, annualized by the World Bank, unless otherwise specified","sourceOrganization":"","topics":[]},{"id":"DP.DOD.DLTC.CR.GG.CD","name":"008.Long-term, by original maturity (PSDGG, LT) US$","source":{"id":"20","value":"Quarterly Public Sector Debt"},"sourceNote":"Member Country","sourceOrganization":"World Bank.","topics":[]},{"id":"DP.DOD.DLTC.CR.GG","name":"232.Long-term, by original maturity (PSDGG, LT)","source":{"id":"20","value":"Quarterly Public Sector Debt"},"sourceNote":"","sourceOrganization":"","topics":[]},{"id":"DP.DOD.DLTC.CR.FC.Z1","name":"584.Long-term, by original maturity (PSDFPC, LT)(% of GDP)","source":{"id":"20","value":"Quarterly Public Sector Debt"},"sourceNote":"The source of non-seasonally adjusted Gross Domestic Product (GDP) data in national currency, at current prices, is the International Finance Statistics quarterly database of the IMF, annualized by the World Bank, unless otherwise specified","sourceOrganization":"","topics":[]},{"id":"DP.DOD.DLTC.CR.FC.CD","name":"136.Long-term, by original maturity (PSDFPC, LT) US$","source":{"id":"20","value":"Quarterly Public Sector Debt"},"sourceNote":"Member Country","sourceOrganization":"World Bank.","topics":[]},{"id":"DP.DOD.DLTC.CR.FC","name":"360.Long-term, by original maturity (PSDFPC, LT)","source":{"id":"20","value":"Quarterly Public Sector Debt"},"sourceNote":"","sourceOrganization":"","topics":[]},{"id":"DP.DOD.DLTC.CR.CG.Z1","name":"488.Long-term, by original maturity (PSDCG, LT)(% of GDP)","source":{"id":"20","value":"Quarterly Public Sector Debt"},"sourceNote":"The source of non-seasonally adjusted Gross Domestic Product (GDP) data in national currency, at current prices, is the International Finance Statistics quarterly database of the IMF, annualized by the World Bank, unless otherwise specified","sourceOrganization":"","topics":[]},{"id":"DP.DOD.DLTC.CR.CG.CD","name":"040.Long-term, by original maturity (PSDCG, LT) US$","source":{"id":"20","value":"Quarterly Public Sector Debt"},"sourceNote":"Member Country","sourceOrganization":"World Bank.","topics":[]},{"id":"DP.DOD.DLTC.CR.CG","name":"264.Long-term, by original maturity (PSDCG, LT)","source":{"id":"20","value":"Quarterly Public Sector Debt"},"sourceNote":"","sourceOrganization":"","topics":[]},{"id":"DP.DOD.DLTC.CR.BC.Z1","name":"520.Long-term, by original maturity (PSDCGGB, LT)(% of GDP)","source":{"id":"20","value":"Quarterly Public Sector Debt"},"sourceNote":"The source of non-seasonally adjusted Gross Domestic Product (GDP) data in national currency, at current prices, is the International Finance Statistics quarterly database of the IMF, annualized by the World Bank, unless otherwise specified","sourceOrganization":"","topics":[]},{"id":"DP.DOD.DLTC.CR.BC.CD","name":"072.Long-term, by original maturity (PSDCGGB, LT) US$","source":{"id":"20","value":"Quarterly Public Sector Debt"},"sourceNote":"Member Country","sourceOrganization":"World Bank.","topics":[{}]}]]