[{"page":265,"pages":324,"per_page":"50","total":16174},[{"id":"SH.STA.FEVR.Q1.ZS","name":"Prevalence of children with fever (% of children under 5): Q1 (lowest)","source":{"id":"39","value":"Health Nutrition and Population Statistics by Wealth Quintile"},"sourceNote":"Prevalence of children with fever: Percentage of children under age five years with fever in the two weeks preceding the survey.","sourceOrganization":"Household Surveys (DHS, MICS)","topics":[{"id":"8","value":"Health "}]},{"id":"SH.STA.DIRH.Q5.ZS","name":"Prevalence of diarrhea (% of children under 5): Q5 (highest)","source":{"id":"39","value":"Health Nutrition and Population Statistics by Wealth Quintile"},"sourceNote":"Prevalence of diarrhea: Percentage of children under age five years who had diarrhea in the two weeks preceding the survey.","sourceOrganization":"Household Surveys (DHS, MICS)","topics":[{"id":"8","value":"Health "}]},{"id":"SH.STA.DIRH.Q4.ZS","name":"Prevalence of diarrhea (% of children under 5): Q4","source":{"id":"39","value":"Health Nutrition and Population Statistics by Wealth Quintile"},"sourceNote":"Prevalence of diarrhea: Percentage of children under age five years who had diarrhea in the two weeks preceding the survey.","sourceOrganization":"Household Surveys (DHS, MICS)","topics":[{"id":"8","value":"Health "}]},{"id":"SH.STA.DIRH.Q3.ZS","name":"Prevalence of diarrhea (% of children under 5): Q3","source":{"id":"39","value":"Health Nutrition and Population Statistics by Wealth Quintile"},"sourceNote":"Prevalence of diarrhea: Percentage of children under age five years who had diarrhea in the two weeks preceding the survey.","sourceOrganization":"Household Surveys (DHS, MICS)","topics":[{"id":"8","value":"Health "}]},{"id":"SH.STA.DIRH.Q2.ZS","name":"Prevalence of diarrhea (% of children under 5): Q2","source":{"id":"39","value":"Health Nutrition and Population Statistics by Wealth Quintile"},"sourceNote":"Prevalence of diarrhea: Percentage of children under age five years who had diarrhea in the two weeks preceding the survey.","sourceOrganization":"Household Surveys (DHS, MICS)","topics":[{"id":"8","value":"Health "}]},{"id":"SH.STA.DIRH.Q1.ZS","name":"Prevalence of diarrhea (% of children under 5): Q1 (lowest)","source":{"id":"39","value":"Health Nutrition and Population Statistics by Wealth Quintile"},"sourceNote":"Prevalence of diarrhea: Percentage of children under age five years who had diarrhea in the two weeks preceding the survey.","sourceOrganization":"Household Surveys (DHS, MICS)","topics":[{"id":"8","value":"Health "}]},{"id":"SH.STA.DIAB.ZS","name":"Diabetes prevalence (% of population ages 20 to 79)","source":{"id":"2","value":"World Development Indicators"},"sourceNote":"Diabetes prevalence refers to the percentage of people ages 20-79 who have type 1 or type 2 diabetes.","sourceOrganization":"International Diabetes Federation, Diabetes Atlas.","topics":[{"id":"8","value":"Health "}]},{"id":"SH.STA.BRTW.ZS","name":"Low-birthweight babies (% of births)","source":{"id":"2","value":"World Development Indicators"},"sourceNote":"Low-birthweight babies are newborns weighing less than 2,500 grams, with the measurement taken within the first hours of life, before significant postnatal weight loss has occurred.","sourceOrganization":"UNICEF, State of the World's Children, Childinfo, and Demographic and Health Surveys.","topics":[{"id":"8","value":"Health "}]},{"id":"SH.STA.BRTP.Q5.ZS","name":"Assistance during delivery (doctor) (% of births): Q5 (highest)","source":{"id":"39","value":"Health Nutrition and Population Statistics by Wealth Quintile"},"sourceNote":"Assistance during delivery (Assisted births): Percentage of live births in the three (one, two) years preceding the survey attended by any skilled personnel and by a doctor.  The DHS surveys refer births in the three years preceding the survey, the MICS2 surveys refer births in the one year preceding the survey, and the MICS3 surveys refer births in the two years preceding the survey.","sourceOrganization":"Household Surveys (DHS, MICS)","topics":[{"id":"8","value":"Health "}]},{"id":"SH.STA.BRTP.Q4.ZS","name":"Assistance during delivery (doctor) (% of births): Q4","source":{"id":"39","value":"Health Nutrition and Population Statistics by Wealth Quintile"},"sourceNote":"Assistance during delivery (Assisted births): Percentage of live births in the three (one, two) years preceding the survey attended by any skilled personnel and by a doctor.  The DHS surveys refer births in the three years preceding the survey, the MICS2 surveys refer births in the one year preceding the survey, and the MICS3 surveys refer births in the two years preceding the survey.","sourceOrganization":"Household Surveys (DHS, MICS)","topics":[{"id":"8","value":"Health "}]},{"id":"SH.STA.BRTP.Q3.ZS","name":"Assistance during delivery (doctor) (% of births): Q3","source":{"id":"39","value":"Health Nutrition and Population Statistics by Wealth Quintile"},"sourceNote":"Assistance during delivery (Assisted births): Percentage of live births in the three (one, two) years preceding the survey attended by any skilled personnel and by a doctor.  The DHS surveys refer births in the three years preceding the survey, the MICS2 surveys refer births in the one year preceding the survey, and the MICS3 surveys refer births in the two years preceding the survey.","sourceOrganization":"Household Surveys (DHS, MICS)","topics":[{"id":"8","value":"Health "}]},{"id":"SH.STA.BRTP.Q2.ZS","name":"Assistance during delivery (doctor) (% of births): Q2","source":{"id":"39","value":"Health Nutrition and Population Statistics by Wealth Quintile"},"sourceNote":"Assistance during delivery (Assisted births): Percentage of live births in the three (one, two) years preceding the survey attended by any skilled personnel and by a doctor.  The DHS surveys refer births in the three years preceding the survey, the MICS2 surveys refer births in the one year preceding the survey, and the MICS3 surveys refer births in the two years preceding the survey.","sourceOrganization":"Household Surveys (DHS, MICS)","topics":[{"id":"8","value":"Health "}]},{"id":"SH.STA.BRTP.Q1.ZS","name":"Assistance during delivery (doctor) (% of births): Q1 (lowest)","source":{"id":"39","value":"Health Nutrition and Population Statistics by Wealth Quintile"},"sourceNote":"Assistance during delivery (Assisted births): Percentage of live births in the three (one, two) years preceding the survey attended by any skilled personnel and by a doctor.  The DHS surveys refer births in the three years preceding the survey, the MICS2 surveys refer births in the one year preceding the survey, and the MICS3 surveys refer births in the two years preceding the survey.","sourceOrganization":"Household Surveys (DHS, MICS)","topics":[{"id":"8","value":"Health "}]},{"id":"SH.STA.BRTF.Q5.ZS","name":"Place of delivery (births at health facility) (% of births): Q5 (highest)","source":{"id":"39","value":"Health Nutrition and Population Statistics by Wealth Quintile"},"sourceNote":"Place of delivery (Births at health facility): Percentage of live births in the three years preceding the survey which took place at health facility.","sourceOrganization":"Household Surveys (DHS, MICS)","topics":[{"id":"8","value":"Health "}]},{"id":"SH.STA.BRTF.Q4.ZS","name":"Place of delivery (births at health facility) (% of births): Q4","source":{"id":"39","value":"Health Nutrition and Population Statistics by Wealth Quintile"},"sourceNote":"Place of delivery (Births at health facility): Percentage of live births in the three years preceding the survey which took place at health facility.","sourceOrganization":"Household Surveys (DHS, MICS)","topics":[{"id":"8","value":"Health "}]},{"id":"SH.STA.BRTF.Q3.ZS","name":"Place of delivery (births at health facility) (% of births): Q3","source":{"id":"39","value":"Health Nutrition and Population Statistics by Wealth Quintile"},"sourceNote":"Place of delivery (Births at health facility): Percentage of live births in the three years preceding the survey which took place at health facility.","sourceOrganization":"Household Surveys (DHS, MICS)","topics":[{"id":"8","value":"Health "}]},{"id":"SH.STA.BRTF.Q2.ZS","name":"Place of delivery (births at health facility) (% of births): Q2","source":{"id":"39","value":"Health Nutrition and Population Statistics by Wealth Quintile"},"sourceNote":"Place of delivery (Births at health facility): Percentage of live births in the three years preceding the survey which took place at health facility.","sourceOrganization":"Household Surveys (DHS, MICS)","topics":[{"id":"8","value":"Health "}]},{"id":"SH.STA.BRTF.Q1.ZS","name":"Place of delivery (births at health facility) (% of births): Q1 (lowest)","source":{"id":"39","value":"Health Nutrition and Population Statistics by Wealth Quintile"},"sourceNote":"Place of delivery (Births at health facility): Percentage of live births in the three years preceding the survey which took place at health facility.","sourceOrganization":"Household Surveys (DHS, MICS)","topics":[{"id":"8","value":"Health "}]},{"id":"SH.STA.BRTC.ZS","name":"Births attended by skilled health staff (% of total)","source":{"id":"2","value":"World Development Indicators"},"sourceNote":"Births attended by skilled health staff are the percentage of deliveries attended by personnel trained to give the necessary supervision, care, and advice to women during pregnancy, labor, and the postpartum period; to conduct deliveries on their own; and to care for newborns.","sourceOrganization":"UNICEF, State of the World's Children, Childinfo, and Demographic and Health Surveys.","topics":[{"id":"8","value":"Health "},{"id":"17","value":"Gender"}]},{"id":"SH.STA.BRTC.Q5.ZS","name":"Assistance during delivery (any skilled personnel) (% of births): Q5 (highest)","source":{"id":"39","value":"Health Nutrition and Population Statistics by Wealth Quintile"},"sourceNote":"Assistance during delivery (Assisted births): Percentage of live births in the three (one, two) years preceding the survey attended by any skilled personnel and by a doctor.  The DHS surveys refer births in the three years preceding the survey, the MICS2 surveys refer births in the one year preceding the survey, and the MICS3 surveys refer births in the two years preceding the survey.","sourceOrganization":"Household Surveys (DHS, MICS)","topics":[{"id":"8","value":"Health "}]},{"id":"SH.STA.BRTC.Q4.ZS","name":"Assistance during delivery (any skilled personnel) (% of births): Q4","source":{"id":"39","value":"Health Nutrition and Population Statistics by Wealth Quintile"},"sourceNote":"Assistance during delivery (Assisted births): Percentage of live births in the three (one, two) years preceding the survey attended by any skilled personnel and by a doctor.  The DHS surveys refer births in the three years preceding the survey, the MICS2 surveys refer births in the one year preceding the survey, and the MICS3 surveys refer births in the two years preceding the survey.","sourceOrganization":"Household Surveys (DHS, MICS)","topics":[{"id":"8","value":"Health "}]},{"id":"SH.STA.BRTC.Q3.ZS","name":"Assistance during delivery (any skilled personnel) (% of births): Q3","source":{"id":"39","value":"Health Nutrition and Population Statistics by Wealth Quintile"},"sourceNote":"Assistance during delivery (Assisted births): Percentage of live births in the three (one, two) years preceding the survey attended by any skilled personnel and by a doctor.  The DHS surveys refer births in the three years preceding the survey, the MICS2 surveys refer births in the one year preceding the survey, and the MICS3 surveys refer births in the two years preceding the survey.","sourceOrganization":"Household Surveys (DHS, MICS)","topics":[{"id":"8","value":"Health "}]},{"id":"SH.STA.BRTC.Q2.ZS","name":"Assistance during delivery (any skilled personnel) (% of births): Q2","source":{"id":"39","value":"Health Nutrition and Population Statistics by Wealth Quintile"},"sourceNote":"Assistance during delivery (Assisted births): Percentage of live births in the three (one, two) years preceding the survey attended by any skilled personnel and by a doctor.  The DHS surveys refer births in the three years preceding the survey, the MICS2 surveys refer births in the one year preceding the survey, and the MICS3 surveys refer births in the two years preceding the survey.","sourceOrganization":"Household Surveys (DHS, MICS)","topics":[{"id":"8","value":"Health "}]},{"id":"SH.STA.BRTC.Q1.ZS","name":"Assistance during delivery (any skilled personnel) (% of births): Q1 (lowest)","source":{"id":"39","value":"Health Nutrition and Population Statistics by Wealth Quintile"},"sourceNote":"Assistance during delivery (Assisted births): Percentage of live births in the three (one, two) years preceding the survey attended by any skilled personnel and by a doctor.  The DHS surveys refer births in the three years preceding the survey, the MICS2 surveys refer births in the one year preceding the survey, and the MICS3 surveys refer births in the two years preceding the survey.","sourceOrganization":"Household Surveys (DHS, MICS)","topics":[{"id":"8","value":"Health "}]},{"id":"SH.STA.BFED.ZS","name":"Exclusive breastfeeding (% of children under 6 months)","source":{"id":"2","value":"World Development Indicators"},"sourceNote":"Exclusive breastfeeding refers to the percentage of children less than six months old who are fed breast milk alone (no other liquids) in the past 24 hours.","sourceOrganization":"UNICEF, State of the World's Children, Childinfo, and Demographic and Health Surveys.","topics":[{"id":"8","value":"Health "}]},{"id":"SH.STA.BFED.Q5.ZS","name":"Breastfeeding (% of children under 6 months): Q5 (highest)","source":{"id":"39","value":"Health Nutrition and Population Statistics by Wealth Quintile"},"sourceNote":"Breastfeeding: The percentage of children under age 6 months who were breastfed six or more times in the 24 hours preceding the interview.","sourceOrganization":"Household Surveys (DHS, MICS)","topics":[{"id":"8","value":"Health "}]},{"id":"SH.STA.BFED.Q4.ZS","name":"Breastfeeding (% of children under 6 months): Q4","source":{"id":"39","value":"Health Nutrition and Population Statistics by Wealth Quintile"},"sourceNote":"Breastfeeding: The percentage of children under age 6 months who were breastfed six or more times in the 24 hours preceding the interview.","sourceOrganization":"Household Surveys (DHS, MICS)","topics":[{"id":"8","value":"Health "}]},{"id":"SH.STA.BFED.Q3.ZS","name":"Breastfeeding (% of children under 6 months): Q3","source":{"id":"39","value":"Health Nutrition and Population Statistics by Wealth Quintile"},"sourceNote":"Breastfeeding: The percentage of children under age 6 months who were breastfed six or more times in the 24 hours preceding the interview.","sourceOrganization":"Household Surveys (DHS, MICS)","topics":[{"id":"8","value":"Health "}]},{"id":"SH.STA.BFED.Q2.ZS","name":"Breastfeeding (% of children under 6 months): Q2","source":{"id":"39","value":"Health Nutrition and Population Statistics by Wealth Quintile"},"sourceNote":"Breastfeeding: The percentage of children under age 6 months who were breastfed six or more times in the 24 hours preceding the interview.","sourceOrganization":"Household Surveys (DHS, MICS)","topics":[{"id":"8","value":"Health "}]},{"id":"SH.STA.BFED.Q1.ZS","name":"Breastfeeding (% of children under 6 months): Q1 (lowest)","source":{"id":"39","value":"Health Nutrition and Population Statistics by Wealth Quintile"},"sourceNote":"Breastfeeding: The percentage of children under age 6 months who were breastfed six or more times in the 24 hours preceding the interview.","sourceOrganization":"Household Surveys (DHS, MICS)","topics":[{"id":"8","value":"Health "}]},{"id":"SH.STA.ARIF.Q5.ZS","name":"Prevalence of acute respiratory infection (ARI) (% of children under 5): Q5 (highest)","source":{"id":"39","value":"Health Nutrition and Population Statistics by Wealth Quintile"},"sourceNote":"Prevalence of acute respiratory infection (ARI): Percentage of children under age five years who were ill with a cough accompanied with rapid breathing in the two weeks preceding the survey.","sourceOrganization":"Household Surveys (DHS, MICS)","topics":[{"id":"8","value":"Health "}]},{"id":"SH.STA.ARIF.Q4.ZS","name":"Prevalence of acute respiratory infection (ARI) (% of children under 5): Q4","source":{"id":"39","value":"Health Nutrition and Population Statistics by Wealth Quintile"},"sourceNote":"Prevalence of acute respiratory infection (ARI): Percentage of children under age five years who were ill with a cough accompanied with rapid breathing in the two weeks preceding the survey.","sourceOrganization":"Household Surveys (DHS, MICS)","topics":[{"id":"8","value":"Health "}]},{"id":"SH.STA.ARIF.Q3.ZS","name":"Prevalence of acute respiratory infection (ARI) (% of children under 5): Q3","source":{"id":"39","value":"Health Nutrition and Population Statistics by Wealth Quintile"},"sourceNote":"Prevalence of acute respiratory infection (ARI): Percentage of children under age five years who were ill with a cough accompanied with rapid breathing in the two weeks preceding the survey.","sourceOrganization":"Household Surveys (DHS, MICS)","topics":[{"id":"8","value":"Health "}]},{"id":"SH.STA.ARIF.Q2.ZS","name":"Prevalence of acute respiratory infection (ARI) (% of children under 5): Q2","source":{"id":"39","value":"Health Nutrition and Population Statistics by Wealth Quintile"},"sourceNote":"Prevalence of acute respiratory infection (ARI): Percentage of children under age five years who were ill with a cough accompanied with rapid breathing in the two weeks preceding the survey.","sourceOrganization":"Household Surveys (DHS, MICS)","topics":[{"id":"8","value":"Health "}]},{"id":"SH.STA.ARIF.Q1.ZS","name":"Prevalence of acute respiratory infection (ARI) (% of children under 5): Q1 (lowest)","source":{"id":"39","value":"Health Nutrition and Population Statistics by Wealth Quintile"},"sourceNote":"Prevalence of acute respiratory infection (ARI): Percentage of children under age five years who were ill with a cough accompanied with rapid breathing in the two weeks preceding the survey.","sourceOrganization":"Household Surveys (DHS, MICS)","topics":[{"id":"8","value":"Health "}]},{"id":"SH.STA.ARIC.ZS","name":"ARI treatment (% of children under 5 taken to a health provider)","source":{"id":"2","value":"World Development Indicators"},"sourceNote":"Children with acute respiratory infection (ARI) who are taken to a health provider refers to the percentage of children under age five with ARI in the last two weeks who were taken to an appropriate health provider, including hospital, health center, dispensary, village health worker, clinic, and private physician.","sourceOrganization":"UNICEF, State of the World's Children, Childinfo, and Demographic and Health Surveys.","topics":[{"id":"8","value":"Health "}]},{"id":"SH.STA.ARIC.Q5.ZS","name":"Treatment of acute respiratory infection (ARI) (% of children under 5 taken to a health provider): Q5 (highest)","source":{"id":"39","value":"Health Nutrition and Population Statistics by Wealth Quintile"},"sourceNote":"Treatment of acute respiratory infection (ARI): Percentage of children under age five years with acute respiratory infection (ARI) in the two weeks preceding the survey who were taken to a health facility.","sourceOrganization":"Household Surveys (DHS, MICS)","topics":[{"id":"8","value":"Health "}]},{"id":"SH.STA.ARIC.Q4.ZS","name":"Treatment of acute respiratory infection (ARI) (% of children under 5 taken to a health provider): Q4","source":{"id":"39","value":"Health Nutrition and Population Statistics by Wealth Quintile"},"sourceNote":"Treatment of acute respiratory infection (ARI): Percentage of children under age five years with acute respiratory infection (ARI) in the two weeks preceding the survey who were taken to a health facility.","sourceOrganization":"Household Surveys (DHS, MICS)","topics":[{"id":"8","value":"Health "}]},{"id":"SH.STA.ARIC.Q3.ZS","name":"Treatment of acute respiratory infection (ARI) (% of children under 5 taken to a health provider): Q3","source":{"id":"39","value":"Health Nutrition and Population Statistics by Wealth Quintile"},"sourceNote":"Treatment of acute respiratory infection (ARI): Percentage of children under age five years with acute respiratory infection (ARI) in the two weeks preceding the survey who were taken to a health facility.","sourceOrganization":"Household Surveys (DHS, MICS)","topics":[{"id":"8","value":"Health "}]},{"id":"SH.STA.ARIC.Q2.ZS","name":"Treatment of acute respiratory infection (ARI) (% of children under 5 taken to a health provider): Q2","source":{"id":"39","value":"Health Nutrition and Population Statistics by Wealth Quintile"},"sourceNote":"Treatment of acute respiratory infection (ARI): Percentage of children under age five years with acute respiratory infection (ARI) in the two weeks preceding the survey who were taken to a health facility.","sourceOrganization":"Household Surveys (DHS, MICS)","topics":[{"id":"8","value":"Health "}]},{"id":"SH.STA.ARIC.Q1.ZS","name":"Treatment of acute respiratory infection (ARI) (% of children under 5 taken to a health provider): Q1 (lowest)","source":{"id":"39","value":"Health Nutrition and Population Statistics by Wealth Quintile"},"sourceNote":"Treatment of acute respiratory infection (ARI): Percentage of children under age five years with acute respiratory infection (ARI) in the two weeks preceding the survey who were taken to a health facility.","sourceOrganization":"Household Surveys (DHS, MICS)","topics":[{"id":"8","value":"Health "}]},{"id":"SH.STA.ANVP.Q5.ZS","name":"Antenatal care (doctor) (% of women with a birth): Q5 (highest)","source":{"id":"39","value":"Health Nutrition and Population Statistics by Wealth Quintile"},"sourceNote":"Antenatal care: Percentage of women with one or more live births in the three (one, two) years preceding the survey who have received at least one antenatal care during pregnancy before the most recent birth from any skilled personnel and from a doctor. If the respondent mentioned more than one provider, only the most qualified provider is considered. The DHS surveys refer births in the three years preceding the survey, the MICS2 surveys refer births in the one year preceding the survey, and the MICS3 surveys refer births in the two years preceding the survey.","sourceOrganization":"Household Surveys (DHS, MICS)","topics":[{"id":"8","value":"Health "}]},{"id":"SH.STA.ANVP.Q4.ZS","name":"Antenatal care (doctor) (% of women with a birth): Q4","source":{"id":"39","value":"Health Nutrition and Population Statistics by Wealth Quintile"},"sourceNote":"Antenatal care: Percentage of women with one or more live births in the three (one, two) years preceding the survey who have received at least one antenatal care during pregnancy before the most recent birth from any skilled personnel and from a doctor. If the respondent mentioned more than one provider, only the most qualified provider is considered. The DHS surveys refer births in the three years preceding the survey, the MICS2 surveys refer births in the one year preceding the survey, and the MICS3 surveys refer births in the two years preceding the survey.","sourceOrganization":"Household Surveys (DHS, MICS)","topics":[{"id":"8","value":"Health "}]},{"id":"SH.STA.ANVP.Q3.ZS","name":"Antenatal care (doctor) (% of women with a birth): Q3","source":{"id":"39","value":"Health Nutrition and Population Statistics by Wealth Quintile"},"sourceNote":"Antenatal care: Percentage of women with one or more live births in the three (one, two) years preceding the survey who have received at least one antenatal care during pregnancy before the most recent birth from any skilled personnel and from a doctor. If the respondent mentioned more than one provider, only the most qualified provider is considered. The DHS surveys refer births in the three years preceding the survey, the MICS2 surveys refer births in the one year preceding the survey, and the MICS3 surveys refer births in the two years preceding the survey.","sourceOrganization":"Household Surveys (DHS, MICS)","topics":[{"id":"8","value":"Health "}]},{"id":"SH.STA.ANVP.Q2.ZS","name":"Antenatal care (doctor) (% of women with a birth): Q2","source":{"id":"39","value":"Health Nutrition and Population Statistics by Wealth Quintile"},"sourceNote":"Antenatal care: Percentage of women with one or more live births in the three (one, two) years preceding the survey who have received at least one antenatal care during pregnancy before the most recent birth from any skilled personnel and from a doctor. If the respondent mentioned more than one provider, only the most qualified provider is considered. The DHS surveys refer births in the three years preceding the survey, the MICS2 surveys refer births in the one year preceding the survey, and the MICS3 surveys refer births in the two years preceding the survey.","sourceOrganization":"Household Surveys (DHS, MICS)","topics":[{"id":"8","value":"Health "}]},{"id":"SH.STA.ANVP.Q1.ZS","name":"Antenatal care (doctor) (% of women with a birth): Q1 (lowest)","source":{"id":"39","value":"Health Nutrition and Population Statistics by Wealth Quintile"},"sourceNote":"Antenatal care: Percentage of women with one or more live births in the three (one, two) years preceding the survey who have received at least one antenatal care during pregnancy before the most recent birth from any skilled personnel and from a doctor. If the respondent mentioned more than one provider, only the most qualified provider is considered. The DHS surveys refer births in the three years preceding the survey, the MICS2 surveys refer births in the one year preceding the survey, and the MICS3 surveys refer births in the two years preceding the survey.","sourceOrganization":"Household Surveys (DHS, MICS)","topics":[{"id":"8","value":"Health "}]},{"id":"SH.STA.ANVC.ZS","name":"Pregnant women receiving prenatal care (%)","source":{"id":"2","value":"World Development Indicators"},"sourceNote":"Pregnant women receiving prenatal care are the percentage of women attended at least once during pregnancy by skilled health personnel for reasons related to pregnancy.","sourceOrganization":"UNICEF, State of the World's Children, Childinfo, and Demographic and Health Surveys.","topics":[{"id":"8","value":"Health "},{"id":"17","value":"Gender"},{"id":"2","value":"Aid Effectiveness "}]},{"id":"SH.STA.ANVC.Q5.ZS","name":"Antenatal care (any skilled personnel) (% of women with a birth): Q5 (highest)","source":{"id":"39","value":"Health Nutrition and Population Statistics by Wealth Quintile"},"sourceNote":"Antenatal care: Percentage of women with one or more live births in the three (one, two) years preceding the survey who have received at least one antenatal care during pregnancy before the most recent birth from any skilled personnel and from a doctor. If the respondent mentioned more than one provider, only the most qualified provider is considered. The DHS surveys refer births in the three years preceding the survey, the MICS2 surveys refer births in the one year preceding the survey, and the MICS3 surveys refer births in the two years preceding the survey.","sourceOrganization":"Household Surveys (DHS, MICS)","topics":[{"id":"8","value":"Health "}]},{"id":"SH.STA.ANVC.Q4.ZS","name":"Antenatal care (any skilled personnel) (% of women with a birth): Q4","source":{"id":"39","value":"Health Nutrition and Population Statistics by Wealth Quintile"},"sourceNote":"Antenatal care: Percentage of women with one or more live births in the three (one, two) years preceding the survey who have received at least one antenatal care during pregnancy before the most recent birth from any skilled personnel and from a doctor. If the respondent mentioned more than one provider, only the most qualified provider is considered. The DHS surveys refer births in the three years preceding the survey, the MICS2 surveys refer births in the one year preceding the survey, and the MICS3 surveys refer births in the two years preceding the survey.","sourceOrganization":"Household Surveys (DHS, MICS)","topics":[{"id":"8","value":"Health "}]},{"id":"SH.STA.ANVC.Q3.ZS","name":"Antenatal care (any skilled personnel) (% of women with a birth): Q3","source":{"id":"39","value":"Health Nutrition and Population Statistics by Wealth Quintile"},"sourceNote":"Antenatal care: Percentage of women with one or more live births in the three (one, two) years preceding the survey who have received at least one antenatal care during pregnancy before the most recent birth from any skilled personnel and from a doctor. If the respondent mentioned more than one provider, only the most qualified provider is considered. The DHS surveys refer births in the three years preceding the survey, the MICS2 surveys refer births in the one year preceding the survey, and the MICS3 surveys refer births in the two years preceding the survey.","sourceOrganization":"Household Surveys (DHS, MICS)","topics":[{"id":"8","value":"Health "}]}]]