[{"page":272,"pages":324,"per_page":"50","total":16174},[{"id":"SL.WAG.0714.ZS","name":"Children in employment, wage workers (% of children in employment, ages 7-14)","source":{"id":"2","value":"World Development Indicators"},"sourceNote":"Wage workers (also known as employees) are people who hold explicit (written or oral) or implicit employment contracts that provide basic remuneration that does not depend directly on the revenue of the unit for which they work.","sourceOrganization":"Understanding Children's Work project based on data from ILO, UNICEF and the World Bank.","topics":[{"id":"10","value":"Social Protection & Labor"}]},{"id":"SL.WAG.0714.MA.ZS","name":"Children in employment, wage workers, male (% of male children in employment, ages 7-14)","source":{"id":"2","value":"World Development Indicators"},"sourceNote":"Wage workers (also known as employees) are people who hold explicit (written or oral) or implicit employment contracts that provide basic remuneration that does not depend directly on the revenue of the unit for which they work.","sourceOrganization":"Understanding Children's Work project based on data from ILO, UNICEF and the World Bank.","topics":[{"id":"10","value":"Social Protection & Labor"}]},{"id":"SL.WAG.0714.FE.ZS","name":"Children in employment, wage workers, female (% of female children in employment, ages 7-14)","source":{"id":"2","value":"World Development Indicators"},"sourceNote":"Wage workers (also known as employees) are people who hold explicit (written or oral) or implicit employment contracts that provide basic remuneration that does not depend directly on the revenue of the unit for which they work.","sourceOrganization":"Understanding Children's Work project based on data from ILO, UNICEF and the World Bank.","topics":[{"id":"10","value":"Social Protection & Labor"}]},{"id":"SL.UEM.TOTL.ZS","name":"Unemployment, total (% of total labor force) (modeled ILO estimate)","source":{"id":"2","value":"World Development Indicators"},"sourceNote":"Unemployment refers to the share of the labor force that is without work but available for and seeking employment.","sourceOrganization":"International Labour Organization, ILOSTAT database.","topics":[{"id":"4","value":"Education "},{"id":"10","value":"Social Protection & Labor"}]},{"id":"SL.UEM.TOTL.NE.ZS","name":"Unemployment, total (% of total labor force) (national estimate)","source":{"id":"2","value":"World Development Indicators"},"sourceNote":"Unemployment refers to the share of the labor force that is without work but available for and seeking employment. Definitions of labor force and unemployment differ by country.","sourceOrganization":"International Labour Organization, Key Indicators of the Labour Market database.","topics":[{"id":"10","value":"Social Protection & Labor"}]},{"id":"SL.UEM.TOTL.MA.ZS","name":"Unemployment, male (% of male labor force) (modeled ILO estimate)","source":{"id":"2","value":"World Development Indicators"},"sourceNote":"Unemployment refers to the share of the labor force that is without work but available for and seeking employment.","sourceOrganization":"International Labour Organization, ILOSTAT database.","topics":[{"id":"4","value":"Education "},{"id":"10","value":"Social Protection & Labor"},{"id":"17","value":"Gender"},{"id":"15","value":"Social Development "}]},{"id":"SL.UEM.TOTL.MA.NE.ZS","name":"Unemployment, male (% of male labor force) (national estimate)","source":{"id":"2","value":"World Development Indicators"},"sourceNote":"Unemployment refers to the share of the labor force that is without work but available for and seeking employment. Definitions of labor force and unemployment differ by country.","sourceOrganization":"International Labour Organization, Key Indicators of the Labour Market database.","topics":[{"id":"10","value":"Social Protection & Labor"}]},{"id":"SL.UEM.TOTL.FE.ZS","name":"Unemployment, female (% of female labor force) (modeled ILO estimate)","source":{"id":"2","value":"World Development Indicators"},"sourceNote":"Unemployment refers to the share of the labor force that is without work but available for and seeking employment.","sourceOrganization":"International Labour Organization, ILOSTAT database.","topics":[{"id":"4","value":"Education "},{"id":"10","value":"Social Protection & Labor"},{"id":"17","value":"Gender"},{"id":"15","value":"Social Development "}]},{"id":"SL.UEM.TOTL.FE.NE.ZS","name":"Unemployment, female (% of female labor force) (national estimate)","source":{"id":"2","value":"World Development Indicators"},"sourceNote":"Unemployment refers to the share of the labor force that is without work but available for and seeking employment. Definitions of labor force and unemployment differ by country.","sourceOrganization":"International Labour Organization, Key Indicators of the Labour Market database.","topics":[{"id":"10","value":"Social Protection & Labor"}]},{"id":"SL.UEM.TOTL","name":"Number of people unemployed","source":{"id":"45","value":"INDO-DAPOER"},"sourceNote":"","sourceOrganization":"BADAN PUSAT STATISTIK - Statistics Indonesia, Labor Survey (SAKERNAS)","topics":[]},{"id":"SL.UEM.NEET.ZS","name":"Share of youth not in education, employment or training, total (% of youth population)","source":{"id":"2","value":"World Development Indicators"},"sourceNote":"Share of youth not in education, employment or training (NEET) is the proportion of young people who are not in education, employment, or training to the population of the corresponding age group: youth (ages 15 to 24); persons ages 15 to 29; or both age groups.","sourceOrganization":"International Labour Organization, Key Indicators of the Labour Market database.","topics":[{"id":"10","value":"Social Protection & Labor"}]},{"id":"SL.UEM.NEET.MA.ZS","name":"Share of youth not in education, employment or training, male (% of male youth population)","source":{"id":"2","value":"World Development Indicators"},"sourceNote":"Share of youth not in education, employment or training (NEET) is the proportion of young people who are not in education, employment, or training to the population of the corresponding age group: youth (ages 15 to 24); persons ages 15 to 29; or both age groups.","sourceOrganization":"International Labour Organization, Key Indicators of the Labour Market database.","topics":[{"id":"10","value":"Social Protection & Labor"}]},{"id":"SL.UEM.NEET.FE.ZS","name":"Share of youth not in education, employment or training, female (% of female youth population)","source":{"id":"2","value":"World Development Indicators"},"sourceNote":"Share of youth not in education, employment or training (NEET) is the proportion of young people who are not in education, employment, or training to the population of the corresponding age group: youth (ages 15 to 24); persons ages 15 to 29; or both age groups.","sourceOrganization":"International Labour Organization, Key Indicators of the Labour Market database.","topics":[{"id":"10","value":"Social Protection & Labor"}]},{"id":"SL.UEM.INTM.ZS","name":"Unemployment with intermediate education (% of total unemployment)","source":{"id":"2","value":"World Development Indicators"},"sourceNote":"The share of the total unemployment that attained or completed intermediate education as the highest level of education. Intermediate education comprises of upper secondary and post-secondary non tertiary education in the International Standard Classification of Education 2011 (ISCED 2011).","sourceOrganization":"International Labour Organization, ILOSTAT database.","topics":[{"id":"10","value":"Social Protection & Labor"}]},{"id":"SL.UEM.INTM.MA.ZS","name":"Unemployment with intermediate education, male","source":{"id":"2","value":"World Development Indicators"},"sourceNote":"The share of the male unemployment that attained or completed intermediate education as the highest level of education. Intermediate education comprises of upper secondary and post-secondary non tertiary education in the International Standard Classification of Education 2011 (ISCED 2011).","sourceOrganization":"International Labour Organization, ILOSTAT database.","topics":[{"id":"10","value":"Social Protection & Labor"}]},{"id":"SL.UEM.INTM.FE.ZS","name":"Unemployment with intermediate education, female","source":{"id":"2","value":"World Development Indicators"},"sourceNote":"The share of the female unemployment that attained or completed intermediate education as the highest level of education. Intermediate education comprises of upper secondary and post-secondary non tertiary education in the International Standard Classification of Education 2011 (ISCED 2011).","sourceOrganization":"International Labour Organization, ILOSTAT database.","topics":[{"id":"10","value":"Social Protection & Labor"}]},{"id":"SL.UEM.BASC.ZS","name":"Unemployment with basic education (% of total unemployment)","source":{"id":"2","value":"World Development Indicators"},"sourceNote":"The share of the total unemployment that attained or completed basic education as the highest level of education. Basic education comprises of primary education and lower secondary education in the International Standard Classification of Education 2011 (ISCED 2011).","sourceOrganization":"International Labour Organization, ILOSTAT database.","topics":[{"id":"10","value":"Social Protection & Labor"}]},{"id":"SL.UEM.BASC.MA.ZS","name":"Unemployment with basic education, male","source":{"id":"2","value":"World Development Indicators"},"sourceNote":"The share of the male unemployment that attained or completed basic education as the highest level of education. Basic education comprises of primary education and lower secondary education in the International Standard Classification of Education 2011 (ISCED 2011).","sourceOrganization":"International Labour Organization, ILOSTAT database.","topics":[{"id":"10","value":"Social Protection & Labor"}]},{"id":"SL.UEM.BASC.FE.ZS","name":"Unemployment with basic education, female","source":{"id":"2","value":"World Development Indicators"},"sourceNote":"The share of the female unemployment that attained or completed basic education as the highest level of education. Basic education comprises of primary education and lower secondary education in the International Standard Classification of Education 2011 (ISCED 2011).","sourceOrganization":"International Labour Organization, ILOSTAT database.","topics":[{"id":"10","value":"Social Protection & Labor"}]},{"id":"SL.UEM.ADVN.ZS","name":"Unemployment with advanced education (% of total unemployment)","source":{"id":"2","value":"World Development Indicators"},"sourceNote":"The share of the total unemployment that attained or completed advanced education as the highest level of education. Advanced education comprises of short-cycle tertiary, bachelor’s or equivalent level, mater’s or equivalent level, and doctoral or equivalent level in the International Standard Classification of Education 2011 (ISCED 2011).","sourceOrganization":"International Labour Organization, ILOSTAT database.","topics":[{"id":"10","value":"Social Protection & Labor"}]},{"id":"SL.UEM.ADVN.MA.ZS","name":"Unemployment with advanced education, male","source":{"id":"2","value":"World Development Indicators"},"sourceNote":"The share of the male unemployment that attained or completed advanced education as the highest level of education. Advanced education comprises of short-cycle tertiary, bachelor’s or equivalent level, mater’s or equivalent level, and doctoral or equivalent level in the International Standard Classification of Education 2011 (ISCED 2011).","sourceOrganization":"International Labour Organization, ILOSTAT database.","topics":[{"id":"10","value":"Social Protection & Labor"}]},{"id":"SL.UEM.ADVN.FE.ZS","name":"Unemployment with advanced education, female","source":{"id":"2","value":"World Development Indicators"},"sourceNote":"The share of the female unemployment that attained or completed advanced education as the highest level of education. Advanced education comprises of short-cycle tertiary, bachelor’s or equivalent level, mater’s or equivalent level, and doctoral or equivalent level in the International Standard Classification of Education 2011 (ISCED 2011).","sourceOrganization":"International Labour Organization, ILOSTAT database.","topics":[{"id":"10","value":"Social Protection & Labor"}]},{"id":"SL.UEM.1524.ZS","name":"Unemployment, youth total (% of total labor force ages 15-24) (modeled ILO estimate)","source":{"id":"2","value":"World Development Indicators"},"sourceNote":"Youth unemployment refers to the share of the labor force ages 15-24 without work but available for and seeking employment.","sourceOrganization":"International Labour Organization, ILOSTAT database.","topics":[{"id":"10","value":"Social Protection & Labor"}]},{"id":"SL.UEM.1524.NE.ZS","name":"Unemployment, youth total (% of total labor force ages 15-24) (national estimate)","source":{"id":"2","value":"World Development Indicators"},"sourceNote":"Youth unemployment refers to the share of the labor force ages 15-24 without work but available for and seeking employment. Definitions of labor force and unemployment differ by country.","sourceOrganization":"International Labour Organization, Key Indicators of the Labour Market database.","topics":[{"id":"10","value":"Social Protection & Labor"}]},{"id":"SL.UEM.1524.MA.ZS","name":"Unemployment, youth male (% of male labor force ages 15-24) (modeled ILO estimate)","source":{"id":"2","value":"World Development Indicators"},"sourceNote":"Youth unemployment refers to the share of the labor force ages 15-24 without work but available for and seeking employment.","sourceOrganization":"International Labour Organization, ILOSTAT database.","topics":[{"id":"10","value":"Social Protection & Labor"},{"id":"17","value":"Gender"}]},{"id":"SL.UEM.1524.MA.NE.ZS","name":"Unemployment, youth male (% of male labor force ages 15-24) (national estimate)","source":{"id":"2","value":"World Development Indicators"},"sourceNote":"Youth unemployment refers to the share of the labor force ages 15-24 without work but available for and seeking employment. Definitions of labor force and unemployment differ by country.","sourceOrganization":"International Labour Organization, Key Indicators of the Labour Market database.","topics":[{"id":"10","value":"Social Protection & Labor"}]},{"id":"SL.UEM.1524.FM.ZS","name":"Ratio of female to male youth unemployment rate (% ages 15-24) (modeled ILO estimate)","source":{"id":"14","value":"Gender Statistics"},"sourceNote":"Ratio of female to male youth unemployment is the percentage of female to male youth unemployment rates.","sourceOrganization":"International Labour Organization, Key Indicators of the Labour Market database.","topics":[{"id":"17","value":"Gender"}]},{"id":"SL.UEM.1524.FM.NE.ZS","name":"Ratio of female to male youth unemployment rate (% ages 15-24) (national estimate)","source":{"id":"14","value":"Gender Statistics"},"sourceNote":"Ratio of female to male youth unemployment is the percentage of female to male youth unemployment rates.","sourceOrganization":"International Labour Organization, Key Indicators of the Labour Market database.","topics":[{"id":"17","value":"Gender"}]},{"id":"SL.UEM.1524.FE.ZS","name":"Unemployment, youth female (% of female labor force ages 15-24) (modeled ILO estimate)","source":{"id":"2","value":"World Development Indicators"},"sourceNote":"Youth unemployment refers to the share of the labor force ages 15-24 without work but available for and seeking employment.","sourceOrganization":"International Labour Organization, ILOSTAT database.","topics":[{"id":"10","value":"Social Protection & Labor"},{"id":"17","value":"Gender"}]},{"id":"SL.UEM.1524.FE.NE.ZS","name":"Unemployment, youth female (% of female labor force ages 15-24) (national estimate)","source":{"id":"2","value":"World Development Indicators"},"sourceNote":"Youth unemployment refers to the share of the labor force ages 15-24 without work but available for and seeking employment. Definitions of labor force and unemployment differ by country.","sourceOrganization":"International Labour Organization, Key Indicators of the Labour Market database.","topics":[{"id":"10","value":"Social Protection & Labor"}]},{"id":"SL.TLF.TOTL.MA.ZS","name":"Labor force, male (% of total labor force)","source":{"id":"11","value":"Africa Development Indicators"},"sourceNote":"Male labor force as a percentage of the total show the extent to which men are active in the labor force. Labor force comprises people ages 15 and older who meet the International Labour Organization's definition of the economically active population.","sourceOrganization":"International Labour Organization, using World Bank population estimates.","topics":[]},{"id":"SL.TLF.TOTL.MA.IN","name":"Labor force, male","source":{"id":"11","value":"Africa Development Indicators"},"sourceNote":"Male labor force comprises all males who meet the International Labour Organization's definition of the economically active population.","sourceOrganization":"International Labour Organization, using World Bank population estimates.","topics":[]},{"id":"SL.TLF.TOTL.IN","name":"Labor force, total","source":{"id":"2","value":"World Development Indicators"},"sourceNote":"Labor force comprises people ages 15 and older who supply labor for the production of goods and services during a specified period. It includes people who are currently employed and people who are unemployed but seeking work as well as first-time job-seekers. Not everyone who works is included, however. Unpaid workers, family workers, and students are often omitted, and some countries do not count members of the armed forces. Labor force size tends to vary during the year as seasonal workers enter and leave.","sourceOrganization":"International Labour Organization, using World Bank population estimates.","topics":[{"id":"4","value":"Education "},{"id":"10","value":"Social Protection & Labor"}]},{"id":"SL.TLF.TOTL.FE.ZS","name":"Labor force, female (% of total labor force)","source":{"id":"2","value":"World Development Indicators"},"sourceNote":"Female labor force as a percentage of the total show the extent to which women are active in the labor force. Labor force comprises people ages 15 and older who supply labor for the production of goods and services during a specified period.","sourceOrganization":"International Labour Organization, using World Bank population estimates.","topics":[{"id":"4","value":"Education "},{"id":"10","value":"Social Protection & Labor"},{"id":"17","value":"Gender"}]},{"id":"SL.TLF.INTM.ZS","name":"Labor force with intermediate education (% of total)","source":{"id":"2","value":"World Development Indicators"},"sourceNote":"The share of the total labor force that attained or completed intermediate education as the highest level of education. Intermediate education comprises of upper secondary and post-secondary non tertiary education in the International Standard Classification of Education 2011 (ISCED 2011).","sourceOrganization":"International Labour Organization, ILOSTAT database.","topics":[{"id":"10","value":"Social Protection & Labor"}]},{"id":"SL.TLF.INTM.MA.ZS","name":"Labor force with intermediate education, male (% of male labor force)","source":{"id":"2","value":"World Development Indicators"},"sourceNote":"The share of the male labor force that attained or completed intermediate education as the highest level of education. Intermediate education comprises of upper secondary and post-secondary non tertiary education in the International Standard Classification of Education 2011 (ISCED 2011).","sourceOrganization":"International Labour Organization, ILOSTAT database.","topics":[{"id":"10","value":"Social Protection & Labor"}]},{"id":"SL.TLF.INTM.FE.ZS","name":"Labor force with intermediate education, female (% of female labor force)","source":{"id":"2","value":"World Development Indicators"},"sourceNote":"The share of the female labor force that attained or completed intermediate education as the highest level of education. Intermediate education comprises of upper secondary and post-secondary non tertiary education in the International Standard Classification of Education 2011 (ISCED 2011).","sourceOrganization":"International Labour Organization, ILOSTAT database.","topics":[{"id":"10","value":"Social Protection & Labor"}]},{"id":"SL.TLF.CACT.ZS","name":"Labor force participation rate, total (% of total population ages 15+) (modeled ILO estimate)","source":{"id":"2","value":"World Development Indicators"},"sourceNote":"Labor force participation rate is the proportion of the population ages 15 and older that is economically active: all people who supply labor for the production of goods and services during a specified period.","sourceOrganization":"International Labour Organization, ILOSTAT database.","topics":[{"id":"10","value":"Social Protection & Labor"}]},{"id":"SL.TLF.CACT.NE.ZS","name":"Labor force participation rate, total (% of total population ages 15+) (national estimate)","source":{"id":"2","value":"World Development Indicators"},"sourceNote":"Labor force participation rate is the proportion of the population ages 15 and older that is economically active: all people who supply labor for the production of goods and services during a specified period.","sourceOrganization":"International Labour Organization, Key Indicators of the Labour Market database.","topics":[{"id":"10","value":"Social Protection & Labor"}]},{"id":"SL.TLF.CACT.MA.ZS","name":"Labor force participation rate, male (% of male population ages 15+) (modeled ILO estimate)","source":{"id":"2","value":"World Development Indicators"},"sourceNote":"Labor force participation rate is the proportion of the population ages 15 and older that is economically active: all people who supply labor for the production of goods and services during a specified period.","sourceOrganization":"International Labour Organization, ILOSTAT database.","topics":[{"id":"10","value":"Social Protection & Labor"},{"id":"17","value":"Gender"},{"id":"15","value":"Social Development "}]},{"id":"SL.TLF.CACT.MA.NE.ZS","name":"Labor force participation rate, male (% of male population ages 15+) (national estimate)","source":{"id":"2","value":"World Development Indicators"},"sourceNote":"Labor force participation rate is the proportion of the population ages 15 and older that is economically active: all people who supply labor for the production of goods and services during a specified period.","sourceOrganization":"International Labour Organization, Key Indicators of the Labour Market database.","topics":[{"id":"10","value":"Social Protection & Labor"}]},{"id":"SL.TLF.CACT.FM.ZS","name":"Ratio of female to male labor force participation rate (%) (modeled ILO estimate)","source":{"id":"2","value":"World Development Indicators"},"sourceNote":"Labor force participation rate is the proportion of the population ages 15 and older that is economically active: all people who supply labor for the production of goods and services during a specified period. Ratio of female to male labor force participation rate is calculated by dividing female labor force participation rate by male labor force participation rate and multiplying by 100.","sourceOrganization":"International Labour Organization, ILOSTAT database.","topics":[{"id":"10","value":"Social Protection & Labor"}]},{"id":"SL.TLF.CACT.FM.NE.ZS","name":"Ratio of female to male labor force participation rate (%) (national estimate)","source":{"id":"2","value":"World Development Indicators"},"sourceNote":"Labor force participation rate is the proportion of the population ages 15 and older that is economically active: all people who supply labor for the production of goods and services during a specified period. Ratio of female to male labor force participation rate is calculated by dividing female labor force participation rate by male labor force participation rate and multiplying by 100.","sourceOrganization":"International Labour Organization, Key Indicators of the Labour Market database.","topics":[{"id":"10","value":"Social Protection & Labor"}]},{"id":"SL.TLF.CACT.FE.ZS","name":"Labor force participation rate, female (% of female population ages 15+) (modeled ILO estimate)","source":{"id":"2","value":"World Development Indicators"},"sourceNote":"Labor force participation rate is the proportion of the population ages 15 and older that is economically active: all people who supply labor for the production of goods and services during a specified period.","sourceOrganization":"International Labour Organization, ILOSTAT database.","topics":[{"id":"10","value":"Social Protection & Labor"},{"id":"17","value":"Gender"},{"id":"15","value":"Social Development "}]},{"id":"SL.TLF.CACT.FE.NE.ZS","name":"Labor force participation rate, female (% of female population ages 15+) (national estimate)","source":{"id":"2","value":"World Development Indicators"},"sourceNote":"Labor force participation rate is the proportion of the population ages 15 and older that is economically active: all people who supply labor for the production of goods and services during a specified period.","sourceOrganization":"International Labour Organization, Key Indicators of the Labour Market database.","topics":[{"id":"10","value":"Social Protection & Labor"}]},{"id":"SL.TLF.CACT.65UP.ZS","name":"Labor participation rate, total (% of total population ages 65+)","source":{"id":"11","value":"Africa Development Indicators"},"sourceNote":"Labor force participation rate is the proportion of the population ages 65 and older that is economically active: all people who supply labor for the production of goods and services during a specified period.  The participation rates are harmonized to account for differences in national data collection and tabulation methodologies as well as for other country-specific factors such as military service requirements. The series includes both nationally reported and imputed data and only estimates that are national, meaning there are no geographic limitations in coverage.","sourceOrganization":"International Labour Organization, Key Indicators of the Labour Market database.","topics":[]},{"id":"SL.TLF.CACT.65UP.MA.ZS","name":"Labor participation rate, male (% of male population ages 65+)","source":{"id":"11","value":"Africa Development Indicators"},"sourceNote":"Labor force participation rate is the proportion of the population ages 65 and older that is economically active: all people who supply labor for the production of goods and services during a specified period.  The participation rates are harmonized to account for differences in national data collection and tabulation methodologies as well as for other country-specific factors such as military service requirements. The series includes both nationally reported and imputed data and only estimates that are national, meaning there are no geographic limitations in coverage.","sourceOrganization":"International Labour Organization, Key Indicators of the Labour Market database.","topics":[]},{"id":"SL.TLF.CACT.65UP.FE.ZS","name":"Labor participation rate, female (% of female population ages 65+)","source":{"id":"11","value":"Africa Development Indicators"},"sourceNote":"Labor force participation rate is the proportion of the population ages 65 and older that is economically active: all people who supply labor for the production of goods and services during a specified period.  The participation rates are harmonized to account for differences in national data collection and tabulation methodologies as well as for other country-specific factors such as military service requirements. The series includes both nationally reported and imputed data and only estimates that are national, meaning there are no geographic limitations in coverage.","sourceOrganization":"International Labour Organization, Key Indicators of the Labour Market database.","topics":[]},{"id":"SL.TLF.CACT.5564.ZS","name":"Labor participation rate, total (% of total population ages 55-64)","source":{"id":"11","value":"Africa Development Indicators"},"sourceNote":"Labor force participation rate is the proportion of the population ages 55-64 that is economically active: all people who supply labor for the production of goods and services during a specified period.  The participation rates are harmonized to account for differences in national data collection and tabulation methodologies as well as for other country-specific factors such as military service requirements. The series includes both nationally reported and imputed data and only estimates that are national, meaning there are no geographic limitations in coverage.","sourceOrganization":"International Labour Organization, Key Indicators of the Labour Market database.","topics":[]},{"id":"SL.TLF.CACT.5564.MA.ZS","name":"Labor participation rate, male (% of male population ages 55-64)","source":{"id":"11","value":"Africa Development Indicators"},"sourceNote":"Labor force participation rate is the proportion of the population ages 55-64 that is economically active: all people who supply labor for the production of goods and services during a specified period.  The participation rates are harmonized to account for differences in national data collection and tabulation methodologies as well as for other country-specific factors such as military service requirements. The series includes both nationally reported and imputed data and only estimates that are national, meaning there are no geographic limitations in coverage.","sourceOrganization":"International Labour Organization, Key Indicators of the Labour Market database.","topics":[{}]}]]