[{"page":230,"pages":324,"per_page":"50","total":16174},[{"id":"per_si_oa.ben_q5_rur","name":"Benefits incidence in richest quintile (%) - Old Age Contributory -rural","source":{"id":"29","value":"Global Social Protection"},"sourceNote":"NULL","sourceOrganization":"The Atlas of Social Protection: Indicators of Resilience and Equity (ASPIRE)","topics":[{"id":"10","value":"Social Protection & Labor"}]},{"id":"per_si_oa.ben_q5_preT_tot","name":"Benefits incidence in richest quintile (%) - Old Age Contributory (preT)","source":{"id":"29","value":"Global Social Protection"},"sourceNote":"NULL","sourceOrganization":"The Atlas of Social Protection: Indicators of Resilience and Equity (ASPIRE)","topics":[{"id":"10","value":"Social Protection & Labor"}]},{"id":"per_si_oa.ben_q4_urb","name":"Benefits incidence in 4th quintile (%) - Old Age Contributory -urban","source":{"id":"29","value":"Global Social Protection"},"sourceNote":"NULL","sourceOrganization":"The Atlas of Social Protection: Indicators of Resilience and Equity (ASPIRE)","topics":[{"id":"10","value":"Social Protection & Labor"}]},{"id":"per_si_oa.ben_q4_tot","name":"Benefits incidence in 4th quintile (%) - Old Age Contributory ","source":{"id":"29","value":"Global Social Protection"},"sourceNote":"NULL","sourceOrganization":"The Atlas of Social Protection: Indicators of Resilience and Equity (ASPIRE)","topics":[{"id":"10","value":"Social Protection & Labor"}]},{"id":"per_si_oa.ben_q4_rur","name":"Benefits incidence in 4th quintile (%) - Old Age Contributory -rural","source":{"id":"29","value":"Global Social Protection"},"sourceNote":"NULL","sourceOrganization":"The Atlas of Social Protection: Indicators of Resilience and Equity (ASPIRE)","topics":[{"id":"10","value":"Social Protection & Labor"}]},{"id":"per_si_oa.ben_q4_preT_tot","name":"Benefits incidence in 4th quintile (%) - Old Age Contributory (preT)","source":{"id":"29","value":"Global Social Protection"},"sourceNote":"NULL","sourceOrganization":"The Atlas of Social Protection: Indicators of Resilience and Equity (ASPIRE)","topics":[{"id":"10","value":"Social Protection & Labor"}]},{"id":"per_si_oa.ben_q3_urb","name":"Benefits incidence in 3rd quintile (%) - Old Age Contributory -urban","source":{"id":"29","value":"Global Social Protection"},"sourceNote":"NULL","sourceOrganization":"The Atlas of Social Protection: Indicators of Resilience and Equity (ASPIRE)","topics":[{"id":"10","value":"Social Protection & Labor"}]},{"id":"per_si_oa.ben_q3_tot","name":"Benefits incidence in 3rd quintile (%) - Old Age Contributory ","source":{"id":"29","value":"Global Social Protection"},"sourceNote":"NULL","sourceOrganization":"The Atlas of Social Protection: Indicators of Resilience and Equity (ASPIRE)","topics":[{"id":"10","value":"Social Protection & Labor"}]},{"id":"per_si_oa.ben_q3_rur","name":"Benefits incidence in 3rd quintile (%) - Old Age Contributory -rural","source":{"id":"29","value":"Global Social Protection"},"sourceNote":"NULL","sourceOrganization":"The Atlas of Social Protection: Indicators of Resilience and Equity (ASPIRE)","topics":[{"id":"10","value":"Social Protection & Labor"}]},{"id":"per_si_oa.ben_q3_preT_tot","name":"Benefits incidence in 3rd quintile (%) - Old Age Contributory (preT)","source":{"id":"29","value":"Global Social Protection"},"sourceNote":"NULL","sourceOrganization":"The Atlas of Social Protection: Indicators of Resilience and Equity (ASPIRE)","topics":[{"id":"10","value":"Social Protection & Labor"}]},{"id":"per_si_oa.ben_q2_urb","name":"Benefits incidence in 2nd quintile (%) - Old Age Contributory -urban","source":{"id":"29","value":"Global Social Protection"},"sourceNote":"NULL","sourceOrganization":"The Atlas of Social Protection: Indicators of Resilience and Equity (ASPIRE)","topics":[{"id":"10","value":"Social Protection & Labor"}]},{"id":"per_si_oa.ben_q2_tot","name":"Benefits incidence in 2nd quintile (%) - Old Age Contributory ","source":{"id":"29","value":"Global Social Protection"},"sourceNote":"NULL","sourceOrganization":"The Atlas of Social Protection: Indicators of Resilience and Equity (ASPIRE)","topics":[{"id":"10","value":"Social Protection & Labor"}]},{"id":"per_si_oa.ben_q2_rur","name":"Benefits incidence in 2nd quintile (%) - Old Age Contributory -rural","source":{"id":"29","value":"Global Social Protection"},"sourceNote":"NULL","sourceOrganization":"The Atlas of Social Protection: Indicators of Resilience and Equity (ASPIRE)","topics":[{"id":"10","value":"Social Protection & Labor"}]},{"id":"per_si_oa.ben_q2_preT_tot","name":"Benefits incidence in 2nd quintile (%) - Old Age Contributory (preT)","source":{"id":"29","value":"Global Social Protection"},"sourceNote":"NULL","sourceOrganization":"The Atlas of Social Protection: Indicators of Resilience and Equity (ASPIRE)","topics":[{"id":"10","value":"Social Protection & Labor"}]},{"id":"per_si_oa.ben_q1_urb","name":"Benefits incidence in poorest quintile (%) - Old Age Contributory -urban","source":{"id":"29","value":"Global Social Protection"},"sourceNote":"NULL","sourceOrganization":"The Atlas of Social Protection: Indicators of Resilience and Equity (ASPIRE)","topics":[{"id":"10","value":"Social Protection & Labor"}]},{"id":"per_si_oa.ben_q1_tot","name":"Benefits incidence in poorest quintile (%) - Old Age Contributory ","source":{"id":"29","value":"Global Social Protection"},"sourceNote":"NULL","sourceOrganization":"The Atlas of Social Protection: Indicators of Resilience and Equity (ASPIRE)","topics":[{"id":"10","value":"Social Protection & Labor"}]},{"id":"per_si_oa.ben_q1_rur","name":"Benefits incidence in poorest quintile (%) - Old Age Contributory -rural","source":{"id":"29","value":"Global Social Protection"},"sourceNote":"NULL","sourceOrganization":"The Atlas of Social Protection: Indicators of Resilience and Equity (ASPIRE)","topics":[{"id":"10","value":"Social Protection & Labor"}]},{"id":"per_si_oa.ben_q1_preT_tot","name":"Benefits incidence in poorest quintile (%) - Old Age Contributory (preT)","source":{"id":"29","value":"Global Social Protection"},"sourceNote":"NULL","sourceOrganization":"The Atlas of Social Protection: Indicators of Resilience and Equity (ASPIRE)","topics":[{"id":"10","value":"Social Protection & Labor"}]},{"id":"per_si_oa.ben_ep_tot","name":"Benefits incidence in extreme poor (<$1.25 a day) (%) - Old Age Contributory ","source":{"id":"29","value":"Global Social Protection"},"sourceNote":"NULL","sourceOrganization":"The Atlas of Social Protection: Indicators of Resilience and Equity (ASPIRE)","topics":[{"id":"10","value":"Social Protection & Labor"}]},{"id":"per_si_oa.ben_ep_preT_tot","name":"Benefits incidence in extreme poor (<$1.25 a day) (%) - Old Age Contributory  (preT)","source":{"id":"29","value":"Global Social Protection"},"sourceNote":"NULL","sourceOrganization":"The Atlas of Social Protection: Indicators of Resilience and Equity (ASPIRE)","topics":[{"id":"10","value":"Social Protection & Labor"}]},{"id":"per_si_oa.avt_q5_urb","name":"Average per capita transfer held by richest quintile - Old Age Contributory -urban","source":{"id":"29","value":"Global Social Protection"},"sourceNote":"NULL","sourceOrganization":"The Atlas of Social Protection: Indicators of Resilience and Equity (ASPIRE)","topics":[{"id":"10","value":"Social Protection & Labor"}]},{"id":"per_si_oa.avt_q5_tot","name":"Average per capita transfer held by richest quintile - Old Age Contributory ","source":{"id":"29","value":"Global Social Protection"},"sourceNote":"NULL","sourceOrganization":"The Atlas of Social Protection: Indicators of Resilience and Equity (ASPIRE)","topics":[{"id":"10","value":"Social Protection & Labor"}]},{"id":"per_si_oa.avt_q5_rur","name":"Average per capita transfer held by richest quintile - Old Age Contributory -rural","source":{"id":"29","value":"Global Social Protection"},"sourceNote":"NULL","sourceOrganization":"The Atlas of Social Protection: Indicators of Resilience and Equity (ASPIRE)","topics":[{"id":"10","value":"Social Protection & Labor"}]},{"id":"per_si_oa.avt_q5_preT_tot","name":"Average per capita transfer held by richest quintile - Old Age Contributory (preT)","source":{"id":"29","value":"Global Social Protection"},"sourceNote":"NULL","sourceOrganization":"The Atlas of Social Protection: Indicators of Resilience and Equity (ASPIRE)","topics":[{"id":"10","value":"Social Protection & Labor"}]},{"id":"per_si_oa.avt_q4_urb","name":"Average per capita transfer held by 4th quintile - Old Age Contributory -urban","source":{"id":"29","value":"Global Social Protection"},"sourceNote":"NULL","sourceOrganization":"The Atlas of Social Protection: Indicators of Resilience and Equity (ASPIRE)","topics":[{"id":"10","value":"Social Protection & Labor"}]},{"id":"per_si_oa.avt_q4_tot","name":"Average per capita transfer held by 4th quintile - Old Age Contributory ","source":{"id":"29","value":"Global Social Protection"},"sourceNote":"NULL","sourceOrganization":"The Atlas of Social Protection: Indicators of Resilience and Equity (ASPIRE)","topics":[{"id":"10","value":"Social Protection & Labor"}]},{"id":"per_si_oa.avt_q4_rur","name":"Average per capita transfer held by 4th quintile - Old Age Contributory -rural","source":{"id":"29","value":"Global Social Protection"},"sourceNote":"NULL","sourceOrganization":"The Atlas of Social Protection: Indicators of Resilience and Equity (ASPIRE)","topics":[{"id":"10","value":"Social Protection & Labor"}]},{"id":"per_si_oa.avt_q4_preT_tot","name":"Average per capita transfer held by 4th quintile - Old Age Contributory (preT)","source":{"id":"29","value":"Global Social Protection"},"sourceNote":"NULL","sourceOrganization":"The Atlas of Social Protection: Indicators of Resilience and Equity (ASPIRE)","topics":[{"id":"10","value":"Social Protection & Labor"}]},{"id":"per_si_oa.avt_q3_urb","name":"Average per capita transfer held by 3rd quintile - Old Age Contributory -urban","source":{"id":"29","value":"Global Social Protection"},"sourceNote":"NULL","sourceOrganization":"The Atlas of Social Protection: Indicators of Resilience and Equity (ASPIRE)","topics":[{"id":"10","value":"Social Protection & Labor"}]},{"id":"per_si_oa.avt_q3_tot","name":"Average per capita transfer held by 3rd quintile - Old Age Contributory ","source":{"id":"29","value":"Global Social Protection"},"sourceNote":"NULL","sourceOrganization":"The Atlas of Social Protection: Indicators of Resilience and Equity (ASPIRE)","topics":[{"id":"10","value":"Social Protection & Labor"}]},{"id":"per_si_oa.avt_q3_rur","name":"Average per capita transfer held by 3rd quintile - Old Age Contributory -rural","source":{"id":"29","value":"Global Social Protection"},"sourceNote":"NULL","sourceOrganization":"The Atlas of Social Protection: Indicators of Resilience and Equity (ASPIRE)","topics":[{"id":"10","value":"Social Protection & Labor"}]},{"id":"per_si_oa.avt_q3_preT_tot","name":"Average per capita transfer held by 3rd quintile - Old Age Contributory (preT)","source":{"id":"29","value":"Global Social Protection"},"sourceNote":"NULL","sourceOrganization":"The Atlas of Social Protection: Indicators of Resilience and Equity (ASPIRE)","topics":[{"id":"10","value":"Social Protection & Labor"}]},{"id":"per_si_oa.avt_q2_urb","name":"Average per capita transfer held by 2nd quintile - Old Age Contributory -urban","source":{"id":"29","value":"Global Social Protection"},"sourceNote":"NULL","sourceOrganization":"The Atlas of Social Protection: Indicators of Resilience and Equity (ASPIRE)","topics":[{"id":"10","value":"Social Protection & Labor"}]},{"id":"per_si_oa.avt_q2_tot","name":"Average per capita transfer held by 2nd quintile - Old Age Contributory ","source":{"id":"29","value":"Global Social Protection"},"sourceNote":"NULL","sourceOrganization":"The Atlas of Social Protection: Indicators of Resilience and Equity (ASPIRE)","topics":[{"id":"10","value":"Social Protection & Labor"}]},{"id":"per_si_oa.avt_q2_rur","name":"Average per capita transfer held by 2nd quintile - Old Age Contributory -rural","source":{"id":"29","value":"Global Social Protection"},"sourceNote":"NULL","sourceOrganization":"The Atlas of Social Protection: Indicators of Resilience and Equity (ASPIRE)","topics":[{"id":"10","value":"Social Protection & Labor"}]},{"id":"per_si_oa.avt_q2_preT_tot","name":"Average per capita transfer held by 2nd quintile - Old Age Contributory (preT)","source":{"id":"29","value":"Global Social Protection"},"sourceNote":"NULL","sourceOrganization":"The Atlas of Social Protection: Indicators of Resilience and Equity (ASPIRE)","topics":[{"id":"10","value":"Social Protection & Labor"}]},{"id":"per_si_oa.avt_q1_urb","name":"Average per capita transfer held by poorest quintile - Old Age Contributory -urban","source":{"id":"29","value":"Global Social Protection"},"sourceNote":"NULL","sourceOrganization":"The Atlas of Social Protection: Indicators of Resilience and Equity (ASPIRE)","topics":[{"id":"10","value":"Social Protection & Labor"}]},{"id":"per_si_oa.avt_q1_tot","name":"Average per capita transfer held by poorest quintile - Old Age Contributory ","source":{"id":"29","value":"Global Social Protection"},"sourceNote":"NULL","sourceOrganization":"The Atlas of Social Protection: Indicators of Resilience and Equity (ASPIRE)","topics":[{"id":"10","value":"Social Protection & Labor"}]},{"id":"per_si_oa.avt_q1_rur","name":"Average per capita transfer held by poorest quintile - Old Age Contributory -rural","source":{"id":"29","value":"Global Social Protection"},"sourceNote":"NULL","sourceOrganization":"The Atlas of Social Protection: Indicators of Resilience and Equity (ASPIRE)","topics":[{"id":"10","value":"Social Protection & Labor"}]},{"id":"per_si_oa.avt_q1_preT_tot","name":"Average per capita transfer held by poorest quintile - Old Age Contributory (preT)","source":{"id":"29","value":"Global Social Protection"},"sourceNote":"NULL","sourceOrganization":"The Atlas of Social Protection: Indicators of Resilience and Equity (ASPIRE)","topics":[{"id":"10","value":"Social Protection & Labor"}]},{"id":"per_si_oa.avt_pop_urb","name":"Average per capita transfer - Old Age Contributory -urban","source":{"id":"29","value":"Global Social Protection"},"sourceNote":"NULL","sourceOrganization":"The Atlas of Social Protection: Indicators of Resilience and Equity (ASPIRE)","topics":[{"id":"10","value":"Social Protection & Labor"}]},{"id":"per_si_oa.avt_pop_tot","name":"Average per capita transfer - Old Age Contributory ","source":{"id":"29","value":"Global Social Protection"},"sourceNote":"NULL","sourceOrganization":"The Atlas of Social Protection: Indicators of Resilience and Equity (ASPIRE)","topics":[{"id":"10","value":"Social Protection & Labor"}]},{"id":"per_si_oa.avt_pop_rur","name":"Average per capita transfer - Old Age Contributory -rural","source":{"id":"29","value":"Global Social Protection"},"sourceNote":"NULL","sourceOrganization":"The Atlas of Social Protection: Indicators of Resilience and Equity (ASPIRE)","topics":[{"id":"10","value":"Social Protection & Labor"}]},{"id":"per_si_oa.avt_pop_preT_tot","name":"Average per capita transfer - Old Age Contributory (preT)","source":{"id":"29","value":"Global Social Protection"},"sourceNote":"NULL","sourceOrganization":"The Atlas of Social Protection: Indicators of Resilience and Equity (ASPIRE)","topics":[{"id":"10","value":"Social Protection & Labor"}]},{"id":"per_si_oa.avt_ep_tot","name":"Average per capita transfer held by extreme poor (<$1.25 a day) - Old Age Contributory ","source":{"id":"29","value":"Global Social Protection"},"sourceNote":"NULL","sourceOrganization":"The Atlas of Social Protection: Indicators of Resilience and Equity (ASPIRE)","topics":[{"id":"10","value":"Social Protection & Labor"}]},{"id":"per_si_oa.avt_ep_preT_tot","name":"Average per capita transfer held by extreme poor (<$1.25 a day) - Old Age Contributory  (preT)","source":{"id":"29","value":"Global Social Protection"},"sourceNote":"NULL","sourceOrganization":"The Atlas of Social Protection: Indicators of Resilience and Equity (ASPIRE)","topics":[{"id":"10","value":"Social Protection & Labor"}]},{"id":"per_si_oa.adq_q5_urb","name":"Adequacy of benefits in richest quintile (%) - Old Age Contributory -urban","source":{"id":"29","value":"Global Social Protection"},"sourceNote":"NULL","sourceOrganization":"The Atlas of Social Protection: Indicators of Resilience and Equity (ASPIRE)","topics":[{"id":"10","value":"Social Protection & Labor"}]},{"id":"per_si_oa.adq_q5_tot","name":"Adequacy of benefits in richest quintile (%) - Old Age Contributory ","source":{"id":"29","value":"Global Social Protection"},"sourceNote":"NULL","sourceOrganization":"The Atlas of Social Protection: Indicators of Resilience and Equity (ASPIRE)","topics":[{"id":"10","value":"Social Protection & Labor"}]},{"id":"per_si_oa.adq_q5_rur","name":"Adequacy of benefits in richest quintile (%) - Old Age Contributory -rural","source":{"id":"29","value":"Global Social Protection"},"sourceNote":"NULL","sourceOrganization":"The Atlas of Social Protection: Indicators of Resilience and Equity (ASPIRE)","topics":[{"id":"10","value":"Social Protection & Labor"}]},{"id":"per_si_oa.adq_q5_preT_tot","name":"Adequacy of benefits in richest quintile (%) - Old Age Contributory (preT)","source":{"id":"29","value":"Global Social Protection"},"sourceNote":"NULL","sourceOrganization":"The Atlas of Social Protection: Indicators of Resilience and Equity (ASPIRE)","topics":[{"id":"10","value":"Social Protection & Labor"}]}]]