[{"page":103,"pages":324,"per_page":"50","total":16174},[{"id":"FN.DPST.TOTL","name":"Total Deposits (province level, in IDR Million)","source":{"id":"45","value":"INDO-DAPOER"},"sourceNote":"","sourceOrganization":"Bank Indonesia, Commercial Bank Monthly Report","topics":[]},{"id":"FN.CRED.WCAP.TOTL","name":"Total Credit by Utilization: Working Capital (province level, in IDR Million)","source":{"id":"45","value":"INDO-DAPOER"},"sourceNote":"","sourceOrganization":"Bank Indonesia, Commercial Bank Monthly Report","topics":[]},{"id":"FN.CRED.UTL.TOTL","name":"Total Credit by Sector: Utilities (province level, in IDR Million)","source":{"id":"45","value":"INDO-DAPOER"},"sourceNote":"","sourceOrganization":"Bank Indonesia, Commercial Bank Monthly Report","topics":[]},{"id":"FN.CRED.TRAN.TOTL","name":"Total Credit by Sector: Transportation (province level, in IDR Million)","source":{"id":"45","value":"INDO-DAPOER"},"sourceNote":"","sourceOrganization":"Bank Indonesia, Commercial Bank Monthly Report","topics":[]},{"id":"FN.CRED.TRAD.TOTL","name":"Total Credit by Sector: Trade (province level, in IDR Million)","source":{"id":"45","value":"INDO-DAPOER"},"sourceNote":"","sourceOrganization":"Bank Indonesia, Commercial Bank Monthly Report","topics":[]},{"id":"FN.CRED.SRV.SOCL.TOTL","name":"Total Credit by Sector: Social Services (province level, in IDR Million)","source":{"id":"45","value":"INDO-DAPOER"},"sourceNote":"","sourceOrganization":"Bank Indonesia, Commercial Bank Monthly Report","topics":[]},{"id":"FN.CRED.SRV.OTHR.TOTL","name":"Total Credit by Sector: Other Services (province level, in IDR Million)","source":{"id":"45","value":"INDO-DAPOER"},"sourceNote":"","sourceOrganization":"Bank Indonesia, Commercial Bank Monthly Report","topics":[]},{"id":"FN.CRED.MNF.TOTL","name":"Total Credit by Sector: Manufacture (province level, in IDR Million)","source":{"id":"45","value":"INDO-DAPOER"},"sourceNote":"","sourceOrganization":"Bank Indonesia, Commercial Bank Monthly Report","topics":[]},{"id":"FN.CRED.MINQ.TOTL","name":"Total Credit by Sector: Mining and Quarrying (province level, in IDR Million)","source":{"id":"45","value":"INDO-DAPOER"},"sourceNote":"","sourceOrganization":"Bank Indonesia, Commercial Bank Monthly Report","topics":[]},{"id":"FN.CRED.INVS.TOTL","name":"Total credit by Utilization: Investment (province level, in IDR Million)","source":{"id":"45","value":"INDO-DAPOER"},"sourceNote":"","sourceOrganization":"Bank Indonesia, Commercial Bank Monthly Report","topics":[]},{"id":"FN.CRED.CNST.TOTL","name":"Total Credit by Sector: Construction (province level, in IDR Million)","source":{"id":"45","value":"INDO-DAPOER"},"sourceNote":"","sourceOrganization":"Bank Indonesia, Commercial Bank Monthly Report","topics":[]},{"id":"FN.CRED.CNSP.TOTL","name":"Total Credit by Utilization: Consumption (province level, in IDR Million)","source":{"id":"45","value":"INDO-DAPOER"},"sourceNote":"","sourceOrganization":"Bank Indonesia, Commercial Bank Monthly Report","topics":[]},{"id":"FN.CRED.BUS.TOTL","name":"Total Credit by Sector: Business (province level, in IDR Million)","source":{"id":"45","value":"INDO-DAPOER"},"sourceNote":"","sourceOrganization":"Bank Indonesia, Commercial Bank Monthly Report","topics":[]},{"id":"FN.CRED.AGR.TOTL","name":"Total Credit by Sector: Agriculture (province level, in IDR Million)","source":{"id":"45","value":"INDO-DAPOER"},"sourceNote":"","sourceOrganization":"Bank Indonesia, Commercial Bank Monthly Report","topics":[]},{"id":"FMUV","name":"MUV index, 2010=100","source":{"id":"55","value":"Commodity Prices- History and Projections, updated quarterly"},"sourceNote":"","sourceOrganization":"","topics":[]},{"id":"FMAIZE","name":"Maize, nominal, $\/mt","source":{"id":"55","value":"Commodity Prices- History and Projections, updated quarterly"},"sourceNote":"","sourceOrganization":"","topics":[]},{"id":"FM.LBL.XMQM.CN","name":"Other liabilities excluding M2 (current LCU)","source":{"id":"11","value":"Africa Development Indicators"},"sourceNote":"Other liabilities excluding M2, flow (current LCU).  ","sourceOrganization":"International Monetary Fund, International Financial Statistics and data files.","topics":[]},{"id":"FM.LBL.BMNY.ZG","name":"Broad money growth (annual %)","source":{"id":"2","value":"World Development Indicators"},"sourceNote":"Broad money (IFS line 35L..ZK) is the sum of currency outside banks; demand deposits other than those of the central government; the time, savings, and foreign currency deposits of resident sectors other than the central government; bank and traveler’s checks; and other securities such as certificates of deposit and commercial paper.","sourceOrganization":"International Monetary Fund, International Financial Statistics and data files.","topics":[{"id":"7","value":"Financial Sector "}]},{"id":"FM.LBL.BMNY.IR.ZS","name":"Broad money to total reserves ratio","source":{"id":"2","value":"World Development Indicators"},"sourceNote":"Broad money (IFS line 35L..ZK) is the sum of currency outside banks; demand deposits other than those of the central government; the time, savings, and foreign currency deposits of resident sectors other than the central government; bank and traveler’s checks; and other securities such as certificates of deposit and commercial paper.","sourceOrganization":"International Monetary Fund, International Financial Statistics and data files.","topics":[{"id":"7","value":"Financial Sector "}]},{"id":"FM.LBL.BMNY.GD.ZS","name":"Broad money (% of GDP)","source":{"id":"2","value":"World Development Indicators"},"sourceNote":"Broad money (IFS line 35L..ZK) is the sum of currency outside banks; demand deposits other than those of the central government; the time, savings, and foreign currency deposits of resident sectors other than the central government; bank and traveler’s checks; and other securities such as certificates of deposit and commercial paper.","sourceOrganization":"International Monetary Fund, International Financial Statistics and data files, and World Bank and OECD GDP estimates.","topics":[{"id":"7","value":"Financial Sector "}]},{"id":"FM.LBL.BMNY.CN","name":"Broad money (current LCU)","source":{"id":"2","value":"World Development Indicators"},"sourceNote":"Broad money (IFS line 35L..ZK) is the sum of currency outside banks; demand deposits other than those of the central government; the time, savings, and foreign currency deposits of resident sectors other than the central government; bank and traveler’s checks; and other securities such as certificates of deposit and commercial paper.","sourceOrganization":"International Monetary Fund, International Financial Statistics and data files.","topics":[{"id":"7","value":"Financial Sector "}]},{"id":"FM.LBC.XMQM.CN","name":"Other liabilities excluding M2, flow (current LCU)","source":{"id":"11","value":"Africa Development Indicators"},"sourceNote":"Other liabilities excluding M2 (current LCU).  ","sourceOrganization":"International Monetary Fund, International Financial Statistics and data files.","topics":[]},{"id":"FM.LBC.MQMY.CN","name":"Money and quasi money (M2), flow (current LCU)","source":{"id":"11","value":"Africa Development Indicators"},"sourceNote":"Money and quasi money (M2), flow (current LCU) is the sum of currency outside banks, demand deposits other than those of the central government, and the time, savings, and foreign currency deposits of resident sectors other than the central government.  ","sourceOrganization":"International Monetary Fund, International Financial Statistics and data files.","topics":[]},{"id":"FM.AST.TOTP.CN","name":"Net domestic credit to rest of economy, stock (current LCU)","source":{"id":"11","value":"Africa Development Indicators"},"sourceNote":"Net domestic credit to Rest of the economy (excludes government). Data are in current local currencies. ","sourceOrganization":"International Monetary Fund, International Financial Statistics and data files.","topics":[]},{"id":"FM.AST.PRVT.ZG.M3","name":"Claims on private sector (annual growth as % of broad money)","source":{"id":"2","value":"World Development Indicators"},"sourceNote":"Claims on private sector (IFS line 32D..ZK or 32D..ZF) include gross credit from the financial system to individuals, enterprises, nonfinancial public entities not included under net domestic credit, and financial institutions not included elsewhere.","sourceOrganization":"International Monetary Fund, International Financial Statistics and data files.","topics":[{"id":"7","value":"Financial Sector "}]},{"id":"FM.AST.PRVT.ZG.M2","name":"Claims on private sector (annual growth as % of M2)","source":{"id":"11","value":"Africa Development Indicators"},"sourceNote":"Claims on private sector (IFS line 32d) include gross credit from the financial system to individuals, enterprises, nonfinancial public entities not included under net domestic credit, and financial institutions not included elsewhere. Money and quasi money (M2) comprise the sum of currency outside banks, demand deposits other than those of the central government, and the time, savings, and foreign currency deposits of resident sectors other than the central government.","sourceOrganization":"International Monetary Fund, International Financial Statistics and data files.","topics":[{"id":"7","value":"Financial Sector "}]},{"id":"FM.AST.OFIN.CN","name":"Net domestic credit to other private financial institutions, stock (current LCU)","source":{"id":"11","value":"Africa Development Indicators"},"sourceNote":"Net domestic credit to other financial institutions of the Rest of the economy (excludes government). Data are in current local currencies. ","sourceOrganization":"International Monetary Fund, International Financial Statistics and data files.","topics":[]},{"id":"FM.AST.OFFO.CN","name":"Net domestic credit to other official entities, stock (current LCU)","source":{"id":"11","value":"Africa Development Indicators"},"sourceNote":"Net domestic credit to other official entities of government. Data are in current local currencies. ","sourceOrganization":"International Monetary Fund, International Financial Statistics and data files.","topics":[]},{"id":"FM.AST.NFRG.CN","name":"Net foreign assets (current LCU)","source":{"id":"2","value":"World Development Indicators"},"sourceNote":"Net foreign assets are the sum of foreign assets held by monetary authorities and deposit money banks, less their foreign liabilities. Data are in current local currency.","sourceOrganization":"International Monetary Fund, International Financial Statistics and data files.","topics":[{"id":"7","value":"Financial Sector "}]},{"id":"FM.AST.NFRG.CD","name":"Net foreign assets (current US$)","source":{"id":"11","value":"Africa Development Indicators"},"sourceNote":"Net foreign assets are the sum of foreign assets held by monetary authorities and deposit money banks, less their foreign liabilities. Data are in current U.S. dollars. ","sourceOrganization":"International Monetary Fund, International Financial Statistics and data files.","topics":[]},{"id":"FM.AST.NFGD.CN","name":"Total assets (current LCU)","source":{"id":"11","value":"Africa Development Indicators"},"sourceNote":"Liabilities consists of money, quasi-money and other liabilities, net, end of year stocks.  ","sourceOrganization":"International Monetary Fund, International Financial Statistics and data files.","topics":[]},{"id":"FM.AST.NCGV.CN","name":"Claims on central government (current LCU)","source":{"id":"11","value":"Africa Development Indicators"},"sourceNote":"Claims on the central government, net is defined as the central  governments direct financial obligations to the country’s financial institutions less any claims the central government has on those  institutions.  ","sourceOrganization":"International Monetary Fund, International Financial Statistics and data files.","topics":[]},{"id":"FM.AST.GOVT.ZG.M2","name":"Claims on governments, etc. (annual growth as % of M2)","source":{"id":"11","value":"Africa Development Indicators"},"sourceNote":"Claims on governments and other public entities (IFS line 32an + 32b + 32bx + 32c) usually comprise direct credit for specific purposes such as financing of the government budget deficit or loans to state enterprises, advances against future credit authorizations, and purchases of treasury bills and bonds, net of deposits by the public sector. Public sector deposits with the banking system also include sinking funds for the service of debt and temporary deposits of government revenues. Money and quasi money (M2) comprise the sum of currency outside banks, demand deposits other than those of the central government, and the time, savings, and foreign currency deposits of resident sectors other than the central government.","sourceOrganization":"International Monetary Fund, International Financial Statistics and data files.","topics":[{"id":"7","value":"Financial Sector "}]},{"id":"FM.AST.GOVT.CN.ZS","name":"Claims on governments and other public entities (% of GDP)","source":{"id":"11","value":"Africa Development Indicators"},"sourceNote":"Claims on governments and other public entities (IFS line 32an + 32b + 32bx + 32c) usually comprise direct credit for specific purposes such as financing of the government budget deficit or loans to state enterprises, advances against future credit authorizations, and purchases of treasury bills and bonds, net of deposits by the public sector. Public sector deposits with the banking system also include sinking funds for the service of debt and temporary deposits of government revenues. Data are in current local currency.","sourceOrganization":"\"International Monetary Fund.\u000d\"","topics":[]},{"id":"FM.AST.GOVT.CN","name":"Claims on governments and other public entities (current LCU)","source":{"id":"11","value":"Africa Development Indicators"},"sourceNote":"Claims on governments and other public entities (IFS line 32an + 32b + 32bx + 32c) usually comprise direct credit for specific purposes such as financing of the government budget deficit or loans to state enterprises, advances against future credit authorizations, and purchases of treasury bills and bonds, net of deposits by the public sector. Public sector deposits with the banking system also include sinking funds for the service of debt and temporary deposits of government revenues. Data are in current local currency.","sourceOrganization":"International Monetary Fund, International Financial Statistics and data files.","topics":[{"id":"7","value":"Financial Sector "}]},{"id":"FM.AST.DOMS.CN","name":"Net domestic credit (current LCU)","source":{"id":"2","value":"World Development Indicators"},"sourceNote":"Net domestic credit is the sum of net claims on the central government and claims on other sectors of the domestic economy (IFS line 32). Data are in current local currency.","sourceOrganization":"International Monetary Fund, International Financial Statistics and data files.","topics":[{"id":"7","value":"Financial Sector "}]},{"id":"FM.AST.DOMO.ZG.M3","name":"Claims on other sectors of the domestic economy (annual growth as % of broad money)","source":{"id":"2","value":"World Development Indicators"},"sourceNote":"Claims on other sectors of the domestic economy (IFS line 32S..ZK) include gross credit from the financial system to households, nonprofit institutions serving households, nonfinancial corporations, state and local governments, and social security funds.","sourceOrganization":"International Monetary Fund, International Financial Statistics and data files.","topics":[{"id":"7","value":"Financial Sector "}]},{"id":"FM.AST.DOMO.CN","name":"Net domestic credit to private sector, stock (current LCU)","source":{"id":"11","value":"Africa Development Indicators"},"sourceNote":"Claims on other sectors of the domestic economy (IFS line 32S..ZK) include gross credit from the financial system to households, nonprofit institutions serving households, nonfinancial corporations, state and local governments, and social security funds.","sourceOrganization":"International Monetary Fund, International Financial Statistics and data files.","topics":[]},{"id":"FM.AST.CGOV.ZG.M3","name":"Claims on central government (annual growth as % of broad money)","source":{"id":"2","value":"World Development Indicators"},"sourceNote":"Claims on central government (IFS line 32AN..ZK) include loans to central government institutions net of deposits.","sourceOrganization":"International Monetary Fund, International Financial Statistics and data files.","topics":[{"id":"7","value":"Financial Sector "}]},{"id":"FM.ASC.TOTP.CN","name":"Claims on private sector and other financial institutions, flow (current LCU)","source":{"id":"11","value":"Africa Development Indicators"},"sourceNote":"Net domestic credit to Rest of the economy (excludes government). Data are in current local currencies.  ","sourceOrganization":"International Monetary Fund, International Financial Statistics and data files.","topics":[]},{"id":"FM.ASC.OFIN.CN","name":"Claims on nonmonetary financial institutions, flow (current LCU)","source":{"id":"11","value":"Africa Development Indicators"},"sourceNote":"Net domestic credit  to other financial institutions (non-governmental). Data are in current local currencies. ","sourceOrganization":"International Monetary Fund, International Financial Statistics and data files.","topics":[]},{"id":"FM.ASC.OFFO.CN","name":"Claims on other official entities, flow (current LCU)","source":{"id":"11","value":"Africa Development Indicators"},"sourceNote":"Net domestic credit to other official entities of government. Data are in current local currencies.  ","sourceOrganization":"International Monetary Fund, International Financial Statistics and data files.","topics":[]},{"id":"FM.ASC.NFRG.CN","name":"Net foreign assets, flow (current LCU)","source":{"id":"11","value":"Africa Development Indicators"},"sourceNote":"Net foreign assets are the sum of foreign assets held by monetary authorities and deposit money banks, less their foreign liabilities. Data are in current local currency.  ","sourceOrganization":"International Monetary Fund, International Financial Statistics and data files.","topics":[]},{"id":"FM.ASC.NFGD.CN","name":"Total assets, flow (current LCU)","source":{"id":"11","value":"Africa Development Indicators"},"sourceNote":"Change in liabilities consists of changes in money, quasi-money and other liabilities, net. Data; Annual flow, local currencies.  ","sourceOrganization":"International Monetary Fund, International Financial Statistics and data files.","topics":[]},{"id":"FM.ASC.NCGV.CN","name":"Claims on central government, flow (current LCU)","source":{"id":"11","value":"Africa Development Indicators"},"sourceNote":"Net domestic credit to government budget. Data are in current local currencies. AF stands for annual flow.  ","sourceOrganization":"International Monetary Fund, International Financial Statistics and data files.","topics":[]},{"id":"FM.ASC.GOVT.CN","name":"Net domestic credit to government, flow (current LCU)","source":{"id":"11","value":"Africa Development Indicators"},"sourceNote":"Change in domestic credit  to government includes changes in net claims on central government, and changes in claims on  state and local government as well as on non-financial public corporations. Data; Annual flow, local currencies.  ","sourceOrganization":"International Monetary Fund, International Financial Statistics and data files.","topics":[]},{"id":"FM.ASC.DOMS.CN","name":"Net domestic credit, flow (current LCU)","source":{"id":"11","value":"Africa Development Indicators"},"sourceNote":"Net domestic credit is the sum of net credit to the non financial public sector, credit to the private sector, and other accounts. Data are in current local currency. ","sourceOrganization":"International Monetary Fund, International Financial Statistics and data files.","topics":[]},{"id":"FM.ASC.DOMO.CN","name":"Claims on private sector, flow (current LCU)","source":{"id":"11","value":"Africa Development Indicators"},"sourceNote":"Change in domestic credit to the private sector covers changes in claims on private non-financial corporations, households, and non-profit institutions. Data; Annual flow, local currencies.  ","sourceOrganization":"International Monetary Fund, International Financial Statistics and data files.","topics":[]},{"id":"FLOGS_MYS","name":"Logs, Malaysian, nominal, $\/cubic meter","source":{"id":"55","value":"Commodity Prices- History and Projections, updated quarterly"},"sourceNote":"","sourceOrganization":"","topics":[]},{"id":"FLOGS_CMR","name":"Logs, Cameroon, nominal, $\/cubic meter","source":{"id":"55","value":"Commodity Prices- History and Projections, updated quarterly"},"sourceNote":"","sourceOrganization":"","topics":[{}]}]]