[{"page":20,"pages":324,"per_page":"50","total":16174},[{"id":"A7iv","name":"14.Export Value per Entrant: First Quartile","source":{"id":"30","value":"Exporter Dynamics Database: Country-Year"},"sourceNote":"Exporter-level information on export transactions - Customs","sourceOrganization":"","topics":[]},{"id":"A7iii","name":"13.Export Value per Entrant: StDev","source":{"id":"30","value":"Exporter Dynamics Database: Country-Year"},"sourceNote":"Exporter-level information on export transactions - Customs","sourceOrganization":"","topics":[]},{"id":"A7ii","name":"12.Export Value per Entrant: Median","source":{"id":"30","value":"Exporter Dynamics Database: Country-Year"},"sourceNote":"Exporter-level information on export transactions - Customs","sourceOrganization":"","topics":[]},{"id":"A7i","name":"11.Export Value per Entrant: Mean","source":{"id":"30","value":"Exporter Dynamics Database: Country-Year"},"sourceNote":"Exporter-level information on export transactions - Customs","sourceOrganization":"","topics":[]},{"id":"A6v","name":"10.Export Value per Exporter: Third Quartile","source":{"id":"30","value":"Exporter Dynamics Database: Country-Year"},"sourceNote":"Exporter-level information on export transactions - Customs","sourceOrganization":"","topics":[]},{"id":"A6iv","name":"09.Export Value per Exporter: First Quartile","source":{"id":"30","value":"Exporter Dynamics Database: Country-Year"},"sourceNote":"Exporter-level information on export transactions - Customs","sourceOrganization":"","topics":[]},{"id":"A6iii","name":"08.Export Value per Exporter: StDev","source":{"id":"30","value":"Exporter Dynamics Database: Country-Year"},"sourceNote":"Exporter-level information on export transactions - Customs","sourceOrganization":"","topics":[]},{"id":"A6ii","name":"07.Export Value per Exporter: Median","source":{"id":"30","value":"Exporter Dynamics Database: Country-Year"},"sourceNote":"Exporter-level information on export transactions - Customs","sourceOrganization":"","topics":[]},{"id":"A6i","name":"06.Export Value per Exporter: Mean","source":{"id":"30","value":"Exporter Dynamics Database: Country-Year"},"sourceNote":"Exporter-level information on export transactions - Customs","sourceOrganization":"","topics":[]},{"id":"A5","name":"05.Number of Incumbents","source":{"id":"30","value":"Exporter Dynamics Database: Country-Year"},"sourceNote":"Exporter-level information on export transactions - Customs","sourceOrganization":"","topics":[]},{"id":"A4","name":"04.Number of Survivors","source":{"id":"30","value":"Exporter Dynamics Database: Country-Year"},"sourceNote":"Exporter-level information on export transactions - Customs","sourceOrganization":"","topics":[]},{"id":"A3","name":"03.Number of Exiters","source":{"id":"30","value":"Exporter Dynamics Database: Country-Year"},"sourceNote":"Exporter-level information on export transactions - Customs","sourceOrganization":"","topics":[]},{"id":"A2","name":"02.Number of Entrants","source":{"id":"30","value":"Exporter Dynamics Database: Country-Year"},"sourceNote":"Exporter-level information on export transactions - Customs","sourceOrganization":"","topics":[]},{"id":"A12v","name":"40.Growth of Survivors: Third Quartile","source":{"id":"30","value":"Exporter Dynamics Database: Country-Year"},"sourceNote":"Exporter-level information on export transactions - Customs","sourceOrganization":"","topics":[]},{"id":"A12iv","name":"39.Growth of Survivors: First Quartile","source":{"id":"30","value":"Exporter Dynamics Database: Country-Year"},"sourceNote":"Exporter-level information on export transactions - Customs","sourceOrganization":"","topics":[]},{"id":"A12iii","name":"38.Growth of Survivors: StDev","source":{"id":"30","value":"Exporter Dynamics Database: Country-Year"},"sourceNote":"Exporter-level information on export transactions - Customs","sourceOrganization":"","topics":[]},{"id":"A12ii","name":"37.Growth of Survivors: Median","source":{"id":"30","value":"Exporter Dynamics Database: Country-Year"},"sourceNote":"Exporter-level information on export transactions - Customs","sourceOrganization":"","topics":[]},{"id":"A12i","name":"36.Growth of Survivors: Mean","source":{"id":"30","value":"Exporter Dynamics Database: Country-Year"},"sourceNote":"Exporter-level information on export transactions - Customs","sourceOrganization":"","topics":[]},{"id":"A11v","name":"35.Growth of Incumbents: Third Quartile","source":{"id":"30","value":"Exporter Dynamics Database: Country-Year"},"sourceNote":"Exporter-level information on export transactions - Customs","sourceOrganization":"","topics":[]},{"id":"A11iv","name":"34.Growth of Incumbents: First Quartile","source":{"id":"30","value":"Exporter Dynamics Database: Country-Year"},"sourceNote":"Exporter-level information on export transactions - Customs","sourceOrganization":"","topics":[]},{"id":"A11iii","name":"33.Growth of Incumbents: StDev","source":{"id":"30","value":"Exporter Dynamics Database: Country-Year"},"sourceNote":"Exporter-level information on export transactions - Customs","sourceOrganization":"","topics":[]},{"id":"A11ii","name":"32.Growth of Incumbents: Median","source":{"id":"30","value":"Exporter Dynamics Database: Country-Year"},"sourceNote":"Exporter-level information on export transactions - Customs","sourceOrganization":"","topics":[]},{"id":"A11i","name":"31.Growth of Incumbents: Mean","source":{"id":"30","value":"Exporter Dynamics Database: Country-Year"},"sourceNote":"Exporter-level information on export transactions - Customs","sourceOrganization":"","topics":[]},{"id":"A10v","name":"30.Export Value per Incumbent: Third Quartile","source":{"id":"30","value":"Exporter Dynamics Database: Country-Year"},"sourceNote":"Exporter-level information on export transactions - Customs","sourceOrganization":"","topics":[]},{"id":"A10iv","name":"29.Export Value per Incumbent: First Quartile","source":{"id":"30","value":"Exporter Dynamics Database: Country-Year"},"sourceNote":"Exporter-level information on export transactions - Customs","sourceOrganization":"","topics":[]},{"id":"A10iii","name":"28.Export Value per Incumbent: StDev","source":{"id":"30","value":"Exporter Dynamics Database: Country-Year"},"sourceNote":"Exporter-level information on export transactions - Customs","sourceOrganization":"","topics":[]},{"id":"A10ii","name":"27.Export Value per Incumbent: Median","source":{"id":"30","value":"Exporter Dynamics Database: Country-Year"},"sourceNote":"Exporter-level information on export transactions - Customs","sourceOrganization":"","topics":[]},{"id":"A10i","name":"26.Export Value per Incumbent: Mean","source":{"id":"30","value":"Exporter Dynamics Database: Country-Year"},"sourceNote":"Exporter-level information on export transactions - Customs","sourceOrganization":"","topics":[]},{"id":"A1","name":"01.Number of Exporters","source":{"id":"30","value":"Exporter Dynamics Database: Country-Year"},"sourceNote":"Exporter-level information on export transactions - Customs","sourceOrganization":"","topics":[]},{"id":"9.6_PBA","name":"Aid provided through program based approaches (% of international aid to education)","source":{"id":"34","value":"Global Partnership for Education"},"sourceNote":"International education aid provided in the context of programme-based approaches (PBAs) and expressed as a percentage of the total disbursed education aid. This indicator is measured by the donors’ use of (general or sector) budget support and\/or joint financing mechanisms such as pool funding mechanisms. PBA is a way of engaging in development co-operation based on the principles of coordinated support for a locally owned programme of development, such as a national education plan. Programme-based approaches share the following features: Leadership by the host country; a single comprehensive programme and budget framework; a formalized process for donor coordination and harmonization of donor procedures; efforts to increase the use of country systems. This is part of the 2011 Monitoring Exercise on Development Effectiveness in the Education Sector, an unprecedented picture of aid effectiveness in the education sector that can be used as the basis for in-country dialogue and debate going forward. This information looks at how education aid is delivered and managed by development partners and governments. ","sourceOrganization":"This indicator is part of the 2011 Monitoring Exercise on Development Effectiveness in the Education Sector. Data was collected in 2011 by the Global Partnership for Education (GPE) from Ministries of Education and development partners on selected Paris Declaration indicators, which were adapted for the education sector, and on other additional information. Three tools were used to collect this data: the Ministry of Education Questionnaire and the Donor questionnaire for quantitative data, and an Explanatory Note for qualitative data. The GPE Secretariat worked closely with Local Education Groups (LEGs ) to collect, process, produce, review and validate this information; and the Coordinating Agency or lead donor was tasked to coordinate the exercise with the LEG and to work with the Ministry of Education. Information refers to data from 2010. For further details in this exercise please refer to the following web site: http:\/\/www.globalpartnership.org\/our-work\/areas-of-focus\/aid-effectiveness\/2011-monitoring-exercise-on-aid-effectiveness-2.","topics":[]},{"id":"9.5_PIU","name":"Number of parallel implementation units, education sector","source":{"id":"34","value":"Global Partnership for Education"},"sourceNote":"Number of parallel implementation units (PIUs) in the education sector, as reported by the development donors. A project implementation unit (PIU) is parallel when it is created and operates outside existing country institutional and administrative structures at the behest of a donor. This is part of the 2011 Monitoring Exercise on Development Effectiveness in the Education Sector, an unprecedented picture of aid effectiveness in the education sector that can be used as the basis for in-country dialogue and debate going forward. This information looks at how education aid is delivered and managed by development partners and governments. ","sourceOrganization":"This indicator is part of the 2011 Monitoring Exercise on Development Effectiveness in the Education Sector. Data was collected in 2011 by the Global Partnership for Education (GPE) from Ministries of Education and development partners on selected Paris Declaration indicators, which were adapted for the education sector, and on other additional information. Three tools were used to collect this data: the Ministry of Education Questionnaire and the Donor questionnaire for quantitative data, and an Explanatory Note for qualitative data. The GPE Secretariat worked closely with Local Education Groups (LEGs ) to collect, process, produce, review and validate this information; and the Coordinating Agency or lead donor was tasked to coordinate the exercise with the LEG and to work with the Ministry of Education. Information refers to data from 2010. For further details in this exercise please refer to the following web site: http:\/\/www.globalpartnership.org\/our-work\/areas-of-focus\/aid-effectiveness\/2011-monitoring-exercise-on-aid-effectiveness-2.","topics":[]},{"id":"9.4_PROCUREMENT.COUNTRY.SYSTEMS","name":"Use of procurement country systems (% of total international aid to education)","source":{"id":"34","value":"Global Partnership for Education"},"sourceNote":"International education aid using national procurement systems and procedures expressed as a percentage of the disbursed education aid for the government sector. Donors use national procurement systems when the funds they provide for the implementation of projects and programs are managed according to the national procurement procedures as they were established in the general legislation and implemented by government. Government sector aid includes aid disbursed in the context of an agreement with administrations (ministries, departments, agencies or municipalities) authorized to receive revenue or undertake expenditures on behalf of central government. This is part of the 2011 Monitoring Exercise on Development Effectiveness in the Education Sector, an unprecedented picture of aid effectiveness in the education sector that can be used as the basis for in-country dialogue and debate going forward. This information looks at how education aid is delivered and managed by development partners and governments. ","sourceOrganization":"This indicator is part of the 2011 Monitoring Exercise on Development Effectiveness in the Education Sector. Data was collected in 2011 by the Global Partnership for Education (GPE) from Ministries of Education and development partners on selected Paris Declaration indicators, which were adapted for the education sector, and on other additional information. Three tools were used to collect this data: the Ministry of Education Questionnaire and the Donor questionnaire for quantitative data, and an Explanatory Note for qualitative data. The GPE Secretariat worked closely with Local Education Groups (LEGs ) to collect, process, produce, review and validate this information; and the Coordinating Agency or lead donor was tasked to coordinate the exercise with the LEG and to work with the Ministry of Education. Information refers to data from 2010. For further details in this exercise please refer to the following web site: http:\/\/www.globalpartnership.org\/our-work\/areas-of-focus\/aid-effectiveness\/2011-monitoring-exercise-on-aid-effectiveness-2.","topics":[]},{"id":"9.3_PFM.COUNTRY.SYSTEMS","name":"Use of public financial management country systems (% of total international aid to education)","source":{"id":"34","value":"Global Partnership for Education"},"sourceNote":"International education aid using national public financial management (PFM) systems and expressed as a percentage of the disbursed education aid for the government sector. PFM systems include budge execution procedures, financial reporting procedures and auditing procedures. Donors use national budget execution procedures when the funds they provide are managed according to the national budgeting procedures established in the general legislation and implemented by government. The use of national financial reporting means that donors do not impose additional requirements on governments for financial reporting. The use of national auditing procedures means that donors rely on the audit opinions issued by the country's supreme audit institution and on the government's normal financial reports\/statements. Government sector aid includes aid disbursed in the context of an agreement with administrations (ministries, departments, agencies or municipalities) authorized to receive revenue or undertake expenditures on behalf of central government. This is part of the 2011 Monitoring Exercise on Development Effectiveness in the Education Sector, an unprecedented picture of aid effectiveness in the education sector that can be used as the basis for in-country dialogue and debate going forward. This information looks at how education aid is delivered and managed by development partners and governments. ","sourceOrganization":"This indicator is part of the 2011 Monitoring Exercise on Development Effectiveness in the Education Sector. Data was collected in 2011 by the Global Partnership for Education (GPE) from Ministries of Education and development partners on selected Paris Declaration indicators, which were adapted for the education sector, and on other additional information. Three tools were used to collect this data: the Ministry of Education Questionnaire and the Donor questionnaire for quantitative data, and an Explanatory Note for qualitative data. The GPE Secretariat worked closely with Local Education Groups (LEGs ) to collect, process, produce, review and validate this information; and the Coordinating Agency or lead donor was tasked to coordinate the exercise with the LEG and to work with the Ministry of Education. Information refers to data from 2010. For further details in this exercise please refer to the following web site: http:\/\/www.globalpartnership.org\/our-work\/areas-of-focus\/aid-effectiveness\/2011-monitoring-exercise-on-aid-effectiveness-2.","topics":[]},{"id":"9.2_COORDINATED.TECH.COOP","name":"Coordinated technical cooperation (% of total cooperation to education)","source":{"id":"34","value":"Global Partnership for Education"},"sourceNote":"Technical cooperation from development partners provided through coordinated programs and expressed as a percentage of the total disbursed technical cooperation. Coordinated technical cooperation is consistent with the capacity development priorities of the developing recipient government. This is part of the 2011 Monitoring Exercise on Development Effectiveness in the Education Sector, an unprecedented picture of aid effectiveness in the education sector that can be used as the basis for in-country dialogue and debate going forward. This information looks at how education aid is delivered and managed by development partners and governments. ","sourceOrganization":"This indicator is part of the 2011 Monitoring Exercise on Development Effectiveness in the Education Sector. Data was collected in 2011 by the Global Partnership for Education (GPE) from Ministries of Education and development partners on selected Paris Declaration indicators, which were adapted for the education sector, and on other additional information. Three tools were used to collect this data: the Ministry of Education Questionnaire and the Donor questionnaire for quantitative data, and an Explanatory Note for qualitative data. The GPE Secretariat worked closely with Local Education Groups (LEGs ) to collect, process, produce, review and validate this information; and the Coordinating Agency or lead donor was tasked to coordinate the exercise with the LEG and to work with the Ministry of Education. Information refers to data from 2010. For further details in this exercise please refer to the following web site: http:\/\/www.globalpartnership.org\/our-work\/areas-of-focus\/aid-effectiveness\/2011-monitoring-exercise-on-aid-effectiveness-2.","topics":[]},{"id":"9.2.Unpaid.T60","name":"Unpaid Workers-Top 60 Percent (%), Female","source":{"id":"37","value":"LAC Equity Lab"},"sourceNote":"Share of the female labor force (ages 18-65) in the top 60 percent that works without pay","sourceOrganization":"LAC Equity Lab tabulations of SEDLAC (CEDLAS and the World Bank).","topics":[{"id":"10","value":"Social Protection & Labor"}]},{"id":"9.2.Unpaid.B40","name":"Unpaid Workers-Bottom 40 Percent (%), Female","source":{"id":"37","value":"LAC Equity Lab"},"sourceNote":"Share of the female labor force (ages 18-65) in the bottom 40 percent that works without pay","sourceOrganization":"LAC Equity Lab tabulations of SEDLAC (CEDLAS and the World Bank).","topics":[{"id":"10","value":"Social Protection & Labor"}]},{"id":"9.2.Unpaid.All","name":"Unpaid Workers (%), Female","source":{"id":"37","value":"LAC Equity Lab"},"sourceNote":"Share of the female labor force (ages 18-65) that works without pay","sourceOrganization":"LAC Equity Lab tabulations of SEDLAC (CEDLAS and the World Bank).","topics":[{"id":"10","value":"Social Protection & Labor"}]},{"id":"9.2.Unemp.T60","name":"Unemployed-Top 60 Percent (%), Female","source":{"id":"37","value":"LAC Equity Lab"},"sourceNote":"Share of the female labor force (ages 18-65) in the top 60 percent that is unemployed","sourceOrganization":"LAC Equity Lab tabulations of SEDLAC (CEDLAS and the World Bank).","topics":[{"id":"10","value":"Social Protection & Labor"}]},{"id":"9.2.Unemp.B40","name":"Unemployed-Bottom 40 Percent (%), Female","source":{"id":"37","value":"LAC Equity Lab"},"sourceNote":"Share of the female labor force (ages 18-65) in the bottom 40 percent that is unemployed","sourceOrganization":"LAC Equity Lab tabulations of SEDLAC (CEDLAS and the World Bank).","topics":[{"id":"10","value":"Social Protection & Labor"}]},{"id":"9.2.Unemp.All","name":"Unemployed (%), Female","source":{"id":"37","value":"LAC Equity Lab"},"sourceNote":"Share of the female labor force (ages 18-65) that is unemployed","sourceOrganization":"LAC Equity Lab tabulations of SEDLAC (CEDLAS and the World Bank).","topics":[{"id":"10","value":"Social Protection & Labor"}]},{"id":"9.2.SelfEmp.T60","name":"Self-Employed-Top 60 Percent (%), Female","source":{"id":"37","value":"LAC Equity Lab"},"sourceNote":"Share of the female labor force (ages 18-65) in the top 60 percent that is a self-employed and not an employer","sourceOrganization":"LAC Equity Lab tabulations of SEDLAC (CEDLAS and the World Bank).","topics":[{"id":"10","value":"Social Protection & Labor"}]},{"id":"9.2.SelfEmp.B40","name":"Self-Employed-Bottom 40 Percent (%), Female","source":{"id":"37","value":"LAC Equity Lab"},"sourceNote":"Share of the female labor force (ages 18-65) in the bottom 40 percent that is self-employed and not an employer","sourceOrganization":"LAC Equity Lab tabulations of SEDLAC (CEDLAS and the World Bank).","topics":[{"id":"10","value":"Social Protection & Labor"}]},{"id":"9.2.SelfEmp.All","name":"Self-Employed (%), Female","source":{"id":"37","value":"LAC Equity Lab"},"sourceNote":"Share of the female labor force (ages 18-65) that is self-employed and not an employer","sourceOrganization":"LAC Equity Lab tabulations of SEDLAC (CEDLAS and the World Bank).","topics":[{"id":"10","value":"Social Protection & Labor"}]},{"id":"9.2.Labor.T60","name":"Labor Force Participation Rate (%)-Top 60 Percent, Female","source":{"id":"37","value":"LAC Equity Lab"},"sourceNote":"Share of the female population (ages 18-65) in the Top 60 percent that is in the labor force","sourceOrganization":"LAC Equity Lab tabulations of SEDLAC (CEDLAS and the World Bank).","topics":[{"id":"3","value":"Economy & Growth"}]},{"id":"9.2.Labor.B40","name":"Labor Force Participation Rate (%)-Bottom 40 Percent, Female","source":{"id":"37","value":"LAC Equity Lab"},"sourceNote":"Share of the female population (ages 18-65) in the Bottom 40 percent that is in the labor force","sourceOrganization":"LAC Equity Lab tabulations of SEDLAC (CEDLAS and the World Bank).","topics":[{"id":"3","value":"Economy & Growth"}]},{"id":"9.2.Labor.All","name":"Labor Force Participation Rate (%), Female","source":{"id":"37","value":"LAC Equity Lab"},"sourceNote":"Share of the female population (ages 18-65) that is in the labor force","sourceOrganization":"LAC Equity Lab tabulations of SEDLAC (CEDLAS and the World Bank).","topics":[{"id":"10","value":"Social Protection & Labor"}]},{"id":"9.2.Employer.T60","name":"Employers-Top 60 Percent (%), Female","source":{"id":"37","value":"LAC Equity Lab"},"sourceNote":"Share of the female labor force (ages 18-65) in the top 60 percent that is an employer","sourceOrganization":"LAC Equity Lab tabulations of SEDLAC (CEDLAS and the World Bank).","topics":[{"id":"10","value":"Social Protection & Labor"}]},{"id":"9.2.Employer.B40","name":"Employers-Bottom 40 Percent (%), Female","source":{"id":"37","value":"LAC Equity Lab"},"sourceNote":"Share of the female labor force (ages 18-65) in the bottom 40 percent that is an employer","sourceOrganization":"LAC Equity Lab tabulations of SEDLAC (CEDLAS and the World Bank).","topics":[{"id":"10","value":"Social Protection & Labor"}]},{"id":"9.2.Employer.All","name":"Employers (%), Female","source":{"id":"37","value":"LAC Equity Lab"},"sourceNote":"Share of the female labor force (ages 18-65) that is an employer","sourceOrganization":"LAC Equity Lab tabulations of SEDLAC (CEDLAS and the World Bank).","topics":[{"id":"10","value":"Social Protection & Labor"}]},{"id":"9.2.Employee.T60","name":"Employees-Top 60 Percent (%), Female","source":{"id":"37","value":"LAC Equity Lab"},"sourceNote":"Share of the female labor force (ages 18-65) in the top 60 percent that is a wage or salary worker","sourceOrganization":"LAC Equity Lab tabulations of SEDLAC (CEDLAS and the World Bank).","topics":[{"id":"10","value":"Social Protection & Labor"}]}]]