[{"page":108,"pages":324,"per_page":"50","total":16174},[{"id":"GFDD.AI.13","name":"Saved using a savings club in the past year (% age 15+)","source":{"id":"32","value":"Global Financial Development"},"sourceNote":" The percentage of respondents who report saving or setting aside any money by using an informal savings club or a person outside the family in the past 12 months (% age 15+).","sourceOrganization":"Global Financial Inclusion (Global Findex) Database, World Bank","topics":[{"id":"7","value":"Financial Sector "}]},{"id":"GFDD.AI.12","name":"Saved any money in the past year (% age 15+)","source":{"id":"32","value":"Global Financial Development"},"sourceNote":" The percentage of respondents who report saving or setting aside any money in the past 12 months (% age 15+).","sourceOrganization":"Global Financial Inclusion (Global Findex) Database, World Bank","topics":[{"id":"7","value":"Financial Sector "}]},{"id":"GFDD.AI.11","name":"Account used to receive wages (% age 15+)","source":{"id":"32","value":"Global Financial Development"},"sourceNote":" The percentage of respondents who report using their accounts at a formal financial institution to receive money or payments for work or from selling goods in the past 12 months (% age 15+).","sourceOrganization":"Global Financial Inclusion (Global Findex) Database, World Bank","topics":[{"id":"7","value":"Financial Sector "}]},{"id":"GFDD.AI.10","name":"Account used to receive remittances (% age 15+)","source":{"id":"32","value":"Global Financial Development"},"sourceNote":" The percentage of respondents who report using their accounts at a formal financial institution to receive money from family members living elsewhere in the past 12 months (% age 15+).","sourceOrganization":"Global Financial Inclusion (Global Findex) Database, World Bank","topics":[{"id":"7","value":"Financial Sector "}]},{"id":"GFDD.AI.09","name":"Account used to receive government payments (% age 15+)","source":{"id":"32","value":"Global Financial Development"},"sourceNote":" The percentage of respondents who report using their accounts at a formal financial institution to receive money or payments from the government in the past 12 months (% age 15+).","sourceOrganization":"Global Financial Inclusion (Global Findex) Database, World Bank","topics":[{"id":"7","value":"Financial Sector "}]},{"id":"GFDD.AI.08","name":"Account used for business purposes (% age 15+)","source":{"id":"32","value":"Global Financial Development"},"sourceNote":" The percentage of respondents who report using their accounts at a formal financial institution for business purposes only or for both business purposes and personal transactions (% age 15+).","sourceOrganization":"Global Financial Inclusion (Global Findex) Database, World Bank","topics":[{"id":"7","value":"Financial Sector "}]},{"id":"GFDD.AI.07","name":"Loan from a financial institution in the past year (% age 15+)","source":{"id":"32","value":"Global Financial Development"},"sourceNote":"The percentage of respondents who report borrowing any money from a bank, credit union, microfinance institution, or another financial institution such as a cooperative in the past 12 months (% age 15+).","sourceOrganization":"Global Financial Inclusion (Global Findex) Database, World Bank","topics":[{"id":"7","value":"Financial Sector "}]},{"id":"GFDD.AI.06","name":"Saved at a financial institution in the past year (% age 15+)","source":{"id":"32","value":"Global Financial Development"},"sourceNote":"The percentage of respondents who report saving or setting aside any money by using an account at a formal financial institution such as a bank, credit union, microfinance institution, or cooperative in the past 12 months (% age 15+).","sourceOrganization":"Global Financial Inclusion (Global Findex) Database, World Bank","topics":[{"id":"7","value":"Financial Sector "}]},{"id":"GFDD.AI.05","name":"Account at a formal financial institution (% age 15+)","source":{"id":"32","value":"Global Financial Development"},"sourceNote":"The percentage of respondents with an account (self or together with someone else) at a bank, credit union, another financial institution (e.g., cooperative, microfinance institution), or the post office (if applicable) including respondents who reported having a debit card (% age 15+).","sourceOrganization":"Global Financial Inclusion (Global Findex) Database, World Bank","topics":[{"id":"7","value":"Financial Sector "}]},{"id":"GFDD.AI.04","name":"Small firms with a bank loan or line of credit (%)","source":{"id":"32","value":"Global Financial Development"},"sourceNote":"Percentage of small firms (5-19 workers) in the formal sector with a line of credit or a loan from a (formal) financial institution, such as a bank, credit union, microfinance institution, or cooperative.","sourceOrganization":"Enterprise Surveys, World Bank","topics":[{"id":"7","value":"Financial Sector "}]},{"id":"GFDD.AI.03","name":"Firms with a bank loan or line of credit (%)","source":{"id":"32","value":"Global Financial Development"},"sourceNote":"Percentage of firms in the formal sector with a line of credit or a loan from a formal financial institution, such as a bank, credit union, microfinance institution, or cooperative.","sourceOrganization":"Enterprise Surveys, World Bank","topics":[{"id":"7","value":"Financial Sector "}]},{"id":"GFDD.AI.02","name":"Bank branches per 100,000 adults ","source":{"id":"32","value":"Global Financial Development"},"sourceNote":"For each country calculated as: 100,000*reported number of depositors\/adult population in the reporting country.","sourceOrganization":"Financial Access Survey (FAS), International Monetary Fund (IMF)","topics":[{"id":"7","value":"Financial Sector "}]},{"id":"GFDD.AI.01","name":"Bank accounts per 1000 adults","source":{"id":"32","value":"Global Financial Development"},"sourceNote":"For each country calculated as: 1,000*reported number of depositors\/adult population in the reporting country.","sourceOrganization":"Financial Access Survey (FAS), International Monetary Fund (IMF)","topics":[{"id":"7","value":"Financial Sector "}]},{"id":"gf9.6","name":"Main source of emergency funds: savings, older adults (% age 35+)","source":{"id":"33","value":"G20 Basic Set of Financial Inclusion Indicators"},"sourceNote":"Denotes, among respondents reporting that in case of an emergency it is very possible, somewhat possible, or not very possible for them to come up with 1\/20 of GNI per capita in local currency, the percentage who choose savings as their main source of thi","sourceOrganization":"Global Findex database (http:\/\/datatopics.worldbank.org\/financialinclusion\/)","topics":[]},{"id":"gf9.5","name":"Main source of emergency funds: savings, young adults (% ages 15-34)","source":{"id":"33","value":"G20 Basic Set of Financial Inclusion Indicators"},"sourceNote":"Denotes, among respondents reporting that in case of an emergency it is very possible, somewhat possible, or not very possible for them to come up with 1\/20 of GNI per capita in local currency, the percentage who choose savings as their main source of thi","sourceOrganization":"Global Findex database (http:\/\/datatopics.worldbank.org\/financialinclusion\/)","topics":[]},{"id":"gf9.4","name":"Main source of emergency funds: savings, income, richest 60% (% age 15+)","source":{"id":"33","value":"G20 Basic Set of Financial Inclusion Indicators"},"sourceNote":"Denotes, among respondents reporting that in case of an emergency it is very possible, somewhat possible, or not very possible for them to come up with 1\/20 of GNI per capita in local currency, the percentage who choose savings as their main source of thi","sourceOrganization":"Global Findex database (http:\/\/datatopics.worldbank.org\/financialinclusion\/)","topics":[]},{"id":"gf9.3","name":"Main source of emergency funds: savings, income, poorest 40% (% age 15+)","source":{"id":"33","value":"G20 Basic Set of Financial Inclusion Indicators"},"sourceNote":"Denotes, among respondents reporting that in case of an emergency it is very possible, somewhat possible, or not very possible for them to come up with 1\/20 of GNI per capita in local currency, the percentage who choose savings as their main source of thi","sourceOrganization":"Global Findex database (http:\/\/datatopics.worldbank.org\/financialinclusion\/)","topics":[]},{"id":"gf9.2","name":"Main source of emergency funds: savings, male (% age 15+)","source":{"id":"33","value":"G20 Basic Set of Financial Inclusion Indicators"},"sourceNote":"Denotes, among respondents reporting that in case of an emergency it is very possible, somewhat possible, or not very possible for them to come up with 1\/20 of GNI per capita in local currency, the percentage who choose savings as their main source of thi","sourceOrganization":"Global Findex database (http:\/\/datatopics.worldbank.org\/financialinclusion\/)","topics":[]},{"id":"gf9.1","name":"Main source of emergency funds: savings, female  (% age 15+)","source":{"id":"33","value":"G20 Basic Set of Financial Inclusion Indicators"},"sourceNote":"Denotes, among respondents reporting that in case of an emergency it is very possible, somewhat possible, or not very possible for them to come up with 1\/20 of GNI per capita in local currency, the percentage who choose savings as their main source of thi","sourceOrganization":"Global Findex database (http:\/\/datatopics.worldbank.org\/financialinclusion\/)","topics":[]},{"id":"gf9","name":"Main source of emergency funds: savings (% age 15+)","source":{"id":"33","value":"G20 Basic Set of Financial Inclusion Indicators"},"sourceNote":"Denotes, among respondents reporting that in case of an emergency it is very possible, somewhat possible, or not very possible for them to come up with 1\/20 of GNI per capita in local currency, the percentage who choose savings as their main source of thi","sourceOrganization":"Global Findex database (http:\/\/datatopics.worldbank.org\/financialinclusion\/)","topics":[]},{"id":"gf8.6","name":"Saved at a financial institution, older adults (% age 35+)","source":{"id":"33","value":"G20 Basic Set of Financial Inclusion Indicators"},"sourceNote":"Denotes the percentage of respondents who report saving or setting aside any money at a bank or another type of financial institution in the past 12 months (see year-specific definitions for details) (% age 35+).","sourceOrganization":"Global Findex database (http:\/\/datatopics.worldbank.org\/financialinclusion\/)","topics":[]},{"id":"gf8.5","name":"Saved at a financial institution, young adults (% ages 15-34)","source":{"id":"33","value":"G20 Basic Set of Financial Inclusion Indicators"},"sourceNote":"Denotes the percentage of respondents who report saving or setting aside any money at a bank or another type of financial institution in the past 12 months (see year-specific definitions for details) (% ages 15-34).","sourceOrganization":"Global Findex database (http:\/\/datatopics.worldbank.org\/financialinclusion\/)","topics":[]},{"id":"gf8.4","name":"Saved at a financial institution, income, richest 60% (% age 15+)","source":{"id":"33","value":"G20 Basic Set of Financial Inclusion Indicators"},"sourceNote":"Denotes the percentage of respondents who report saving or setting aside any money at a bank or another type of financial institution in the past 12 months (see year-specific definitions for details) (income, richest 60%, % age 15+).","sourceOrganization":"Global Findex database (http:\/\/datatopics.worldbank.org\/financialinclusion\/)","topics":[]},{"id":"gf8.3","name":"Saved at a financial institution, income, poorest 40% (% age 15+)","source":{"id":"33","value":"G20 Basic Set of Financial Inclusion Indicators"},"sourceNote":"Denotes the percentage of respondents who report saving or setting aside any money at a bank or another type of financial institution in the past 12 months (see year-specific definitions for details) (income, poorest 40%, % age 15+).","sourceOrganization":"Global Findex database (http:\/\/datatopics.worldbank.org\/financialinclusion\/)","topics":[]},{"id":"gf8.2","name":"Saved at a financial institution, male (% age 15+)\"","source":{"id":"33","value":"G20 Basic Set of Financial Inclusion Indicators"},"sourceNote":"Denotes the percentage of respondents who report saving or setting aside any money at a bank or another type of financial institution in the past 12 months (see year-specific definitions for details)  (with a bank or financial institution) (male, % age 15","sourceOrganization":"Global Findex database (http:\/\/datatopics.worldbank.org\/financialinclusion\/)","topics":[]},{"id":"gf8.1","name":"Saved at a financial institution, female  (% age 15+)","source":{"id":"33","value":"G20 Basic Set of Financial Inclusion Indicators"},"sourceNote":"Denotes the percentage of respondents who report saving or setting aside any money at a bank or another type of financial institution in the past 12 months (see year-specific definitions for details) (female, % age 15+).","sourceOrganization":"Global Findex database (http:\/\/datatopics.worldbank.org\/financialinclusion\/)","topics":[]},{"id":"gf8","name":"Saved at a financial institution (% age 15+)","source":{"id":"33","value":"G20 Basic Set of Financial Inclusion Indicators"},"sourceNote":"Denotes the percentage of respondents who report saving or setting aside any money at a bank or another type of financial institution in the past 12 months (see year-specific definitions for details) (% age 15+).","sourceOrganization":"Global Findex database (http:\/\/datatopics.worldbank.org\/financialinclusion\/)","topics":[]},{"id":"gf7.6","name":"High frequency of account use, older adults (% age 35+)","source":{"id":"33","value":"G20 Basic Set of Financial Inclusion Indicators"},"sourceNote":"Denotes the percentage of adults with high frequency use of account where high frequency is defined as having taken money out of a personal account(s) at a bank or other formal financial institution 3 or more times in a typical month, including cash withd","sourceOrganization":"Global Findex database (http:\/\/datatopics.worldbank.org\/financialinclusion\/)","topics":[]},{"id":"gf7.5","name":"High frequency of account use, young adults (% ages 15-34)","source":{"id":"33","value":"G20 Basic Set of Financial Inclusion Indicators"},"sourceNote":"Denotes the percentage of adults with high frequency use of account where high frequency is defined as having taken money out of a personal account(s) at a bank or other formal financial institution 3 or more times in a typical month, including cash withd","sourceOrganization":"Global Findex database (http:\/\/datatopics.worldbank.org\/financialinclusion\/)","topics":[]},{"id":"gf7.4","name":"High frequency of account use, income, richest 60% (% age 15+)","source":{"id":"33","value":"G20 Basic Set of Financial Inclusion Indicators"},"sourceNote":"Denotes the percentage of adults with high frequency use of account where high frequency is defined as having taken money out of a personal account(s) at a bank or other formal financial institution 3 or more times in a typical month, including cash withd","sourceOrganization":"Global Findex database (http:\/\/datatopics.worldbank.org\/financialinclusion\/)","topics":[]},{"id":"gf7.3","name":"High frequency of account use, income, poorest 40% (% age 15+)","source":{"id":"33","value":"G20 Basic Set of Financial Inclusion Indicators"},"sourceNote":"Denotes the percentage of adults with high frequency use of account where high frequency is defined as having taken money out of a personal account(s) at a bank or other formal financial institution 3 or more times in a typical month, including cash withd","sourceOrganization":"Global Findex database (http:\/\/datatopics.worldbank.org\/financialinclusion\/)","topics":[]},{"id":"gf7.2","name":"High frequency of account use, male (% age 15+)","source":{"id":"33","value":"G20 Basic Set of Financial Inclusion Indicators"},"sourceNote":"Denotes the percentage of adults with high frequency use of account where high frequency is defined as having taken money out of a personal account(s) at a bank or other formal financial institution 3 or more times in a typical month, including cash withd","sourceOrganization":"Global Findex database (http:\/\/datatopics.worldbank.org\/financialinclusion\/)","topics":[]},{"id":"gf7.1","name":"High frequency of account use, female  (% age 15+)","source":{"id":"33","value":"G20 Basic Set of Financial Inclusion Indicators"},"sourceNote":"Denotes the percentage of adults with high frequency use of account where high frequency is defined as having taken money out of a personal account(s) at a bank or other formal financial institution 3 or more times in a typical month, including cash withd","sourceOrganization":"Global Findex database (http:\/\/datatopics.worldbank.org\/financialinclusion\/)","topics":[]},{"id":"gf7","name":"High frequency of account use (% age 15+)","source":{"id":"33","value":"G20 Basic Set of Financial Inclusion Indicators"},"sourceNote":"Denotes the percentage of adults with high frequency use of account where high frequency is defined as having taken money out of a personal account(s) at a bank or other formal financial institution 3 or more times in a typical month, including cash withd","sourceOrganization":"Global Findex database (http:\/\/datatopics.worldbank.org\/financialinclusion\/)","topics":[]},{"id":"gf6.6","name":"Made payment using a debit card, older adults (% age 35+)","source":{"id":"33","value":"G20 Basic Set of Financial Inclusion Indicators"},"sourceNote":"Denotes the percentage of respondents who report using their own debit card directly to make a purchase in the past 12 months (% age 35+).","sourceOrganization":"Global Findex database (http:\/\/datatopics.worldbank.org\/financialinclusion\/)","topics":[]},{"id":"gf6.5","name":"Made payment using a debit card, young adults (% ages 15-34)","source":{"id":"33","value":"G20 Basic Set of Financial Inclusion Indicators"},"sourceNote":"Denotes the percentage of respondents who report using their own debit card directly to make a purchase in the past 12 months (% ages 15-34).","sourceOrganization":"Global Findex database (http:\/\/datatopics.worldbank.org\/financialinclusion\/)","topics":[]},{"id":"gf6.4","name":"Made payment using a debit card, income, richest 60% (% age 15+)","source":{"id":"33","value":"G20 Basic Set of Financial Inclusion Indicators"},"sourceNote":"Denotes the percentage of respondents who report using their own debit card directly to make a purchase in the past 12 months (income, richest 60%, % age 15+).","sourceOrganization":"Global Findex database (http:\/\/datatopics.worldbank.org\/financialinclusion\/)","topics":[]},{"id":"gf6.3","name":"Made payment using a debit card, income, poorest 40% (% age 15+)","source":{"id":"33","value":"G20 Basic Set of Financial Inclusion Indicators"},"sourceNote":"Denotes the percentage of respondents who report using their own debit card directly to make a purchase in the past 12 months (income, poorest 40%, % age 15+).","sourceOrganization":"Global Findex database (http:\/\/datatopics.worldbank.org\/financialinclusion\/)","topics":[]},{"id":"gf6.2","name":"Made payment using a debit card, male (% age 15+)","source":{"id":"33","value":"G20 Basic Set of Financial Inclusion Indicators"},"sourceNote":"Denotes the percentage of respondents who report using their own debit card directly to make a purchase in the past 12 months (male, % age 15+).","sourceOrganization":"Global Findex database (http:\/\/datatopics.worldbank.org\/financialinclusion\/)","topics":[]},{"id":"gf6.1","name":"Made payment using a debit card, female  (% age 15+)","source":{"id":"33","value":"G20 Basic Set of Financial Inclusion Indicators"},"sourceNote":"Denotes the percentage of respondents who report using their own debit card directly to make a purchase in the past 12 months (female, % age 15+).","sourceOrganization":"Global Findex database (http:\/\/datatopics.worldbank.org\/financialinclusion\/)","topics":[]},{"id":"gf6","name":"Made payment using a debit card (% age 15+)","source":{"id":"33","value":"G20 Basic Set of Financial Inclusion Indicators"},"sourceNote":"Denotes the percentage of respondents who report using their own debit card directly to make a purchase in the past 12 months  (% age 15+).","sourceOrganization":"Global Findex database (http:\/\/datatopics.worldbank.org\/financialinclusion\/)","topics":[]},{"id":"gf5.6","name":"Made payment using the internet, older adults (% age 35+)","source":{"id":"33","value":"G20 Basic Set of Financial Inclusion Indicators"},"sourceNote":"Denotes the percentage of adults using the internet to pay bills, make purchases, or send money online (% age 35+).","sourceOrganization":"Global Findex database (http:\/\/datatopics.worldbank.org\/financialinclusion\/)","topics":[]},{"id":"gf5.5","name":"Made payment using the internet, young adults (% ages 15-34)","source":{"id":"33","value":"G20 Basic Set of Financial Inclusion Indicators"},"sourceNote":"Denotes the percentage of adults using the internet to pay bills, make purchases, or send money online (% ages 15-34).","sourceOrganization":"Global Findex database (http:\/\/datatopics.worldbank.org\/financialinclusion\/)","topics":[]},{"id":"gf5.4","name":"Made payment using the internet, income, richest 60% (% age 15+)","source":{"id":"33","value":"G20 Basic Set of Financial Inclusion Indicators"},"sourceNote":"Denotes the percentage of adults using the internet to pay bills, make purchases, or send money online (income, richest 60%, % age 15+).","sourceOrganization":"Global Findex database (http:\/\/datatopics.worldbank.org\/financialinclusion\/)","topics":[]},{"id":"gf5.3","name":"Made payment using the internet, income, poorest 40% (% age 15+)","source":{"id":"33","value":"G20 Basic Set of Financial Inclusion Indicators"},"sourceNote":"Denotes the percentage of adults using the internet to pay bills, make purchases, or send money online (income, poorest 40%, % age 15+).","sourceOrganization":"Global Findex database (http:\/\/datatopics.worldbank.org\/financialinclusion\/)","topics":[]},{"id":"gf5.2","name":"Made payment using the internet, male (% age 15+)","source":{"id":"33","value":"G20 Basic Set of Financial Inclusion Indicators"},"sourceNote":"Denotes the percentage of adults using the internet to pay bills, make purchases, or send money online (male, % age 15+).","sourceOrganization":"Global Findex database (http:\/\/datatopics.worldbank.org\/financialinclusion\/)","topics":[]},{"id":"gf5.1","name":"Made payment using the internet, female  (% age 15+)","source":{"id":"33","value":"G20 Basic Set of Financial Inclusion Indicators"},"sourceNote":"Denotes the percentage of adults using the internet to pay bills, make purchases, or send money online (female, % age 15+).","sourceOrganization":"Global Findex database (http:\/\/datatopics.worldbank.org\/financialinclusion\/)","topics":[]},{"id":"gf5","name":"Made payment using the internet (% age 15+)","source":{"id":"33","value":"G20 Basic Set of Financial Inclusion Indicators"},"sourceNote":"Denotes the percentage of adults using the internet to pay bills, make purchases, or send money online (% age 15+).","sourceOrganization":"Global Findex database (http:\/\/datatopics.worldbank.org\/financialinclusion\/)","topics":[]},{"id":"gf4.6","name":"Made payment using a mobile phone, older adults (% age 35+)","source":{"id":"33","value":"G20 Basic Set of Financial Inclusion Indicators"},"sourceNote":"Denotes the percentage of adults using a mobile phone to pay bills, make purchases, or send or receive money from an account (with a bank or other formal financial institution or mobile money provider) (% age 35+).","sourceOrganization":"Global Findex database (http:\/\/datatopics.worldbank.org\/financialinclusion\/)","topics":[]},{"id":"gf4.5","name":"Made payment using a mobile phone, young adults (% ages 15-34)","source":{"id":"33","value":"G20 Basic Set of Financial Inclusion Indicators"},"sourceNote":"Denotes the percentage of adults using a mobile phone to pay bills, make purchases, or send or receive money from an account (with a bank or other formal financial institution or mobile money provider) (% ages 15-34).","sourceOrganization":"Global Findex database (http:\/\/datatopics.worldbank.org\/financialinclusion\/)","topics":[{}]}]]