[{"page":129,"pages":324,"per_page":"50","total":16174},[{"id":"KFTEA_AVG","name":"Tea, avg 3 auctions, real, $\/kg","source":{"id":"55","value":"Commodity Prices- History and Projections, updated quarterly"},"sourceNote":"","sourceOrganization":"","topics":[]},{"id":"KFSUGAR_WLD","name":"Sugar, world, real, $\/kg","source":{"id":"55","value":"Commodity Prices- History and Projections, updated quarterly"},"sourceNote":"","sourceOrganization":"","topics":[]},{"id":"KFSOYBEANS","name":"Soybeans, real, $\/mt","source":{"id":"55","value":"Commodity Prices- History and Projections, updated quarterly"},"sourceNote":"","sourceOrganization":"","topics":[]},{"id":"KFSOYBEAN_OIL","name":"Soybean oil, real, $\/mt","source":{"id":"55","value":"Commodity Prices- History and Projections, updated quarterly"},"sourceNote":"","sourceOrganization":"","topics":[]},{"id":"KFSOYBEAN_MEAL","name":"Soybean meal, real, $\/mt","source":{"id":"55","value":"Commodity Prices- History and Projections, updated quarterly"},"sourceNote":"","sourceOrganization":"","topics":[]},{"id":"KFSILVER","name":"Silver, real, $\/troy oz","source":{"id":"55","value":"Commodity Prices- History and Projections, updated quarterly"},"sourceNote":"","sourceOrganization":"","topics":[]},{"id":"KFSHRIMP_MEX","name":"Shirmps, Mexican, real, $\/kg","source":{"id":"55","value":"Commodity Prices- History and Projections, updated quarterly"},"sourceNote":"","sourceOrganization":"","topics":[]},{"id":"KFSAWNWD_MYS","name":"Sawnwood, Malaysian, real, $\/cubic meter","source":{"id":"55","value":"Commodity Prices- History and Projections, updated quarterly"},"sourceNote":"","sourceOrganization":"","topics":[]},{"id":"KFRUBBER1_MYSG","name":"Rubber, SGP\/MYS, real, $\/kg","source":{"id":"55","value":"Commodity Prices- History and Projections, updated quarterly"},"sourceNote":"","sourceOrganization":"","topics":[]},{"id":"KFRICE_05","name":"Rice, Thai 5% , real, $\/mt","source":{"id":"55","value":"Commodity Prices- History and Projections, updated quarterly"},"sourceNote":"","sourceOrganization":"","topics":[]},{"id":"KFPOTASH","name":"Potarsium chloride, real, $\/mt","source":{"id":"55","value":"Commodity Prices- History and Projections, updated quarterly"},"sourceNote":"","sourceOrganization":"","topics":[]},{"id":"KFPLATINUM","name":"Platinum, real, $\/troy oz","source":{"id":"55","value":"Commodity Prices- History and Projections, updated quarterly"},"sourceNote":"","sourceOrganization":"","topics":[]},{"id":"KFPHOSROCK","name":"Phosphate rock, real, $\/mt","source":{"id":"55","value":"Commodity Prices- History and Projections, updated quarterly"},"sourceNote":"","sourceOrganization":"","topics":[]},{"id":"KFPALM_OIL","name":"Palm oil, real, $\/mt","source":{"id":"55","value":"Commodity Prices- History and Projections, updated quarterly"},"sourceNote":"","sourceOrganization":"","topics":[]},{"id":"KFORANGE","name":"Orange, real, $\/kg","source":{"id":"55","value":"Commodity Prices- History and Projections, updated quarterly"},"sourceNote":"","sourceOrganization":"","topics":[]},{"id":"KFNICKEL","name":"Nickel, real, $\/mt","source":{"id":"55","value":"Commodity Prices- History and Projections, updated quarterly"},"sourceNote":"","sourceOrganization":"","topics":[]},{"id":"KFNGAS_US","name":"Natural gas, US, real, $\/mmbtu","source":{"id":"55","value":"Commodity Prices- History and Projections, updated quarterly"},"sourceNote":"","sourceOrganization":"","topics":[]},{"id":"KFNGAS_JP","name":"Liquefied natural gas, Japan, real, $\/mmbtu","source":{"id":"55","value":"Commodity Prices- History and Projections, updated quarterly"},"sourceNote":"","sourceOrganization":"","topics":[]},{"id":"KFNGAS_EUR","name":"Natural gas, Europe, real, $\/mmbtu","source":{"id":"55","value":"Commodity Prices- History and Projections, updated quarterly"},"sourceNote":"","sourceOrganization":"","topics":[]},{"id":"KFMAIZE","name":"Maize, real, $\/mt","source":{"id":"55","value":"Commodity Prices- History and Projections, updated quarterly"},"sourceNote":"","sourceOrganization":"","topics":[]},{"id":"KFLOGS_MYS","name":"Logs, Malaysian, real, $\/cubic meter","source":{"id":"55","value":"Commodity Prices- History and Projections, updated quarterly"},"sourceNote":"","sourceOrganization":"","topics":[]},{"id":"KFLOGS_CMR","name":"Logs, Cameroon, real, $\/cubic meter","source":{"id":"55","value":"Commodity Prices- History and Projections, updated quarterly"},"sourceNote":"","sourceOrganization":"","topics":[]},{"id":"KFLEAD","name":"Lead, real, $\/mt","source":{"id":"55","value":"Commodity Prices- History and Projections, updated quarterly"},"sourceNote":"","sourceOrganization":"","topics":[]},{"id":"KFITIMBER","name":"Timber, real, index, 2010=100","source":{"id":"55","value":"Commodity Prices- History and Projections, updated quarterly"},"sourceNote":"","sourceOrganization":"","topics":[]},{"id":"KFISH_MEAL","name":"Fishmeal, $\/mt, constant 2000$","source":{"id":"21","value":"Global Economic Monitor (GEM) Commodities"},"sourceNote":"","sourceOrganization":"World Bank.","topics":[]},{"id":"KFIRON_ORE","name":"Iron ore, cfr spot, real, $\/dmtu","source":{"id":"55","value":"Commodity Prices- History and Projections, updated quarterly"},"sourceNote":"","sourceOrganization":"","topics":[]},{"id":"KFIRAW_MATERIAL","name":"Raw Materials, real, index, 2010=100","source":{"id":"55","value":"Commodity Prices- History and Projections, updated quarterly"},"sourceNote":"","sourceOrganization":"","topics":[]},{"id":"KFIPRECIOUSMET","name":"Precious metals, real, index, 2010=100","source":{"id":"55","value":"Commodity Prices- History and Projections, updated quarterly"},"sourceNote":"","sourceOrganization":"","topics":[]},{"id":"KFIOTHERRAWMAT","name":"Other raw mat., real, index, 2010=100","source":{"id":"55","value":"Commodity Prices- History and Projections, updated quarterly"},"sourceNote":"","sourceOrganization":"","topics":[]},{"id":"KFIOTHERFOOD","name":"Other food, real, index, 2010=100","source":{"id":"55","value":"Commodity Prices- History and Projections, updated quarterly"},"sourceNote":"","sourceOrganization":"","topics":[]},{"id":"KFINONFUEL","name":"Non-energy, real, index, 2010=100","source":{"id":"55","value":"Commodity Prices- History and Projections, updated quarterly"},"sourceNote":"","sourceOrganization":"","topics":[]},{"id":"KFIMETMIN","name":"Metals & minerals, real, index, 2010=100","source":{"id":"55","value":"Commodity Prices- History and Projections, updated quarterly"},"sourceNote":"","sourceOrganization":"","topics":[]},{"id":"KFIGRAINS","name":"Grains, real, index, 2010=100","source":{"id":"55","value":"Commodity Prices- History and Projections, updated quarterly"},"sourceNote":"","sourceOrganization":"","topics":[]},{"id":"KFIFOOD","name":"Food, real, index, 2010=100","source":{"id":"55","value":"Commodity Prices- History and Projections, updated quarterly"},"sourceNote":"","sourceOrganization":"","topics":[]},{"id":"KFIFERTILIZERS","name":"Fertilizers, real, index, 2010=100","source":{"id":"55","value":"Commodity Prices- History and Projections, updated quarterly"},"sourceNote":"","sourceOrganization":"","topics":[]},{"id":"KFIFATS_OILS","name":"Edible oils & meals, real, index, 2010=100","source":{"id":"55","value":"Commodity Prices- History and Projections, updated quarterly"},"sourceNote":"","sourceOrganization":"","topics":[]},{"id":"KFIENERGY","name":"Energy, real, index, 2010=100","source":{"id":"55","value":"Commodity Prices- History and Projections, updated quarterly"},"sourceNote":"","sourceOrganization":"","topics":[]},{"id":"KFIBEVERAGES","name":"Beverages, real, index, 2010=100","source":{"id":"55","value":"Commodity Prices- History and Projections, updated quarterly"},"sourceNote":"","sourceOrganization":"","topics":[]},{"id":"KFIBASEMET","name":"Base Metals (ex. iron ore), real, index, 2010=100","source":{"id":"55","value":"Commodity Prices- History and Projections, updated quarterly"},"sourceNote":"","sourceOrganization":"","topics":[]},{"id":"KFIAGRICULTURE","name":"Agriculture, real, index, 2010=100","source":{"id":"55","value":"Commodity Prices- History and Projections, updated quarterly"},"sourceNote":"","sourceOrganization":"","topics":[]},{"id":"KFGRNUT_OIL","name":"Groundnut oil, real, $\/mt","source":{"id":"55","value":"Commodity Prices- History and Projections, updated quarterly"},"sourceNote":"","sourceOrganization":"","topics":[]},{"id":"KFGRNUT","name":"Groundnuts, real, $\/mt","source":{"id":"55","value":"Commodity Prices- History and Projections, updated quarterly"},"sourceNote":"","sourceOrganization":"","topics":[]},{"id":"KFGOLD","name":"Gold, real, $\/troy oz","source":{"id":"55","value":"Commodity Prices- History and Projections, updated quarterly"},"sourceNote":"","sourceOrganization":"","topics":[]},{"id":"KFDAP","name":"DAP, real, $\/mt","source":{"id":"55","value":"Commodity Prices- History and Projections, updated quarterly"},"sourceNote":"","sourceOrganization":"","topics":[]},{"id":"KFCRUDE_PETRO","name":"Crude oil, average, real, $\/bbl","source":{"id":"55","value":"Commodity Prices- History and Projections, updated quarterly"},"sourceNote":"","sourceOrganization":"","topics":[]},{"id":"KFCOTTON_A_INDX","name":"Cotton, real, $\/kg","source":{"id":"55","value":"Commodity Prices- History and Projections, updated quarterly"},"sourceNote":"","sourceOrganization":"","topics":[]},{"id":"KFCOPPER","name":"Copper, real, $\/mt","source":{"id":"55","value":"Commodity Prices- History and Projections, updated quarterly"},"sourceNote":"","sourceOrganization":"","topics":[]},{"id":"KFCOFFEE_ROBUS","name":"Coffee, robusta, real, $\/kg","source":{"id":"55","value":"Commodity Prices- History and Projections, updated quarterly"},"sourceNote":"","sourceOrganization":"","topics":[]},{"id":"KFCOFFEE_ARABIC","name":"Coffee, arabica, real, $\/kg","source":{"id":"55","value":"Commodity Prices- History and Projections, updated quarterly"},"sourceNote":"","sourceOrganization":"","topics":[]},{"id":"KFCOCONUT_OIL","name":"Coconut oil, real, $\/mt","source":{"id":"55","value":"Commodity Prices- History and Projections, updated quarterly"},"sourceNote":"","sourceOrganization":"","topics":[{}]}]]