[{"page":244,"pages":324,"per_page":"50","total":16174},[{"id":"SABER.EMIS.GOAL3.LVL1","name":"SABER: (Education Management Information Systems) Policy Goal 3 Level 1: Methodological Soundness","source":{"id":"12","value":"Education Statistics"},"sourceNote":"Data Read: 1=Latent; 2=Emerging; 3Established; 4=Advanced","sourceOrganization":"The Systems Approach for Better Education Results (SABER), World Bank","topics":[]},{"id":"SABER.EMIS.GOAL3","name":"SABER: (Education Management Information Systems) Policy Goal 3: Quality data","source":{"id":"12","value":"Education Statistics"},"sourceNote":"Data Read: 1=Latent; 2=Emerging; 3Established; 4=Advanced","sourceOrganization":"The Systems Approach for Better Education Results (SABER), World Bank","topics":[]},{"id":"SABER.EMIS.GOAL2.LVL5","name":"SABER: (Education Management Information Systems) Policy Goal 2 Level 5: Serviceability","source":{"id":"12","value":"Education Statistics"},"sourceNote":"Data Read: 1=Latent; 2=Emerging; 3Established; 4=Advanced","sourceOrganization":"The Systems Approach for Better Education Results (SABER), World Bank","topics":[]},{"id":"SABER.EMIS.GOAL2.LVL4","name":"SABER: (Education Management Information Systems) Policy Goal 2 Level 4: Dynamic System","source":{"id":"12","value":"Education Statistics"},"sourceNote":"Data Read: 1=Latent; 2=Emerging; 3Established; 4=Advanced","sourceOrganization":"The Systems Approach for Better Education Results (SABER), World Bank","topics":[]},{"id":"SABER.EMIS.GOAL2.LVL3","name":"SABER: (Education Management Information Systems) Policy Goal 2 Level 3: Data Analytics","source":{"id":"12","value":"Education Statistics"},"sourceNote":"Data Read: 1=Latent; 2=Emerging; 3Established; 4=Advanced","sourceOrganization":"The Systems Approach for Better Education Results (SABER), World Bank","topics":[]},{"id":"SABER.EMIS.GOAL2.LVL2","name":"SABER: (Education Management Information Systems) Policy Goal 2 Level 2: Data Coverage","source":{"id":"12","value":"Education Statistics"},"sourceNote":"Data Read: 1=Latent; 2=Emerging; 3Established; 4=Advanced","sourceOrganization":"The Systems Approach for Better Education Results (SABER), World Bank","topics":[]},{"id":"SABER.EMIS.GOAL2.LVL1","name":"SABER: (Education Management Information Systems) Policy Goal 2 Level 1: Data Architecture","source":{"id":"12","value":"Education Statistics"},"sourceNote":"Data Read: 1=Latent; 2=Emerging; 3Established; 4=Advanced","sourceOrganization":"The Systems Approach for Better Education Results (SABER), World Bank","topics":[]},{"id":"SABER.EMIS.GOAL2","name":"SABER: (Education Management Information Systems) Policy Goal 2: System Soundness","source":{"id":"12","value":"Education Statistics"},"sourceNote":"Data Read: 1=Latent; 2=Emerging; 3Established; 4=Advanced","sourceOrganization":"The Systems Approach for Better Education Results (SABER), World Bank","topics":[]},{"id":"SABER.EMIS.GOAL1.LVL6","name":"SABER: (Education Management Information Systems) Policy Goal 1 Level 6: Data-driven Culture","source":{"id":"12","value":"Education Statistics"},"sourceNote":"Data Read: 1=Latent; 2=Emerging; 3Established; 4=Advanced","sourceOrganization":"The Systems Approach for Better Education Results (SABER), World Bank","topics":[]},{"id":"SABER.EMIS.GOAL1.LVL5","name":"SABER: (Education Management Information Systems) Policy Goal 1 Level 5: Budget","source":{"id":"12","value":"Education Statistics"},"sourceNote":"Data Read: 1=Latent; 2=Emerging; 3Established; 4=Advanced","sourceOrganization":"The Systems Approach for Better Education Results (SABER), World Bank","topics":[]},{"id":"SABER.EMIS.GOAL1.LVL4","name":"SABER: (Education Management Information Systems) Policy Goal 1 Level 4: Infrastructural capacity","source":{"id":"12","value":"Education Statistics"},"sourceNote":"Data Read: 1=Latent; 2=Emerging; 3Established; 4=Advanced","sourceOrganization":"The Systems Approach for Better Education Results (SABER), World Bank","topics":[]},{"id":"SABER.EMIS.GOAL1.LVL3","name":"SABER: (Education Management Information Systems) Policy Goal 1 Level 3: Human Resources","source":{"id":"12","value":"Education Statistics"},"sourceNote":"Data Read: 1=Latent; 2=Emerging; 3Established; 4=Advanced","sourceOrganization":"The Systems Approach for Better Education Results (SABER), World Bank","topics":[]},{"id":"SABER.EMIS.GOAL1.LVL2","name":"SABER: (Education Management Information Systems) Policy Goal 1 Level 2: Organizational Structure","source":{"id":"12","value":"Education Statistics"},"sourceNote":"Data Read: 1=Latent; 2=Emerging; 3Established; 4=Advanced","sourceOrganization":"The Systems Approach for Better Education Results (SABER), World Bank","topics":[]},{"id":"SABER.EMIS.GOAL1.LVL1","name":"SABER: (Education Management Information Systems) Policy Goal 1 Level 1: Legal Framework","source":{"id":"12","value":"Education Statistics"},"sourceNote":"Data Read: 1=Latent; 2=Emerging; 3Established; 4=Advanced","sourceOrganization":"The Systems Approach for Better Education Results (SABER), World Bank","topics":[]},{"id":"SABER.EMIS.GOAL1","name":"SABER: (Education Management Information Systems) Policy Goal 1: Enabling Environment","source":{"id":"12","value":"Education Statistics"},"sourceNote":"Data Read: 1=Latent; 2=Emerging; 3Established; 4=Advanced","sourceOrganization":"The Systems Approach for Better Education Results (SABER), World Bank","topics":[]},{"id":"s_policyholders_B2_nonlife","name":"Insurance policy holders per 1,000 adults (non-life)","source":{"id":"33","value":"G20 Basic Set of Financial Inclusion Indicators"},"sourceNote":"Denotes the total number of non-life insurance policy holders (resident) that are resident nonfinancial corporations (public and private) and households for every 1,000 adults in the reporting country. Calculated as (number of non-life insurance policy ho","sourceOrganization":"International Monetary Fund, Financial Access Survey.","topics":[]},{"id":"s_policyholders_B2_life","name":"Insurance policy holders per 1,000 adults (life)","source":{"id":"33","value":"G20 Basic Set of Financial Inclusion Indicators"},"sourceNote":"Denotes the total number of life insurance policy holders (resident) that are resident nonfinancial corporations (public and private) and households for every 1,000 adults in the reporting country. Calculated as (number of life insurance policy holders)*1","sourceOrganization":"International Monetary Fund, Financial Access Survey.","topics":[]},{"id":"RUBBER1_TSR20","name":"Rubber, TSR20, cents\/kg, current$","source":{"id":"21","value":"Global Economic Monitor (GEM) Commodities"},"sourceNote":"","sourceOrganization":"","topics":[]},{"id":"RUBBER1_MYSG","name":"Rubber, Singapore, cents\/kg, current$","source":{"id":"21","value":"Global Economic Monitor (GEM) Commodities"},"sourceNote":"Rubber (Asia), RSS3 grade, Singapore Commodity Exchange Ltd (SICOM) nearby contract beginning 2004; during 2000 to 2003, Singapore RSS1; previously Malaysia RSS1","sourceOrganization":"Singapore Commodity Exchange Ltd (SICOM); Bloomberg; Rubber Association of Singapore Commodity Exchange (RASCE); International Rubber Study Group; Asian Wall Street Journal; World Bank.","topics":[]},{"id":"RQ.STD.ERR","name":"Regulatory Quality: Standard Error","source":{"id":"3","value":"Worldwide Governance Indicators"},"sourceNote":"Regulatory Quality captures perceptions of the ability of the government to formulate and implement sound policies and regulations that permit and promote private sector development.","sourceOrganization":"Worldwide Governance Indicators, The World Bank","topics":[]},{"id":"RQ.PER.RNK.UPPER","name":"Regulatory Quality: Percentile Rank, Upper Bound of 90% Confidence Interval","source":{"id":"3","value":"Worldwide Governance Indicators"},"sourceNote":"Regulatory Quality captures perceptions of the ability of the government to formulate and implement sound policies and regulations that permit and promote private sector development. Percentile rank indicates the country's rank among all countries covered by the aggregate indicator, with 0 corresponding to lowest rank, and 100 to highest rank.  Percentile ranks have been adjusted to correct for changes over time in the composition of the countries covered by the WGI.  Percentile Rank Upper refers to upper bound of 90 percent confidence interval for governance, expressed in percentile rank terms.","sourceOrganization":"Worldwide Governance Indicators, The World Bank","topics":[]},{"id":"RQ.PER.RNK.LOWER","name":"Regulatory Quality: Percentile Rank, Lower Bound of 90% Confidence Interval","source":{"id":"3","value":"Worldwide Governance Indicators"},"sourceNote":"Regulatory Quality captures perceptions of the ability of the government to formulate and implement sound policies and regulations that permit and promote private sector development. Percentile rank indicates the country's rank among all countries covered by the aggregate indicator, with 0 corresponding to lowest rank, and 100 to highest rank.  Percentile ranks have been adjusted to correct for changes over time in the composition of the countries covered by the WGI.  Percentile Rank Lower refers to lower bound of 90 percent confidence interval for governance, expressed in percentile rank terms.","sourceOrganization":"Worldwide Governance Indicators, The World Bank","topics":[]},{"id":"RQ.PER.RNK","name":"Regulatory Quality: Percentile Rank","source":{"id":"3","value":"Worldwide Governance Indicators"},"sourceNote":"Regulatory Quality captures perceptions of the ability of the government to formulate and implement sound policies and regulations that permit and promote private sector development.","sourceOrganization":"Worldwide Governance Indicators, The World Bank","topics":[]},{"id":"RQ.NO.SRC","name":"Regulatory Quality: Number of Sources","source":{"id":"3","value":"Worldwide Governance Indicators"},"sourceNote":"Regulatory Quality captures perceptions of the ability of the government to formulate and implement sound policies and regulations that permit and promote private sector development.","sourceOrganization":"Worldwide Governance Indicators, The World Bank","topics":[]},{"id":"RQ.EST","name":"Regulatory Quality: Estimate","source":{"id":"3","value":"Worldwide Governance Indicators"},"sourceNote":"Regulatory Quality captures perceptions of the ability of the government to formulate and implement sound policies and regulations that permit and promote private sector development.","sourceOrganization":"Worldwide Governance Indicators, The World Bank","topics":[]},{"id":"ROD.VILG.OTHR.ZS","name":"Villages with road: Other (in % of total villages)","source":{"id":"45","value":"INDO-DAPOER"},"sourceNote":"","sourceOrganization":"BADAN PUSAT STATISTIK - Statistics Indonesia, Village Census (PODES)","topics":[]},{"id":"ROD.VILG.GRAVL.ZS","name":"Villages with road: Gravel (in % of total villages)","source":{"id":"45","value":"INDO-DAPOER"},"sourceNote":"","sourceOrganization":"BADAN PUSAT STATISTIK - Statistics Indonesia, Village Census (PODES)","topics":[]},{"id":"ROD.VILG.DIRT.ZS","name":"Villages with road: Dirt (in % of total villages)","source":{"id":"45","value":"INDO-DAPOER"},"sourceNote":"","sourceOrganization":"BADAN PUSAT STATISTIK - Statistics Indonesia, Village Census (PODES)","topics":[]},{"id":"ROD.VILG.ASPH.ZS","name":"Villages with road: Asphalt (in % of total villages)","source":{"id":"45","value":"INDO-DAPOER"},"sourceNote":"","sourceOrganization":"BADAN PUSAT STATISTIK - Statistics Indonesia, Village Census (PODES)","topics":[]},{"id":"ROD.PROV.OTHR.KM","name":"Length of Province Road: Other (in km) (BPS Data, Province only)","source":{"id":"45","value":"INDO-DAPOER"},"sourceNote":"","sourceOrganization":"BADAN PUSAT STATISTIK - Statistics Indonesia","topics":[]},{"id":"ROD.PROV.LDMG.KM","name":"Length of Province Road: Light Damage (in km) (BPS Data, Province only)","source":{"id":"45","value":"INDO-DAPOER"},"sourceNote":"","sourceOrganization":"BADAN PUSAT STATISTIK - Statistics Indonesia","topics":[]},{"id":"ROD.PROV.GRAVL.KM","name":"Length of Province Road: Gravel (in km) (BPS Data, Province only)","source":{"id":"45","value":"INDO-DAPOER"},"sourceNote":"","sourceOrganization":"BADAN PUSAT STATISTIK - Statistics Indonesia","topics":[]},{"id":"ROD.PROV.GOOD.KM","name":"Length of Province Road: Good (in km) (BPS Data, Province only)","source":{"id":"45","value":"INDO-DAPOER"},"sourceNote":"","sourceOrganization":"BADAN PUSAT STATISTIK - Statistics Indonesia","topics":[]},{"id":"ROD.PROV.FAIR.KM","name":"Length of Province Road: Fair (in km) (BPS Data, Province only)","source":{"id":"45","value":"INDO-DAPOER"},"sourceNote":"","sourceOrganization":"BADAN PUSAT STATISTIK - Statistics Indonesia","topics":[]},{"id":"ROD.PROV.DIRT.KM","name":"Length of Province Road: Dirt (in km) (BPS Data, Province only)","source":{"id":"45","value":"INDO-DAPOER"},"sourceNote":"","sourceOrganization":"BADAN PUSAT STATISTIK - Statistics Indonesia","topics":[]},{"id":"ROD.PROV.BDMG.KM","name":"Length of Province Road: Bad Damage (in km) (BPS Data, Province only)","source":{"id":"45","value":"INDO-DAPOER"},"sourceNote":"","sourceOrganization":"BADAN PUSAT STATISTIK - Statistics Indonesia","topics":[]},{"id":"ROD.PROV.ASPH.KM","name":"Length of Province Road: Asphalt (in km) (BPS Data, Province only)","source":{"id":"45","value":"INDO-DAPOER"},"sourceNote":"","sourceOrganization":"BADAN PUSAT STATISTIK - Statistics Indonesia","topics":[]},{"id":"ROD.NATL.OTHR.KM","name":"Length of National Road: Other (in km) (BPS Data, Province only)","source":{"id":"45","value":"INDO-DAPOER"},"sourceNote":"","sourceOrganization":"BADAN PUSAT STATISTIK - Statistics Indonesia","topics":[]},{"id":"ROD.NATL.LDMG.KM","name":"Length of National Road: Light Damage (in km) (BPS Data, Province only)","source":{"id":"45","value":"INDO-DAPOER"},"sourceNote":"","sourceOrganization":"BADAN PUSAT STATISTIK - Statistics Indonesia","topics":[]},{"id":"ROD.NATL.GRAVL.KM","name":"Length of National Road: Gravel (in km) (BPS Data, Province only)","source":{"id":"45","value":"INDO-DAPOER"},"sourceNote":"","sourceOrganization":"BADAN PUSAT STATISTIK - Statistics Indonesia","topics":[]},{"id":"ROD.NATL.GOOD.KM","name":"Length of National Road: Good (in km) (BPS Data, Province only)","source":{"id":"45","value":"INDO-DAPOER"},"sourceNote":"","sourceOrganization":"BADAN PUSAT STATISTIK - Statistics Indonesia","topics":[]},{"id":"ROD.NATL.FAIR.KM","name":"Length of National Road: Fair (in km) (BPS Data, Province only)","source":{"id":"45","value":"INDO-DAPOER"},"sourceNote":"","sourceOrganization":"BADAN PUSAT STATISTIK - Statistics Indonesia","topics":[]},{"id":"ROD.NATL.DIRT.KM","name":"Length of National Road: Dirt (in km) (BPS Data, Province only)","source":{"id":"45","value":"INDO-DAPOER"},"sourceNote":"","sourceOrganization":"BADAN PUSAT STATISTIK - Statistics Indonesia","topics":[]},{"id":"ROD.NATL.BDMG.KM","name":"Length of National Road: Bad Damage (in km) (BPS Data, Province only)","source":{"id":"45","value":"INDO-DAPOER"},"sourceNote":"","sourceOrganization":"BADAN PUSAT STATISTIK - Statistics Indonesia","topics":[]},{"id":"ROD.NATL.ASPH.KM","name":"Length of National Road: Asphalt (in km) (BPS Data, Province only)","source":{"id":"45","value":"INDO-DAPOER"},"sourceNote":"","sourceOrganization":"BADAN PUSAT STATISTIK - Statistics Indonesia","topics":[]},{"id":"ROD.DIST.OTHR.KM","name":"Length of District Road: Other (in km) (BPS Data, Province only)","source":{"id":"45","value":"INDO-DAPOER"},"sourceNote":"","sourceOrganization":"BADAN PUSAT STATISTIK - Statistics Indonesia","topics":[]},{"id":"ROD.DIST.LDMG.KM","name":"Length of District Road: Light Damage (in km) (BPS Data, Province only)","source":{"id":"45","value":"INDO-DAPOER"},"sourceNote":"","sourceOrganization":"BADAN PUSAT STATISTIK - Statistics Indonesia","topics":[]},{"id":"ROD.DIST.LDMG.BM.KM","name":"Length of District Road: Light Damage (in km) (Bina Marga Data)","source":{"id":"45","value":"INDO-DAPOER"},"sourceNote":"","sourceOrganization":"Ministry of Public Works, Directorate General of Highways (Bina Marga) Statistics","topics":[]},{"id":"ROD.DIST.GRAVL.KM","name":"Length of District Road: Gravel (in km) (BPS Data, Province only)","source":{"id":"45","value":"INDO-DAPOER"},"sourceNote":"","sourceOrganization":"BADAN PUSAT STATISTIK - Statistics Indonesia","topics":[]},{"id":"ROD.DIST.GOOD.KM","name":"Length of District Road: Good (in km) (BPS Data, Province only)","source":{"id":"45","value":"INDO-DAPOER"},"sourceNote":"","sourceOrganization":"BADAN PUSAT STATISTIK - Statistics Indonesia","topics":[{}]}]]