[{"page":182,"pages":324,"per_page":"50","total":16174},[{"id":"per_pr_ip.avt_ep_tot","name":"Average per capita transfer held by extreme poor (<$1.25 a day) - International Private Transfers","source":{"id":"29","value":"Global Social Protection"},"sourceNote":"Average transfer amount of  Social Protection and Labor programs among program beneficiaries (per capita, daily $ppp)","sourceOrganization":"ASPIRE","topics":[{"id":"10","value":"Social Protection & Labor"}]},{"id":"per_pr_ip.avt_ep_preT_tot","name":"Average per capita transfer held by extreme poor (<$1.25 a day) - International Private Transfers (preT)","source":{"id":"29","value":"Global Social Protection"},"sourceNote":"Average transfer amount of  Social Protection and Labor programs among program beneficiaries (per capita, daily $ppp)","sourceOrganization":"ASPIRE","topics":[{"id":"10","value":"Social Protection & Labor"}]},{"id":"per_pr_ip.adq_q5_urb","name":"Adequacy of benefits in richest quintile (%) - International Private Transfers -urban","source":{"id":"29","value":"Global Social Protection"},"sourceNote":"Total transfer amount received by all beneficiaries in a population group as a share of the total welfare of beneficiaries in that group","sourceOrganization":"ASPIRE","topics":[{"id":"10","value":"Social Protection & Labor"}]},{"id":"per_pr_ip.adq_q5_tot","name":"Adequacy of benefits in richest quintile (%) - International Private Transfers","source":{"id":"29","value":"Global Social Protection"},"sourceNote":"Total transfer amount received by all beneficiaries in a population group as a share of the total welfare of beneficiaries in that group","sourceOrganization":"ASPIRE","topics":[{"id":"10","value":"Social Protection & Labor"}]},{"id":"per_pr_ip.adq_q5_rur","name":"Adequacy of benefits in richest quintile (%) - International Private Transfers -rural","source":{"id":"29","value":"Global Social Protection"},"sourceNote":"Total transfer amount received by all beneficiaries in a population group as a share of the total welfare of beneficiaries in that group","sourceOrganization":"ASPIRE","topics":[{"id":"10","value":"Social Protection & Labor"}]},{"id":"per_pr_ip.adq_q5_preT_tot","name":"Adequacy of benefits in richest quintile (%) - International Private Transfers (preT)","source":{"id":"29","value":"Global Social Protection"},"sourceNote":"Total transfer amount received by all beneficiaries in a population group as a share of the total welfare of beneficiaries in that group","sourceOrganization":"ASPIRE","topics":[{"id":"10","value":"Social Protection & Labor"}]},{"id":"per_pr_ip.adq_q4_urb","name":"Adequacy of benefits in 4th quintile (%) - International Private Transfers -urban","source":{"id":"29","value":"Global Social Protection"},"sourceNote":"Total transfer amount received by all beneficiaries in a population group as a share of the total welfare of beneficiaries in that group","sourceOrganization":"ASPIRE","topics":[{"id":"10","value":"Social Protection & Labor"}]},{"id":"per_pr_ip.adq_q4_tot","name":"Adequacy of benefits in 4th quintile (%) - International Private Transfers","source":{"id":"29","value":"Global Social Protection"},"sourceNote":"Total transfer amount received by all beneficiaries in a population group as a share of the total welfare of beneficiaries in that group","sourceOrganization":"ASPIRE","topics":[{"id":"10","value":"Social Protection & Labor"}]},{"id":"per_pr_ip.adq_q4_rur","name":"Adequacy of benefits in 4th quintile (%) - International Private Transfers -rural","source":{"id":"29","value":"Global Social Protection"},"sourceNote":"Total transfer amount received by all beneficiaries in a population group as a share of the total welfare of beneficiaries in that group","sourceOrganization":"ASPIRE","topics":[{"id":"10","value":"Social Protection & Labor"}]},{"id":"per_pr_ip.adq_q4_preT_tot","name":"Adequacy of benefits in 4th quintile (%) - International Private Transfers (preT)","source":{"id":"29","value":"Global Social Protection"},"sourceNote":"Total transfer amount received by all beneficiaries in a population group as a share of the total welfare of beneficiaries in that group","sourceOrganization":"ASPIRE","topics":[{"id":"10","value":"Social Protection & Labor"}]},{"id":"per_pr_ip.adq_q3_urb","name":"Adequacy of benefits in 3rd quintile (%) - International Private Transfers -urban","source":{"id":"29","value":"Global Social Protection"},"sourceNote":"Total transfer amount received by all beneficiaries in a population group as a share of the total welfare of beneficiaries in that group","sourceOrganization":"ASPIRE","topics":[{"id":"10","value":"Social Protection & Labor"}]},{"id":"per_pr_ip.adq_q3_tot","name":"Adequacy of benefits in 3rd quintile (%) - International Private Transfers","source":{"id":"29","value":"Global Social Protection"},"sourceNote":"Total transfer amount received by all beneficiaries in a population group as a share of the total welfare of beneficiaries in that group","sourceOrganization":"ASPIRE","topics":[{"id":"10","value":"Social Protection & Labor"}]},{"id":"per_pr_ip.adq_q3_rur","name":"Adequacy of benefits in 3rd quintile (%) - International Private Transfers -rural","source":{"id":"29","value":"Global Social Protection"},"sourceNote":"Total transfer amount received by all beneficiaries in a population group as a share of the total welfare of beneficiaries in that group","sourceOrganization":"ASPIRE","topics":[{"id":"10","value":"Social Protection & Labor"}]},{"id":"per_pr_ip.adq_q3_preT_tot","name":"Adequacy of benefits in 3rd quintile (%) - International Private Transfers (preT)","source":{"id":"29","value":"Global Social Protection"},"sourceNote":"Total transfer amount received by all beneficiaries in a population group as a share of the total welfare of beneficiaries in that group","sourceOrganization":"ASPIRE","topics":[{"id":"10","value":"Social Protection & Labor"}]},{"id":"per_pr_ip.adq_q2_urb","name":"Adequacy of benefits in 2nd quintile (%) - International Private Transfers -urban","source":{"id":"29","value":"Global Social Protection"},"sourceNote":"Total transfer amount received by all beneficiaries in a population group as a share of the total welfare of beneficiaries in that group","sourceOrganization":"ASPIRE","topics":[{"id":"10","value":"Social Protection & Labor"}]},{"id":"per_pr_ip.adq_q2_tot","name":"Adequacy of benefits in 2nd quintile (%) - International Private Transfers","source":{"id":"29","value":"Global Social Protection"},"sourceNote":"Total transfer amount received by all beneficiaries in a population group as a share of the total welfare of beneficiaries in that group","sourceOrganization":"ASPIRE","topics":[{"id":"10","value":"Social Protection & Labor"}]},{"id":"per_pr_ip.adq_q2_rur","name":"Adequacy of benefits in 2nd quintile (%) - International Private Transfers -rural","source":{"id":"29","value":"Global Social Protection"},"sourceNote":"Total transfer amount received by all beneficiaries in a population group as a share of the total welfare of beneficiaries in that group","sourceOrganization":"ASPIRE","topics":[{"id":"10","value":"Social Protection & Labor"}]},{"id":"per_pr_ip.adq_q2_preT_tot","name":"Adequacy of benefits in 2nd quintile (%) - International Private Transfers (preT)","source":{"id":"29","value":"Global Social Protection"},"sourceNote":"Total transfer amount received by all beneficiaries in a population group as a share of the total welfare of beneficiaries in that group","sourceOrganization":"ASPIRE","topics":[{"id":"10","value":"Social Protection & Labor"}]},{"id":"per_pr_ip.adq_q1_urb","name":"Adequacy of benefits in poorest quintile (%) - International Private Transfers -urban","source":{"id":"29","value":"Global Social Protection"},"sourceNote":"Total transfer amount received by all beneficiaries in a population group as a share of the total welfare of beneficiaries in that group","sourceOrganization":"ASPIRE","topics":[{"id":"10","value":"Social Protection & Labor"}]},{"id":"per_pr_ip.adq_q1_tot","name":"Adequacy of benefits in poorest quintile (%) - International Private Transfers","source":{"id":"29","value":"Global Social Protection"},"sourceNote":"Total transfer amount received by all beneficiaries in a population group as a share of the total welfare of beneficiaries in that group","sourceOrganization":"ASPIRE","topics":[{"id":"10","value":"Social Protection & Labor"}]},{"id":"per_pr_ip.adq_q1_rur","name":"Adequacy of benefits in poorest quintile (%) - International Private Transfers -rural","source":{"id":"29","value":"Global Social Protection"},"sourceNote":"Total transfer amount received by all beneficiaries in a population group as a share of the total welfare of beneficiaries in that group","sourceOrganization":"ASPIRE","topics":[{"id":"10","value":"Social Protection & Labor"}]},{"id":"per_pr_ip.adq_q1_preT_tot","name":"Adequacy of benefits in poorest quintile (%) - International Private Transfers (preT)","source":{"id":"29","value":"Global Social Protection"},"sourceNote":"Total transfer amount received by all beneficiaries in a population group as a share of the total welfare of beneficiaries in that group","sourceOrganization":"ASPIRE","topics":[{"id":"10","value":"Social Protection & Labor"}]},{"id":"per_pr_ip.adq_pop_urb","name":"Adequacy of benefits (%) - International Private Transfers -urban","source":{"id":"29","value":"Global Social Protection"},"sourceNote":"Total transfer amount received by all beneficiaries in a population group as a share of the total welfare of beneficiaries in that group","sourceOrganization":"ASPIRE","topics":[{"id":"10","value":"Social Protection & Labor"}]},{"id":"per_pr_ip.adq_pop_tot","name":"Adequacy of benefits (%) - International Private Transfers","source":{"id":"29","value":"Global Social Protection"},"sourceNote":"Total transfer amount received by all beneficiaries in a population group as a share of the total welfare of beneficiaries in that group","sourceOrganization":"ASPIRE","topics":[{"id":"10","value":"Social Protection & Labor"}]},{"id":"per_pr_ip.adq_pop_rur","name":"Adequacy of benefits (%) - International Private Transfers -rural","source":{"id":"29","value":"Global Social Protection"},"sourceNote":"Total transfer amount received by all beneficiaries in a population group as a share of the total welfare of beneficiaries in that group","sourceOrganization":"ASPIRE","topics":[{"id":"10","value":"Social Protection & Labor"}]},{"id":"per_pr_ip.adq_pop_preT_tot","name":"Adequacy of benefits (%) - International Private Transfers (preT)","source":{"id":"29","value":"Global Social Protection"},"sourceNote":"Total transfer amount received by all beneficiaries in a population group as a share of the total welfare of beneficiaries in that group","sourceOrganization":"ASPIRE","topics":[{"id":"10","value":"Social Protection & Labor"}]},{"id":"per_pr_ip.adq_ep_tot","name":"Adequacy of benefits in extreme poor (<$1.25 a day) (%) - International Private Transfers","source":{"id":"29","value":"Global Social Protection"},"sourceNote":"Total transfer amount received by all beneficiaries in a population group as a share of the total welfare of beneficiaries in that group","sourceOrganization":"ASPIRE","topics":[{"id":"10","value":"Social Protection & Labor"}]},{"id":"per_pr_ip.adq_ep_preT_tot","name":"Adequacy of benefits in extreme poor (<$1.25 a day) (%) - International Private Transfers (preT)","source":{"id":"29","value":"Global Social Protection"},"sourceNote":"Total transfer amount received by all beneficiaries in a population group as a share of the total welfare of beneficiaries in that group","sourceOrganization":"ASPIRE","topics":[{"id":"10","value":"Social Protection & Labor"}]},{"id":"per_pr_dp_p1_urb","name":"Poverty Gap reduction (%) -  Domestic Private Transfers - poorest quintile -urban","source":{"id":"29","value":"Global Social Protection"},"sourceNote":"Poverty gap reduction due to SPL programs as % of pre-transfer poverty gap","sourceOrganization":"ASPIRE","topics":[{"id":"10","value":"Social Protection & Labor"}]},{"id":"per_pr_dp_p1_tot","name":"Poverty Gap reduction (%) -  Domestic Private Transfers -poorest quintile","source":{"id":"29","value":"Global Social Protection"},"sourceNote":"Poverty gap reduction due to SPL programs as % of pre-transfer poverty gap","sourceOrganization":"ASPIRE","topics":[{"id":"10","value":"Social Protection & Labor"}]},{"id":"per_pr_dp_p1_rur","name":"Poverty Gap reduction (%) -  Domestic Private Transfers -poorest quintile -rural","source":{"id":"29","value":"Global Social Protection"},"sourceNote":"Poverty gap reduction due to SPL programs as % of pre-transfer poverty gap","sourceOrganization":"ASPIRE","topics":[{"id":"10","value":"Social Protection & Labor"}]},{"id":"per_pr_dp_p1_preT_tot","name":"Poverty Gap reduction (%) -  Domestic Private Transfers -poorest quintile (preT)","source":{"id":"29","value":"Global Social Protection"},"sourceNote":"Poverty gap reduction due to SPL programs as % of pre-transfer poverty gap","sourceOrganization":"ASPIRE","topics":[{"id":"10","value":"Social Protection & Labor"}]},{"id":"per_pr_dp_p1_ep_tot","name":"Poverty Gap reduction (%) -  Domestic Private Transfers -extreme poor (<$1.25 a day)","source":{"id":"29","value":"Global Social Protection"},"sourceNote":"Poverty gap reduction due to SPL programs as % of pre-transfer poverty gap","sourceOrganization":"ASPIRE","topics":[{"id":"10","value":"Social Protection & Labor"}]},{"id":"per_pr_dp_p1_ep_preT_tot","name":"Poverty Gap reduction (%) -  Domestic Private Transfers -extreme poor (<$1.25 a day) (preT)","source":{"id":"29","value":"Global Social Protection"},"sourceNote":"Poverty gap reduction due to SPL programs as % of pre-transfer poverty gap","sourceOrganization":"ASPIRE","topics":[{"id":"10","value":"Social Protection & Labor"}]},{"id":"per_pr_dp_p0_urb","name":"Poverty Headcount reduction (%) -  Domestic Private Transfers - poorest quintile -urban","source":{"id":"29","value":"Global Social Protection"},"sourceNote":"Poverty headcount reduction due to SPL programs as % of pre-transfer poverty headcount","sourceOrganization":"ASPIRE","topics":[{"id":"10","value":"Social Protection & Labor"}]},{"id":"per_pr_dp_p0_tot","name":"Poverty Headcount reduction (%) -  Domestic Private Transfers -poorest quintile","source":{"id":"29","value":"Global Social Protection"},"sourceNote":"Poverty headcount reduction due to SPL programs as % of pre-transfer poverty headcount","sourceOrganization":"ASPIRE","topics":[{"id":"10","value":"Social Protection & Labor"}]},{"id":"per_pr_dp_p0_rur","name":"Poverty Headcount reduction (%) -  Domestic Private Transfers -poorest quintile -rural","source":{"id":"29","value":"Global Social Protection"},"sourceNote":"Poverty headcount reduction due to SPL programs as % of pre-transfer poverty headcount","sourceOrganization":"ASPIRE","topics":[{"id":"10","value":"Social Protection & Labor"}]},{"id":"per_pr_dp_p0_preT_tot","name":"Poverty Headcount reduction (%) -  Domestic Private Transfers -poorest quintile (preT)","source":{"id":"29","value":"Global Social Protection"},"sourceNote":"Poverty headcount reduction due to SPL programs as % of pre-transfer poverty headcount","sourceOrganization":"ASPIRE","topics":[{"id":"10","value":"Social Protection & Labor"}]},{"id":"per_pr_dp_p0_ep_tot","name":"Poverty Headcount reduction (%) -  Domestic Private Transfers -extreme poor (<$1.25 a day)","source":{"id":"29","value":"Global Social Protection"},"sourceNote":"Poverty headcount reduction due to SPL programs as % of pre-transfer poverty headcount","sourceOrganization":"ASPIRE","topics":[{"id":"10","value":"Social Protection & Labor"}]},{"id":"per_pr_dp_p0_ep_preT_tot","name":"Poverty Headcount reduction (%) -  Domestic Private Transfers -extreme poor (<$1.25 a day) (preT)","source":{"id":"29","value":"Global Social Protection"},"sourceNote":"Poverty headcount reduction due to SPL programs as % of pre-transfer poverty headcount","sourceOrganization":"ASPIRE","topics":[{"id":"10","value":"Social Protection & Labor"}]},{"id":"per_pr_dp_gini_urb","name":"Gini inequality reduction (%) -  Domestic Private Transfers - poorest quintile -urban","source":{"id":"29","value":"Global Social Protection"},"sourceNote":"Gini inequality index reduction due to SPL programs as % of pre-transfer Gini index","sourceOrganization":"ASPIRE","topics":[{"id":"10","value":"Social Protection & Labor"}]},{"id":"per_pr_dp_gini_tot","name":"Gini inequality reduction (%) -  Domestic Private Transfers -poorest quintile","source":{"id":"29","value":"Global Social Protection"},"sourceNote":"Gini inequality index reduction due to SPL programs as % of pre-transfer Gini index","sourceOrganization":"ASPIRE","topics":[{"id":"10","value":"Social Protection & Labor"}]},{"id":"per_pr_dp_gini_rur","name":"Gini inequality reduction (%) -  Domestic Private Transfers -poorest quintile -rural","source":{"id":"29","value":"Global Social Protection"},"sourceNote":"Gini inequality index reduction due to SPL programs as % of pre-transfer Gini index","sourceOrganization":"ASPIRE","topics":[{"id":"10","value":"Social Protection & Labor"}]},{"id":"per_pr_dp_gini_preT_tot","name":"Gini inequality reduction (%) -  Domestic Private Transfers -poorest quintile (preT)","source":{"id":"29","value":"Global Social Protection"},"sourceNote":"Gini inequality index reduction due to SPL programs as % of pre-transfer Gini index","sourceOrganization":"ASPIRE","topics":[{"id":"10","value":"Social Protection & Labor"}]},{"id":"per_pr_dp_gini_ep_tot","name":"Gini inequality reduction (%) -  Domestic Private Transfers -extreme poor (<$1.25 a day)","source":{"id":"29","value":"Global Social Protection"},"sourceNote":"Gini inequality index reduction due to SPL programs as % of pre-transfer Gini index","sourceOrganization":"ASPIRE","topics":[{"id":"10","value":"Social Protection & Labor"}]},{"id":"per_pr_dp_gini_ep_preT_tot","name":"Gini inequality reduction (%) -  Domestic Private Transfers -extreme poor (<$1.25 a day) (preT)","source":{"id":"29","value":"Global Social Protection"},"sourceNote":"Gini inequality index reduction due to SPL programs as % of pre-transfer Gini index","sourceOrganization":"ASPIRE","topics":[{"id":"10","value":"Social Protection & Labor"}]},{"id":"per_pr_dp.cov_q5_urb","name":"Coverage in richest quintile (%) - Domestic Private Transfers -urban","source":{"id":"29","value":"Global Social Protection"},"sourceNote":"Percentage of population participating in Social Protection and Labor programs (includes direct and indirect beneficiaries)","sourceOrganization":"ASPIRE","topics":[{"id":"10","value":"Social Protection & Labor"}]},{"id":"per_pr_dp.cov_q5_tot","name":"Coverage in richest quintile (%) - Domestic Private Transfers","source":{"id":"29","value":"Global Social Protection"},"sourceNote":"Percentage of population participating in Social Protection and Labor programs (includes direct and indirect beneficiaries)","sourceOrganization":"ASPIRE","topics":[{"id":"10","value":"Social Protection & Labor"}]},{"id":"per_pr_dp.cov_q5_rur","name":"Coverage in richest quintile (%) - Domestic Private Transfers -rural","source":{"id":"29","value":"Global Social Protection"},"sourceNote":"Percentage of population participating in Social Protection and Labor programs (includes direct and indirect beneficiaries)","sourceOrganization":"ASPIRE","topics":[{"id":"10","value":"Social Protection & Labor"}]},{"id":"per_pr_dp.cov_q5_preT_tot","name":"Coverage in richest quintile (%) - Domestic Private Transfers (preT)","source":{"id":"29","value":"Global Social Protection"},"sourceNote":"Percentage of population participating in Social Protection and Labor programs (includes direct and indirect beneficiaries)","sourceOrganization":"ASPIRE","topics":[{"id":"10","value":"Social Protection & Labor"}]}]]