[{"page":53,"pages":324,"per_page":"50","total":16174},[{"id":"DT.AMT.DLTL.CD.MA.AR.IQ.US","name":"Gross Ext. Debt Pmt, Central Bank, Immediate, Loans, Principal, USD","source":{"id":"22","value":"Quarterly External Debt Statistics\/SDDS (New)"},"sourceNote":"","sourceOrganization":"","topics":[]},{"id":"DT.AMT.DLTL.CD.MA.AR.69.US","name":"Gross Ext. Debt Pmt, Central Bank, More than 6 to 9, Loans, Principal, USD","source":{"id":"22","value":"Quarterly External Debt Statistics\/SDDS (New)"},"sourceNote":"","sourceOrganization":"","topics":[]},{"id":"DT.AMT.DLTL.CD.MA.AR.36.US","name":"Gross Ext. Debt Pmt, Central Bank, More than 3 to 6, Loans, Principal, USD","source":{"id":"22","value":"Quarterly External Debt Statistics\/SDDS (New)"},"sourceNote":"","sourceOrganization":"","topics":[]},{"id":"DT.AMT.DLTL.CD.MA.AR.24P.US","name":"Gross Ext. Debt Pmt, Central Bank, More than 2yrs, Loans, Principal, USD","source":{"id":"22","value":"Quarterly External Debt Statistics\/SDDS (New)"},"sourceNote":"","sourceOrganization":"","topics":[]},{"id":"DT.AMT.DLTL.CD.MA.AR.1824.US","name":"Gross Ext. Debt Pmt, Central Bank, More than 18 to 24, Loans, Principal, USD","source":{"id":"22","value":"Quarterly External Debt Statistics\/SDDS (New)"},"sourceNote":"","sourceOrganization":"","topics":[]},{"id":"DT.AMT.DLTL.CD.MA.AR.1218.US","name":"Gross Ext. Debt Pmt, Central Bank, More than 12 to 18, Loans, Principal, USD","source":{"id":"22","value":"Quarterly External Debt Statistics\/SDDS (New)"},"sourceNote":"","sourceOrganization":"","topics":[]},{"id":"DT.AMT.DLTL.CD.MA.AR.0912.US","name":"Gross Ext. Debt Pmt, Central Bank, More than 9 to 12, Loans, Principal, USD","source":{"id":"22","value":"Quarterly External Debt Statistics\/SDDS (New)"},"sourceNote":"","sourceOrganization":"","topics":[]},{"id":"DT.AMT.DLTL.CD.MA.AR.03.US","name":"Gross Ext. Debt Pmt, Central Bank, More than 0 to 3, Loans, Principal, USD","source":{"id":"22","value":"Quarterly External Debt Statistics\/SDDS (New)"},"sourceNote":"","sourceOrganization":"","topics":[]},{"id":"DT.AMT.DLTL.CD.GG.AR.IQ.US","name":"Gross Ext. Debt Pmt, General Government, Immediate, Loans, Principal, USD","source":{"id":"22","value":"Quarterly External Debt Statistics\/SDDS (New)"},"sourceNote":"","sourceOrganization":"","topics":[]},{"id":"DT.AMT.DLTL.CD.GG.AR.69.US","name":"Gross Ext. Debt Pmt, General Government, More than 6 to 9, Loans, Principal, USD","source":{"id":"22","value":"Quarterly External Debt Statistics\/SDDS (New)"},"sourceNote":"","sourceOrganization":"","topics":[]},{"id":"DT.AMT.DLTL.CD.GG.AR.36.US","name":"Gross Ext. Debt Pmt, General Government, More than 3 to 6, Loans, Principal, USD","source":{"id":"22","value":"Quarterly External Debt Statistics\/SDDS (New)"},"sourceNote":"","sourceOrganization":"","topics":[]},{"id":"DT.AMT.DLTL.CD.GG.AR.24P.US","name":"Gross Ext. Debt Pmt, General Government, More than 2yrs, Loans, Principal, USD","source":{"id":"22","value":"Quarterly External Debt Statistics\/SDDS (New)"},"sourceNote":"","sourceOrganization":"","topics":[]},{"id":"DT.AMT.DLTL.CD.GG.AR.1824.US","name":"Gross Ext. Debt Pmt, General Government, More than 18 to 24, Loans, Principal, USD","source":{"id":"22","value":"Quarterly External Debt Statistics\/SDDS (New)"},"sourceNote":"","sourceOrganization":"","topics":[]},{"id":"DT.AMT.DLTL.CD.GG.AR.1218.US","name":"Gross Ext. Debt Pmt, General Government, More than 12 to 18, Loans, Principal, USD","source":{"id":"22","value":"Quarterly External Debt Statistics\/SDDS (New)"},"sourceNote":"","sourceOrganization":"","topics":[]},{"id":"DT.AMT.DLTL.CD.GG.AR.0912.US","name":"Gross Ext. Debt Pmt, General Government, More than 9 to 12, Loans, Principal, USD","source":{"id":"22","value":"Quarterly External Debt Statistics\/SDDS (New)"},"sourceNote":"","sourceOrganization":"","topics":[]},{"id":"DT.AMT.DLTL.CD.GG.AR.03.US","name":"Gross Ext. Debt Pmt, General Government, More than 0 to 3, Loans, Principal, USD","source":{"id":"22","value":"Quarterly External Debt Statistics\/SDDS (New)"},"sourceNote":"","sourceOrganization":"","topics":[]},{"id":"DT.AMT.DLTL.CD.CB.AR.IQ.US","name":"Gross Ext. Debt Pmt, Deposit-Taking Corp., exc. CB, Immediate, Loans, Principal, USD","source":{"id":"22","value":"Quarterly External Debt Statistics\/SDDS (New)"},"sourceNote":"","sourceOrganization":"","topics":[]},{"id":"DT.AMT.DLTL.CD.CB.AR.69.US","name":"Gross Ext. Debt Pmt, Deposit-Taking Corp., exc. CB, More than 6 to 9, Loans, Principal, USD","source":{"id":"22","value":"Quarterly External Debt Statistics\/SDDS (New)"},"sourceNote":"","sourceOrganization":"","topics":[]},{"id":"DT.AMT.DLTL.CD.CB.AR.36.US","name":"Gross Ext. Debt Pmt, Deposit-Taking Corp., exc. CB, More than 3 to 6, Loans, Principal, USD","source":{"id":"22","value":"Quarterly External Debt Statistics\/SDDS (New)"},"sourceNote":"","sourceOrganization":"","topics":[]},{"id":"DT.AMT.DLTL.CD.CB.AR.24P.US","name":"Gross Ext. Debt Pmt, Deposit-Taking Corp., exc. CB, More than 2yrs, Loans, Principal, USD","source":{"id":"22","value":"Quarterly External Debt Statistics\/SDDS (New)"},"sourceNote":"","sourceOrganization":"","topics":[]},{"id":"DT.AMT.DLTL.CD.CB.AR.1824.US","name":"Gross Ext. Debt Pmt, Deposit-Taking Corp., exc. CB, More than 18 to 24, Loans, Principal, USD","source":{"id":"22","value":"Quarterly External Debt Statistics\/SDDS (New)"},"sourceNote":"","sourceOrganization":"","topics":[]},{"id":"DT.AMT.DLTL.CD.CB.AR.1218.US","name":"Gross Ext. Debt Pmt, Deposit-Taking Corp., exc. CB, More than 12 to 18, Loans, Principal, USD","source":{"id":"22","value":"Quarterly External Debt Statistics\/SDDS (New)"},"sourceNote":"","sourceOrganization":"","topics":[]},{"id":"DT.AMT.DLTL.CD.CB.AR.0912.US","name":"Gross Ext. Debt Pmt, Deposit-Taking Corp., exc. CB, More than 9 to 12, Loans, Principal, USD","source":{"id":"22","value":"Quarterly External Debt Statistics\/SDDS (New)"},"sourceNote":"","sourceOrganization":"","topics":[]},{"id":"DT.AMT.DLTL.CD.CB.AR.03.US","name":"Gross Ext. Debt Pmt, Deposit-Taking Corp., exc. CB, More than 0 to 3, Loans, Principal, USD","source":{"id":"22","value":"Quarterly External Debt Statistics\/SDDS (New)"},"sourceNote":"","sourceOrganization":"","topics":[]},{"id":"DT.AMT.DLTF.CD","name":"Principal repayments on external debt, long-term + IMF (AMT, current US$)","source":{"id":"2","value":"World Development Indicators"},"sourceNote":"Principal repayments are actual amounts of principal (amortization) paid by the borrower in currency, goods, or services in the year specified. This item includes principal repayments on long-term debt and IMF repurchases. Long-term external debt is defined as debt that has an original or extended maturity of more than one year and that is owed to nonresidents by residents of an economy and repayable in currency, goods, or services. IMF repurchases are total repayments of outstanding drawings from the General Resources Account during the year specified, excluding repayments due in the reserve tranche. To maintain comparability between data on transactions with the IMF and data on long-term debt, use of IMF credit outstanding at the end of year (stock) is converted to dollars at the SDR exchange rate in effect at the end of year. Repurchases (flows) are converted at the average SDR exchange rate for the year in which transactions take place. Data are in current U.S. dollars.","sourceOrganization":"World Bank, International Debt Statistics.","topics":[{"id":"20","value":"External Debt"}]},{"id":"DT.AMT.DLCD.CD.OT.AR.IQ.US","name":"Gross Ext. Debt Pmt, Other Sectors, Immediate, Currency and deposits, Principal, USD","source":{"id":"22","value":"Quarterly External Debt Statistics\/SDDS (New)"},"sourceNote":"","sourceOrganization":"","topics":[]},{"id":"DT.AMT.DLCD.CD.OT.AR.69.US","name":"Gross Ext. Debt Pmt, Other Sectors, More than 6 to 9, Currency and deposits, Principal, USD","source":{"id":"22","value":"Quarterly External Debt Statistics\/SDDS (New)"},"sourceNote":"","sourceOrganization":"","topics":[]},{"id":"DT.AMT.DLCD.CD.OT.AR.36.US","name":"Gross Ext. Debt Pmt, Other Sectors, More than 3 to 6, Currency and deposits, Principal, USD","source":{"id":"22","value":"Quarterly External Debt Statistics\/SDDS (New)"},"sourceNote":"","sourceOrganization":"","topics":[]},{"id":"DT.AMT.DLCD.CD.OT.AR.24P.US","name":"Gross Ext. Debt Pmt, Other Sectors, More than 2yrs, Currency and deposits, Principal, USD","source":{"id":"22","value":"Quarterly External Debt Statistics\/SDDS (New)"},"sourceNote":"","sourceOrganization":"","topics":[]},{"id":"DT.AMT.DLCD.CD.OT.AR.1824.US","name":"Gross Ext. Debt Pmt, Other Sectors, More than 18 to 24, Currency and deposits, Principal, USD","source":{"id":"22","value":"Quarterly External Debt Statistics\/SDDS (New)"},"sourceNote":"","sourceOrganization":"","topics":[]},{"id":"DT.AMT.DLCD.CD.OT.AR.1218.US","name":"Gross Ext. Debt Pmt, Other Sectors, More than 12 to 18, Currency and deposits, Principal, USD","source":{"id":"22","value":"Quarterly External Debt Statistics\/SDDS (New)"},"sourceNote":"","sourceOrganization":"","topics":[]},{"id":"DT.AMT.DLCD.CD.OT.AR.0912.US","name":"Gross Ext. Debt Pmt, Other Sectors, More than 9 to 12, Currency and deposits, Principal, USD","source":{"id":"22","value":"Quarterly External Debt Statistics\/SDDS (New)"},"sourceNote":"","sourceOrganization":"","topics":[]},{"id":"DT.AMT.DLCD.CD.OT.AR.03.US","name":"Gross Ext. Debt Pmt, Other Sectors, More than 0 to 3, Currency and deposits, Principal, USD","source":{"id":"22","value":"Quarterly External Debt Statistics\/SDDS (New)"},"sourceNote":"","sourceOrganization":"","topics":[]},{"id":"DT.AMT.DLCD.CD.MA.AR.IQ.US","name":"Gross Ext. Debt Pmt, Central Bank, Immediate, Currency and deposits, Principal, USD","source":{"id":"22","value":"Quarterly External Debt Statistics\/SDDS (New)"},"sourceNote":"","sourceOrganization":"","topics":[]},{"id":"DT.AMT.DLCD.CD.MA.AR.69.US","name":"Gross Ext. Debt Pmt, Central Bank, More than 6 to 9, Currency and deposits, Principal, USD","source":{"id":"22","value":"Quarterly External Debt Statistics\/SDDS (New)"},"sourceNote":"","sourceOrganization":"","topics":[]},{"id":"DT.AMT.DLCD.CD.MA.AR.36.US","name":"Gross Ext. Debt Pmt, Central Bank, More than 3 to 6, Currency and deposits, Principal, USD","source":{"id":"22","value":"Quarterly External Debt Statistics\/SDDS (New)"},"sourceNote":"","sourceOrganization":"","topics":[]},{"id":"DT.AMT.DLCD.CD.MA.AR.24P.US","name":"Gross Ext. Debt Pmt, Central Bank, More than 2yrs, Currency and deposits, Principal, USD","source":{"id":"22","value":"Quarterly External Debt Statistics\/SDDS (New)"},"sourceNote":"","sourceOrganization":"","topics":[]},{"id":"DT.AMT.DLCD.CD.MA.AR.1824.US","name":"Gross Ext. Debt Pmt, Central Bank, More than 18 to 24, Currency and deposits, Principal, USD","source":{"id":"22","value":"Quarterly External Debt Statistics\/SDDS (New)"},"sourceNote":"","sourceOrganization":"","topics":[]},{"id":"DT.AMT.DLCD.CD.MA.AR.1218.US","name":"Gross Ext. Debt Pmt, Central Bank, More than 12 to 18, Currency and deposits, Principal, USD","source":{"id":"22","value":"Quarterly External Debt Statistics\/SDDS (New)"},"sourceNote":"","sourceOrganization":"","topics":[]},{"id":"DT.AMT.DLCD.CD.MA.AR.0912.US","name":"Gross Ext. Debt Pmt, Central Bank, More than 9 to 12, Currency and deposits, Principal, USD","source":{"id":"22","value":"Quarterly External Debt Statistics\/SDDS (New)"},"sourceNote":"","sourceOrganization":"","topics":[]},{"id":"DT.AMT.DLCD.CD.MA.AR.03.US","name":"Gross Ext. Debt Pmt, Central Bank, More than 0 to 3, Currency and deposits, Principal, USD","source":{"id":"22","value":"Quarterly External Debt Statistics\/SDDS (New)"},"sourceNote":"","sourceOrganization":"","topics":[]},{"id":"DT.AMT.DLCD.CD.GG.AR.IQ.US","name":"Gross Ext. Debt Pmt, General Government, Immediate, Currency and deposits, Principal, USD","source":{"id":"22","value":"Quarterly External Debt Statistics\/SDDS (New)"},"sourceNote":"","sourceOrganization":"","topics":[]},{"id":"DT.AMT.DLCD.CD.GG.AR.69.US","name":"Gross Ext. Debt Pmt, General Government, More than 6 to 9, Currency and deposits, Principal, USD","source":{"id":"22","value":"Quarterly External Debt Statistics\/SDDS (New)"},"sourceNote":"","sourceOrganization":"","topics":[]},{"id":"DT.AMT.DLCD.CD.GG.AR.36.US","name":"Gross Ext. Debt Pmt, General Government, More than 3 to 6, Currency and deposits, Principal, USD","source":{"id":"22","value":"Quarterly External Debt Statistics\/SDDS (New)"},"sourceNote":"","sourceOrganization":"","topics":[]},{"id":"DT.AMT.DLCD.CD.GG.AR.24P.US","name":"Gross Ext. Debt Pmt, General Government, More than 2yrs, Currency and deposits, Principal, USD","source":{"id":"22","value":"Quarterly External Debt Statistics\/SDDS (New)"},"sourceNote":"","sourceOrganization":"","topics":[]},{"id":"DT.AMT.DLCD.CD.GG.AR.1824.US","name":"Gross Ext. Debt Pmt, General Government, More than 18 to 24, Currency and deposits, Principal, USD","source":{"id":"22","value":"Quarterly External Debt Statistics\/SDDS (New)"},"sourceNote":"","sourceOrganization":"","topics":[]},{"id":"DT.AMT.DLCD.CD.GG.AR.1218.US","name":"Gross Ext. Debt Pmt, General Government, More than 12 to 18, Currency and deposits, Principal, USD","source":{"id":"22","value":"Quarterly External Debt Statistics\/SDDS (New)"},"sourceNote":"","sourceOrganization":"","topics":[]},{"id":"DT.AMT.DLCD.CD.GG.AR.0912.US","name":"Gross Ext. Debt Pmt, General Government, More than 9 to 12, Currency and deposits, Principal, USD","source":{"id":"22","value":"Quarterly External Debt Statistics\/SDDS (New)"},"sourceNote":"","sourceOrganization":"","topics":[]},{"id":"DT.AMT.DLCD.CD.GG.AR.03.US","name":"Gross Ext. Debt Pmt, General Government, More than 0 to 3, Currency and deposits, Principal, USD","source":{"id":"22","value":"Quarterly External Debt Statistics\/SDDS (New)"},"sourceNote":"","sourceOrganization":"","topics":[]},{"id":"DT.AMT.DLCD.CD.CB.AR.IQ.US","name":"Gross Ext. Debt Pmt, Deposit-Taking Corp., exc. CB, Immediate, Currency and deposits, Principal, USD","source":{"id":"22","value":"Quarterly External Debt Statistics\/SDDS (New)"},"sourceNote":"","sourceOrganization":"","topics":[{}]}]]