[{"page":30,"pages":324,"per_page":"50","total":16174},[{"id":"BM.AG.CREL.CD","name":"Cereal exports (FAO, current US$)","source":{"id":"11","value":"Africa Development Indicators"},"sourceNote":"Cereals include wheat, rice, maize, barley, oats, rye, millet, sorghum, buckwheat, and mixed grains. Production data on cereals relate to crops harvested for dry grain only. Cereal crops harvested for hay or harvested green for food, feed, or silage and those used for grazing are excluded. ","sourceOrganization":"Food and Agriculture Organization, electronic files and web site.","topics":[]},{"id":"BM.AG.AGR.TRAC.NO","name":"Agricultural tractors, exports","source":{"id":"11","value":"Africa Development Indicators"},"sourceNote":"Agricultural machinery refers to the number of wheel and crawler tractors (excluding garden tractors) in use in agriculture at the end of the calendar year specified or during the first quarter of the following year.","sourceOrganization":"Food and Agriculture Organization, electronic files and web site.","topics":[]},{"id":"BM.AG.AGR.TRAC.CD","name":"Agricultural tractors, exports (FAO, current US$)","source":{"id":"11","value":"Africa Development Indicators"},"sourceNote":"Agricultural machinery refers to the number of wheel and crawler tractors (excluding garden tractors) in use in agriculture at the end of the calendar year specified or during the first quarter of the following year.  Data are in US$.","sourceOrganization":"Food and Agriculture Organization, electronic files and web site.","topics":[]},{"id":"BG.GSR.NFSV.GD.ZS","name":"Trade in services (% of GDP)","source":{"id":"2","value":"World Development Indicators"},"sourceNote":"Trade in services is the sum of service exports and imports divided by the value of GDP, all in current U.S. dollars.","sourceOrganization":"International Monetary Fund, Balance of Payments Statistics Yearbook and data files, and World Bank and OECD GDP estimates.","topics":[{"id":"3","value":"Economy & Growth"},{"id":"12","value":"Private Sector"},{"id":"21","value":"Trade"}]},{"id":"BEEF","name":"Meat, beef, cents\/kg, current$","source":{"id":"21","value":"Global Economic Monitor (GEM) Commodities"},"sourceNote":"Meat, beef (Australia\/New Zealand), chucks and cow forequarters, frozen boneless, 85% chemical lean, c.i.f. U.S. port (East Coast), ex-dock, beginning November 2002; previously cow forequarters","sourceOrganization":"Meat & Livestock Australia, Meat and Livestock Weekly; The National Provisioner; US Department of Agriculture;  World Bank.","topics":[]},{"id":"BARLEY","name":"Barley, $\/mt, current$","source":{"id":"21","value":"Global Economic Monitor (GEM) Commodities"},"sourceNote":"Barley (Canada), feed, Western No. 1, Winnipeg Commodity Exchange, spot, wholesale farmers' price","sourceOrganization":"Bloomberg; World Bank.","topics":[]},{"id":"BAR.TER.SCHL.75UP.FE","name":"Barro-Lee: Average years of tertiary schooling, age 75+, female","source":{"id":"12","value":"Education Statistics"},"sourceNote":"Average years of tertiary schooling, 75+, female is the average years of tertiary education completed among females over age 75.","sourceOrganization":"Robert J. Barro and Jong-Wha Lee: http:\/\/www.barrolee.com\/","topics":[]},{"id":"BAR.TER.SCHL.75UP","name":"Barro-Lee: Average years of tertiary schooling, age 75+, total","source":{"id":"12","value":"Education Statistics"},"sourceNote":"Average years of tertiary schooling, 75+, total is the average years of tertiary education completed among people over age 75.","sourceOrganization":"Robert J. Barro and Jong-Wha Lee: http:\/\/www.barrolee.com\/","topics":[]},{"id":"BAR.TER.SCHL.7074.FE","name":"Barro-Lee: Average years of tertiary schooling, age 70-74, female","source":{"id":"12","value":"Education Statistics"},"sourceNote":"Average years of tertiary schooling, 70-74, female is the average years of tertiary education completed among females age 70-74.","sourceOrganization":"Robert J. Barro and Jong-Wha Lee: http:\/\/www.barrolee.com\/","topics":[]},{"id":"BAR.TER.SCHL.7074","name":"Barro-Lee: Average years of tertiary schooling, age 70-74, total","source":{"id":"12","value":"Education Statistics"},"sourceNote":"Average years of tertiary schooling, 70-74, total is the average years of tertiary education completed among people age 70-74.","sourceOrganization":"Robert J. Barro and Jong-Wha Lee: http:\/\/www.barrolee.com\/","topics":[]},{"id":"BAR.TER.SCHL.6569.FE","name":"Barro-Lee: Average years of tertiary schooling, age 65-69, female","source":{"id":"12","value":"Education Statistics"},"sourceNote":"Average years of tertiary schooling, 65-69, female is the average years of tertiary education completed among females age 65-69.","sourceOrganization":"Robert J. Barro and Jong-Wha Lee: http:\/\/www.barrolee.com\/","topics":[]},{"id":"BAR.TER.SCHL.6569","name":"Barro-Lee: Average years of tertiary schooling, age 65-69, total","source":{"id":"12","value":"Education Statistics"},"sourceNote":"Average years of tertiary schooling, 65-69, total is the average years of tertiary education completed among people age 65-69.","sourceOrganization":"Robert J. Barro and Jong-Wha Lee: http:\/\/www.barrolee.com\/","topics":[]},{"id":"BAR.TER.SCHL.6064.FE","name":"Barro-Lee: Average years of tertiary schooling, age 60-64, female","source":{"id":"12","value":"Education Statistics"},"sourceNote":"Average years of tertiary schooling, 60-64, female is the average years of tertiary education completed among females age 60-64.","sourceOrganization":"Robert J. Barro and Jong-Wha Lee: http:\/\/www.barrolee.com\/","topics":[{"id":"4","value":"Education "}]},{"id":"BAR.TER.SCHL.6064","name":"Barro-Lee: Average years of tertiary schooling, age 60-64, total","source":{"id":"12","value":"Education Statistics"},"sourceNote":"Average years of tertiary schooling, 60-64, total is the average years of tertiary education completed among people age 60-64.","sourceOrganization":"Robert J. Barro and Jong-Wha Lee: http:\/\/www.barrolee.com\/","topics":[{"id":"4","value":"Education "}]},{"id":"BAR.TER.SCHL.5559.FE","name":"Barro-Lee: Average years of tertiary schooling, age 55-59, female","source":{"id":"12","value":"Education Statistics"},"sourceNote":"Average years of tertiary schooling, 55-59, female is the average years of tertiary education completed among females age 55-59.","sourceOrganization":"Robert J. Barro and Jong-Wha Lee: http:\/\/www.barrolee.com\/","topics":[{"id":"4","value":"Education "}]},{"id":"BAR.TER.SCHL.5559","name":"Barro-Lee: Average years of tertiary schooling, age 55-59, total","source":{"id":"12","value":"Education Statistics"},"sourceNote":"Average years of tertiary schooling, 55-59, total is the average years of tertiary education completed among people age 55-59.","sourceOrganization":"Robert J. Barro and Jong-Wha Lee: http:\/\/www.barrolee.com\/","topics":[{"id":"4","value":"Education "}]},{"id":"BAR.TER.SCHL.5054.FE","name":"Barro-Lee: Average years of tertiary schooling, age 50-54, female","source":{"id":"12","value":"Education Statistics"},"sourceNote":"Average years of tertiary schooling, 50-54, female is the average years of tertiary education completed among females age 50-54.","sourceOrganization":"Robert J. Barro and Jong-Wha Lee: http:\/\/www.barrolee.com\/","topics":[{"id":"4","value":"Education "}]},{"id":"BAR.TER.SCHL.5054","name":"Barro-Lee: Average years of tertiary schooling, age 50-54, total","source":{"id":"12","value":"Education Statistics"},"sourceNote":"Average years of tertiary schooling, 50-54, total is the average years of tertiary education completed among people age 50-54.","sourceOrganization":"Robert J. Barro and Jong-Wha Lee: http:\/\/www.barrolee.com\/","topics":[{"id":"4","value":"Education "}]},{"id":"BAR.TER.SCHL.4549.FE","name":"Barro-Lee: Average years of tertiary schooling, age 45-49, female","source":{"id":"12","value":"Education Statistics"},"sourceNote":"Average years of tertiary schooling, 45-49, female is the average years of tertiary education completed among females age 45-49.","sourceOrganization":"Robert J. Barro and Jong-Wha Lee: http:\/\/www.barrolee.com\/","topics":[{"id":"4","value":"Education "}]},{"id":"BAR.TER.SCHL.4549","name":"Barro-Lee: Average years of tertiary schooling, age 45-49, total","source":{"id":"12","value":"Education Statistics"},"sourceNote":"Average years of tertiary schooling, 45-49, total is the average years of tertiary education completed among people age 45-49.","sourceOrganization":"Robert J. Barro and Jong-Wha Lee: http:\/\/www.barrolee.com\/","topics":[{"id":"4","value":"Education "}]},{"id":"BAR.TER.SCHL.4044.FE","name":"Barro-Lee: Average years of tertiary schooling, age 40-44, female","source":{"id":"12","value":"Education Statistics"},"sourceNote":"Average years of tertiary schooling, 40-44, female is the average years of tertiary education completed among females age 40-44.","sourceOrganization":"Robert J. Barro and Jong-Wha Lee: http:\/\/www.barrolee.com\/","topics":[{"id":"4","value":"Education "}]},{"id":"BAR.TER.SCHL.4044","name":"Barro-Lee: Average years of tertiary schooling, age 40-44, total","source":{"id":"12","value":"Education Statistics"},"sourceNote":"Average years of tertiary schooling, 40-44, total is the average years of tertiary education completed among people age 40-44.","sourceOrganization":"Robert J. Barro and Jong-Wha Lee: http:\/\/www.barrolee.com\/","topics":[{"id":"4","value":"Education "}]},{"id":"BAR.TER.SCHL.3539.FE","name":"Barro-Lee: Average years of tertiary schooling, age 35-39, female","source":{"id":"12","value":"Education Statistics"},"sourceNote":"Average years of tertiary schooling, 35-39, female is the average years of tertiary education completed among females age 35-39.","sourceOrganization":"Robert J. Barro and Jong-Wha Lee: http:\/\/www.barrolee.com\/","topics":[{"id":"4","value":"Education "}]},{"id":"BAR.TER.SCHL.3539","name":"Barro-Lee: Average years of tertiary schooling, age 35-39, total","source":{"id":"12","value":"Education Statistics"},"sourceNote":"Average years of tertiary schooling, 35-39, total is the average years of tertiary education completed among people age 35-39.","sourceOrganization":"Robert J. Barro and Jong-Wha Lee: http:\/\/www.barrolee.com\/","topics":[{"id":"4","value":"Education "}]},{"id":"BAR.TER.SCHL.3034.FE","name":"Barro-Lee: Average years of tertiary schooling, age 30-34, female","source":{"id":"12","value":"Education Statistics"},"sourceNote":"Average years of tertiary schooling, 30-34, female is the average years of tertiary education completed among females age 30-34.","sourceOrganization":"Robert J. Barro and Jong-Wha Lee: http:\/\/www.barrolee.com\/","topics":[{"id":"4","value":"Education "}]},{"id":"BAR.TER.SCHL.3034","name":"Barro-Lee: Average years of tertiary schooling, age 30-34, total","source":{"id":"12","value":"Education Statistics"},"sourceNote":"Average years of tertiary schooling, 30-34, total is the average years of tertiary education completed among people age 30-34.","sourceOrganization":"Robert J. Barro and Jong-Wha Lee: http:\/\/www.barrolee.com\/","topics":[{"id":"4","value":"Education "}]},{"id":"BAR.TER.SCHL.25UP.FE","name":"Barro-Lee: Average years of tertiary schooling, age 25+, female","source":{"id":"12","value":"Education Statistics"},"sourceNote":"Average years of tertiary schooling, 25+, female is the average years of tertiary education completed among females over age 25.","sourceOrganization":"Robert J. Barro and Jong-Wha Lee: http:\/\/www.barrolee.com\/","topics":[{"id":"4","value":"Education "}]},{"id":"BAR.TER.SCHL.25UP","name":"Barro-Lee: Average years of tertiary schooling, age 25+, total","source":{"id":"12","value":"Education Statistics"},"sourceNote":"Average years of tertiary schooling, 25+, total is the average years of tertiary education completed among people over age 25.","sourceOrganization":"Robert J. Barro and Jong-Wha Lee: http:\/\/www.barrolee.com\/","topics":[{"id":"4","value":"Education "}]},{"id":"BAR.TER.SCHL.2529.FE","name":"Barro-Lee: Average years of tertiary schooling, age 25-29, female","source":{"id":"12","value":"Education Statistics"},"sourceNote":"Average years of tertiary schooling, 25-29, female is the average years of tertiary education completed among females age 25-29.","sourceOrganization":"Robert J. Barro and Jong-Wha Lee: http:\/\/www.barrolee.com\/","topics":[{"id":"4","value":"Education "}]},{"id":"BAR.TER.SCHL.2529","name":"Barro-Lee: Average years of tertiary schooling, age 25-29, total","source":{"id":"12","value":"Education Statistics"},"sourceNote":"Average years of tertiary schooling, 25-29, total is the average years of tertiary education completed among people age 25-29.","sourceOrganization":"Robert J. Barro and Jong-Wha Lee: http:\/\/www.barrolee.com\/","topics":[{"id":"4","value":"Education "}]},{"id":"BAR.TER.SCHL.2024.FE","name":"Barro-Lee: Average years of tertiary schooling, age 20-24, female","source":{"id":"12","value":"Education Statistics"},"sourceNote":"Average years of tertiary schooling, 20-24, female is the average years of tertiary education completed among females age 20-24.","sourceOrganization":"Robert J. Barro and Jong-Wha Lee: http:\/\/www.barrolee.com\/","topics":[{"id":"4","value":"Education "}]},{"id":"BAR.TER.SCHL.2024","name":"Barro-Lee: Average years of tertiary schooling, age 20-24, total","source":{"id":"12","value":"Education Statistics"},"sourceNote":"Average years of tertiary schooling, 20-24, total is the average years of tertiary education completed among people age 20-24.","sourceOrganization":"Robert J. Barro and Jong-Wha Lee: http:\/\/www.barrolee.com\/","topics":[{"id":"4","value":"Education "}]},{"id":"BAR.TER.SCHL.15UP.FE","name":"Barro-Lee: Average years of tertiary schooling, age 15+, female","source":{"id":"12","value":"Education Statistics"},"sourceNote":"Average years of tertiary schooling, 15+, female is the average years of tertiary education completed among females over age 15.","sourceOrganization":"Robert J. Barro and Jong-Wha Lee: http:\/\/www.barrolee.com\/","topics":[{"id":"4","value":"Education "}]},{"id":"BAR.TER.SCHL.15UP","name":"Barro-Lee: Average years of tertiary schooling, age 15+, total","source":{"id":"12","value":"Education Statistics"},"sourceNote":"Average years of tertiary schooling, 15+, total is the average years of tertiary education completed among people over age 15.","sourceOrganization":"Robert J. Barro and Jong-Wha Lee: http:\/\/www.barrolee.com\/","topics":[{"id":"4","value":"Education "}]},{"id":"BAR.TER.SCHL.1519.FE","name":"Barro-Lee: Average years of tertiary schooling, age 15-19, female","source":{"id":"12","value":"Education Statistics"},"sourceNote":"Average years of tertiary schooling, 15-19, female is the average years of tertiary education completed among females age 15-19.","sourceOrganization":"Robert J. Barro and Jong-Wha Lee: http:\/\/www.barrolee.com\/","topics":[{"id":"4","value":"Education "}]},{"id":"BAR.TER.SCHL.1519","name":"Barro-Lee: Average years of tertiary schooling, age 15-19, total","source":{"id":"12","value":"Education Statistics"},"sourceNote":"Average years of tertiary schooling, 15-19, total is the average years of tertiary education completed among people age 15-19.","sourceOrganization":"Robert J. Barro and Jong-Wha Lee: http:\/\/www.barrolee.com\/","topics":[{"id":"4","value":"Education "}]},{"id":"BAR.TER.ICMP.75UP.ZS","name":"Barro-Lee: Percentage of population age 75+ with tertiary schooling. Total (Incomplete and Completed Tertiary)","source":{"id":"12","value":"Education Statistics"},"sourceNote":"Percentage of population age 75+ with tertiary schooling. Total (Incomplete and Completed Tertiary)","sourceOrganization":"Robert J. Barro and Jong-Wha Lee: http:\/\/www.barrolee.com\/","topics":[]},{"id":"BAR.TER.ICMP.75UP.FE.ZS","name":"Barro-Lee: Percentage of female population age 75+ with tertiary schooling. Total (Incomplete and Completed Tertiary)","source":{"id":"12","value":"Education Statistics"},"sourceNote":"Percentage of female population age 75+ with tertiary schooling. Total (Incomplete and Completed Tertiary)","sourceOrganization":"Robert J. Barro and Jong-Wha Lee: http:\/\/www.barrolee.com\/","topics":[]},{"id":"BAR.TER.ICMP.7074.ZS","name":"Barro-Lee: Percentage of population age 70-74 with tertiary schooling. Total (Incomplete and Completed Tertiary)","source":{"id":"12","value":"Education Statistics"},"sourceNote":"Percentage of population age 70-74 with tertiary schooling. Total (Incomplete and Completed Tertiary)","sourceOrganization":"Robert J. Barro and Jong-Wha Lee: http:\/\/www.barrolee.com\/","topics":[]},{"id":"BAR.TER.ICMP.7074.FE.ZS","name":"Barro-Lee: Percentage of female population age 70-74 with tertiary schooling. Total (Incomplete and Completed Tertiary)","source":{"id":"12","value":"Education Statistics"},"sourceNote":"Percentage of female population age 70-74 with tertiary schooling. Total (Incomplete and Completed Tertiary)","sourceOrganization":"Robert J. Barro and Jong-Wha Lee: http:\/\/www.barrolee.com\/","topics":[]},{"id":"BAR.TER.ICMP.6569.ZS","name":"Barro-Lee: Percentage of population age 65-69 with tertiary schooling. Total (Incomplete and Completed Tertiary)","source":{"id":"12","value":"Education Statistics"},"sourceNote":"Percentage of population age 65-69 with tertiary schooling. Total (Incomplete and Completed Tertiary)","sourceOrganization":"Robert J. Barro and Jong-Wha Lee: http:\/\/www.barrolee.com\/","topics":[]},{"id":"BAR.TER.ICMP.6569.FE.ZS","name":"Barro-Lee: Percentage of female population age 65-69 with tertiary schooling. Total (Incomplete and Completed Tertiary)","source":{"id":"12","value":"Education Statistics"},"sourceNote":"Percentage of female population age 65-69 with tertiary schooling. Total (Incomplete and Completed Tertiary)","sourceOrganization":"Robert J. Barro and Jong-Wha Lee: http:\/\/www.barrolee.com\/","topics":[]},{"id":"BAR.TER.ICMP.6064.ZS","name":"Barro-Lee: Percentage of population age 60-64 with tertiary schooling. Total (Incomplete and Completed Tertiary)","source":{"id":"12","value":"Education Statistics"},"sourceNote":"Percentage of population age 60-64 with tertiary schooling. Total (Incomplete and Completed Tertiary)","sourceOrganization":"Robert J. Barro and Jong-Wha Lee: http:\/\/www.barrolee.com\/","topics":[{"id":"4","value":"Education "}]},{"id":"BAR.TER.ICMP.6064.FE.ZS","name":"Barro-Lee: Percentage of female population age 60-64 with tertiary schooling. Total (Incomplete and Completed Tertiary)","source":{"id":"12","value":"Education Statistics"},"sourceNote":"Percentage of female population age 60-64 with tertiary schooling. Total (Incomplete and Completed Tertiary)","sourceOrganization":"Robert J. Barro and Jong-Wha Lee: http:\/\/www.barrolee.com\/","topics":[{"id":"4","value":"Education "}]},{"id":"BAR.TER.ICMP.5559.ZS","name":"Barro-Lee: Percentage of population age 55-59 with tertiary schooling. Total (Incomplete and Completed Tertiary)","source":{"id":"12","value":"Education Statistics"},"sourceNote":"Percentage of population age 55-59 with tertiary schooling. Total (Incomplete and Completed Tertiary)","sourceOrganization":"Robert J. Barro and Jong-Wha Lee: http:\/\/www.barrolee.com\/","topics":[{"id":"4","value":"Education "}]},{"id":"BAR.TER.ICMP.5559.FE.ZS","name":"Barro-Lee: Percentage of female population age 55-59 with tertiary schooling. Total (Incomplete and Completed Tertiary)","source":{"id":"12","value":"Education Statistics"},"sourceNote":"Percentage of female population age 55-59 with tertiary schooling. Total (Incomplete and Completed Tertiary)","sourceOrganization":"Robert J. Barro and Jong-Wha Lee: http:\/\/www.barrolee.com\/","topics":[{"id":"4","value":"Education "}]},{"id":"BAR.TER.ICMP.5054.ZS","name":"Barro-Lee: Percentage of population age 50-54 with tertiary schooling. Total (Incomplete and Completed Tertiary)","source":{"id":"12","value":"Education Statistics"},"sourceNote":"Percentage of population age 50-54 with tertiary schooling. Total (Incomplete and Completed Tertiary)","sourceOrganization":"Robert J. Barro and Jong-Wha Lee: http:\/\/www.barrolee.com\/","topics":[{"id":"4","value":"Education "}]},{"id":"BAR.TER.ICMP.5054.FE.ZS","name":"Barro-Lee: Percentage of female population age 50-54 with tertiary schooling. Total (Incomplete and Completed Tertiary)","source":{"id":"12","value":"Education Statistics"},"sourceNote":"Percentage of female population age 50-54 with tertiary schooling. Total (Incomplete and Completed Tertiary)","sourceOrganization":"Robert J. Barro and Jong-Wha Lee: http:\/\/www.barrolee.com\/","topics":[{"id":"4","value":"Education "}]},{"id":"BAR.TER.ICMP.4549.ZS","name":"Barro-Lee: Percentage of population age 45-49 with tertiary schooling. Total (Incomplete and Completed Tertiary)","source":{"id":"12","value":"Education Statistics"},"sourceNote":"Percentage of population age 45-49 with tertiary schooling. Total (Incomplete and Completed Tertiary)","sourceOrganization":"Robert J. Barro and Jong-Wha Lee: http:\/\/www.barrolee.com\/","topics":[{"id":"4","value":"Education "}]},{"id":"BAR.TER.ICMP.4549.FE.ZS","name":"Barro-Lee: Percentage of female population age 45-49 with tertiary schooling. Total (Incomplete and Completed Tertiary)","source":{"id":"12","value":"Education Statistics"},"sourceNote":"Percentage of female population age 45-49 with tertiary schooling. Total (Incomplete and Completed Tertiary)","sourceOrganization":"Robert J. Barro and Jong-Wha Lee: http:\/\/www.barrolee.com\/","topics":[{"id":"4","value":"Education "}]}]]