[{"page":69,"pages":324,"per_page":"50","total":16174},[{"id":"DT.DOD.DSOO.CD.MA.AR.GE.US","name":"Gross Ext. Debt Pos., Central Bank, Short-term, Other debt instruments, Beginning pos., USD","source":{"id":"22","value":"Quarterly External Debt Statistics\/SDDS (New)"},"sourceNote":"","sourceOrganization":"","topics":[]},{"id":"DT.DOD.DSOO.CD.MA.AR.EX.US","name":"Gross Ext. Debt Pos., Central Bank, Short-term, Other debt liabilities, Exchange rate chg, USD","source":{"id":"22","value":"Quarterly External Debt Statistics\/SDDS (New)"},"sourceNote":"","sourceOrganization":"","topics":[]},{"id":"DT.DOD.DSOO.CD.MA.AR.EN.US","name":"Gross Ext. Debt Pos., Central Bank, Short-term, Other debt liabilities, end of period, USD","source":{"id":"22","value":"Quarterly External Debt Statistics\/SDDS (New)"},"sourceNote":"","sourceOrganization":"","topics":[]},{"id":"DT.DOD.DSOO.CD.MA.AR.EA.US","name":"Ext. Assets in Debt Instruments, Central Bank, Short-term, Other debt instruments, USD","source":{"id":"22","value":"Quarterly External Debt Statistics\/SDDS (New)"},"sourceNote":"","sourceOrganization":"","topics":[]},{"id":"DT.DOD.DSOO.CD.MA.AR.BE.US","name":"Gross Ext. Debt Pos., Central Bank, Short-term, Other debt liabilities, Beginning of period, USD","source":{"id":"22","value":"Quarterly External Debt Statistics\/SDDS (New)"},"sourceNote":"","sourceOrganization":"","topics":[]},{"id":"DT.DOD.DSOO.CD.GG.AR.US","name":"Gross Ext. Debt Pos., General Government, Short-term, Other debt liabilities, USD","source":{"id":"22","value":"Quarterly External Debt Statistics\/SDDS (New)"},"sourceNote":"","sourceOrganization":"","topics":[]},{"id":"DT.DOD.DSOO.CD.GG.AR.TR.US","name":"Gross Ext. Debt Pos., General Government, Short-term, Other debt liabilities, Transactions, USD","source":{"id":"22","value":"Quarterly External Debt Statistics\/SDDS (New)"},"sourceNote":"","sourceOrganization":"","topics":[]},{"id":"DT.DOD.DSOO.CD.GG.AR.PX.US","name":"Gross Ext. Debt Pos., General Government, Short-term, Other debt liabilities, Other price chg, USD","source":{"id":"22","value":"Quarterly External Debt Statistics\/SDDS (New)"},"sourceNote":"","sourceOrganization":"","topics":[]},{"id":"DT.DOD.DSOO.CD.GG.AR.OC.US","name":"Gross Ext. Debt Pos., General Government, Short-term, Other debt liabilities, Other chg in vol., USD","source":{"id":"22","value":"Quarterly External Debt Statistics\/SDDS (New)"},"sourceNote":"","sourceOrganization":"","topics":[]},{"id":"DT.DOD.DSOO.CD.GG.AR.NE.US","name":"Net Ext. Debt Position, General Government, Short-term, Other debt instruments, USD","source":{"id":"22","value":"Quarterly External Debt Statistics\/SDDS (New)"},"sourceNote":"","sourceOrganization":"","topics":[]},{"id":"DT.DOD.DSOO.CD.GG.AR.GE.US","name":"Gross Ext. Debt Pos., General Government, Short-term, Other debt instruments, Beginning pos., USD","source":{"id":"22","value":"Quarterly External Debt Statistics\/SDDS (New)"},"sourceNote":"","sourceOrganization":"","topics":[]},{"id":"DT.DOD.DSOO.CD.GG.AR.EX.US","name":"Gross Ext. Debt Pos., General Government, Short-term, Other debt liabilities, Exchange rate chg, USD","source":{"id":"22","value":"Quarterly External Debt Statistics\/SDDS (New)"},"sourceNote":"","sourceOrganization":"","topics":[]},{"id":"DT.DOD.DSOO.CD.GG.AR.EN.US","name":"Gross Ext. Debt Pos., General Government, Short-term, Other debt liabilities, end of period, USD","source":{"id":"22","value":"Quarterly External Debt Statistics\/SDDS (New)"},"sourceNote":"","sourceOrganization":"","topics":[]},{"id":"DT.DOD.DSOO.CD.GG.AR.EA.US","name":"Ext. Assets in Debt Instruments, General Government, Short-term, Other debt instruments, USD","source":{"id":"22","value":"Quarterly External Debt Statistics\/SDDS (New)"},"sourceNote":"","sourceOrganization":"","topics":[]},{"id":"DT.DOD.DSOO.CD.GG.AR.BE.US","name":"Gross Ext. Debt Pos., General Government, Short-term, Other debt liabilities, Beginning of period, USD","source":{"id":"22","value":"Quarterly External Debt Statistics\/SDDS (New)"},"sourceNote":"","sourceOrganization":"","topics":[]},{"id":"DT.DOD.DSOO.CD.CB.AR.US","name":"Gross Ext. Debt Pos., Deposit-Taking Corp., exc. CB, Short-term, Other debt liabilities, USD","source":{"id":"22","value":"Quarterly External Debt Statistics\/SDDS (New)"},"sourceNote":"","sourceOrganization":"","topics":[]},{"id":"DT.DOD.DSOO.CD.CB.AR.TR.US","name":"Gross Ext. Debt Pos., Deposit-Taking Corp., exc. CB, Short-term, Other debt liabilities, Transactions, USD","source":{"id":"22","value":"Quarterly External Debt Statistics\/SDDS (New)"},"sourceNote":"","sourceOrganization":"","topics":[]},{"id":"DT.DOD.DSOO.CD.CB.AR.PX.US","name":"Gross Ext. Debt Pos., Deposit-Taking Corp., exc. CB, Short-term, Other debt liabilities, Other price chg, USD","source":{"id":"22","value":"Quarterly External Debt Statistics\/SDDS (New)"},"sourceNote":"","sourceOrganization":"","topics":[]},{"id":"DT.DOD.DSOO.CD.CB.AR.OC.US","name":"Gross Ext. Debt Pos., Deposit-Taking Corp., exc. CB, Short-term, Other debt liabilities, Other chg in vol., USD","source":{"id":"22","value":"Quarterly External Debt Statistics\/SDDS (New)"},"sourceNote":"","sourceOrganization":"","topics":[]},{"id":"DT.DOD.DSOO.CD.CB.AR.NE.US","name":"Net Ext. Debt Position, Deposit-Taking Corp., exc. CB, Short-term, Other debt instruments, USD","source":{"id":"22","value":"Quarterly External Debt Statistics\/SDDS (New)"},"sourceNote":"","sourceOrganization":"","topics":[]},{"id":"DT.DOD.DSOO.CD.CB.AR.GE.US","name":"Gross Ext. Debt Pos., Deposit-Taking Corp., exc. CB, Short-term, Other debt instruments, Beginning pos., USD","source":{"id":"22","value":"Quarterly External Debt Statistics\/SDDS (New)"},"sourceNote":"","sourceOrganization":"","topics":[]},{"id":"DT.DOD.DSOO.CD.CB.AR.EX.US","name":"Gross Ext. Debt Pos., Deposit-Taking Corp., exc. CB, Short-term, Other debt liabilities, Exchange rate chg, USD","source":{"id":"22","value":"Quarterly External Debt Statistics\/SDDS (New)"},"sourceNote":"","sourceOrganization":"","topics":[]},{"id":"DT.DOD.DSOO.CD.CB.AR.EN.US","name":"Gross Ext. Debt Pos., Deposit-Taking Corp., exc. CB, Short-term, Other debt liabilities, end of period, USD","source":{"id":"22","value":"Quarterly External Debt Statistics\/SDDS (New)"},"sourceNote":"","sourceOrganization":"","topics":[]},{"id":"DT.DOD.DSOO.CD.CB.AR.EA.US","name":"Ext. Assets in Debt Instruments, Deposit-Taking Corp., exc. CB, Short-term, Other debt instruments, USD","source":{"id":"22","value":"Quarterly External Debt Statistics\/SDDS (New)"},"sourceNote":"","sourceOrganization":"","topics":[]},{"id":"DT.DOD.DSOO.CD.CB.AR.BE.US","name":"Gross Ext. Debt Pos., Deposit-Taking Corp., exc. CB, Short-term, Other debt liabilities, Beginning of period, USD","source":{"id":"22","value":"Quarterly External Debt Statistics\/SDDS (New)"},"sourceNote":"","sourceOrganization":"","topics":[]},{"id":"DT.DOD.DSCD.CD.OT.AR.US","name":"Gross Ext. Debt Pos., Other Sectors, Short-term, Currency and deposits, USD","source":{"id":"22","value":"Quarterly External Debt Statistics\/SDDS (New)"},"sourceNote":"","sourceOrganization":"","topics":[]},{"id":"DT.DOD.DSCD.CD.OT.AR.TR.US","name":"Gross Ext. Debt Pos., Other Sectors, Short-term, Currency and deposits, Transactions, USD","source":{"id":"22","value":"Quarterly External Debt Statistics\/SDDS (New)"},"sourceNote":"","sourceOrganization":"","topics":[]},{"id":"DT.DOD.DSCD.CD.OT.AR.PX.US","name":"Gross Ext. Debt Pos., Other Sectors, Short-term, Currency and deposits, Other price chg, USD","source":{"id":"22","value":"Quarterly External Debt Statistics\/SDDS (New)"},"sourceNote":"","sourceOrganization":"","topics":[]},{"id":"DT.DOD.DSCD.CD.OT.AR.OC.US","name":"Gross Ext. Debt Pos., Other Sectors, Short-term, Currency and deposits, Other chg in vol., USD","source":{"id":"22","value":"Quarterly External Debt Statistics\/SDDS (New)"},"sourceNote":"","sourceOrganization":"","topics":[]},{"id":"DT.DOD.DSCD.CD.OT.AR.NE.US","name":"Net Ext. Debt Position, Other Sectors, Short-term, Currency and deposits, USD","source":{"id":"22","value":"Quarterly External Debt Statistics\/SDDS (New)"},"sourceNote":"","sourceOrganization":"","topics":[]},{"id":"DT.DOD.DSCD.CD.OT.AR.GE.US","name":"Gross Ext. Debt Pos., Other Sectors, Short-term, Currency and deposits, Beginning pos., USD","source":{"id":"22","value":"Quarterly External Debt Statistics\/SDDS (New)"},"sourceNote":"","sourceOrganization":"","topics":[]},{"id":"DT.DOD.DSCD.CD.OT.AR.EX.US","name":"Gross Ext. Debt Pos., Other Sectors, Short-term, Currency and deposits, Exchange rate chg, USD","source":{"id":"22","value":"Quarterly External Debt Statistics\/SDDS (New)"},"sourceNote":"","sourceOrganization":"","topics":[]},{"id":"DT.DOD.DSCD.CD.OT.AR.EN.US","name":"Gross Ext. Debt Pos., Other Sectors, Short-term, Currency and deposits, end of period, USD","source":{"id":"22","value":"Quarterly External Debt Statistics\/SDDS (New)"},"sourceNote":"","sourceOrganization":"","topics":[]},{"id":"DT.DOD.DSCD.CD.OT.AR.EA.US","name":"Ext. Assets in Debt Instruments, Other Sectors, Short-term, Currency and deposits, USD","source":{"id":"22","value":"Quarterly External Debt Statistics\/SDDS (New)"},"sourceNote":"","sourceOrganization":"","topics":[]},{"id":"DT.DOD.DSCD.CD.OT.AR.BE.US","name":"Gross Ext. Debt Pos., Other Sectors, Short-term, Currency and deposits, Beginning of period, USD","source":{"id":"22","value":"Quarterly External Debt Statistics\/SDDS (New)"},"sourceNote":"","sourceOrganization":"","topics":[]},{"id":"DT.DOD.DSCD.CD.OF.US","name":"Gross Ext. Debt Pos., Other financial corporations, Short-term, Currency and deposits, USD","source":{"id":"22","value":"Quarterly External Debt Statistics\/SDDS (New)"},"sourceNote":"","sourceOrganization":"","topics":[]},{"id":"DT.DOD.DSCD.CD.NC.US","name":"Gross Ext. Debt Pos., Nonfinancial corporations, Short-term, Currency and deposits, USD","source":{"id":"22","value":"Quarterly External Debt Statistics\/SDDS (New)"},"sourceNote":"","sourceOrganization":"","topics":[]},{"id":"DT.DOD.DSCD.CD.MA.AR.US","name":"Gross Ext. Debt Pos., Central Bank, Short-term, Currency and deposits, USD","source":{"id":"22","value":"Quarterly External Debt Statistics\/SDDS (New)"},"sourceNote":"","sourceOrganization":"","topics":[]},{"id":"DT.DOD.DSCD.CD.MA.AR.TR.US","name":"Gross Ext. Debt Pos., Central Bank, Short-term, Currency and deposits, Transactions, USD","source":{"id":"22","value":"Quarterly External Debt Statistics\/SDDS (New)"},"sourceNote":"","sourceOrganization":"","topics":[]},{"id":"DT.DOD.DSCD.CD.MA.AR.PX.US","name":"Gross Ext. Debt Pos., Central Bank, Short-term, Currency and deposits, Other price chg, USD","source":{"id":"22","value":"Quarterly External Debt Statistics\/SDDS (New)"},"sourceNote":"","sourceOrganization":"","topics":[]},{"id":"DT.DOD.DSCD.CD.MA.AR.OC.US","name":"Gross Ext. Debt Pos., Central Bank, Short-term, Currency and deposits, Other chg in vol., USD","source":{"id":"22","value":"Quarterly External Debt Statistics\/SDDS (New)"},"sourceNote":"","sourceOrganization":"","topics":[]},{"id":"DT.DOD.DSCD.CD.MA.AR.NE.US","name":"Net Ext. Debt Position, Central Bank, Short-term, Currency and deposits, USD","source":{"id":"22","value":"Quarterly External Debt Statistics\/SDDS (New)"},"sourceNote":"","sourceOrganization":"","topics":[]},{"id":"DT.DOD.DSCD.CD.MA.AR.GE.US","name":"Gross Ext. Debt Pos., Central Bank, Short-term, Currency and deposits, Beginning pos., USD","source":{"id":"22","value":"Quarterly External Debt Statistics\/SDDS (New)"},"sourceNote":"","sourceOrganization":"","topics":[]},{"id":"DT.DOD.DSCD.CD.MA.AR.EX.US","name":"Gross Ext. Debt Pos., Central Bank, Short-term, Currency and deposits, Exchange rate chg, USD","source":{"id":"22","value":"Quarterly External Debt Statistics\/SDDS (New)"},"sourceNote":"","sourceOrganization":"","topics":[]},{"id":"DT.DOD.DSCD.CD.MA.AR.EN.US","name":"Gross Ext. Debt Pos., Central Bank, Short-term, Currency and deposits, end of period, USD","source":{"id":"22","value":"Quarterly External Debt Statistics\/SDDS (New)"},"sourceNote":"","sourceOrganization":"","topics":[]},{"id":"DT.DOD.DSCD.CD.MA.AR.EA.US","name":"Ext. Assets in Debt Instruments, Central Bank, Short-term, Currency and deposits, USD","source":{"id":"22","value":"Quarterly External Debt Statistics\/SDDS (New)"},"sourceNote":"","sourceOrganization":"","topics":[]},{"id":"DT.DOD.DSCD.CD.MA.AR.BE.US","name":"Gross Ext. Debt Pos., Central Bank, Short-term, Currency and deposits, Beginning of period, USD","source":{"id":"22","value":"Quarterly External Debt Statistics\/SDDS (New)"},"sourceNote":"","sourceOrganization":"","topics":[]},{"id":"DT.DOD.DSCD.CD.HN.US","name":"Gross Ext. Debt Pos., HH and nonprofit institu. (NPISHs), Short-term, Currency and deposits, USD","source":{"id":"22","value":"Quarterly External Debt Statistics\/SDDS (New)"},"sourceNote":"","sourceOrganization":"","topics":[]},{"id":"DT.DOD.DSCD.CD.GG.AR.US","name":"Gross Ext. Debt Pos., General Government, Short-term, Currency and deposits, USD","source":{"id":"22","value":"Quarterly External Debt Statistics\/SDDS (New)"},"sourceNote":"","sourceOrganization":"","topics":[]},{"id":"DT.DOD.DSCD.CD.GG.AR.TR.US","name":"Gross Ext. Debt Pos., General Government, Short-term, Currency and deposits, Transactions, USD","source":{"id":"22","value":"Quarterly External Debt Statistics\/SDDS (New)"},"sourceNote":"","sourceOrganization":"","topics":[{}]}]]