[{"page":311,"pages":324,"per_page":"50","total":16174},[{"id":"WP11651_5.3","name":"Loan in the past year, female (% age 15+) [w1]","source":{"id":"28","value":"Global Findex ( Global Financial Inclusion database)"},"sourceNote":"Denotes the percentage of respondents who borrowed any money in the past 12 months from any of the following sources: a formal financial institution, a store by using installment credit, family or friends, employer, or another private lender (female, % age 15+). [w1: data are available for wave 1].","sourceOrganization":"Demirguc-Kunt and Klapper, 2012","topics":[{"id":"7","value":"Financial Sector "}]},{"id":"WP11651_5.2","name":"Loan in the past year, male (% age 15+) [w1]","source":{"id":"28","value":"Global Findex ( Global Financial Inclusion database)"},"sourceNote":"Denotes the percentage of respondents who borrowed any money in the past 12 months from any of the following sources: a formal financial institution, a store by using installment credit, family or friends, employer, or another private lender (male, % age 15+). [w1: data are available for wave 1].","sourceOrganization":"Demirguc-Kunt and Klapper, 2012","topics":[{"id":"7","value":"Financial Sector "}]},{"id":"WP11651.9","name":"Loan from a financial institution in the past year, income quintiles III, IV, and V (highest)  (% age 15+)","source":{"id":"28","value":"Global Findex ( Global Financial Inclusion database)"},"sourceNote":"Denotes the percentage of respondents who report borrowing any money from a bank, credit union, microfinance institution, or another financial institution such as a cooperative in the past 12 months (income, richest 60%, % age 15+). [w1: data are available for wave 1].","sourceOrganization":"Demirguc-Kunt and Klapper, 2012","topics":[{"id":"7","value":"Financial Sector "}]},{"id":"WP11651.8","name":"Loan from a financial institution in the past year, income quintiles I (lowest) and II (% age 15+)","source":{"id":"28","value":"Global Findex ( Global Financial Inclusion database)"},"sourceNote":"Denotes the percentage of respondents who report borrowing any money from a bank, credit union, microfinance institution, or another financial institution such as a cooperative in the past 12 months (income, poorest 40%, % age 15+). [w1: data are available for wave 1].","sourceOrganization":"Demirguc-Kunt and Klapper, 2012","topics":[{"id":"7","value":"Financial Sector "}]},{"id":"WP11651.7","name":"Borrowed from a financial institution, secondary education or more (% ages 15+) [w1]","source":{"id":"28","value":"Global Findex ( Global Financial Inclusion database)"},"sourceNote":"Denotes the percentage of respondents who report borrowing any money from a bank, credit union, microfinance institution, or another financial institution such as a cooperative in the past 12 months (secondary education or more, % age 15+). [w1: data are available for wave 1].","sourceOrganization":"Demirguc-Kunt and Klapper, 2012","topics":[{"id":"7","value":"Financial Sector "}]},{"id":"WP11651.6","name":"Borrowed from a financial institution, primary education or less (% ages 15+) [w1]","source":{"id":"28","value":"Global Findex ( Global Financial Inclusion database)"},"sourceNote":"Denotes the percentage of respondents who report borrowing any money from a bank, credit union, microfinance institution, or another financial institution such as a cooperative in the past 12 months (primary education or less, % age 15+). [w1: data are available for wave 1].","sourceOrganization":"Demirguc-Kunt and Klapper, 2012","topics":[{"id":"7","value":"Financial Sector "}]},{"id":"WP11651.5","name":"Loan from a financial institution in the past year, older adults (% age 25+)","source":{"id":"28","value":"Global Findex ( Global Financial Inclusion database)"},"sourceNote":"Denotes the percentage of respondents who report borrowing any money from a bank, credit union, microfinance institution, or another financial institution such as a cooperative in the past 12 months (% age 25+). [w1: data are available for wave 1].","sourceOrganization":"Demirguc-Kunt and Klapper, 2012","topics":[{"id":"7","value":"Financial Sector "}]},{"id":"WP11651.4","name":"Loan from a financial institution in the past year, young adults (% ages 15-24)","source":{"id":"28","value":"Global Findex ( Global Financial Inclusion database)"},"sourceNote":"Denotes the percentage of respondents who report borrowing any money from a bank, credit union, microfinance institution, or another financial institution such as a cooperative in the past 12 months (% ages 15-24). [w1: data are available for wave 1].","sourceOrganization":"Demirguc-Kunt and Klapper, 2012","topics":[{"id":"7","value":"Financial Sector "}]},{"id":"WP11651.3","name":"Loan from a financial institution in the past year, female (% age 15+)","source":{"id":"28","value":"Global Findex ( Global Financial Inclusion database)"},"sourceNote":"Denotes the percentage of respondents who report borrowing any money from a bank, credit union, microfinance institution, or another financial institution such as a cooperative in the past 12 months (female, % age 15+). [w1: data are available for wave 1].","sourceOrganization":"Demirguc-Kunt and Klapper, 2012","topics":[{"id":"7","value":"Financial Sector "}]},{"id":"WP11651.2","name":"Loan from a financial institution in the past year, male (% age 15+)","source":{"id":"28","value":"Global Findex ( Global Financial Inclusion database)"},"sourceNote":"Denotes the percentage of respondents who report borrowing any money from a bank, credit union, microfinance institution, or another financial institution such as a cooperative in the past 12 months (male, % age 15+). [w1: data are available for wave 1].","sourceOrganization":"Demirguc-Kunt and Klapper, 2012","topics":[{"id":"7","value":"Financial Sector "}]},{"id":"WP11651.10","name":"Loan from a financial institution in the past year, rural (% age 15+)","source":{"id":"28","value":"Global Findex ( Global Financial Inclusion database)"},"sourceNote":"Denotes the percentage of respondents who report borrowing any money from a bank, credit union, microfinance institution, or another financial institution such as a cooperative in the past 12 months (rural, % age 15+ ). [w1: data are available for wave 1].","sourceOrganization":"Demirguc-Kunt and Klapper, 2012","topics":[{"id":"7","value":"Financial Sector "}]},{"id":"WP11651.1","name":"Loan from a financial institution in the past year (% age 15+)","source":{"id":"28","value":"Global Findex ( Global Financial Inclusion database)"},"sourceNote":"Denotes the percentage of respondents who report borrowing any money from a bank, credit union, microfinance institution, or another financial institution such as a cooperative in the past 12 months (% age 15+). [w1: data are available for wave 1].","sourceOrganization":"Demirguc-Kunt and Klapper, 2012","topics":[{"id":"7","value":"Financial Sector "}]},{"id":"WP11649.9","name":"Saved using a savings club or a person outside the family, income, richest 60% (% ages 15+) [w1]","source":{"id":"28","value":"Global Findex ( Global Financial Inclusion database)"},"sourceNote":"Denotes the percentage of respondents who report saving or setting aside any money by using an informal savings club or a person outside the family in the past 12 months (income, richest 60%, % age 15+). [w1: data are available for wave 1].","sourceOrganization":"Demirguc-Kunt and Klapper, 2012","topics":[{"id":"7","value":"Financial Sector "}]},{"id":"WP11649.8","name":"Saved using a savings club or a person outside the family, income, poorest 40% (% ages 15+) [w1]","source":{"id":"28","value":"Global Findex ( Global Financial Inclusion database)"},"sourceNote":"Denotes the percentage of respondents who report saving or setting aside any money by using an informal savings club or a person outside the family in the past 12 months (income, poorest 40%, % age 15+). [w1: data are available for wave 1].","sourceOrganization":"Demirguc-Kunt and Klapper, 2012","topics":[{"id":"7","value":"Financial Sector "}]},{"id":"WP11649.7","name":"Saved using a savings club or a person outside the family, secondary education or more (% ages 15+) [w1]","source":{"id":"28","value":"Global Findex ( Global Financial Inclusion database)"},"sourceNote":"Denotes the percentage of respondents who report saving or setting aside any money by using an informal savings club or a person outside the family in the past 12 months (secondary education or more, % age 15+). [w1: data are available for wave 1].","sourceOrganization":"Demirguc-Kunt and Klapper, 2012","topics":[{"id":"7","value":"Financial Sector "}]},{"id":"WP11649.6","name":"Saved using a savings club or a person outside the family, primary education or less (% ages 15+) [w1]","source":{"id":"28","value":"Global Findex ( Global Financial Inclusion database)"},"sourceNote":"Denotes the percentage of respondents who report saving or setting aside any money by using an informal savings club or a person outside the family in the past 12 months (primary education or less, % age 15+). [w1: data are available for wave 1].","sourceOrganization":"Demirguc-Kunt and Klapper, 2012","topics":[{"id":"7","value":"Financial Sector "}]},{"id":"WP11649.5","name":"Saved using a savings club or a person outside the family, older adults (% ages 25+) [w1]","source":{"id":"28","value":"Global Findex ( Global Financial Inclusion database)"},"sourceNote":"Denotes the percentage of respondents who report saving or setting aside any money by using an informal savings club or a person outside the family in the past 12 months (% age 25+). [w1: data are available for wave 1].","sourceOrganization":"Demirguc-Kunt and Klapper, 2012","topics":[{"id":"7","value":"Financial Sector "}]},{"id":"WP11649.4","name":"Saved using a savings club or a person outside the family, young adults (% ages 15-24) [w1]","source":{"id":"28","value":"Global Findex ( Global Financial Inclusion database)"},"sourceNote":"Denotes the percentage of respondents who report saving or setting aside any money by using an informal savings club or a person outside the family in the past 12 months (% ages 15-24). [w1: data are available for wave 1].","sourceOrganization":"Demirguc-Kunt and Klapper, 2012","topics":[{"id":"7","value":"Financial Sector "}]},{"id":"WP11649.3","name":"Saved using a savings club or a person outside the family, female (% age 15+) [w1]","source":{"id":"28","value":"Global Findex ( Global Financial Inclusion database)"},"sourceNote":"Denotes the percentage of respondents who report saving or setting aside any money by using an informal savings club or a person outside the family in the past 12 months (female, % age 15+). [w1: data are available for wave 1].","sourceOrganization":"Demirguc-Kunt and Klapper, 2012","topics":[{"id":"7","value":"Financial Sector "}]},{"id":"WP11649.2","name":"Saved using a savings club or a person outside the family, male (% age 15+) [w1]","source":{"id":"28","value":"Global Findex ( Global Financial Inclusion database)"},"sourceNote":"Denotes the percentage of respondents who report saving or setting aside any money by using an informal savings club or a person outside the family in the past 12 months (male, % age 15+). [w1: data are available for wave 1].","sourceOrganization":"Demirguc-Kunt and Klapper, 2012","topics":[{"id":"7","value":"Financial Sector "}]},{"id":"WP11649.10","name":"Saved using a savings club or a person outside the family, rural (% age 15+) [w1]","source":{"id":"28","value":"Global Findex ( Global Financial Inclusion database)"},"sourceNote":"Denotes the percentage of respondents who report saving or setting aside any money by using an informal savings club or a person outside the family in the past 12 months (rural, % age 15+ ). [w1: data are available for wave 1].","sourceOrganization":"Demirguc-Kunt and Klapper, 2012","topics":[{"id":"7","value":"Financial Sector "}]},{"id":"WP11649.1","name":"Saved using a savings club or a person outside the family (% age 15+) [w1]","source":{"id":"28","value":"Global Findex ( Global Financial Inclusion database)"},"sourceNote":"Denotes the percentage of respondents who report saving or setting aside any money by using an informal savings club or a person outside the family in the past 12 months (% age 15+). [w1: data are available for wave 1].","sourceOrganization":"Demirguc-Kunt and Klapper, 2012","topics":[{"id":"7","value":"Financial Sector "}]},{"id":"WP11648.9","name":"Saved at a financial institution in the past year, income quintiles III, IV, and V (highest)  (% age 15+)","source":{"id":"28","value":"Global Findex ( Global Financial Inclusion database)"},"sourceNote":"Denotes the percentage of respondents who report saving or setting aside any money by using an account at a formal financial institution such as a bank, credit union, microfinance institution, or cooperative in the past 12 months (income, richest 60%, % age 15+). [w1: data are available for wave 1].","sourceOrganization":"Demirguc-Kunt and Klapper, 2012","topics":[{"id":"7","value":"Financial Sector "}]},{"id":"WP11648.8","name":"Saved at a financial institution in the past year, income quintiles I (lowest) and II (% age 15+)","source":{"id":"28","value":"Global Findex ( Global Financial Inclusion database)"},"sourceNote":"Denotes the percentage of respondents who report saving or setting aside any money by using an account at a formal financial institution such as a bank, credit union, microfinance institution, or cooperative in the past 12 months (income, poorest 40%, % age 15+). [w1: data are available for wave 1].","sourceOrganization":"Demirguc-Kunt and Klapper, 2012","topics":[{"id":"7","value":"Financial Sector "}]},{"id":"WP11648.7","name":"Saved at a financial institution, secondary education or more (% ages 15+) [w1]","source":{"id":"28","value":"Global Findex ( Global Financial Inclusion database)"},"sourceNote":"Denotes the percentage of respondents who report saving or setting aside any money by using an account at a formal financial institution such as a bank, credit union, microfinance institution, or cooperative in the past 12 months (secondary education or more, % age 15+). [w1: data are available for wave 1].","sourceOrganization":"Demirguc-Kunt and Klapper, 2012","topics":[{"id":"7","value":"Financial Sector "}]},{"id":"WP11648.6","name":"Saved at a financial institution, primary education or less (% ages 15+) [w1]","source":{"id":"28","value":"Global Findex ( Global Financial Inclusion database)"},"sourceNote":"Denotes the percentage of respondents who report saving or setting aside any money by using an account at a formal financial institution such as a bank, credit union, microfinance institution, or cooperative in the past 12 months (primary education or less, % age 15+). [w1: data are available for wave 1].","sourceOrganization":"Demirguc-Kunt and Klapper, 2012","topics":[{"id":"7","value":"Financial Sector "}]},{"id":"WP11648.5","name":"Saved at a financial institution in the past year, older adults (% age 25+)","source":{"id":"28","value":"Global Findex ( Global Financial Inclusion database)"},"sourceNote":"Denotes the percentage of respondents who report saving or setting aside any money by using an account at a formal financial institution such as a bank, credit union, microfinance institution, or cooperative in the past 12 months (% age 25+). [w1: data are available for wave 1].","sourceOrganization":"Demirguc-Kunt and Klapper, 2012","topics":[{"id":"7","value":"Financial Sector "}]},{"id":"WP11648.4","name":"Saved at a financial institution in the past year, young adults (% ages 15-24)","source":{"id":"28","value":"Global Findex ( Global Financial Inclusion database)"},"sourceNote":"Denotes the percentage of respondents who report saving or setting aside any money by using an account at a formal financial institution such as a bank, credit union, microfinance institution, or cooperative in the past 12 months (% ages 15-24). [w1: data are available for wave 1].","sourceOrganization":"Demirguc-Kunt and Klapper, 2012","topics":[{"id":"7","value":"Financial Sector "}]},{"id":"WP11648.3","name":"Saved at a financial institution in the past year, female (% age 15+)","source":{"id":"28","value":"Global Findex ( Global Financial Inclusion database)"},"sourceNote":"Denotes the percentage of respondents who report saving or setting aside any money by using an account at a formal financial institution such as a bank, credit union, microfinance institution, or cooperative in the past 12 months (female, % age 15+). [w1: data are available for wave 1].","sourceOrganization":"Demirguc-Kunt and Klapper, 2012","topics":[{"id":"7","value":"Financial Sector "}]},{"id":"WP11648.2","name":"Saved at a financial institution in the past year, male (% age 15+)","source":{"id":"28","value":"Global Findex ( Global Financial Inclusion database)"},"sourceNote":"Denotes the percentage of respondents who report saving or setting aside any money by using an account at a formal financial institution such as a bank, credit union, microfinance institution, or cooperative in the past 12 months (male, % age 15+). [w1: data are available for wave 1].","sourceOrganization":"Demirguc-Kunt and Klapper, 2012","topics":[{"id":"7","value":"Financial Sector "}]},{"id":"WP11648.10","name":"Saved at a financial institution in the past year, rural (% age 15+)","source":{"id":"28","value":"Global Findex ( Global Financial Inclusion database)"},"sourceNote":"Denotes the percentage of respondents who report saving or setting aside any money by using an account at a formal financial institution such as a bank, credit union, microfinance institution, or cooperative in the past 12 months (rural, % age 15+ ). [w1: data are available for wave 1].","sourceOrganization":"Demirguc-Kunt and Klapper, 2012","topics":[{"id":"7","value":"Financial Sector "}]},{"id":"WP11648.1","name":"Saved at a financial institution in the past year (% age 15+)","source":{"id":"28","value":"Global Findex ( Global Financial Inclusion database)"},"sourceNote":"Denotes the percentage of respondents who report saving or setting aside any money by using an account at a formal financial institution such as a bank, credit union, microfinance institution, or cooperative in the past 12 months (% age 15+). [w1: data are available for wave 1].","sourceOrganization":"Demirguc-Kunt and Klapper, 2012","topics":[{"id":"7","value":"Financial Sector "}]},{"id":"WP11647.9","name":"Saved for emergencies, income, richest 60% (% ages 15+) [w1]","source":{"id":"28","value":"Global Findex ( Global Financial Inclusion database)"},"sourceNote":"Denotes the percentage of respondents who report having saved for emergencies or a time when they expect to have less income in the past 12 months (income, richest 60%, % age 15+). [w1: data are available for wave 1].","sourceOrganization":"Demirguc-Kunt and Klapper, 2012","topics":[{"id":"7","value":"Financial Sector "}]},{"id":"WP11647.8","name":"Saved for emergencies, income, poorest 40% (% ages 15+) [w1]","source":{"id":"28","value":"Global Findex ( Global Financial Inclusion database)"},"sourceNote":"Denotes the percentage of respondents who report having saved for emergencies or a time when they expect to have less income in the past 12 months (income, poorest 40%, % age 15+). [w1: data are available for wave 1].","sourceOrganization":"Demirguc-Kunt and Klapper, 2012","topics":[{"id":"7","value":"Financial Sector "}]},{"id":"WP11647.7","name":"Saved for emergencies, secondary education or more (% ages 15+) [w1]","source":{"id":"28","value":"Global Findex ( Global Financial Inclusion database)"},"sourceNote":"Denotes the percentage of respondents who report having saved for emergencies or a time when they expect to have less income in the past 12 months (secondary education or more, % age 15+). [w1: data are available for wave 1].","sourceOrganization":"Demirguc-Kunt and Klapper, 2012","topics":[{"id":"7","value":"Financial Sector "}]},{"id":"WP11647.6","name":"Saved for emergencies, primary education or less (% ages 15+) [w1]","source":{"id":"28","value":"Global Findex ( Global Financial Inclusion database)"},"sourceNote":"Denotes the percentage of respondents who report having saved for emergencies or a time when they expect to have less income in the past 12 months (primary education or less, % age 15+). [w1: data are available for wave 1].","sourceOrganization":"Demirguc-Kunt and Klapper, 2012","topics":[{"id":"7","value":"Financial Sector "}]},{"id":"WP11647.5","name":"Saved for emergencies, older adults (% ages 25+) [w1]","source":{"id":"28","value":"Global Findex ( Global Financial Inclusion database)"},"sourceNote":"Denotes the percentage of respondents who report having saved for emergencies or a time when they expect to have less income in the past 12 months (% age 25+). [w1: data are available for wave 1].","sourceOrganization":"Demirguc-Kunt and Klapper, 2012","topics":[{"id":"7","value":"Financial Sector "}]},{"id":"WP11647.4","name":"Saved for emergencies, young adults (% ages 15-24) [w1]","source":{"id":"28","value":"Global Findex ( Global Financial Inclusion database)"},"sourceNote":"Denotes the percentage of respondents who report having saved for emergencies or a time when they expect to have less income in the past 12 months (% ages 15-24). [w1: data are available for wave 1].","sourceOrganization":"Demirguc-Kunt and Klapper, 2012","topics":[{"id":"7","value":"Financial Sector "}]},{"id":"WP11647.3","name":"Saved for emergencies, female (% age 15+) [w1]","source":{"id":"28","value":"Global Findex ( Global Financial Inclusion database)"},"sourceNote":"Denotes the percentage of respondents who report having saved for emergencies or a time when they expect to have less income in the past 12 months (female, % age 15+). [w1: data are available for wave 1].","sourceOrganization":"Demirguc-Kunt and Klapper, 2012","topics":[{"id":"7","value":"Financial Sector "}]},{"id":"WP11647.2","name":"Saved for emergencies, male (% age 15+) [w1]","source":{"id":"28","value":"Global Findex ( Global Financial Inclusion database)"},"sourceNote":"Denotes the percentage of respondents who report having saved for emergencies or a time when they expect to have less income in the past 12 months (male, % age 15+). [w1: data are available for wave 1].","sourceOrganization":"Demirguc-Kunt and Klapper, 2012","topics":[{"id":"7","value":"Financial Sector "}]},{"id":"WP11647.10","name":"Saved for emergencies, rural (% age 15+) [w1]","source":{"id":"28","value":"Global Findex ( Global Financial Inclusion database)"},"sourceNote":"Denotes the percentage of respondents who report having saved for emergencies or a time when they expect to have less income in the past 12 months (rural, % age 15+ ). [w1: data are available for wave 1].","sourceOrganization":"Demirguc-Kunt and Klapper, 2012","topics":[{"id":"7","value":"Financial Sector "}]},{"id":"WP11647.1","name":"Saved for emergencies (% age 15+) [w1]","source":{"id":"28","value":"Global Findex ( Global Financial Inclusion database)"},"sourceNote":"Denotes the percentage of respondents who report having saved for emergencies or a time when they expect to have less income in the past 12 months (% age 15+). [w1: data are available for wave 1].","sourceOrganization":"Demirguc-Kunt and Klapper, 2012","topics":[{"id":"7","value":"Financial Sector "}]},{"id":"WP11646.9","name":"Saved for future expenses, income, richest 60% (% ages 15+) [w1]","source":{"id":"28","value":"Global Findex ( Global Financial Inclusion database)"},"sourceNote":"Denotes the percentage of respondents who report saving for expenses in the future such as education, a wedding, or a big purchase in the past 12 months (income, richest 60%, % age 15+). [w1: data are available for wave 1].","sourceOrganization":"Demirguc-Kunt and Klapper, 2012","topics":[{"id":"7","value":"Financial Sector "}]},{"id":"WP11646.8","name":"Saved for future expenses, income, poorest 40% (% ages 15+) [w1]","source":{"id":"28","value":"Global Findex ( Global Financial Inclusion database)"},"sourceNote":"Denotes the percentage of respondents who report saving for expenses in the future such as education, a wedding, or a big purchase in the past 12 months (income, poorest 40%, % age 15+). [w1: data are available for wave 1].","sourceOrganization":"Demirguc-Kunt and Klapper, 2012","topics":[{"id":"7","value":"Financial Sector "}]},{"id":"WP11646.7","name":"Saved for future expenses, secondary education or more (% ages 15+) [w1]","source":{"id":"28","value":"Global Findex ( Global Financial Inclusion database)"},"sourceNote":"Denotes the percentage of respondents who report saving for expenses in the future such as education, a wedding, or a big purchase in the past 12 months (secondary education or more, % age 15+). [w1: data are available for wave 1].","sourceOrganization":"Demirguc-Kunt and Klapper, 2012","topics":[{"id":"7","value":"Financial Sector "}]},{"id":"WP11646.6","name":"Saved for future expenses, primary education or less (% ages 15+) [w1]","source":{"id":"28","value":"Global Findex ( Global Financial Inclusion database)"},"sourceNote":"Denotes the percentage of respondents who report saving for expenses in the future such as education, a wedding, or a big purchase in the past 12 months (primary education or less, % age 15+). [w1: data are available for wave 1].","sourceOrganization":"Demirguc-Kunt and Klapper, 2012","topics":[{"id":"7","value":"Financial Sector "}]},{"id":"WP11646.5","name":"Saved for future expenses, older adults (% ages 25+) [w1]","source":{"id":"28","value":"Global Findex ( Global Financial Inclusion database)"},"sourceNote":"Denotes the percentage of respondents who report saving for expenses in the future such as education, a wedding, or a big purchase in the past 12 months (% age 25+). [w1: data are available for wave 1].","sourceOrganization":"Demirguc-Kunt and Klapper, 2012","topics":[{"id":"7","value":"Financial Sector "}]},{"id":"WP11646.4","name":"Saved for future expenses, young adults (% ages 15-24) [w1]","source":{"id":"28","value":"Global Findex ( Global Financial Inclusion database)"},"sourceNote":"Denotes the percentage of respondents who report saving for expenses in the future such as education, a wedding, or a big purchase in the past 12 months (% ages 15-24). [w1: data are available for wave 1].","sourceOrganization":"Demirguc-Kunt and Klapper, 2012","topics":[{"id":"7","value":"Financial Sector "}]},{"id":"WP11646.3","name":"Saved for future expenses, female (% age 15+) [w1]","source":{"id":"28","value":"Global Findex ( Global Financial Inclusion database)"},"sourceNote":"Denotes the percentage of respondents who report saving for expenses in the future such as education, a wedding, or a big purchase in the past 12 months (female, % age 15+). [w1: data are available for wave 1].","sourceOrganization":"Demirguc-Kunt and Klapper, 2012","topics":[{"id":"7","value":"Financial Sector "}]},{"id":"WP11646.2","name":"Saved for future expenses, male (% age 15+) [w1]","source":{"id":"28","value":"Global Findex ( Global Financial Inclusion database)"},"sourceNote":"Denotes the percentage of respondents who report saving for expenses in the future such as education, a wedding, or a big purchase in the past 12 months (male, % age 15+). [w1: data are available for wave 1].","sourceOrganization":"Demirguc-Kunt and Klapper, 2012","topics":[{"id":"7","value":"Financial Sector "}]}]]