[{"page":25,"pages":324,"per_page":"50","total":16174},[{"id":"BAR.PRM.ICMP.6569.ZS","name":"Barro-Lee: Percentage of population age 65-69 with primary schooling. Total (Incomplete and Completed Primary)","source":{"id":"12","value":"Education Statistics"},"sourceNote":"Percentage of population age 65-69 with primary schooling. Total (Incomplete and Completed Primary)","sourceOrganization":"Robert J. Barro and Jong-Wha Lee: http:\/\/www.barrolee.com\/","topics":[]},{"id":"BAR.PRM.ICMP.6569.FE.ZS","name":"Barro-Lee: Percentage of female population age 65-69 with primary schooling. Total (Incomplete and Completed Primary)","source":{"id":"12","value":"Education Statistics"},"sourceNote":"Percentage of female population age 65-69 with primary schooling. Total (Incomplete and Completed Primary)","sourceOrganization":"Robert J. Barro and Jong-Wha Lee: http:\/\/www.barrolee.com\/","topics":[]},{"id":"BAR.PRM.ICMP.6064.ZS","name":"Barro-Lee: Percentage of population age 60-64 with primary schooling. Total (Incomplete and Completed Primary)","source":{"id":"12","value":"Education Statistics"},"sourceNote":"Percentage of population age 60-64 with primary schooling. Total (Incomplete and Completed Primary)","sourceOrganization":"Robert J. Barro and Jong-Wha Lee: http:\/\/www.barrolee.com\/","topics":[{"id":"4","value":"Education "}]},{"id":"BAR.PRM.ICMP.6064.FE.ZS","name":"Barro-Lee: Percentage of female population age 60-64 with primary schooling. Total (Incomplete and Completed Primary)","source":{"id":"12","value":"Education Statistics"},"sourceNote":"Percentage of female population age 60-64 with primary schooling. Total (Incomplete and Completed Primary)","sourceOrganization":"Robert J. Barro and Jong-Wha Lee: http:\/\/www.barrolee.com\/","topics":[{"id":"4","value":"Education "}]},{"id":"BAR.PRM.ICMP.5559.ZS","name":"Barro-Lee: Percentage of population age 55-59 with primary schooling. Total (Incomplete and Completed Primary)","source":{"id":"12","value":"Education Statistics"},"sourceNote":"Percentage of population age 55-59 with primary schooling. Total (Incomplete and Completed Primary)","sourceOrganization":"Robert J. Barro and Jong-Wha Lee: http:\/\/www.barrolee.com\/","topics":[{"id":"4","value":"Education "}]},{"id":"BAR.PRM.ICMP.5559.FE.ZS","name":"Barro-Lee: Percentage of female population age 55-59 with primary schooling. Total (Incomplete and Completed Primary)","source":{"id":"12","value":"Education Statistics"},"sourceNote":"Percentage of female population age 55-59 with primary schooling. Total (Incomplete and Completed Primary)","sourceOrganization":"Robert J. Barro and Jong-Wha Lee: http:\/\/www.barrolee.com\/","topics":[{"id":"4","value":"Education "}]},{"id":"BAR.PRM.ICMP.5054.ZS","name":"Barro-Lee: Percentage of population age 50-54 with primary schooling. Total (Incomplete and Completed Primary)","source":{"id":"12","value":"Education Statistics"},"sourceNote":"Percentage of population age 50-54 with primary schooling. Total (Incomplete and Completed Primary)","sourceOrganization":"Robert J. Barro and Jong-Wha Lee: http:\/\/www.barrolee.com\/","topics":[{"id":"4","value":"Education "}]},{"id":"BAR.PRM.ICMP.5054.FE.ZS","name":"Barro-Lee: Percentage of female population age 50-54 with primary schooling. Total (Incomplete and Completed Primary)","source":{"id":"12","value":"Education Statistics"},"sourceNote":"Percentage of female population age 50-54 with primary schooling. Total (Incomplete and Completed Primary)","sourceOrganization":"Robert J. Barro and Jong-Wha Lee: http:\/\/www.barrolee.com\/","topics":[{"id":"4","value":"Education "}]},{"id":"BAR.PRM.ICMP.4549.ZS","name":"Barro-Lee: Percentage of population age 45-49 with primary schooling. Total (Incomplete and Completed Primary)","source":{"id":"12","value":"Education Statistics"},"sourceNote":"Percentage of population age 45-49 with primary schooling. Total (Incomplete and Completed Primary)","sourceOrganization":"Robert J. Barro and Jong-Wha Lee: http:\/\/www.barrolee.com\/","topics":[{"id":"4","value":"Education "}]},{"id":"BAR.PRM.ICMP.4549.FE.ZS","name":"Barro-Lee: Percentage of female population age 45-49 with primary schooling. Total (Incomplete and Completed Primary)","source":{"id":"12","value":"Education Statistics"},"sourceNote":"Percentage of female population age 45-49 with primary schooling. Total (Incomplete and Completed Primary)","sourceOrganization":"Robert J. Barro and Jong-Wha Lee: http:\/\/www.barrolee.com\/","topics":[{"id":"4","value":"Education "}]},{"id":"BAR.PRM.ICMP.4044.ZS","name":"Barro-Lee: Percentage of population age 40-44 with primary schooling. Total (Incomplete and Completed Primary)","source":{"id":"12","value":"Education Statistics"},"sourceNote":"Percentage of population age 40-44 with primary schooling. Total (Incomplete and Completed Primary)","sourceOrganization":"Robert J. Barro and Jong-Wha Lee: http:\/\/www.barrolee.com\/","topics":[{"id":"4","value":"Education "}]},{"id":"BAR.PRM.ICMP.4044.FE.ZS","name":"Barro-Lee: Percentage of female population age 40-44 with primary schooling. Total (Incomplete and Completed Primary)","source":{"id":"12","value":"Education Statistics"},"sourceNote":"Percentage of female population age 40-44 with primary schooling. Total (Incomplete and Completed Primary)","sourceOrganization":"Robert J. Barro and Jong-Wha Lee: http:\/\/www.barrolee.com\/","topics":[{"id":"4","value":"Education "}]},{"id":"BAR.PRM.ICMP.3539.ZS","name":"Barro-Lee: Percentage of population age 35-39 with primary schooling. Total (Incomplete and Completed Primary)","source":{"id":"12","value":"Education Statistics"},"sourceNote":"Percentage of population age 35-39 with primary schooling. Total (Incomplete and Completed Primary)","sourceOrganization":"Robert J. Barro and Jong-Wha Lee: http:\/\/www.barrolee.com\/","topics":[{"id":"4","value":"Education "}]},{"id":"BAR.PRM.ICMP.3539.FE.ZS","name":"Barro-Lee: Percentage of female population age 35-39 with primary schooling. Total (Incomplete and Completed Primary)","source":{"id":"12","value":"Education Statistics"},"sourceNote":"Percentage of female population age 35-39 with primary schooling. Total (Incomplete and Completed Primary)","sourceOrganization":"Robert J. Barro and Jong-Wha Lee: http:\/\/www.barrolee.com\/","topics":[{"id":"4","value":"Education "}]},{"id":"BAR.PRM.ICMP.3034.ZS","name":"Barro-Lee: Percentage of population age 30-34 with primary schooling. Total (Incomplete and Completed Primary)","source":{"id":"12","value":"Education Statistics"},"sourceNote":"Percentage of population age 30-34 with primary schooling. Total (Incomplete and Completed Primary)","sourceOrganization":"Robert J. Barro and Jong-Wha Lee: http:\/\/www.barrolee.com\/","topics":[{"id":"4","value":"Education "}]},{"id":"BAR.PRM.ICMP.3034.FE.ZS","name":"Barro-Lee: Percentage of female population age 30-34 with primary schooling. Total (Incomplete and Completed Primary)","source":{"id":"12","value":"Education Statistics"},"sourceNote":"Percentage of female population age 30-34 with primary schooling. Total (Incomplete and Completed Primary)","sourceOrganization":"Robert J. Barro and Jong-Wha Lee: http:\/\/www.barrolee.com\/","topics":[{"id":"4","value":"Education "}]},{"id":"BAR.PRM.ICMP.25UP.ZS","name":"Barro-Lee: Percentage of population age 25+ with primary schooling. Total (Incomplete and Completed Primary)","source":{"id":"12","value":"Education Statistics"},"sourceNote":"Percentage of population age 25+ with primary schooling. Total (Incomplete and Completed Primary)","sourceOrganization":"Robert J. Barro and Jong-Wha Lee: http:\/\/www.barrolee.com\/","topics":[{"id":"4","value":"Education "}]},{"id":"BAR.PRM.ICMP.25UP.FE.ZS","name":"Barro-Lee: Percentage of female population age 25+ with primary schooling. Total (Incomplete and Completed Primary)","source":{"id":"12","value":"Education Statistics"},"sourceNote":"Percentage of female population age 25+ with primary schooling. Total (Incomplete and Completed Primary)","sourceOrganization":"Robert J. Barro and Jong-Wha Lee: http:\/\/www.barrolee.com\/","topics":[{"id":"4","value":"Education "}]},{"id":"BAR.PRM.ICMP.2529.ZS","name":"Barro-Lee: Percentage of population age 25-29 with primary schooling. Total (Incomplete and Completed Primary)","source":{"id":"12","value":"Education Statistics"},"sourceNote":"Percentage of population age 25-29 with primary schooling. Total (Incomplete and Completed Primary)","sourceOrganization":"Robert J. Barro and Jong-Wha Lee: http:\/\/www.barrolee.com\/","topics":[{"id":"4","value":"Education "}]},{"id":"BAR.PRM.ICMP.2529.FE.ZS","name":"Barro-Lee: Percentage of female population age 25-29 with primary schooling. Total (Incomplete and Completed Primary)","source":{"id":"12","value":"Education Statistics"},"sourceNote":"Percentage of female population age 25-29 with primary schooling. Total (Incomplete and Completed Primary)","sourceOrganization":"Robert J. Barro and Jong-Wha Lee: http:\/\/www.barrolee.com\/","topics":[{"id":"4","value":"Education "}]},{"id":"BAR.PRM.ICMP.2024.ZS","name":"Barro-Lee: Percentage of population age 20-24 with primary schooling. Total (Incomplete and Completed Primary)","source":{"id":"12","value":"Education Statistics"},"sourceNote":"Percentage of population age 20-24 with primary schooling. Total (Incomplete and Completed Primary)","sourceOrganization":"Robert J. Barro and Jong-Wha Lee: http:\/\/www.barrolee.com\/","topics":[{"id":"4","value":"Education "}]},{"id":"BAR.PRM.ICMP.2024.FE.ZS","name":"Barro-Lee: Percentage of female population age 20-24 with primary schooling. Total (Incomplete and Completed Primary)","source":{"id":"12","value":"Education Statistics"},"sourceNote":"Percentage of female population age 20-24 with primary schooling. Total (Incomplete and Completed Primary)","sourceOrganization":"Robert J. Barro and Jong-Wha Lee: http:\/\/www.barrolee.com\/","topics":[{"id":"4","value":"Education "}]},{"id":"BAR.PRM.ICMP.15UP.ZS","name":"Barro-Lee: Percentage of population age 15+ with primary schooling. Total (Incomplete and Completed Primary)","source":{"id":"12","value":"Education Statistics"},"sourceNote":"Percentage of population age 15+ with primary schooling. Total (Incomplete and Completed Primary)","sourceOrganization":"Robert J. Barro and Jong-Wha Lee: http:\/\/www.barrolee.com\/","topics":[{"id":"4","value":"Education "}]},{"id":"BAR.PRM.ICMP.15UP.FE.ZS","name":"Barro-Lee: Percentage of female population age 15+ with primary schooling. Total (Incomplete and Completed Primary)","source":{"id":"12","value":"Education Statistics"},"sourceNote":"Percentage of female population age 15+ with primary schooling. Total (Incomplete and Completed Primary)","sourceOrganization":"Robert J. Barro and Jong-Wha Lee: http:\/\/www.barrolee.com\/","topics":[{"id":"4","value":"Education "}]},{"id":"BAR.PRM.ICMP.1519.ZS","name":"Barro-Lee: Percentage of population age 15-19 with primary schooling. Total (Incomplete and Completed Primary)","source":{"id":"12","value":"Education Statistics"},"sourceNote":"Percentage of population age 15-19 with primary schooling. Total (Incomplete and Completed Primary)","sourceOrganization":"Robert J. Barro and Jong-Wha Lee: http:\/\/www.barrolee.com\/","topics":[{"id":"4","value":"Education "}]},{"id":"BAR.PRM.ICMP.1519.FE.ZS","name":"Barro-Lee: Percentage of female population age 15-19 with primary schooling. Total (Incomplete and Completed Primary)","source":{"id":"12","value":"Education Statistics"},"sourceNote":"Percentage of female population age 15-19 with primary schooling. Total (Incomplete and Completed Primary)","sourceOrganization":"Robert J. Barro and Jong-Wha Lee: http:\/\/www.barrolee.com\/","topics":[{"id":"4","value":"Education "}]},{"id":"BAR.PRM.CMPT.75UP.ZS","name":"Barro-Lee: Percentage of population age 75+ with primary schooling. Completed Primary","source":{"id":"12","value":"Education Statistics"},"sourceNote":"Percentage of population age 75+ with primary schooling. Completed Primary","sourceOrganization":"Robert J. Barro and Jong-Wha Lee: http:\/\/www.barrolee.com\/","topics":[]},{"id":"BAR.PRM.CMPT.75UP.FE.ZS","name":"Barro-Lee: Percentage of female population age 75+ with primary schooling. Completed Primary","source":{"id":"12","value":"Education Statistics"},"sourceNote":"Percentage of female population age 75+ with primary schooling. Completed Primary","sourceOrganization":"Robert J. Barro and Jong-Wha Lee: http:\/\/www.barrolee.com\/","topics":[]},{"id":"BAR.PRM.CMPT.7074.ZS","name":"Barro-Lee: Percentage of population age 70-74 with primary schooling. Completed Primary","source":{"id":"12","value":"Education Statistics"},"sourceNote":"Percentage of population age 70-74 with primary schooling. Completed Primary","sourceOrganization":"Robert J. Barro and Jong-Wha Lee: http:\/\/www.barrolee.com\/","topics":[]},{"id":"BAR.PRM.CMPT.7074.FE.ZS","name":"Barro-Lee: Percentage of female population age 70-74 with primary schooling. Completed Primary","source":{"id":"12","value":"Education Statistics"},"sourceNote":"Percentage of female population age 70-74 with primary schooling. Completed Primary","sourceOrganization":"Robert J. Barro and Jong-Wha Lee: http:\/\/www.barrolee.com\/","topics":[]},{"id":"BAR.PRM.CMPT.6569.ZS","name":"Barro-Lee: Percentage of population age 65-69 with primary schooling. Completed Primary","source":{"id":"12","value":"Education Statistics"},"sourceNote":"Percentage of population age 65-69 with primary schooling. Completed Primary","sourceOrganization":"Robert J. Barro and Jong-Wha Lee: http:\/\/www.barrolee.com\/","topics":[]},{"id":"BAR.PRM.CMPT.6569.FE.ZS","name":"Barro-Lee: Percentage of female population age 65-69 with primary schooling. Completed Primary","source":{"id":"12","value":"Education Statistics"},"sourceNote":"Percentage of female population age 65-69 with primary schooling. Completed Primary","sourceOrganization":"Robert J. Barro and Jong-Wha Lee: http:\/\/www.barrolee.com\/","topics":[]},{"id":"BAR.PRM.CMPT.6064.ZS","name":"Barro-Lee: Percentage of population age 60-64 with primary schooling. Completed Primary","source":{"id":"12","value":"Education Statistics"},"sourceNote":"Percentage of population age 60-64 with primary schooling. Completed Primary","sourceOrganization":"Robert J. Barro and Jong-Wha Lee: http:\/\/www.barrolee.com\/","topics":[{"id":"4","value":"Education "}]},{"id":"BAR.PRM.CMPT.6064.FE.ZS","name":"Barro-Lee: Percentage of female population age 60-64 with primary schooling. Completed Primary","source":{"id":"12","value":"Education Statistics"},"sourceNote":"Percentage of female population age 60-64 with primary schooling. Completed Primary","sourceOrganization":"Robert J. Barro and Jong-Wha Lee: http:\/\/www.barrolee.com\/","topics":[{"id":"4","value":"Education "}]},{"id":"BAR.PRM.CMPT.5559.ZS","name":"Barro-Lee: Percentage of population age 55-59 with primary schooling. Completed Primary","source":{"id":"12","value":"Education Statistics"},"sourceNote":"Percentage of population age 55-59 with primary schooling. Completed Primary","sourceOrganization":"Robert J. Barro and Jong-Wha Lee: http:\/\/www.barrolee.com\/","topics":[{"id":"4","value":"Education "}]},{"id":"BAR.PRM.CMPT.5559.FE.ZS","name":"Barro-Lee: Percentage of female population age 55-59 with primary schooling. Completed Primary","source":{"id":"12","value":"Education Statistics"},"sourceNote":"Percentage of female population age 55-59 with primary schooling. Completed Primary","sourceOrganization":"Robert J. Barro and Jong-Wha Lee: http:\/\/www.barrolee.com\/","topics":[{"id":"4","value":"Education "}]},{"id":"BAR.PRM.CMPT.5054.ZS","name":"Barro-Lee: Percentage of population age 50-54 with primary schooling. Completed Primary","source":{"id":"12","value":"Education Statistics"},"sourceNote":"Percentage of population age 50-54 with primary schooling. Completed Primary","sourceOrganization":"Robert J. Barro and Jong-Wha Lee: http:\/\/www.barrolee.com\/","topics":[{"id":"4","value":"Education "}]},{"id":"BAR.PRM.CMPT.5054.FE.ZS","name":"Barro-Lee: Percentage of female population age 50-54 with primary schooling. Completed Primary","source":{"id":"12","value":"Education Statistics"},"sourceNote":"Percentage of female population age 50-54 with primary schooling. Completed Primary","sourceOrganization":"Robert J. Barro and Jong-Wha Lee: http:\/\/www.barrolee.com\/","topics":[{"id":"4","value":"Education "}]},{"id":"BAR.PRM.CMPT.4549.ZS","name":"Barro-Lee: Percentage of population age 45-49 with primary schooling. Completed Primary","source":{"id":"12","value":"Education Statistics"},"sourceNote":"Percentage of population age 45-49 with primary schooling. Completed Primary","sourceOrganization":"Robert J. Barro and Jong-Wha Lee: http:\/\/www.barrolee.com\/","topics":[{"id":"4","value":"Education "}]},{"id":"BAR.PRM.CMPT.4549.FE.ZS","name":"Barro-Lee: Percentage of female population age 45-49 with primary schooling. Completed Primary","source":{"id":"12","value":"Education Statistics"},"sourceNote":"Percentage of female population age 45-49 with primary schooling. Completed Primary","sourceOrganization":"Robert J. Barro and Jong-Wha Lee: http:\/\/www.barrolee.com\/","topics":[{"id":"4","value":"Education "}]},{"id":"BAR.PRM.CMPT.4044.ZS","name":"Barro-Lee: Percentage of population age 40-44 with primary schooling. Completed Primary","source":{"id":"12","value":"Education Statistics"},"sourceNote":"Percentage of population age 40-44 with primary schooling. Completed Primary","sourceOrganization":"Robert J. Barro and Jong-Wha Lee: http:\/\/www.barrolee.com\/","topics":[{"id":"4","value":"Education "}]},{"id":"BAR.PRM.CMPT.4044.FE.ZS","name":"Barro-Lee: Percentage of female population age 40-44 with primary schooling. Completed Primary","source":{"id":"12","value":"Education Statistics"},"sourceNote":"Percentage of female population age 40-44 with primary schooling. Completed Primary","sourceOrganization":"Robert J. Barro and Jong-Wha Lee: http:\/\/www.barrolee.com\/","topics":[{"id":"4","value":"Education "}]},{"id":"BAR.PRM.CMPT.3539.ZS","name":"Barro-Lee: Percentage of population age 35-39 with primary schooling. Completed Primary","source":{"id":"12","value":"Education Statistics"},"sourceNote":"Percentage of population age 35-39 with primary schooling. Completed Primary","sourceOrganization":"Robert J. Barro and Jong-Wha Lee: http:\/\/www.barrolee.com\/","topics":[{"id":"4","value":"Education "}]},{"id":"BAR.PRM.CMPT.3539.FE.ZS","name":"Barro-Lee: Percentage of female population age 35-39 with primary schooling. Completed Primary","source":{"id":"12","value":"Education Statistics"},"sourceNote":"Percentage of female population age 35-39 with primary schooling. Completed Primary","sourceOrganization":"Robert J. Barro and Jong-Wha Lee: http:\/\/www.barrolee.com\/","topics":[{"id":"4","value":"Education "}]},{"id":"BAR.PRM.CMPT.3034.ZS","name":"Barro-Lee: Percentage of population age 30-34 with primary schooling. Completed Primary","source":{"id":"12","value":"Education Statistics"},"sourceNote":"Percentage of population age 30-34 with primary schooling. Completed Primary","sourceOrganization":"Robert J. Barro and Jong-Wha Lee: http:\/\/www.barrolee.com\/","topics":[{"id":"4","value":"Education "}]},{"id":"BAR.PRM.CMPT.3034.FE.ZS","name":"Barro-Lee: Percentage of female population age 30-34 with primary schooling. Completed Primary","source":{"id":"12","value":"Education Statistics"},"sourceNote":"Percentage of female population age 30-34 with primary schooling. Completed Primary","sourceOrganization":"Robert J. Barro and Jong-Wha Lee: http:\/\/www.barrolee.com\/","topics":[{"id":"4","value":"Education "}]},{"id":"BAR.PRM.CMPT.25UP.ZS","name":"Barro-Lee: Percentage of population age 25+ with primary schooling. Completed Primary","source":{"id":"12","value":"Education Statistics"},"sourceNote":"Percentage of population age 25+ with primary schooling. Completed Primary","sourceOrganization":"Robert J. Barro and Jong-Wha Lee: http:\/\/www.barrolee.com\/","topics":[{"id":"4","value":"Education "}]},{"id":"BAR.PRM.CMPT.25UP.FE.ZS","name":"Barro-Lee: Percentage of female population age 25+ with primary schooling. Completed Primary","source":{"id":"12","value":"Education Statistics"},"sourceNote":"Percentage of female population age 25+ with primary schooling. Completed Primary","sourceOrganization":"Robert J. Barro and Jong-Wha Lee: http:\/\/www.barrolee.com\/","topics":[{"id":"4","value":"Education "}]},{"id":"BAR.PRM.CMPT.2529.ZS","name":"Barro-Lee: Percentage of population age 25-29 with primary schooling. Completed Primary","source":{"id":"12","value":"Education Statistics"},"sourceNote":"Percentage of population age 25-29 with primary schooling. Completed Primary","sourceOrganization":"Robert J. Barro and Jong-Wha Lee: http:\/\/www.barrolee.com\/","topics":[{"id":"4","value":"Education "}]},{"id":"BAR.PRM.CMPT.2529.FE.ZS","name":"Barro-Lee: Percentage of female population age 25-29 with primary schooling. Completed Primary","source":{"id":"12","value":"Education Statistics"},"sourceNote":"Percentage of female population age 25-29 with primary schooling. Completed Primary","sourceOrganization":"Robert J. Barro and Jong-Wha Lee: http:\/\/www.barrolee.com\/","topics":[{"id":"4","value":"Education "}]}]]