[{"page":319,"pages":324,"per_page":"50","total":16174},[{"id":"WP14940.2","name":"Paid utility bills in the past year, male (% age 15+) [w2]","source":{"id":"28","value":"Global Findex ( Global Financial Inclusion database)"},"sourceNote":"Denotes the percentage of respondents who report personally making regular payments in the past 12 months for water, electricity, or trash collection (male, % age 15+). [w2: data are available for wave 2].","sourceOrganization":"Demirguc-Kunt et al., 2015","topics":[{"id":"7","value":"Financial Sector "}]},{"id":"WP14940.10","name":"Paid utility bills in the past year, rural (% age 15+) [w2]","source":{"id":"28","value":"Global Findex ( Global Financial Inclusion database)"},"sourceNote":"Denotes the percentage of respondents who report personally making regular payments in the past 12 months for water, electricity, or trash collection (rural, % age 15+). [w2: data are available for wave 2].","sourceOrganization":"Demirguc-Kunt et al., 2015","topics":[{"id":"7","value":"Financial Sector "}]},{"id":"WP14940.1","name":"Paid utility bills in the past year (% age 15+) [w2]","source":{"id":"28","value":"Global Findex ( Global Financial Inclusion database)"},"sourceNote":"Denotes the percentage of respondents who report personally making regular payments in the past 12 months for water, electricity, or trash collection (% age 15+). [w2: data are available for wave 2].","sourceOrganization":"Demirguc-Kunt et al., 2015","topics":[{"id":"7","value":"Financial Sector "}]},{"id":"WP14939.1","name":"Received domestic remittances: through a money transfer service (% recipients, age 15+) [w2]","source":{"id":"28","value":"Global Findex ( Global Financial Inclusion database)"},"sourceNote":"Denotes, among respondents reporting personally receiving any money in the past 12 months from a relative or friend living in a different area of their country, the percentage who received it through a money transfer operator (% recipients, age 15+). [w2: data are available for wave 2].","sourceOrganization":"Demirguc-Kunt et al., 2015","topics":[{"id":"7","value":"Financial Sector "}]},{"id":"WP14938.1","name":"Received domestic remittances: through a mobile phone (% recipients, age 15+) [w2]","source":{"id":"28","value":"Global Findex ( Global Financial Inclusion database)"},"sourceNote":"Denotes, among respondents reporting personally receiving any money in the past 12 months from a relative or friend living in a different area of their country, the percentage who received it through a mobile phone, using their own account or someone else's (% recipients, age 15+). [w2: data are available for wave 2].","sourceOrganization":"Demirguc-Kunt et al., 2015","topics":[{"id":"7","value":"Financial Sector "}]},{"id":"WP14937.1","name":"Received domestic remittances: through a financial institution (% recipients, age 15+) [w2]","source":{"id":"28","value":"Global Findex ( Global Financial Inclusion database)"},"sourceNote":"Denotes, among respondents reporting personally receiving any money in the past 12 months from a relative or friend living in a different area of their country, the percentage who received it through a bank or another type of financial institution. This includes at a branch, at an ATM, or through direct deposit into an account, using their own account or someone else's (% recipients, age 15+). [w2: data are available for wave 2].","sourceOrganization":"Demirguc-Kunt et al., 2015","topics":[{"id":"7","value":"Financial Sector "}]},{"id":"WP14936.1","name":"Received domestic remittances: in person and in cash (% recipients, age 15+) [w2]","source":{"id":"28","value":"Global Findex ( Global Financial Inclusion database)"},"sourceNote":"Denotes, among respondents reporting personally receiving any money in the past 12 months from a relative or friend living in a different area of their country, the percentage who received it by having cash handed to them by a relative or friend or by someone else they know (% recipients, age 15+). [w2: data are available for wave 2].","sourceOrganization":"Demirguc-Kunt et al., 2015","topics":[{"id":"7","value":"Financial Sector "}]},{"id":"WP14934.9","name":"Received domestic remittances in the past year, income, richest 60% (% ages 15+) [w2]","source":{"id":"28","value":"Global Findex ( Global Financial Inclusion database)"},"sourceNote":"Denotes the percentage of respondents who report personally receiving any money in the past 12 months from a relative or friend living in a different area of their country. This includes any money received in person (income, richest 60%, % age 15+). [w2: data are available for wave 2].","sourceOrganization":"Demirguc-Kunt et al., 2015","topics":[{"id":"7","value":"Financial Sector "}]},{"id":"WP14934.8","name":"Received domestic remittances in the past year, income, poorest 40% (% ages 15+) [w2]","source":{"id":"28","value":"Global Findex ( Global Financial Inclusion database)"},"sourceNote":"Denotes the percentage of respondents who report personally receiving any money in the past 12 months from a relative or friend living in a different area of their country. This includes any money received in person (income, poorest 40%, % age 15+). [w2: data are available for wave 2].","sourceOrganization":"Demirguc-Kunt et al., 2015","topics":[{"id":"7","value":"Financial Sector "}]},{"id":"WP14934.7","name":"Received domestic remittances in the past year, secondary education or more (% ages 15+) [w2]","source":{"id":"28","value":"Global Findex ( Global Financial Inclusion database)"},"sourceNote":"Denotes the percentage of respondents who report personally receiving any money in the past 12 months from a relative or friend living in a different area of their country. This includes any money received in person (secondary education or more, % age 15+). [w2: data are available for wave 2].","sourceOrganization":"Demirguc-Kunt et al., 2015","topics":[{"id":"7","value":"Financial Sector "}]},{"id":"WP14934.6","name":"Received domestic remittances in the past year, primary education or less (% ages 15+) [w2]","source":{"id":"28","value":"Global Findex ( Global Financial Inclusion database)"},"sourceNote":"Denotes the percentage of respondents who report personally receiving any money in the past 12 months from a relative or friend living in a different area of their country. This includes any money received in person (primary education or less, % age 15+). [w2: data are available for wave 2].","sourceOrganization":"Demirguc-Kunt et al., 2015","topics":[{"id":"7","value":"Financial Sector "}]},{"id":"WP14934.5","name":"Received domestic remittances in the past year, older adults (% ages 25+) [w2]","source":{"id":"28","value":"Global Findex ( Global Financial Inclusion database)"},"sourceNote":"Denotes the percentage of respondents who report personally receiving any money in the past 12 months from a relative or friend living in a different area of their country. This includes any money received in person (% age 25+). [w2: data are available for wave 2].","sourceOrganization":"Demirguc-Kunt et al., 2015","topics":[{"id":"7","value":"Financial Sector "}]},{"id":"WP14934.4","name":"Received domestic remittances in the past year, young adults (% ages 15-24) [w2]","source":{"id":"28","value":"Global Findex ( Global Financial Inclusion database)"},"sourceNote":"Denotes the percentage of respondents who report personally receiving any money in the past 12 months from a relative or friend living in a different area of their country. This includes any money received in person (% ages 15-24). [w2: data are available for wave 2].","sourceOrganization":"Demirguc-Kunt et al., 2015","topics":[{"id":"7","value":"Financial Sector "}]},{"id":"WP14934.3","name":"Received domestic remittances in the past year, female (% age 15+) [w2]","source":{"id":"28","value":"Global Findex ( Global Financial Inclusion database)"},"sourceNote":"Denotes the percentage of respondents who report personally receiving any money in the past 12 months from a relative or friend living in a different area of their country. This includes any money received in person (female, % age 15+). [w2: data are available for wave 2].","sourceOrganization":"Demirguc-Kunt et al., 2015","topics":[{"id":"7","value":"Financial Sector "}]},{"id":"WP14934.2","name":"Received domestic remittances in the past year, male (% age 15+) [w2]","source":{"id":"28","value":"Global Findex ( Global Financial Inclusion database)"},"sourceNote":"Denotes the percentage of respondents who report personally receiving any money in the past 12 months from a relative or friend living in a different area of their country. This includes any money received in person (male, % age 15+). [w2: data are available for wave 2].","sourceOrganization":"Demirguc-Kunt et al., 2015","topics":[{"id":"7","value":"Financial Sector "}]},{"id":"WP14934.10","name":"Received domestic remittances in the past year, rural (% age 15+) [w2]","source":{"id":"28","value":"Global Findex ( Global Financial Inclusion database)"},"sourceNote":"Denotes the percentage of respondents who report personally receiving any money in the past 12 months from a relative or friend living in a different area of their country. This includes any money received in person (rural, % age 15+). [w2: data are available for wave 2].","sourceOrganization":"Demirguc-Kunt et al., 2015","topics":[{"id":"7","value":"Financial Sector "}]},{"id":"WP14934.1","name":"Received domestic remittances in the past year (% age 15+) [w2]","source":{"id":"28","value":"Global Findex ( Global Financial Inclusion database)"},"sourceNote":"Denotes the percentage of respondents who report personally receiving any money in the past 12 months from a relative or friend living in a different area of their country. This includes any money received in person (% age 15+). [w2: data are available for wave 2].","sourceOrganization":"Demirguc-Kunt et al., 2015","topics":[{"id":"7","value":"Financial Sector "}]},{"id":"WP14928.9","name":"Sent domestic remittances in the past year, income, richest 60% (% ages 15+) [w2]","source":{"id":"28","value":"Global Findex ( Global Financial Inclusion database)"},"sourceNote":"Denotes the percentage of respondents who report personally giving or sending any of their money in the past 12 months to a relative or friend living in a different area of their country. This can be money they brought themselves or sent in some other way (income, richest 60%, % age 15+). [w2: data are available for wave 2].","sourceOrganization":"Demirguc-Kunt et al., 2015","topics":[{"id":"7","value":"Financial Sector "}]},{"id":"WP14928.8","name":"Sent domestic remittances in the past year, income, poorest 40% (% ages 15+) [w2]","source":{"id":"28","value":"Global Findex ( Global Financial Inclusion database)"},"sourceNote":"Denotes the percentage of respondents who report personally giving or sending any of their money in the past 12 months to a relative or friend living in a different area of their country. This can be money they brought themselves or sent in some other way (income, poorest 40%, % age 15+). [w2: data are available for wave 2].","sourceOrganization":"Demirguc-Kunt et al., 2015","topics":[{"id":"7","value":"Financial Sector "}]},{"id":"WP14928.7","name":"Sent domestic remittances in the past year, secondary education or more (% ages 15+) [w2]","source":{"id":"28","value":"Global Findex ( Global Financial Inclusion database)"},"sourceNote":"Denotes the percentage of respondents who report personally giving or sending any of their money in the past 12 months to a relative or friend living in a different area of their country. This can be money they brought themselves or sent in some other way (secondary education or more, % age 15+). [w2: data are available for wave 2].","sourceOrganization":"Demirguc-Kunt et al., 2015","topics":[{"id":"7","value":"Financial Sector "}]},{"id":"WP14928.6","name":"Sent domestic remittances in the past year, primary education or less (% ages 15+) [w2]","source":{"id":"28","value":"Global Findex ( Global Financial Inclusion database)"},"sourceNote":"Denotes the percentage of respondents who report personally giving or sending any of their money in the past 12 months to a relative or friend living in a different area of their country. This can be money they brought themselves or sent in some other way (primary education or less, % age 15+). [w2: data are available for wave 2].","sourceOrganization":"Demirguc-Kunt et al., 2015","topics":[{"id":"7","value":"Financial Sector "}]},{"id":"WP14928.5","name":"Sent domestic remittances in the past year, older adults (% ages 25+) [w2]","source":{"id":"28","value":"Global Findex ( Global Financial Inclusion database)"},"sourceNote":"Denotes the percentage of respondents who report personally giving or sending any of their money in the past 12 months to a relative or friend living in a different area of their country. This can be money they brought themselves or sent in some other way (% age 25+). [w2: data are available for wave 2].","sourceOrganization":"Demirguc-Kunt et al., 2015","topics":[{"id":"7","value":"Financial Sector "}]},{"id":"WP14928.4","name":"Sent domestic remittances in the past year, young adults (% ages 15-24) [w2]","source":{"id":"28","value":"Global Findex ( Global Financial Inclusion database)"},"sourceNote":"Denotes the percentage of respondents who report personally giving or sending any of their money in the past 12 months to a relative or friend living in a different area of their country. This can be money they brought themselves or sent in some other way (% ages 15-24). [w2: data are available for wave 2].","sourceOrganization":"Demirguc-Kunt et al., 2015","topics":[{"id":"7","value":"Financial Sector "}]},{"id":"WP14928.3","name":"Sent domestic remittances in the past year, female (% age 15+) [w2]","source":{"id":"28","value":"Global Findex ( Global Financial Inclusion database)"},"sourceNote":"Denotes the percentage of respondents who report personally giving or sending any of their money in the past 12 months to a relative or friend living in a different area of their country. This can be money they brought themselves or sent in some other way (female, % age 15+). [w2: data are available for wave 2].","sourceOrganization":"Demirguc-Kunt et al., 2015","topics":[{"id":"7","value":"Financial Sector "}]},{"id":"WP14928.2","name":"Sent domestic remittances in the past year, male (% age 15+) [w2]","source":{"id":"28","value":"Global Findex ( Global Financial Inclusion database)"},"sourceNote":"Denotes the percentage of respondents who report personally giving or sending any of their money in the past 12 months to a relative or friend living in a different area of their country. This can be money they brought themselves or sent in some other way (male, % age 15+). [w2: data are available for wave 2].","sourceOrganization":"Demirguc-Kunt et al., 2015","topics":[{"id":"7","value":"Financial Sector "}]},{"id":"WP14928.10","name":"Sent domestic remittances in the past year, rural (% age 15+) [w2]","source":{"id":"28","value":"Global Findex ( Global Financial Inclusion database)"},"sourceNote":"Denotes the percentage of respondents who report personally giving or sending any of their money in the past 12 months to a relative or friend living in a different area of their country. This can be money they brought themselves or sent in some other way (rural, % age 15+). [w2: data are available for wave 2].","sourceOrganization":"Demirguc-Kunt et al., 2015","topics":[{"id":"7","value":"Financial Sector "}]},{"id":"WP14928.1","name":"Sent domestic remittances in the past year (% age 15+) [w2]","source":{"id":"28","value":"Global Findex ( Global Financial Inclusion database)"},"sourceNote":"Denotes the percentage of respondents who report personally giving or sending any of their money in the past 12 months to a relative or friend living in a different area of their country. This can be money they brought themselves or sent in some other way (% age 15+). [w2: data are available for wave 2].","sourceOrganization":"Demirguc-Kunt et al., 2015","topics":[{"id":"7","value":"Financial Sector "}]},{"id":"WP14927.6.1","name":"Main source of emergency funds: other (% able to raise funds, age 15+) [w2]","source":{"id":"28","value":"Global Findex ( Global Financial Inclusion database)"},"sourceNote":"Denotes, among respondents reporting that in case of an emergency it is very possible, somewhat possible, or not very possible for them to come up with 1\/20 of GNI per capita in local currency, the percentage who choose some other source as their main source of this money (% able to raise funds, age 15+). [w2: data are available for wave 2].","sourceOrganization":"Demirguc-Kunt et al., 2015","topics":[{"id":"7","value":"Financial Sector "}]},{"id":"WP14927.5.1","name":"Main source of emergency funds: private informal lender (% able to raise funds, age 15+) [w2]","source":{"id":"28","value":"Global Findex ( Global Financial Inclusion database)"},"sourceNote":"Denotes, among respondents reporting that in case of an emergency it is very possible, somewhat possible, or not very possible for them to come up with 1\/20 of GNI per capita in local currency, the percentage who choose a private informal lender as their main source of this money (% able to raise funds, age 15+). [w2: data are available for wave 2].","sourceOrganization":"Demirguc-Kunt et al., 2015","topics":[{"id":"7","value":"Financial Sector "}]},{"id":"WP14927.4.1","name":"Main source of emergency funds: financial institution or credit card (% able to raise funds, age 15+) [w2]","source":{"id":"28","value":"Global Findex ( Global Financial Inclusion database)"},"sourceNote":"Denotes, among respondents reporting that in case of an emergency it is very possible, somewhat possible, or not very possible for them to come up with 1\/20 of GNI per capita in local currency, the percentage who choose a credit card or borrowing from a bank or another type of financial institution as their main source of this money (% able to raise funds, age 15+). [w2: data are available for wave 2].","sourceOrganization":"Demirguc-Kunt et al., 2015","topics":[{"id":"7","value":"Financial Sector "}]},{"id":"WP14927.3.1","name":"Main source of emergency funds: work or loan from employer (% able to raise funds, age 15+) [w2]","source":{"id":"28","value":"Global Findex ( Global Financial Inclusion database)"},"sourceNote":"Denotes, among respondents reporting that in case of an emergency it is very possible, somewhat possible, or not very possible for them to come up with 1\/20 of GNI per capita in local currency, the percentage who choose money from working or a loan from an employer as their main source of this money (% able to raise funds, age 15+). [w2: data are available for wave 2].","sourceOrganization":"Demirguc-Kunt et al., 2015","topics":[{"id":"7","value":"Financial Sector "}]},{"id":"WP14927.2.1","name":"Main source of emergency funds: family or friends (% able to raise funds, age 15+) [w2]","source":{"id":"28","value":"Global Findex ( Global Financial Inclusion database)"},"sourceNote":"Denotes, among respondents reporting that in case of an emergency it is very possible, somewhat possible, or not very possible for them to come up with 1\/20 of GNI per capita in local currency, the percentage who choose family, relatives, or friends as their main source of this money (% able to raise funds, age 15+). [w2: data are available for wave 2].","sourceOrganization":"Demirguc-Kunt et al., 2015","topics":[{"id":"7","value":"Financial Sector "}]},{"id":"WP14927.1.1","name":"Main source of emergency funds: savings (% able to raise funds, age 15+) [w2]","source":{"id":"28","value":"Global Findex ( Global Financial Inclusion database)"},"sourceNote":"Denotes, among respondents reporting that in case of an emergency it is very possible, somewhat possible, or not very possible for them to come up with 1\/20 of GNI per capita in local currency, the percentage who choose savings as their main source of this money (% able to raise funds, age 15+). [w2: data are available for wave 2].","sourceOrganization":"Demirguc-Kunt et al., 2015","topics":[{"id":"7","value":"Financial Sector "}]},{"id":"WP14926.4.9","name":"Coming up with emergency funds: not at all possible, income, richest 60% (% ages 15+) [w2]","source":{"id":"28","value":"Global Findex ( Global Financial Inclusion database)"},"sourceNote":"Denotes the percentage of respondents who report that in case of an emergency it is not at all possible for them to come up with 1\/20 of GNI per capita in local currency within the next month (income, richest 60%, % age 15+). [w2: data are available for wave 2].","sourceOrganization":"Demirguc-Kunt et al., 2015","topics":[{"id":"7","value":"Financial Sector "}]},{"id":"WP14926.4.8","name":"Coming up with emergency funds: not at all possible, income, poorest 40% (% ages 15+) [w2]","source":{"id":"28","value":"Global Findex ( Global Financial Inclusion database)"},"sourceNote":"Denotes the percentage of respondents who report that in case of an emergency it is not at all possible for them to come up with 1\/20 of GNI per capita in local currency within the next month (income, poorest 40%, % age 15+). [w2: data are available for wave 2].","sourceOrganization":"Demirguc-Kunt et al., 2015","topics":[{"id":"7","value":"Financial Sector "}]},{"id":"WP14926.4.7","name":"Coming up with emergency funds: not at all possible, secondary education or more (% ages 15+) [w2]","source":{"id":"28","value":"Global Findex ( Global Financial Inclusion database)"},"sourceNote":"Denotes the percentage of respondents who report that in case of an emergency it is not at all possible for them to come up with 1\/20 of GNI per capita in local currency within the next month (secondary education or more, % age 15+). [w2: data are available for wave 2].","sourceOrganization":"Demirguc-Kunt et al., 2015","topics":[{"id":"7","value":"Financial Sector "}]},{"id":"WP14926.4.6","name":"Coming up with emergency funds: not at all possible, primary education or less (% ages 15+) [w2]","source":{"id":"28","value":"Global Findex ( Global Financial Inclusion database)"},"sourceNote":"Denotes the percentage of respondents who report that in case of an emergency it is not at all possible for them to come up with 1\/20 of GNI per capita in local currency within the next month (primary education or less, % age 15+). [w2: data are available for wave 2].","sourceOrganization":"Demirguc-Kunt et al., 2015","topics":[{"id":"7","value":"Financial Sector "}]},{"id":"WP14926.4.5","name":"Coming up with emergency funds: not at all possible, older adults (% ages 25+) [w2]","source":{"id":"28","value":"Global Findex ( Global Financial Inclusion database)"},"sourceNote":"Denotes the percentage of respondents who report that in case of an emergency it is not at all possible for them to come up with 1\/20 of GNI per capita in local currency within the next month (% age 25+). [w2: data are available for wave 2].","sourceOrganization":"Demirguc-Kunt et al., 2015","topics":[{"id":"7","value":"Financial Sector "}]},{"id":"WP14926.4.4","name":"Coming up with emergency funds: not at all possible, young adults (% ages 15-24) [w2]","source":{"id":"28","value":"Global Findex ( Global Financial Inclusion database)"},"sourceNote":"Denotes the percentage of respondents who report that in case of an emergency it is not at all possible for them to come up with 1\/20 of GNI per capita in local currency within the next month (% ages 15-24). [w2: data are available for wave 2].","sourceOrganization":"Demirguc-Kunt et al., 2015","topics":[{"id":"7","value":"Financial Sector "}]},{"id":"WP14926.4.3","name":"Coming up with emergency funds: not at all possible, female (% age 15+) [w2]","source":{"id":"28","value":"Global Findex ( Global Financial Inclusion database)"},"sourceNote":"Denotes the percentage of respondents who report that in case of an emergency it is not at all possible for them to come up with 1\/20 of GNI per capita in local currency within the next month (female, % age 15+). [w2: data are available for wave 2].","sourceOrganization":"Demirguc-Kunt et al., 2015","topics":[{"id":"7","value":"Financial Sector "}]},{"id":"WP14926.4.2","name":"Coming up with emergency funds: not at all possible, male (% age 15+) [w2]","source":{"id":"28","value":"Global Findex ( Global Financial Inclusion database)"},"sourceNote":"Denotes the percentage of respondents who report that in case of an emergency it is not at all possible for them to come up with 1\/20 of GNI per capita in local currency within the next month (male, % age 15+). [w2: data are available for wave 2].","sourceOrganization":"Demirguc-Kunt et al., 2015","topics":[{"id":"7","value":"Financial Sector "}]},{"id":"WP14926.4.10","name":"Coming up with emergency funds: not at all possible, rural (% age 15+) [w2]","source":{"id":"28","value":"Global Findex ( Global Financial Inclusion database)"},"sourceNote":"Denotes the percentage of respondents who report that in case of an emergency it is not at all possible for them to come up with 1\/20 of GNI per capita in local currency within the next month (rural, % age 15+). [w2: data are available for wave 2].","sourceOrganization":"Demirguc-Kunt et al., 2015","topics":[{"id":"7","value":"Financial Sector "}]},{"id":"WP14926.4.1","name":"Coming up with emergency funds: not at all possible (% age 15+) [w2]","source":{"id":"28","value":"Global Findex ( Global Financial Inclusion database)"},"sourceNote":"Denotes the percentage of respondents who report that in case of an emergency it is not at all possible for them to come up with 1\/20 of GNI per capita in local currency within the next month (% age 15+). [w2: data are available for wave 2].","sourceOrganization":"Demirguc-Kunt et al., 2015","topics":[{"id":"7","value":"Financial Sector "}]},{"id":"WP14926.3.9","name":"Coming up with emergency funds: not very possible, income, richest 60% (% ages 15+) [w2]","source":{"id":"28","value":"Global Findex ( Global Financial Inclusion database)"},"sourceNote":"Denotes the percentage of respondents who report that in case of an emergency it is not very possible for them to come up with 1\/20 of GNI per capita in local currency within the next month (income, richest 60%, % age 15+). [w2: data are available for wave 2].","sourceOrganization":"Demirguc-Kunt et al., 2015","topics":[{"id":"7","value":"Financial Sector "}]},{"id":"WP14926.3.8","name":"Coming up with emergency funds: not very possible, income, poorest 40% (% ages 15+) [w2]","source":{"id":"28","value":"Global Findex ( Global Financial Inclusion database)"},"sourceNote":"Denotes the percentage of respondents who report that in case of an emergency it is not very possible for them to come up with 1\/20 of GNI per capita in local currency within the next month (income, poorest 40%, % age 15+). [w2: data are available for wave 2].","sourceOrganization":"Demirguc-Kunt et al., 2015","topics":[{"id":"7","value":"Financial Sector "}]},{"id":"WP14926.3.7","name":"Coming up with emergency funds: not very possible, secondary education or more (% ages 15+) [w2]","source":{"id":"28","value":"Global Findex ( Global Financial Inclusion database)"},"sourceNote":"Denotes the percentage of respondents who report that in case of an emergency it is not very possible for them to come up with 1\/20 of GNI per capita in local currency within the next month (secondary education or more, % age 15+). [w2: data are available for wave 2].","sourceOrganization":"Demirguc-Kunt et al., 2015","topics":[{"id":"7","value":"Financial Sector "}]},{"id":"WP14926.3.6","name":"Coming up with emergency funds: not very possible, primary education or less (% ages 15+) [w2]","source":{"id":"28","value":"Global Findex ( Global Financial Inclusion database)"},"sourceNote":"Denotes the percentage of respondents who report that in case of an emergency it is not very possible for them to come up with 1\/20 of GNI per capita in local currency within the next month (primary education or less, % age 15+). [w2: data are available for wave 2].","sourceOrganization":"Demirguc-Kunt et al., 2015","topics":[{"id":"7","value":"Financial Sector "}]},{"id":"WP14926.3.5","name":"Coming up with emergency funds: not very possible, older adults (% ages 25+) [w2]","source":{"id":"28","value":"Global Findex ( Global Financial Inclusion database)"},"sourceNote":"Denotes the percentage of respondents who report that in case of an emergency it is not very possible for them to come up with 1\/20 of GNI per capita in local currency within the next month (% age 25+). [w2: data are available for wave 2].","sourceOrganization":"Demirguc-Kunt et al., 2015","topics":[{"id":"7","value":"Financial Sector "}]},{"id":"WP14926.3.4","name":"Coming up with emergency funds: not very possible, young adults (% ages 15-24) [w2]","source":{"id":"28","value":"Global Findex ( Global Financial Inclusion database)"},"sourceNote":"Denotes the percentage of respondents who report that in case of an emergency it is not very possible for them to come up with 1\/20 of GNI per capita in local currency within the next month (% ages 15-24). [w2: data are available for wave 2].","sourceOrganization":"Demirguc-Kunt et al., 2015","topics":[{"id":"7","value":"Financial Sector "}]},{"id":"WP14926.3.3","name":"Coming up with emergency funds: not very possible, female (% age 15+) [w2]","source":{"id":"28","value":"Global Findex ( Global Financial Inclusion database)"},"sourceNote":"Denotes the percentage of respondents who report that in case of an emergency it is not very possible for them to come up with 1\/20 of GNI per capita in local currency within the next month (female, % age 15+). [w2: data are available for wave 2].","sourceOrganization":"Demirguc-Kunt et al., 2015","topics":[{"id":"7","value":"Financial Sector "}]}]]