[{"page":71,"pages":324,"per_page":"50","total":16174},[{"id":"DT.DOD.DSTL.CD.CB.AR.EA.US","name":"Ext. Assets in Debt Instruments, Deposit-Taking Corp., exc. CB, Short-term, Loans, USD","source":{"id":"22","value":"Quarterly External Debt Statistics\/SDDS (New)"},"sourceNote":"","sourceOrganization":"","topics":[]},{"id":"DT.DOD.DSTL.CD.CB.AR.BE.US","name":"Gross Ext. Debt Pos., Deposit-Taking Corp., exc. CB, Short-term, Loans, Beginning of period, USD","source":{"id":"22","value":"Quarterly External Debt Statistics\/SDDS (New)"},"sourceNote":"","sourceOrganization":"","topics":[]},{"id":"DT.DOD.DSTC.ZS","name":"Short-term debt (% of total external debt)","source":{"id":"2","value":"World Development Indicators"},"sourceNote":"Short-term debt includes all debt having an original maturity of one year or less and interest in arrears on long-term debt. Total external debt is debt owed to nonresidents repayable in currency, goods, or services. Total external debt is the sum of public, publicly guaranteed, and private nonguaranteed long-term debt, use of IMF credit, and short-term debt.","sourceOrganization":"World Bank, International Debt Statistics.","topics":[{"id":"20","value":"External Debt"}]},{"id":"DT.DOD.DSTC.XP.ZS","name":"Short-term debt (% of exports of goods, services and primary income)","source":{"id":"2","value":"World Development Indicators"},"sourceNote":"Short-term external debt is defined as debt that has an original maturity of one year or less. Available data permit no distinction between public and private nonguaranteed short-term debt.","sourceOrganization":"World Bank, International Debt Statistics.","topics":[{"id":"3","value":"Economy & Growth"},{"id":"20","value":"External Debt"}]},{"id":"DT.DOD.DSTC.PU.DS.US","name":"Gross Ext. Debt Pos., Public Sector Ext. Debt, Short-term, Debt securities, Memo item, USD","source":{"id":"22","value":"Quarterly External Debt Statistics\/SDDS (New)"},"sourceNote":"","sourceOrganization":"","topics":[]},{"id":"DT.DOD.DSTC.PR.DS.US","name":"Gross Ext. Debt Pos., Publicly Guar. Private Sector Ext. Debt, Short-term, Debt securities, Memo item, USD","source":{"id":"22","value":"Quarterly External Debt Statistics\/SDDS (New)"},"sourceNote":"","sourceOrganization":"","topics":[]},{"id":"DT.DOD.DSTC.IR.ZS","name":"Short-term debt (% of total reserves)","source":{"id":"2","value":"World Development Indicators"},"sourceNote":"Short-term debt includes all debt having an original maturity of one year or less and interest in arrears on long-term debt. Total reserves includes gold.","sourceOrganization":"World Bank, International Debt Statistics.","topics":[{"id":"3","value":"Economy & Growth"},{"id":"20","value":"External Debt"}]},{"id":"DT.DOD.DSTC.CD.US","name":"Gross Ext. Debt Pos., All Sectors, Short-term, All instruments, USD","source":{"id":"22","value":"Quarterly External Debt Statistics\/SDDS (New)"},"sourceNote":"","sourceOrganization":"","topics":[]},{"id":"DT.DOD.DSTC.CD.OT.AR.US","name":"Gross Ext. Debt Pos., Other Sectors, Short-term, All instruments, USD","source":{"id":"22","value":"Quarterly External Debt Statistics\/SDDS (New)"},"sourceNote":"","sourceOrganization":"","topics":[]},{"id":"DT.DOD.DSTC.CD.OT.AR.TR.US","name":"Gross Ext. Debt Pos., Other Sectors, Short-term, All instruments, Transactions, USD","source":{"id":"22","value":"Quarterly External Debt Statistics\/SDDS (New)"},"sourceNote":"","sourceOrganization":"","topics":[]},{"id":"DT.DOD.DSTC.CD.OT.AR.PX.US","name":"Gross Ext. Debt Pos., Other Sectors, Short-term, All instruments, Other price chg, USD","source":{"id":"22","value":"Quarterly External Debt Statistics\/SDDS (New)"},"sourceNote":"","sourceOrganization":"","topics":[]},{"id":"DT.DOD.DSTC.CD.OT.AR.OC.US","name":"Gross Ext. Debt Pos., Other Sectors, Short-term, All instruments, Other chg in vol., USD","source":{"id":"22","value":"Quarterly External Debt Statistics\/SDDS (New)"},"sourceNote":"","sourceOrganization":"","topics":[]},{"id":"DT.DOD.DSTC.CD.OT.AR.NE.US","name":"Net Ext. Debt Position, Other Sectors, Short-term, All instruments, USD","source":{"id":"22","value":"Quarterly External Debt Statistics\/SDDS (New)"},"sourceNote":"","sourceOrganization":"","topics":[]},{"id":"DT.DOD.DSTC.CD.OT.AR.GE.US","name":"Gross Ext. Debt Pos., Other Sectors, Short-term, All instruments, Beginning pos., USD","source":{"id":"22","value":"Quarterly External Debt Statistics\/SDDS (New)"},"sourceNote":"","sourceOrganization":"","topics":[]},{"id":"DT.DOD.DSTC.CD.OT.AR.EX.US","name":"Gross Ext. Debt Pos., Other Sectors, Short-term, All instruments, Exchange rate chg, USD","source":{"id":"22","value":"Quarterly External Debt Statistics\/SDDS (New)"},"sourceNote":"","sourceOrganization":"","topics":[]},{"id":"DT.DOD.DSTC.CD.OT.AR.EN.US","name":"Gross Ext. Debt Pos., Other Sectors, Short-term, All instruments, end of period, USD","source":{"id":"22","value":"Quarterly External Debt Statistics\/SDDS (New)"},"sourceNote":"","sourceOrganization":"","topics":[]},{"id":"DT.DOD.DSTC.CD.OT.AR.EA.US","name":"Ext. Assets in Debt Instruments, Other Sectors, Short-term, All instruments, USD","source":{"id":"22","value":"Quarterly External Debt Statistics\/SDDS (New)"},"sourceNote":"","sourceOrganization":"","topics":[]},{"id":"DT.DOD.DSTC.CD.OT.AR.BE.US","name":"Gross Ext. Debt Pos., Other Sectors, Short-term, All instruments, Beginning of period, USD","source":{"id":"22","value":"Quarterly External Debt Statistics\/SDDS (New)"},"sourceNote":"","sourceOrganization":"","topics":[]},{"id":"DT.DOD.DSTC.CD.OF.US","name":"Gross Ext. Debt Pos., Other financial corporations, Short-term, All instruments, USD","source":{"id":"22","value":"Quarterly External Debt Statistics\/SDDS (New)"},"sourceNote":"","sourceOrganization":"","topics":[]},{"id":"DT.DOD.DSTC.CD.NC.US","name":"Gross Ext. Debt Pos., Nonfinancial corporations, Short-term, All instruments, USD","source":{"id":"22","value":"Quarterly External Debt Statistics\/SDDS (New)"},"sourceNote":"","sourceOrganization":"","topics":[]},{"id":"DT.DOD.DSTC.CD.MA.TD.NV.US","name":"Gross Ext. Debt Pos., Central Bank, Short-term, Debt Securities, Nominal Value, USD","source":{"id":"22","value":"Quarterly External Debt Statistics\/SDDS (New)"},"sourceNote":"","sourceOrganization":"","topics":[]},{"id":"DT.DOD.DSTC.CD.MA.TD.MV.US","name":"Gross Ext. Debt Pos., Central Bank, Short-term, Debt Securities, Market Value, USD","source":{"id":"22","value":"Quarterly External Debt Statistics\/SDDS (New)"},"sourceNote":"","sourceOrganization":"","topics":[]},{"id":"DT.DOD.DSTC.CD.MA.TD.MP.US","name":"Gross Ext. Debt Pos., Central Bank, Short-term, Debt Securities, Diff. with Market Value, USD","source":{"id":"22","value":"Quarterly External Debt Statistics\/SDDS (New)"},"sourceNote":"","sourceOrganization":"","topics":[]},{"id":"DT.DOD.DSTC.CD.MA.AR.US","name":"Gross Ext. Debt Pos., Central Bank, Short-term, All instruments, USD","source":{"id":"22","value":"Quarterly External Debt Statistics\/SDDS (New)"},"sourceNote":"","sourceOrganization":"","topics":[]},{"id":"DT.DOD.DSTC.CD.MA.AR.TR.US","name":"Gross Ext. Debt Pos., Central Bank, Short-term, All instruments, Transactions, USD","source":{"id":"22","value":"Quarterly External Debt Statistics\/SDDS (New)"},"sourceNote":"","sourceOrganization":"","topics":[]},{"id":"DT.DOD.DSTC.CD.MA.AR.PX.US","name":"Gross Ext. Debt Pos., Central Bank, Short-term, All instruments, Other price chg, USD","source":{"id":"22","value":"Quarterly External Debt Statistics\/SDDS (New)"},"sourceNote":"","sourceOrganization":"","topics":[]},{"id":"DT.DOD.DSTC.CD.MA.AR.OC.US","name":"Gross Ext. Debt Pos., Central Bank, Short-term, All instruments, Other chg in vol., USD","source":{"id":"22","value":"Quarterly External Debt Statistics\/SDDS (New)"},"sourceNote":"","sourceOrganization":"","topics":[]},{"id":"DT.DOD.DSTC.CD.MA.AR.NE.US","name":"Net Ext. Debt Position, Central Bank, Short-term, All instruments, USD","source":{"id":"22","value":"Quarterly External Debt Statistics\/SDDS (New)"},"sourceNote":"","sourceOrganization":"","topics":[]},{"id":"DT.DOD.DSTC.CD.MA.AR.GE.US","name":"Gross Ext. Debt Pos., Central Bank, Short-term, All instruments, Beginning pos., USD","source":{"id":"22","value":"Quarterly External Debt Statistics\/SDDS (New)"},"sourceNote":"","sourceOrganization":"","topics":[]},{"id":"DT.DOD.DSTC.CD.MA.AR.EX.US","name":"Gross Ext. Debt Pos., Central Bank, Short-term, All instruments, Exchange rate chg, USD","source":{"id":"22","value":"Quarterly External Debt Statistics\/SDDS (New)"},"sourceNote":"","sourceOrganization":"","topics":[]},{"id":"DT.DOD.DSTC.CD.MA.AR.EN.US","name":"Gross Ext. Debt Pos., Central Bank, Short-term, All instruments, end of period, USD","source":{"id":"22","value":"Quarterly External Debt Statistics\/SDDS (New)"},"sourceNote":"","sourceOrganization":"","topics":[]},{"id":"DT.DOD.DSTC.CD.MA.AR.EA.US","name":"Ext. Assets in Debt Instruments, Central Bank, Short-term, All instruments, USD","source":{"id":"22","value":"Quarterly External Debt Statistics\/SDDS (New)"},"sourceNote":"","sourceOrganization":"","topics":[]},{"id":"DT.DOD.DSTC.CD.MA.AR.BE.US","name":"Gross Ext. Debt Pos., Central Bank, Short-term, All instruments, Beginning of period, USD","source":{"id":"22","value":"Quarterly External Debt Statistics\/SDDS (New)"},"sourceNote":"","sourceOrganization":"","topics":[]},{"id":"DT.DOD.DSTC.CD.HN.US","name":"Gross Ext. Debt Pos., HH and nonprofit institu. (NPISHs), Short-term, All instruments, USD","source":{"id":"22","value":"Quarterly External Debt Statistics\/SDDS (New)"},"sourceNote":"","sourceOrganization":"","topics":[]},{"id":"DT.DOD.DSTC.CD.GG.TD.NV.US","name":"Gross Ext. Debt Pos., General Government, Short-term, Debt Securities, Nominal Value, USD","source":{"id":"22","value":"Quarterly External Debt Statistics\/SDDS (New)"},"sourceNote":"","sourceOrganization":"","topics":[]},{"id":"DT.DOD.DSTC.CD.GG.TD.MV.US","name":"Gross Ext. Debt Pos., General Government, Short-term, Debt Securities, Market Value, USD","source":{"id":"22","value":"Quarterly External Debt Statistics\/SDDS (New)"},"sourceNote":"","sourceOrganization":"","topics":[]},{"id":"DT.DOD.DSTC.CD.GG.TD.MP.US","name":"Gross Ext. Debt Pos., General Government, Short-term, Debt Securities, Diff. with Market Value, USD","source":{"id":"22","value":"Quarterly External Debt Statistics\/SDDS (New)"},"sourceNote":"","sourceOrganization":"","topics":[]},{"id":"DT.DOD.DSTC.CD.GG.AR.US","name":"Gross Ext. Debt Pos., General Government, Short-term, All instruments, USD","source":{"id":"22","value":"Quarterly External Debt Statistics\/SDDS (New)"},"sourceNote":"","sourceOrganization":"","topics":[]},{"id":"DT.DOD.DSTC.CD.GG.AR.TR.US","name":"Gross Ext. Debt Pos., General Government, Short-term, All instruments, Transactions, USD","source":{"id":"22","value":"Quarterly External Debt Statistics\/SDDS (New)"},"sourceNote":"","sourceOrganization":"","topics":[]},{"id":"DT.DOD.DSTC.CD.GG.AR.PX.US","name":"Gross Ext. Debt Pos., General Government, Short-term, All instruments, Other price chg, USD","source":{"id":"22","value":"Quarterly External Debt Statistics\/SDDS (New)"},"sourceNote":"","sourceOrganization":"","topics":[]},{"id":"DT.DOD.DSTC.CD.GG.AR.OC.US","name":"Gross Ext. Debt Pos., General Government, Short-term, All instruments, Other chg in vol., USD","source":{"id":"22","value":"Quarterly External Debt Statistics\/SDDS (New)"},"sourceNote":"","sourceOrganization":"","topics":[]},{"id":"DT.DOD.DSTC.CD.GG.AR.NE.US","name":"Net Ext. Debt Position, General Government, Short-term, All instruments, USD","source":{"id":"22","value":"Quarterly External Debt Statistics\/SDDS (New)"},"sourceNote":"","sourceOrganization":"","topics":[]},{"id":"DT.DOD.DSTC.CD.GG.AR.GE.US","name":"Gross Ext. Debt Pos., General Government, Short-term, All instruments, Beginning pos., USD","source":{"id":"22","value":"Quarterly External Debt Statistics\/SDDS (New)"},"sourceNote":"","sourceOrganization":"","topics":[]},{"id":"DT.DOD.DSTC.CD.GG.AR.EX.US","name":"Gross Ext. Debt Pos., General Government, Short-term, All instruments, Exchange rate chg, USD","source":{"id":"22","value":"Quarterly External Debt Statistics\/SDDS (New)"},"sourceNote":"","sourceOrganization":"","topics":[]},{"id":"DT.DOD.DSTC.CD.GG.AR.EN.US","name":"Gross Ext. Debt Pos., General Government, Short-term, All instruments, end of period, USD","source":{"id":"22","value":"Quarterly External Debt Statistics\/SDDS (New)"},"sourceNote":"","sourceOrganization":"","topics":[]},{"id":"DT.DOD.DSTC.CD.GG.AR.EA.US","name":"Ext. Assets in Debt Instruments, General Government, Short-term, All instruments, USD","source":{"id":"22","value":"Quarterly External Debt Statistics\/SDDS (New)"},"sourceNote":"","sourceOrganization":"","topics":[]},{"id":"DT.DOD.DSTC.CD.GG.AR.BE.US","name":"Gross Ext. Debt Pos., General Government, Short-term, All instruments, Beginning of period, USD","source":{"id":"22","value":"Quarterly External Debt Statistics\/SDDS (New)"},"sourceNote":"","sourceOrganization":"","topics":[]},{"id":"DT.DOD.DSTC.CD.FC.US","name":"Gross Ext. Debt Pos., All Sectors, Short-term, All instruments, Foreign currency, USD","source":{"id":"22","value":"Quarterly External Debt Statistics\/SDDS (New)"},"sourceNote":"","sourceOrganization":"","topics":[]},{"id":"DT.DOD.DSTC.CD.FC.T5.US","name":"Public and Publicly Guar. Private Sector Ext. Debt Pos., All Sectors, Short-term, All instruments, Foreign currency, USD","source":{"id":"23","value":"Quarterly External Debt Statistics\/GDDS (New)"},"sourceNote":"","sourceOrganization":"","topics":[]},{"id":"DT.DOD.DSTC.CD.FC.OT.US.US","name":"Gross Ext. F. Curr Debt Pos., Other Sectors, Short-term, All instruments, US dollar, USD","source":{"id":"22","value":"Quarterly External Debt Statistics\/SDDS (New)"},"sourceNote":"","sourceOrganization":"","topics":[{}]}]]