[{"page":86,"pages":324,"per_page":"50","total":16174},[{"id":"DT.INTS.DLTT.CD.OT.AR.1218.US","name":"Gross Ext. Debt Pmt, Other Sectors, More than 12 to 18, Trade credit and advances, Interest, USD","source":{"id":"22","value":"Quarterly External Debt Statistics\/SDDS (New)"},"sourceNote":"","sourceOrganization":"","topics":[]},{"id":"DT.INTS.DLTT.CD.OT.AR.0912.US","name":"Gross Ext. Debt Pmt, Other Sectors, More than 9 to 12, Trade credit and advances, Interest, USD","source":{"id":"22","value":"Quarterly External Debt Statistics\/SDDS (New)"},"sourceNote":"","sourceOrganization":"","topics":[]},{"id":"DT.INTS.DLTT.CD.OT.AR.03.US","name":"Gross Ext. Debt Pmt, Other Sectors, More than 0 to 3, Trade credit and advances, Interest, USD","source":{"id":"22","value":"Quarterly External Debt Statistics\/SDDS (New)"},"sourceNote":"","sourceOrganization":"","topics":[]},{"id":"DT.INTS.DLTL.CD.GG.AR.IQ.US","name":"Gross Ext. Debt Pmt, General Government, Immediate, Loans, Interest, USD","source":{"id":"22","value":"Quarterly External Debt Statistics\/SDDS (New)"},"sourceNote":"","sourceOrganization":"","topics":[]},{"id":"DT.INTS.DLTL.CD.GG.AR.69.US","name":"Gross Ext. Debt Pmt, General Government, More than 6 to 9, Loans, Interest, USD","source":{"id":"22","value":"Quarterly External Debt Statistics\/SDDS (New)"},"sourceNote":"","sourceOrganization":"","topics":[]},{"id":"DT.INTS.DLTL.CD.GG.AR.36.US","name":"Gross Ext. Debt Pmt, General Government, More than 3 to 6, Loans, Interest, USD","source":{"id":"22","value":"Quarterly External Debt Statistics\/SDDS (New)"},"sourceNote":"","sourceOrganization":"","topics":[]},{"id":"DT.INTS.DLTL.CD.GG.AR.24P.US","name":"Gross Ext. Debt Pmt, General Government, More than 2yrs, Loans, Interest, USD","source":{"id":"22","value":"Quarterly External Debt Statistics\/SDDS (New)"},"sourceNote":"","sourceOrganization":"","topics":[]},{"id":"DT.INTS.DLTL.CD.GG.AR.1824.US","name":"Gross Ext. Debt Pmt, General Government, More than 18 to 24, Loans, Interest, USD","source":{"id":"22","value":"Quarterly External Debt Statistics\/SDDS (New)"},"sourceNote":"","sourceOrganization":"","topics":[]},{"id":"DT.INTS.DLTL.CD.GG.AR.1218.US","name":"Gross Ext. Debt Pmt, General Government, More than 12 to 18, Loans, Interest, USD","source":{"id":"22","value":"Quarterly External Debt Statistics\/SDDS (New)"},"sourceNote":"","sourceOrganization":"","topics":[]},{"id":"DT.INTS.DLTL.CD.GG.AR.0912.US","name":"Gross Ext. Debt Pmt, General Government, More than 9 to 12, Loans, Interest, USD","source":{"id":"22","value":"Quarterly External Debt Statistics\/SDDS (New)"},"sourceNote":"","sourceOrganization":"","topics":[]},{"id":"DT.INTS.DLTL.CD.GG.AR.03.US","name":"Gross Ext. Debt Pmt, General Government, More than 0 to 3, Loans, Interest, USD","source":{"id":"22","value":"Quarterly External Debt Statistics\/SDDS (New)"},"sourceNote":"","sourceOrganization":"","topics":[]},{"id":"DT.INT.PUBS.CD.IQ.00.US","name":"Ext. Debt Service Pmt, Public Sector Ext. Debt, Immediately, All instruments, Interest, USD","source":{"id":"23","value":"Quarterly External Debt Statistics\/GDDS (New)"},"sourceNote":"","sourceOrganization":"","topics":[]},{"id":"DT.INT.PUBS.CD.19.24.MO.US","name":"Ext. Debt Service Pmt, Public Sector Ext. Debt, 18 to 24 mo., All instruments, Interest, USD","source":{"id":"23","value":"Quarterly External Debt Statistics\/GDDS (New)"},"sourceNote":"","sourceOrganization":"","topics":[]},{"id":"DT.INT.PUBS.CD.15.UP.YR.US","name":"Ext. Debt Service Pmt, Public Sector Ext. Debt, More than15yrs, All instruments, Interest, USD","source":{"id":"23","value":"Quarterly External Debt Statistics\/GDDS (New)"},"sourceNote":"","sourceOrganization":"","topics":[]},{"id":"DT.INT.PUBS.CD.13.18.MO.US","name":"Ext. Debt Service Pmt, Public Sector Ext. Debt, 12 to 18 mo., All instruments, Interest, USD","source":{"id":"23","value":"Quarterly External Debt Statistics\/GDDS (New)"},"sourceNote":"","sourceOrganization":"","topics":[]},{"id":"DT.INT.PUBS.CD.10.15.YR.US","name":"Ext. Debt Service Pmt, Public Sector Ext. Debt, 10 to 15 yrs, All instruments, Interest, USD","source":{"id":"23","value":"Quarterly External Debt Statistics\/GDDS (New)"},"sourceNote":"","sourceOrganization":"","topics":[]},{"id":"DT.INT.PUBS.CD.10.12.MO.US","name":"Ext. Debt Service Pmt, Public Sector Ext. Debt, 9 to 12 mo., All instruments, Interest, USD","source":{"id":"23","value":"Quarterly External Debt Statistics\/GDDS (New)"},"sourceNote":"","sourceOrganization":"","topics":[]},{"id":"DT.INT.PUBS.CD.07.09.MO.US","name":"Ext. Debt Service Pmt, Public Sector Ext. Debt, 6 to 9 mo., All instruments, Interest, USD","source":{"id":"23","value":"Quarterly External Debt Statistics\/GDDS (New)"},"sourceNote":"","sourceOrganization":"","topics":[]},{"id":"DT.INT.PUBS.CD.05.YR.US","name":"Ext. Debt Service Pmt, Public Sector Ext. Debt, 5yrs, All instruments, Interest, USD","source":{"id":"23","value":"Quarterly External Debt Statistics\/GDDS (New)"},"sourceNote":"","sourceOrganization":"","topics":[]},{"id":"DT.INT.PUBS.CD.05.10.YR.US","name":"Ext. Debt Service Pmt, Public Sector Ext. Debt, 5 to 10 yrs, All instruments, Interest, USD","source":{"id":"23","value":"Quarterly External Debt Statistics\/GDDS (New)"},"sourceNote":"","sourceOrganization":"","topics":[]},{"id":"DT.INT.PUBS.CD.04.YR.US","name":"Ext. Debt Service Pmt, Public Sector Ext. Debt, 4yrs, All instruments, Interest, USD","source":{"id":"23","value":"Quarterly External Debt Statistics\/GDDS (New)"},"sourceNote":"","sourceOrganization":"","topics":[]},{"id":"DT.INT.PUBS.CD.04.06.MO.US","name":"Ext. Debt Service Pmt, Public Sector Ext. Debt, 3 to 6 mo., All instruments, Interest, USD","source":{"id":"23","value":"Quarterly External Debt Statistics\/GDDS (New)"},"sourceNote":"","sourceOrganization":"","topics":[]},{"id":"DT.INT.PUBS.CD.03.YR.US","name":"Ext. Debt Service Pmt, Public Sector Ext. Debt, 3yrs, All instruments, Interest, USD","source":{"id":"23","value":"Quarterly External Debt Statistics\/GDDS (New)"},"sourceNote":"","sourceOrganization":"","topics":[]},{"id":"DT.INT.PUBS.CD.00.03.MO.US","name":"Ext. Debt Service Pmt, Public Sector Ext. Debt, 0 to 3 mo., All instruments, Interest, USD","source":{"id":"23","value":"Quarterly External Debt Statistics\/GDDS (New)"},"sourceNote":"","sourceOrganization":"","topics":[]},{"id":"DT.INT.PRVT.CD","name":"PPG, private creditors (INT, current US$)","source":{"id":"2","value":"World Development Indicators"},"sourceNote":"Public and publicly guaranteed debt from private creditors include bonds that are either publicly issued or privately placed; commercial bank loans from private banks and other private financial institutions; and other private credits from manufacturers, exporters, and other suppliers of goods, and bank credits covered by a guarantee of an export credit agency. Interest payments are actual amounts of interest paid by the borrower in currency, goods, or services in the year specified. Data are in current U.S. dollars.","sourceOrganization":"World Bank, International Debt Statistics.","topics":[{"id":"20","value":"External Debt"}]},{"id":"DT.INT.PRVS.CD.IQ.00.US","name":"Ext. Debt Service Pmt, Publicly Guar. Private Sector Ext. Debt, Immediately, All instruments, Interest, USD","source":{"id":"23","value":"Quarterly External Debt Statistics\/GDDS (New)"},"sourceNote":"","sourceOrganization":"","topics":[]},{"id":"DT.INT.PRVS.CD.19.24.MO.US","name":"Ext. Debt Service Pmt, Publicly Guar. Private Sector Ext. Debt, 18 to 24 mo., All instruments, Interest, USD","source":{"id":"23","value":"Quarterly External Debt Statistics\/GDDS (New)"},"sourceNote":"","sourceOrganization":"","topics":[]},{"id":"DT.INT.PRVS.CD.15.UP.YR.US","name":"Ext. Debt Service Pmt, Publicly Guar. Private Sector Ext. Debt, More than15yrs, All instruments, Interest, USD","source":{"id":"23","value":"Quarterly External Debt Statistics\/GDDS (New)"},"sourceNote":"","sourceOrganization":"","topics":[]},{"id":"DT.INT.PRVS.CD.13.18.MO.US","name":"Ext. Debt Service Pmt, Publicly Guar. Private Sector Ext. Debt, 12 to 18 mo., All instruments, Interest, USD","source":{"id":"23","value":"Quarterly External Debt Statistics\/GDDS (New)"},"sourceNote":"","sourceOrganization":"","topics":[]},{"id":"DT.INT.PRVS.CD.10.15.YR.US","name":"Ext. Debt Service Pmt, Publicly Guar. Private Sector Ext. Debt, 10 to 15 yrs, All instruments, Interest, USD","source":{"id":"23","value":"Quarterly External Debt Statistics\/GDDS (New)"},"sourceNote":"","sourceOrganization":"","topics":[]},{"id":"DT.INT.PRVS.CD.10.12.MO.US","name":"Ext. Debt Service Pmt, Publicly Guar. Private Sector Ext. Debt, 9 to 12 mo., All instruments, Interest, USD","source":{"id":"23","value":"Quarterly External Debt Statistics\/GDDS (New)"},"sourceNote":"","sourceOrganization":"","topics":[]},{"id":"DT.INT.PRVS.CD.07.09.MO.US","name":"Ext. Debt Service Pmt, Publicly Guar. Private Sector Ext. Debt, 6 to 9 mo., All instruments, Interest, USD","source":{"id":"23","value":"Quarterly External Debt Statistics\/GDDS (New)"},"sourceNote":"","sourceOrganization":"","topics":[]},{"id":"DT.INT.PRVS.CD.05.YR.US","name":"Ext. Debt Service Pmt, Publicly Guar. Private Sector Ext. Debt, 5yrs, All instruments, Interest, USD","source":{"id":"23","value":"Quarterly External Debt Statistics\/GDDS (New)"},"sourceNote":"","sourceOrganization":"","topics":[]},{"id":"DT.INT.PRVS.CD.05.10.YR.US","name":"Ext. Debt Service Pmt, Publicly Guar. Private Sector Ext. Debt, 5 to 10 yrs, All instruments, Interest, USD","source":{"id":"23","value":"Quarterly External Debt Statistics\/GDDS (New)"},"sourceNote":"","sourceOrganization":"","topics":[]},{"id":"DT.INT.PRVS.CD.04.YR.US","name":"Ext. Debt Service Pmt, Publicly Guar. Private Sector Ext. Debt, 4yrs, All instruments, Interest, USD","source":{"id":"23","value":"Quarterly External Debt Statistics\/GDDS (New)"},"sourceNote":"","sourceOrganization":"","topics":[]},{"id":"DT.INT.PRVS.CD.04.06.MO.US","name":"Ext. Debt Service Pmt, Publicly Guar. Private Sector Ext. Debt, 3 to 6 mo., All instruments, Interest, USD","source":{"id":"23","value":"Quarterly External Debt Statistics\/GDDS (New)"},"sourceNote":"","sourceOrganization":"","topics":[]},{"id":"DT.INT.PRVS.CD.03.YR.US","name":"Ext. Debt Service Pmt, Publicly Guar. Private Sector Ext. Debt, 3yrs, All instruments, Interest, USD","source":{"id":"23","value":"Quarterly External Debt Statistics\/GDDS (New)"},"sourceNote":"","sourceOrganization":"","topics":[]},{"id":"DT.INT.PRVS.CD.00.03.MO.US","name":"Ext. Debt Service Pmt, Publicly Guar. Private Sector Ext. Debt, 0 to 3 mo., All instruments, Interest, USD","source":{"id":"23","value":"Quarterly External Debt Statistics\/GDDS (New)"},"sourceNote":"","sourceOrganization":"","topics":[]},{"id":"DT.INT.PROP.CD","name":"PPG, other private creditors (INT, current US$)","source":{"id":"2","value":"World Development Indicators"},"sourceNote":"Public and publicly guaranteed other private credits from manufacturers, exporters, and other suppliers of goods, and bank credits covered by a guarantee of an export credit agency. Interest payments are actual amounts of interest paid by the borrower in currency, goods, or services in the year specified. Data are in current U.S. dollars.","sourceOrganization":"World Bank, International Debt Statistics.","topics":[{"id":"20","value":"External Debt"}]},{"id":"DT.INT.PNGC.CD","name":"PNG, commercial banks and other creditors (INT, current US$)","source":{"id":"2","value":"World Development Indicators"},"sourceNote":"Nonguaranteed long-term commercial bank loans from private banks and other private financial institutions. Interest payments are actual amounts of interest paid by the borrower in currency, goods, or services in the year specified. Data are in current U.S. dollars.","sourceOrganization":"World Bank, International Debt Statistics.","topics":[{"id":"20","value":"External Debt"}]},{"id":"DT.INT.PNGB.CD","name":"PNG, bonds (INT, current US$)","source":{"id":"2","value":"World Development Indicators"},"sourceNote":"Nonguaranteed long-term debt from bonds that are privately placed. Interest payments are actual amounts of interest paid by the borrower in currency, goods, or services in the year specified. Data are in current U.S. dollars.","sourceOrganization":"World Bank, International Debt Statistics.","topics":[{"id":"20","value":"External Debt"}]},{"id":"DT.INT.PGNG.CD","name":"Interest payments, PPG and PNG Private creditors (current US$)","source":{"id":"11","value":"Africa Development Indicators"},"sourceNote":"Public and publicly guaranteed debt from private creditors include bonds that are either publicly issued or privately placed; commercial bank loans from private banks and other private financial institutions; and other private credits from manufacturers, exporters, and other suppliers of goods, and bank credits covered by a guarantee of an export credit agency. Interest payments (LINT) are actual amounts of interest paid in currency, goods, or services in the year specified.  Private nonguaranteed external debt is an external obligation of a private debtor that is not guaranteed for repayment by a public entity. Interest payments (LINT) are actual amounts of interest paid in currency, goods, or services in the year specified. Long-term external debt is defined as debt that has an original or extended maturity of more than one year and that is owed to nonresidents and repayable in currency, goods, or services.","sourceOrganization":"World Bank, Global Development Finance.","topics":[]},{"id":"DT.INT.PCBK.CD","name":"PPG, commercial banks (INT, current US$)","source":{"id":"2","value":"World Development Indicators"},"sourceNote":"Public and publicly guaranteed commercial bank loans from private banks and other private financial institutions. Interest payments are actual amounts of interest paid by the borrower in currency, goods, or services in the year specified. Data are in current U.S. dollars.","sourceOrganization":"World Bank, International Debt Statistics.","topics":[{"id":"20","value":"External Debt"}]},{"id":"DT.INT.PBND.CD","name":"PPG, bonds (INT, current US$)","source":{"id":"2","value":"World Development Indicators"},"sourceNote":"Public and publicly guaranteed debt from bonds that are either publicly issued or privately placed. Interest payments are actual amounts of interest paid by the borrower in currency, goods, or services in the year specified. Data are in current U.S. dollars.","sourceOrganization":"World Bank, International Debt Statistics.","topics":[{"id":"20","value":"External Debt"}]},{"id":"DT.INT.OFFT.CD","name":"PPG, official creditors (INT, current US$)","source":{"id":"2","value":"World Development Indicators"},"sourceNote":"Public and publicly guaranteed debt from official creditors includes loans from international organizations (multilateral loans) and loans from governments (bilateral loans). Loans from international organization include loans and credits from the World Bank, regional development banks, and other multilateral and intergovernmental agencies. Excluded are loans from funds administered by an international organization on behalf of a single donor government; these are classified as loans from governments. Government loans include loans from governments and their agencies (including central banks), loans from autonomous bodies, and direct loans from official export credit agencies. Interest payments are actual amounts of interest paid by the borrower in currency, goods, or services in the year specified. Data are in current U.S. dollars.","sourceOrganization":"World Bank, International Debt Statistics.","topics":[{"id":"20","value":"External Debt"}]},{"id":"DT.INT.MLTC.CD","name":"PPG, multilateral concessional (INT, current US$)","source":{"id":"2","value":"World Development Indicators"},"sourceNote":"Public and publicly guaranteed multilateral loans include loans and credits from the World Bank, regional development banks, and other multilateral and intergovernmental agencies. Excluded are loans from funds administered by an international organization on behalf of a single donor government; these are classified as loans from governments. Concessional debt is defined as loans with an original grant element of 25 percent or more. The grant element of a loan is the grant equivalent expressed as a percentage of the amount committed. It is used as a measure of the overall cost of borrowing. The grant equivalent of a loan is its commitment (present) value, less the discounted present value of its contractual debt service; conventionally, future service payments are discounted at 10 percent. Interest payments are actual amounts of interest paid by the borrower in currency, goods, or services in the year specified. Data are in current U.S. dollars.","sourceOrganization":"World Bank, International Debt Statistics.","topics":[{"id":"20","value":"External Debt"}]},{"id":"DT.INT.MLAT.CD","name":"PPG, multilateral (INT, current US$)","source":{"id":"2","value":"World Development Indicators"},"sourceNote":"Public and publicly guaranteed multilateral loans include loans and credits from the World Bank, regional development banks, and other multilateral and intergovernmental agencies. Excluded are loans from funds administered by an international organization on behalf of a single donor government; these are classified as loans from governments. Interest payments are actual amounts of interest paid by the borrower in currency, goods, or services in the year specified. Data are in current U.S. dollars.","sourceOrganization":"World Bank, International Debt Statistics.","topics":[{"id":"20","value":"External Debt"}]},{"id":"DT.INT.MIDA.CD","name":"PPG, IDA (INT, current US$)","source":{"id":"2","value":"World Development Indicators"},"sourceNote":"Public and publicly guaranteed debt outstanding from the International Development Association (IDA) is concessional. Concessional debt is defined as loans with an original grant element of 25 percent or more. The grant element of a loan is the grant equivalent expressed as a percentage of the amount committed. It is used as a measure of the overall cost of borrowing. The grant equivalent of a loan is its commitment (present) value, less the discounted present value of its contractual debt service; conventionally, future service payments are discounted at 10 percent. Interest payments are actual amounts of interest paid by the borrower in currency, goods, or services in the year specified. Data are in current U.S. dollars.","sourceOrganization":"World Bank, International Debt Statistics.","topics":[{"id":"20","value":"External Debt"}]},{"id":"DT.INT.MIBR.CD","name":"PPG, IBRD (INT, current US$)","source":{"id":"2","value":"World Development Indicators"},"sourceNote":"Public and publicly guaranteed debt outstanding from the International Bank for Reconstruction and Development (IBRD) is nonconcessional. Nonconcessional debt excludes loans with an original grant element of 25 percent or more. Interest payments are actual amounts of interest paid by the borrower in currency, goods, or services in the year specified. Data are in current U.S. dollars.","sourceOrganization":"World Bank, International Debt Statistics.","topics":[{"id":"20","value":"External Debt"}]},{"id":"DT.INT.DSTC.CD","name":"Interest payments on external debt, short-term (INT, current US$)","source":{"id":"2","value":"World Development Indicators"},"sourceNote":"Interest payments on short-term debt are actual amounts of interest paid by the borrower in currency, goods, or services in the year specified. This item includes interest paid on long-term debt, IMF charges, and interest paid on short-term debt. Short-term external debt is defined as debt that has an original maturity of one year or less. Available data permit no distinction between public and private nonguaranteed short-term debt. Data are in current U.S. dollars.","sourceOrganization":"World Bank, International Debt Statistics.","topics":[{"id":"20","value":"External Debt"}]}]]