[{"page":310,"pages":324,"per_page":"50","total":16174},[{"id":"WP11646.10","name":"Saved for future expenses, rural (% age 15+) [w1]","source":{"id":"28","value":"Global Findex ( Global Financial Inclusion database)"},"sourceNote":"Denotes the percentage of respondents who report saving for expenses in the future such as education, a wedding, or a big purchase in the past 12 months (rural, % age 15+ ). [w1: data are available for wave 1].","sourceOrganization":"Demirguc-Kunt and Klapper, 2012","topics":[{"id":"7","value":"Financial Sector "}]},{"id":"WP11646.1","name":"Saved for future expenses (% age 15+) [w1]","source":{"id":"28","value":"Global Findex ( Global Financial Inclusion database)"},"sourceNote":"Denotes the percentage of respondents who report saving for expenses in the future such as education, a wedding, or a big purchase in the past 12 months (% age 15+). [w1: data are available for wave 1].","sourceOrganization":"Demirguc-Kunt and Klapper, 2012","topics":[{"id":"7","value":"Financial Sector "}]},{"id":"WP11645.9","name":"Saved any money in the past year, income, richest 60% (% ages 15+) [w1]","source":{"id":"28","value":"Global Findex ( Global Financial Inclusion database)"},"sourceNote":"Denotes the percentage of respondents who report saving or setting aside any money in the past 12 months (income, richest 60%, % age 15+). [w1: data are available for wave 1].","sourceOrganization":"Demirguc-Kunt and Klapper, 2012","topics":[{"id":"7","value":"Financial Sector "}]},{"id":"WP11645.8","name":"Saved any money in the past year, income, poorest 40% (% ages 15+) [w1]","source":{"id":"28","value":"Global Findex ( Global Financial Inclusion database)"},"sourceNote":"Denotes the percentage of respondents who report saving or setting aside any money in the past 12 months (income, poorest 40%, % age 15+). [w1: data are available for wave 1].","sourceOrganization":"Demirguc-Kunt and Klapper, 2012","topics":[{"id":"7","value":"Financial Sector "}]},{"id":"WP11645.7","name":"Saved any money in the past year, secondary education or more (% ages 15+) [w1]","source":{"id":"28","value":"Global Findex ( Global Financial Inclusion database)"},"sourceNote":"Denotes the percentage of respondents who report saving or setting aside any money in the past 12 months (secondary education or more, % age 15+). [w1: data are available for wave 1].","sourceOrganization":"Demirguc-Kunt and Klapper, 2012","topics":[{"id":"7","value":"Financial Sector "}]},{"id":"WP11645.6","name":"Saved any money in the past year, primary education or less (% ages 15+) [w1]","source":{"id":"28","value":"Global Findex ( Global Financial Inclusion database)"},"sourceNote":"Denotes the percentage of respondents who report saving or setting aside any money in the past 12 months (primary education or less, % age 15+). [w1: data are available for wave 1].","sourceOrganization":"Demirguc-Kunt and Klapper, 2012","topics":[{"id":"7","value":"Financial Sector "}]},{"id":"WP11645.5","name":"Saved any money in the past year, older adults (% ages 25+) [w1]","source":{"id":"28","value":"Global Findex ( Global Financial Inclusion database)"},"sourceNote":"Denotes the percentage of respondents who report saving or setting aside any money in the past 12 months (% age 25+). [w1: data are available for wave 1].","sourceOrganization":"Demirguc-Kunt and Klapper, 2012","topics":[{"id":"7","value":"Financial Sector "}]},{"id":"WP11645.4","name":"Saved any money in the past year, young adults (% ages 15-24) [w1]","source":{"id":"28","value":"Global Findex ( Global Financial Inclusion database)"},"sourceNote":"Denotes the percentage of respondents who report saving or setting aside any money in the past 12 months (% ages 15-24). [w1: data are available for wave 1].","sourceOrganization":"Demirguc-Kunt and Klapper, 2012","topics":[{"id":"7","value":"Financial Sector "}]},{"id":"WP11645.3","name":"Saved any money in the past year, female (% age 15+) [w1]","source":{"id":"28","value":"Global Findex ( Global Financial Inclusion database)"},"sourceNote":"Denotes the percentage of respondents who report saving or setting aside any money in the past 12 months (female, % age 15+). [w1: data are available for wave 1].","sourceOrganization":"Demirguc-Kunt and Klapper, 2012","topics":[{"id":"7","value":"Financial Sector "}]},{"id":"WP11645.2","name":"Saved any money in the past year, male (% age 15+) [w1]","source":{"id":"28","value":"Global Findex ( Global Financial Inclusion database)"},"sourceNote":"Denotes the percentage of respondents who report saving or setting aside any money in the past 12 months (male, % age 15+). [w1: data are available for wave 1].","sourceOrganization":"Demirguc-Kunt and Klapper, 2012","topics":[{"id":"7","value":"Financial Sector "}]},{"id":"WP11645.10","name":"Saved any money in the past year, rural (% age 15+) [w1]","source":{"id":"28","value":"Global Findex ( Global Financial Inclusion database)"},"sourceNote":"Denotes the percentage of respondents who report saving or setting aside any money in the past 12 months (rural, % age 15+ ). [w1: data are available for wave 1].","sourceOrganization":"Demirguc-Kunt and Klapper, 2012","topics":[{"id":"7","value":"Financial Sector "}]},{"id":"WP11645.1","name":"Saved any money in the past year (% age 15+) [w1]","source":{"id":"28","value":"Global Findex ( Global Financial Inclusion database)"},"sourceNote":"Denotes the percentage of respondents who report saving or setting aside any money in the past 12 months (% age 15+). [w1: data are available for wave 1].","sourceOrganization":"Demirguc-Kunt and Klapper, 2012","topics":[{"id":"7","value":"Financial Sector "}]},{"id":"WP11637.9","name":"Used an account at a financial institution to send remittances, income, richest 60% (% ages 15+) [w1]","source":{"id":"28","value":"Global Findex ( Global Financial Inclusion database)"},"sourceNote":"Denotes the percentage of respondents who report using their accounts at a formal financial institution to send money to family members living elsewhere in the past 12 months (income, richest 60%, % age 15+). [w1: data are available for wave 1].","sourceOrganization":"Demirguc-Kunt and Klapper, 2012","topics":[{"id":"7","value":"Financial Sector "}]},{"id":"WP11637.8","name":"Used an account at a financial institution to send remittances, income, poorest 40% (% ages 15+) [w1]","source":{"id":"28","value":"Global Findex ( Global Financial Inclusion database)"},"sourceNote":"Denotes the percentage of respondents who report using their accounts at a formal financial institution to send money to family members living elsewhere in the past 12 months (income, poorest 40%, % age 15+). [w1: data are available for wave 1].","sourceOrganization":"Demirguc-Kunt and Klapper, 2012","topics":[{"id":"7","value":"Financial Sector "}]},{"id":"WP11637.7","name":"Used an account at a financial institution to send remittances, secondary education or more (% ages 15+) [w1]","source":{"id":"28","value":"Global Findex ( Global Financial Inclusion database)"},"sourceNote":"Denotes the percentage of respondents who report using their accounts at a formal financial institution to send money to family members living elsewhere in the past 12 months (secondary education or more, % age 15+). [w1: data are available for wave 1].","sourceOrganization":"Demirguc-Kunt and Klapper, 2012","topics":[{"id":"7","value":"Financial Sector "}]},{"id":"WP11637.6","name":"Used an account at a financial institution to send remittances, primary education or less (% ages 15+) [w1]","source":{"id":"28","value":"Global Findex ( Global Financial Inclusion database)"},"sourceNote":"Denotes the percentage of respondents who report using their accounts at a formal financial institution to send money to family members living elsewhere in the past 12 months (primary education or less, % age 15+). [w1: data are available for wave 1].","sourceOrganization":"Demirguc-Kunt and Klapper, 2012","topics":[{"id":"7","value":"Financial Sector "}]},{"id":"WP11637.5","name":"Used an account at a financial institution to send remittances, older adults (% ages 25+) [w1]","source":{"id":"28","value":"Global Findex ( Global Financial Inclusion database)"},"sourceNote":"Denotes the percentage of respondents who report using their accounts at a formal financial institution to send money to family members living elsewhere in the past 12 months (% age 25+). [w1: data are available for wave 1].","sourceOrganization":"Demirguc-Kunt and Klapper, 2012","topics":[{"id":"7","value":"Financial Sector "}]},{"id":"WP11637.4","name":"Used an account at a financial institution to send remittances, young adults (% ages 15-24) [w1]","source":{"id":"28","value":"Global Findex ( Global Financial Inclusion database)"},"sourceNote":"Denotes the percentage of respondents who report using their accounts at a formal financial institution to send money to family members living elsewhere in the past 12 months (% ages 15-24). [w1: data are available for wave 1].","sourceOrganization":"Demirguc-Kunt and Klapper, 2012","topics":[{"id":"7","value":"Financial Sector "}]},{"id":"WP11637.3","name":"Used an account at a financial institution to send remittances, female (% age 15+) [w1]","source":{"id":"28","value":"Global Findex ( Global Financial Inclusion database)"},"sourceNote":"Denotes the percentage of respondents who report using their accounts at a formal financial institution to send money to family members living elsewhere in the past 12 months (female, % age 15+). [w1: data are available for wave 1].","sourceOrganization":"Demirguc-Kunt and Klapper, 2012","topics":[{"id":"7","value":"Financial Sector "}]},{"id":"WP11637.2","name":"Used an account at a financial institution to send remittances, male (% age 15+) [w1]","source":{"id":"28","value":"Global Findex ( Global Financial Inclusion database)"},"sourceNote":"Denotes the percentage of respondents who report using their accounts at a formal financial institution to send money to family members living elsewhere in the past 12 months (male, % age 15+). [w1: data are available for wave 1].","sourceOrganization":"Demirguc-Kunt and Klapper, 2012","topics":[{"id":"7","value":"Financial Sector "}]},{"id":"WP11637.10","name":"Used an account at a financial institution to send remittances, rural (% age 15+) [w1]","source":{"id":"28","value":"Global Findex ( Global Financial Inclusion database)"},"sourceNote":"Denotes the percentage of respondents who report using their accounts at a formal financial institution to send money to family members living elsewhere in the past 12 months (rural, % age 15+ ). [w1: data are available for wave 1].","sourceOrganization":"Demirguc-Kunt and Klapper, 2012","topics":[{"id":"7","value":"Financial Sector "}]},{"id":"WP11637.1","name":"Used an account at a financial institution to send remittances (% age 15+) [w1]","source":{"id":"28","value":"Global Findex ( Global Financial Inclusion database)"},"sourceNote":"Denotes the percentage of respondents who report using their accounts at a formal financial institution to send money to family members living elsewhere in the past 12 months (% age 15+). [w1: data are available for wave 1].","sourceOrganization":"Demirguc-Kunt and Klapper, 2012","topics":[{"id":"7","value":"Financial Sector "}]},{"id":"WP11636.9","name":"Used an account at a financial institution to receive remittances, income, richest 60% (% ages 15+) [w1]","source":{"id":"28","value":"Global Findex ( Global Financial Inclusion database)"},"sourceNote":"Denotes the percentage of respondents who report using their accounts at a formal financial institution to receive money from family members living elsewhere in the past 12 months (income, richest 60%, % age 15+). [w1: data are available for wave 1].","sourceOrganization":"Demirguc-Kunt and Klapper, 2012","topics":[{"id":"7","value":"Financial Sector "}]},{"id":"WP11636.8","name":"Used an account at a financial institution to receive remittances, income, poorest 40% (% ages 15+) [w1]","source":{"id":"28","value":"Global Findex ( Global Financial Inclusion database)"},"sourceNote":"Denotes the percentage of respondents who report using their accounts at a formal financial institution to receive money from family members living elsewhere in the past 12 months (income, poorest 40%, % age 15+). [w1: data are available for wave 1].","sourceOrganization":"Demirguc-Kunt and Klapper, 2012","topics":[{"id":"7","value":"Financial Sector "}]},{"id":"WP11636.7","name":"Used an account at a financial institution to receive remittances, secondary education or more (% ages 15+) [w1]","source":{"id":"28","value":"Global Findex ( Global Financial Inclusion database)"},"sourceNote":"Denotes the percentage of respondents who report using their accounts at a formal financial institution to receive money from family members living elsewhere in the past 12 months (secondary education or more, % age 15+). [w1: data are available for wave 1].","sourceOrganization":"Demirguc-Kunt and Klapper, 2012","topics":[{"id":"7","value":"Financial Sector "}]},{"id":"WP11636.6","name":"Used an account at a financial institution to receive remittances, primary education or less (% ages 15+) [w1]","source":{"id":"28","value":"Global Findex ( Global Financial Inclusion database)"},"sourceNote":"Denotes the percentage of respondents who report using their accounts at a formal financial institution to receive money from family members living elsewhere in the past 12 months (primary education or less, % age 15+). [w1: data are available for wave 1].","sourceOrganization":"Demirguc-Kunt and Klapper, 2012","topics":[{"id":"7","value":"Financial Sector "}]},{"id":"WP11636.5","name":"Used an account at a financial institution to receive remittances, older adults (% ages 25+) [w1]","source":{"id":"28","value":"Global Findex ( Global Financial Inclusion database)"},"sourceNote":"Denotes the percentage of respondents who report using their accounts at a formal financial institution to receive money from family members living elsewhere in the past 12 months (% age 25+). [w1: data are available for wave 1].","sourceOrganization":"Demirguc-Kunt and Klapper, 2012","topics":[{"id":"7","value":"Financial Sector "}]},{"id":"WP11636.4","name":"Used an account at a financial institution to receive remittances, young adults (% ages 15-24) [w1]","source":{"id":"28","value":"Global Findex ( Global Financial Inclusion database)"},"sourceNote":"Denotes the percentage of respondents who report using their accounts at a formal financial institution to receive money from family members living elsewhere in the past 12 months (% ages 15-24). [w1: data are available for wave 1].","sourceOrganization":"Demirguc-Kunt and Klapper, 2012","topics":[{"id":"7","value":"Financial Sector "}]},{"id":"WP11636.3","name":"Used an account at a financial institution to receive remittances, female (% age 15+) [w1]","source":{"id":"28","value":"Global Findex ( Global Financial Inclusion database)"},"sourceNote":"Denotes the percentage of respondents who report using their accounts at a formal financial institution to receive money from family members living elsewhere in the past 12 months (female, % age 15+). [w1: data are available for wave 1].","sourceOrganization":"Demirguc-Kunt and Klapper, 2012","topics":[{"id":"7","value":"Financial Sector "}]},{"id":"WP11636.2","name":"Used an account at a financial institution to receive remittances, male (% age 15+) [w1]","source":{"id":"28","value":"Global Findex ( Global Financial Inclusion database)"},"sourceNote":"Denotes the percentage of respondents who report using their accounts at a formal financial institution to receive money from family members living elsewhere in the past 12 months (male, % age 15+). [w1: data are available for wave 1].","sourceOrganization":"Demirguc-Kunt and Klapper, 2012","topics":[{"id":"7","value":"Financial Sector "}]},{"id":"WP11636.10","name":"Used an account at a financial institution to receive remittances, rural (% age 15+) [w1]","source":{"id":"28","value":"Global Findex ( Global Financial Inclusion database)"},"sourceNote":"Denotes the percentage of respondents who report using their accounts at a formal financial institution to receive money from family members living elsewhere in the past 12 months (rural, % age 15+ ). [w1: data are available for wave 1].","sourceOrganization":"Demirguc-Kunt and Klapper, 2012","topics":[{"id":"7","value":"Financial Sector "}]},{"id":"WP11636.1","name":"Used an account at a financial institution to receive remittances (% age 15+) [w1]","source":{"id":"28","value":"Global Findex ( Global Financial Inclusion database)"},"sourceNote":"Denotes the percentage of respondents who report using their accounts at a formal financial institution to receive money from family members living elsewhere in the past 12 months (% age 15+). [w1: data are available for wave 1].","sourceOrganization":"Demirguc-Kunt and Klapper, 2012","topics":[{"id":"7","value":"Financial Sector "}]},{"id":"WP11635.9","name":"Used an account at a financial institution to receive government transfers, income, richest 60% (% ages 15+) [w1]","source":{"id":"28","value":"Global Findex ( Global Financial Inclusion database)"},"sourceNote":"Denotes the percentage of respondents who report using their accounts at a formal financial institution to receive money or payments from the government in the past 12 months (income, richest 60%, % age 15+). [w1: data are available for wave 1].","sourceOrganization":"Demirguc-Kunt and Klapper, 2012","topics":[{"id":"7","value":"Financial Sector "}]},{"id":"WP11635.8","name":"Used an account at a financial institution to receive government transfers, income, poorest 40% (% ages 15+) [w1]","source":{"id":"28","value":"Global Findex ( Global Financial Inclusion database)"},"sourceNote":"Denotes the percentage of respondents who report using their accounts at a formal financial institution to receive money or payments from the government in the past 12 months (income, poorest 40%, % age 15+). [w1: data are available for wave 1].","sourceOrganization":"Demirguc-Kunt and Klapper, 2012","topics":[{"id":"7","value":"Financial Sector "}]},{"id":"WP11635.7","name":"Used an account at a financial institution to receive government transfers, secondary education or more (% ages 15+) [w1]","source":{"id":"28","value":"Global Findex ( Global Financial Inclusion database)"},"sourceNote":"Denotes the percentage of respondents who report using their accounts at a formal financial institution to receive money or payments from the government in the past 12 months (secondary education or more, % age 15+). [w1: data are available for wave 1].","sourceOrganization":"Demirguc-Kunt and Klapper, 2012","topics":[{"id":"7","value":"Financial Sector "}]},{"id":"WP11635.6","name":"Used an account at a financial institution to receive government transfers, primary education or less (% ages 15+) [w1]","source":{"id":"28","value":"Global Findex ( Global Financial Inclusion database)"},"sourceNote":"Denotes the percentage of respondents who report using their accounts at a formal financial institution to receive money or payments from the government in the past 12 months (primary education or less, % age 15+). [w1: data are available for wave 1].","sourceOrganization":"Demirguc-Kunt and Klapper, 2012","topics":[{"id":"7","value":"Financial Sector "}]},{"id":"WP11635.5","name":"Used an account at a financial institution to receive government transfers, older adults (% ages 25+) [w1]","source":{"id":"28","value":"Global Findex ( Global Financial Inclusion database)"},"sourceNote":"Denotes the percentage of respondents who report using their accounts at a formal financial institution to receive money or payments from the government in the past 12 months (% age 25+). [w1: data are available for wave 1].","sourceOrganization":"Demirguc-Kunt and Klapper, 2012","topics":[{"id":"7","value":"Financial Sector "}]},{"id":"WP11635.4","name":"Used an account at a financial institution to receive government transfers, young adults (% ages 15-24) [w1]","source":{"id":"28","value":"Global Findex ( Global Financial Inclusion database)"},"sourceNote":"Denotes the percentage of respondents who report using their accounts at a formal financial institution to receive money or payments from the government in the past 12 months (% ages 15-24). [w1: data are available for wave 1].","sourceOrganization":"Demirguc-Kunt and Klapper, 2012","topics":[{"id":"7","value":"Financial Sector "}]},{"id":"WP11635.3","name":"Used an account at a financial institution to receive government transfers, female (% age 15+) [w1]","source":{"id":"28","value":"Global Findex ( Global Financial Inclusion database)"},"sourceNote":"Denotes the percentage of respondents who report using their accounts at a formal financial institution to receive money or payments from the government in the past 12 months (female, % age 15+). [w1: data are available for wave 1].","sourceOrganization":"Demirguc-Kunt and Klapper, 2012","topics":[{"id":"7","value":"Financial Sector "}]},{"id":"WP11635.2","name":"Used an account at a financial institution to receive government transfers, male (% age 15+) [w1]","source":{"id":"28","value":"Global Findex ( Global Financial Inclusion database)"},"sourceNote":"Denotes the percentage of respondents who report using their accounts at a formal financial institution to receive money or payments from the government in the past 12 months (male, % age 15+). [w1: data are available for wave 1].","sourceOrganization":"Demirguc-Kunt and Klapper, 2012","topics":[{"id":"7","value":"Financial Sector "}]},{"id":"WP11635.10","name":"Used an account at a financial institution to receive government transfers, rural (% age 15+) [w1]","source":{"id":"28","value":"Global Findex ( Global Financial Inclusion database)"},"sourceNote":"Denotes the percentage of respondents who report using their accounts at a formal financial institution to receive money or payments from the government in the past 12 months (rural, % age 15+ ). [w1: data are available for wave 1].","sourceOrganization":"Demirguc-Kunt and Klapper, 2012","topics":[{"id":"7","value":"Financial Sector "}]},{"id":"WP11635.1","name":"Used an account at a financial institution to receive government transfers (% age 15+) [w1]","source":{"id":"28","value":"Global Findex ( Global Financial Inclusion database)"},"sourceNote":"Denotes the percentage of respondents who report using their accounts at a formal financial institution to receive money or payments from the government in the past 12 months (% age 15+). [w1: data are available for wave 1].","sourceOrganization":"Demirguc-Kunt and Klapper, 2012","topics":[{"id":"7","value":"Financial Sector "}]},{"id":"WP11634.9","name":"Used an account at a financial institution to receive wages, income, richest 60% (% ages 15+) [w1]","source":{"id":"28","value":"Global Findex ( Global Financial Inclusion database)"},"sourceNote":"Denotes the percentage of respondents who report using their accounts at a formal financial institution to receive money or payments for work or from selling goods in the past 12 months (income, richest 60%, % age 15+). [w1: data are available for wave 1].","sourceOrganization":"Demirguc-Kunt and Klapper, 2012","topics":[{"id":"7","value":"Financial Sector "}]},{"id":"WP11634.8","name":"Used an account at a financial institution to receive wages, income, poorest 40% (% ages 15+) [w1]","source":{"id":"28","value":"Global Findex ( Global Financial Inclusion database)"},"sourceNote":"Denotes the percentage of respondents who report using their accounts at a formal financial institution to receive money or payments for work or from selling goods in the past 12 months (income, poorest 40%, % age 15+). [w1: data are available for wave 1].","sourceOrganization":"Demirguc-Kunt and Klapper, 2012","topics":[{"id":"7","value":"Financial Sector "}]},{"id":"WP11634.7","name":"Used an account at a financial institution to receive wages, secondary education or more (% ages 15+) [w1]","source":{"id":"28","value":"Global Findex ( Global Financial Inclusion database)"},"sourceNote":"Denotes the percentage of respondents who report using their accounts at a formal financial institution to receive money or payments for work or from selling goods in the past 12 months (secondary education or more, % age 15+). [w1: data are available for wave 1].","sourceOrganization":"Demirguc-Kunt and Klapper, 2012","topics":[{"id":"7","value":"Financial Sector "}]},{"id":"WP11634.6","name":"Used an account at a financial institution to receive wages, primary education or less (% ages 15+) [w1]","source":{"id":"28","value":"Global Findex ( Global Financial Inclusion database)"},"sourceNote":"Denotes the percentage of respondents who report using their accounts at a formal financial institution to receive money or payments for work or from selling goods in the past 12 months (primary education or less, % age 15+). [w1: data are available for wave 1].","sourceOrganization":"Demirguc-Kunt and Klapper, 2012","topics":[{"id":"7","value":"Financial Sector "}]},{"id":"WP11634.5","name":"Used an account at a financial institution to receive wages, older adults (% ages 25+) [w1]","source":{"id":"28","value":"Global Findex ( Global Financial Inclusion database)"},"sourceNote":"Denotes the percentage of respondents who report using their accounts at a formal financial institution to receive money or payments for work or from selling goods in the past 12 months (% age 25+). [w1: data are available for wave 1].","sourceOrganization":"Demirguc-Kunt and Klapper, 2012","topics":[{"id":"7","value":"Financial Sector "}]},{"id":"WP11634.4","name":"Used an account at a financial institution to receive wages, young adults (% ages 15-24) [w1]","source":{"id":"28","value":"Global Findex ( Global Financial Inclusion database)"},"sourceNote":"Denotes the percentage of respondents who report using their accounts at a formal financial institution to receive money or payments for work or from selling goods in the past 12 months (% ages 15-24). [w1: data are available for wave 1].","sourceOrganization":"Demirguc-Kunt and Klapper, 2012","topics":[{"id":"7","value":"Financial Sector "}]},{"id":"WP11634.3","name":"Used an account at a financial institution to receive wages, female (% age 15+) [w1]","source":{"id":"28","value":"Global Findex ( Global Financial Inclusion database)"},"sourceNote":"Denotes the percentage of respondents who report using their accounts at a formal financial institution to receive money or payments for work or from selling goods in the past 12 months (female, % age 15+). [w1: data are available for wave 1].","sourceOrganization":"Demirguc-Kunt and Klapper, 2012","topics":[{"id":"7","value":"Financial Sector "}]},{"id":"WP11634.2","name":"Used an account at a financial institution to receive wages, male (% age 15+) [w1]","source":{"id":"28","value":"Global Findex ( Global Financial Inclusion database)"},"sourceNote":"Denotes the percentage of respondents who report using their accounts at a formal financial institution to receive money or payments for work or from selling goods in the past 12 months (male, % age 15+). [w1: data are available for wave 1].","sourceOrganization":"Demirguc-Kunt and Klapper, 2012","topics":[{"id":"7","value":"Financial Sector "}]}]]