[{"page":220,"pages":324,"per_page":"50","total":16174},[{"id":"per_sa_su.avt_pop_rur","name":"Average per capita transfer - Subsidies -rural","source":{"id":"29","value":"Global Social Protection"},"sourceNote":"Average transfer amount of  Social Protection and Labor programs among program beneficiaries (per capita, daily $ppp)","sourceOrganization":"ASPIRE","topics":[{"id":"10","value":"Social Protection & Labor"}]},{"id":"per_sa_su.avt_pop_preT_tot","name":"Average per capita transfer - Subsidies (preT)","source":{"id":"29","value":"Global Social Protection"},"sourceNote":"Average transfer amount of  Social Protection and Labor programs among program beneficiaries (per capita, daily $ppp)","sourceOrganization":"ASPIRE","topics":[{"id":"10","value":"Social Protection & Labor"}]},{"id":"per_sa_su.avt_ep_tot","name":"Average per capita transfer held by extreme poor (<$1.25 a day) - Subsidies","source":{"id":"29","value":"Global Social Protection"},"sourceNote":"Average transfer amount of  Social Protection and Labor programs among program beneficiaries (per capita, daily $ppp)","sourceOrganization":"ASPIRE","topics":[{"id":"10","value":"Social Protection & Labor"}]},{"id":"per_sa_su.avt_ep_preT_tot","name":"Average per capita transfer held by extreme poor (<$1.25 a day) - Subsidies (preT)","source":{"id":"29","value":"Global Social Protection"},"sourceNote":"Average transfer amount of  Social Protection and Labor programs among program beneficiaries (per capita, daily $ppp)","sourceOrganization":"ASPIRE","topics":[{"id":"10","value":"Social Protection & Labor"}]},{"id":"per_sa_su.adq_q5_urb","name":"Adequacy of benefits in richest quintile (%) - Subsidies -urban","source":{"id":"29","value":"Global Social Protection"},"sourceNote":"Total transfer amount received by all beneficiaries in a population group as a share of the total welfare of beneficiaries in that group","sourceOrganization":"ASPIRE","topics":[{"id":"10","value":"Social Protection & Labor"}]},{"id":"per_sa_su.adq_q5_tot","name":"Adequacy of benefits in richest quintile (%) - Subsidies","source":{"id":"29","value":"Global Social Protection"},"sourceNote":"Total transfer amount received by all beneficiaries in a population group as a share of the total welfare of beneficiaries in that group","sourceOrganization":"ASPIRE","topics":[{"id":"10","value":"Social Protection & Labor"}]},{"id":"per_sa_su.adq_q5_rur","name":"Adequacy of benefits in richest quintile (%) - Subsidies -rural","source":{"id":"29","value":"Global Social Protection"},"sourceNote":"Total transfer amount received by all beneficiaries in a population group as a share of the total welfare of beneficiaries in that group","sourceOrganization":"ASPIRE","topics":[{"id":"10","value":"Social Protection & Labor"}]},{"id":"per_sa_su.adq_q5_preT_tot","name":"Adequacy of benefits in richest quintile (%) - Subsidies (preT)","source":{"id":"29","value":"Global Social Protection"},"sourceNote":"Total transfer amount received by all beneficiaries in a population group as a share of the total welfare of beneficiaries in that group","sourceOrganization":"ASPIRE","topics":[{"id":"10","value":"Social Protection & Labor"}]},{"id":"per_sa_su.adq_q4_urb","name":"Adequacy of benefits in 4th quintile (%) - Subsidies -urban","source":{"id":"29","value":"Global Social Protection"},"sourceNote":"Total transfer amount received by all beneficiaries in a population group as a share of the total welfare of beneficiaries in that group","sourceOrganization":"ASPIRE","topics":[{"id":"10","value":"Social Protection & Labor"}]},{"id":"per_sa_su.adq_q4_tot","name":"Adequacy of benefits in 4th quintile (%) - Subsidies","source":{"id":"29","value":"Global Social Protection"},"sourceNote":"Total transfer amount received by all beneficiaries in a population group as a share of the total welfare of beneficiaries in that group","sourceOrganization":"ASPIRE","topics":[{"id":"10","value":"Social Protection & Labor"}]},{"id":"per_sa_su.adq_q4_rur","name":"Adequacy of benefits in 4th quintile (%) - Subsidies -rural","source":{"id":"29","value":"Global Social Protection"},"sourceNote":"Total transfer amount received by all beneficiaries in a population group as a share of the total welfare of beneficiaries in that group","sourceOrganization":"ASPIRE","topics":[{"id":"10","value":"Social Protection & Labor"}]},{"id":"per_sa_su.adq_q4_preT_tot","name":"Adequacy of benefits in 4th quintile (%) - Subsidies (preT)","source":{"id":"29","value":"Global Social Protection"},"sourceNote":"Total transfer amount received by all beneficiaries in a population group as a share of the total welfare of beneficiaries in that group","sourceOrganization":"ASPIRE","topics":[{"id":"10","value":"Social Protection & Labor"}]},{"id":"per_sa_su.adq_q3_urb","name":"Adequacy of benefits in 3rd quintile (%) - Subsidies -urban","source":{"id":"29","value":"Global Social Protection"},"sourceNote":"Total transfer amount received by all beneficiaries in a population group as a share of the total welfare of beneficiaries in that group","sourceOrganization":"ASPIRE","topics":[{"id":"10","value":"Social Protection & Labor"}]},{"id":"per_sa_su.adq_q3_tot","name":"Adequacy of benefits in 3rd quintile (%) - Subsidies","source":{"id":"29","value":"Global Social Protection"},"sourceNote":"Total transfer amount received by all beneficiaries in a population group as a share of the total welfare of beneficiaries in that group","sourceOrganization":"ASPIRE","topics":[{"id":"10","value":"Social Protection & Labor"}]},{"id":"per_sa_su.adq_q3_rur","name":"Adequacy of benefits in 3rd quintile (%) - Subsidies -rural","source":{"id":"29","value":"Global Social Protection"},"sourceNote":"Total transfer amount received by all beneficiaries in a population group as a share of the total welfare of beneficiaries in that group","sourceOrganization":"ASPIRE","topics":[{"id":"10","value":"Social Protection & Labor"}]},{"id":"per_sa_su.adq_q3_preT_tot","name":"Adequacy of benefits in 3rd quintile (%) - Subsidies (preT)","source":{"id":"29","value":"Global Social Protection"},"sourceNote":"Total transfer amount received by all beneficiaries in a population group as a share of the total welfare of beneficiaries in that group","sourceOrganization":"ASPIRE","topics":[{"id":"10","value":"Social Protection & Labor"}]},{"id":"per_sa_su.adq_q2_urb","name":"Adequacy of benefits in 2nd quintile (%) - Subsidies -urban","source":{"id":"29","value":"Global Social Protection"},"sourceNote":"Total transfer amount received by all beneficiaries in a population group as a share of the total welfare of beneficiaries in that group","sourceOrganization":"ASPIRE","topics":[{"id":"10","value":"Social Protection & Labor"}]},{"id":"per_sa_su.adq_q2_tot","name":"Adequacy of benefits in 2nd quintile (%) - Subsidies","source":{"id":"29","value":"Global Social Protection"},"sourceNote":"Total transfer amount received by all beneficiaries in a population group as a share of the total welfare of beneficiaries in that group","sourceOrganization":"ASPIRE","topics":[{"id":"10","value":"Social Protection & Labor"}]},{"id":"per_sa_su.adq_q2_rur","name":"Adequacy of benefits in 2nd quintile (%) - Subsidies -rural","source":{"id":"29","value":"Global Social Protection"},"sourceNote":"Total transfer amount received by all beneficiaries in a population group as a share of the total welfare of beneficiaries in that group","sourceOrganization":"ASPIRE","topics":[{"id":"10","value":"Social Protection & Labor"}]},{"id":"per_sa_su.adq_q2_preT_tot","name":"Adequacy of benefits in 2nd quintile (%) - Subsidies (preT)","source":{"id":"29","value":"Global Social Protection"},"sourceNote":"Total transfer amount received by all beneficiaries in a population group as a share of the total welfare of beneficiaries in that group","sourceOrganization":"ASPIRE","topics":[{"id":"10","value":"Social Protection & Labor"}]},{"id":"per_sa_su.adq_q1_urb","name":"Adequacy of benefits in poorest quintile (%) - Subsidies -urban","source":{"id":"29","value":"Global Social Protection"},"sourceNote":"Total transfer amount received by all beneficiaries in a population group as a share of the total welfare of beneficiaries in that group","sourceOrganization":"ASPIRE","topics":[{"id":"10","value":"Social Protection & Labor"}]},{"id":"per_sa_su.adq_q1_tot","name":"Adequacy of benefits in poorest quintile (%) - Subsidies","source":{"id":"29","value":"Global Social Protection"},"sourceNote":"Total transfer amount received by all beneficiaries in a population group as a share of the total welfare of beneficiaries in that group","sourceOrganization":"ASPIRE","topics":[{"id":"10","value":"Social Protection & Labor"}]},{"id":"per_sa_su.adq_q1_rur","name":"Adequacy of benefits in poorest quintile (%) - Subsidies -rural","source":{"id":"29","value":"Global Social Protection"},"sourceNote":"Total transfer amount received by all beneficiaries in a population group as a share of the total welfare of beneficiaries in that group","sourceOrganization":"ASPIRE","topics":[{"id":"10","value":"Social Protection & Labor"}]},{"id":"per_sa_su.adq_q1_preT_tot","name":"Adequacy of benefits in poorest quintile (%) - Subsidies (preT)","source":{"id":"29","value":"Global Social Protection"},"sourceNote":"Total transfer amount received by all beneficiaries in a population group as a share of the total welfare of beneficiaries in that group","sourceOrganization":"ASPIRE","topics":[{"id":"10","value":"Social Protection & Labor"}]},{"id":"per_sa_su.adq_pop_urb","name":"Adequacy of benefits (%) - Subsidies -urban","source":{"id":"29","value":"Global Social Protection"},"sourceNote":"Total transfer amount received by all beneficiaries in a population group as a share of the total welfare of beneficiaries in that group","sourceOrganization":"ASPIRE","topics":[{"id":"10","value":"Social Protection & Labor"}]},{"id":"per_sa_su.adq_pop_tot","name":"Adequacy of benefits (%) - Subsidies","source":{"id":"29","value":"Global Social Protection"},"sourceNote":"Total transfer amount received by all beneficiaries in a population group as a share of the total welfare of beneficiaries in that group","sourceOrganization":"ASPIRE","topics":[{"id":"10","value":"Social Protection & Labor"}]},{"id":"per_sa_su.adq_pop_rur","name":"Adequacy of benefits (%) - Subsidies -rural","source":{"id":"29","value":"Global Social Protection"},"sourceNote":"Total transfer amount received by all beneficiaries in a population group as a share of the total welfare of beneficiaries in that group","sourceOrganization":"ASPIRE","topics":[{"id":"10","value":"Social Protection & Labor"}]},{"id":"per_sa_su.adq_pop_preT_tot","name":"Adequacy of benefits (%) - Subsidies (preT)","source":{"id":"29","value":"Global Social Protection"},"sourceNote":"Total transfer amount received by all beneficiaries in a population group as a share of the total welfare of beneficiaries in that group","sourceOrganization":"ASPIRE","topics":[{"id":"10","value":"Social Protection & Labor"}]},{"id":"per_sa_su.adq_ep_tot","name":"Adequacy of benefits in extreme poor (<$1.25 a day) (%) - Subsidies","source":{"id":"29","value":"Global Social Protection"},"sourceNote":"Total transfer amount received by all beneficiaries in a population group as a share of the total welfare of beneficiaries in that group","sourceOrganization":"ASPIRE","topics":[{"id":"10","value":"Social Protection & Labor"}]},{"id":"per_sa_su.adq_ep_preT_tot","name":"Adequacy of benefits in extreme poor (<$1.25 a day) (%) - Subsidies (preT)","source":{"id":"29","value":"Global Social Protection"},"sourceNote":"Total transfer amount received by all beneficiaries in a population group as a share of the total welfare of beneficiaries in that group","sourceOrganization":"ASPIRE","topics":[{"id":"10","value":"Social Protection & Labor"}]},{"id":"per_sa_sp_p1_urb","name":"Poverty Gap reduction (%) -  Social Pension - poorest quintile -urban","source":{"id":"29","value":"Global Social Protection"},"sourceNote":"NULL","sourceOrganization":"The Atlas of Social Protection: Indicators of Resilience and Equity (ASPIRE)","topics":[{"id":"10","value":"Social Protection & Labor"}]},{"id":"per_sa_sp_p1_tot","name":"Poverty Gap reduction (%) -  Social Pension -poorest quintile","source":{"id":"29","value":"Global Social Protection"},"sourceNote":"NULL","sourceOrganization":"The Atlas of Social Protection: Indicators of Resilience and Equity (ASPIRE)","topics":[{"id":"10","value":"Social Protection & Labor"}]},{"id":"per_sa_sp_p1_rur","name":"Poverty Gap reduction (%) -  Social Pension -poorest quintile -rural","source":{"id":"29","value":"Global Social Protection"},"sourceNote":"NULL","sourceOrganization":"The Atlas of Social Protection: Indicators of Resilience and Equity (ASPIRE)","topics":[{"id":"10","value":"Social Protection & Labor"}]},{"id":"per_sa_sp_p1_preT_tot","name":"Poverty Gap reduction (%) -  Social Pension -poorest quintile (preT)","source":{"id":"29","value":"Global Social Protection"},"sourceNote":"NULL","sourceOrganization":"The Atlas of Social Protection: Indicators of Resilience and Equity (ASPIRE)","topics":[{"id":"10","value":"Social Protection & Labor"}]},{"id":"per_sa_sp_p1_ep_tot","name":"Poverty Gap reduction (%) -  Social Pension -extreme poor (<$1.25 a day)","source":{"id":"29","value":"Global Social Protection"},"sourceNote":"NULL","sourceOrganization":"The Atlas of Social Protection: Indicators of Resilience and Equity (ASPIRE)","topics":[{"id":"10","value":"Social Protection & Labor"}]},{"id":"per_sa_sp_p1_ep_preT_tot","name":"Poverty Gap reduction (%) -  Social Pension -extreme poor (<$1.25 a day) (preT)","source":{"id":"29","value":"Global Social Protection"},"sourceNote":"NULL","sourceOrganization":"The Atlas of Social Protection: Indicators of Resilience and Equity (ASPIRE)","topics":[{"id":"10","value":"Social Protection & Labor"}]},{"id":"per_sa_sp_p0_urb","name":"Poverty Headcount reduction (%) -  Social Pension - poorest quintile -urban","source":{"id":"29","value":"Global Social Protection"},"sourceNote":"NULL","sourceOrganization":"The Atlas of Social Protection: Indicators of Resilience and Equity (ASPIRE)","topics":[{"id":"10","value":"Social Protection & Labor"}]},{"id":"per_sa_sp_p0_tot","name":"Poverty Headcount reduction (%) -  Social Pension -poorest quintile","source":{"id":"29","value":"Global Social Protection"},"sourceNote":"NULL","sourceOrganization":"The Atlas of Social Protection: Indicators of Resilience and Equity (ASPIRE)","topics":[{"id":"10","value":"Social Protection & Labor"}]},{"id":"per_sa_sp_p0_rur","name":"Poverty Headcount reduction (%) -  Social Pension -poorest quintile -rural","source":{"id":"29","value":"Global Social Protection"},"sourceNote":"NULL","sourceOrganization":"The Atlas of Social Protection: Indicators of Resilience and Equity (ASPIRE)","topics":[{"id":"10","value":"Social Protection & Labor"}]},{"id":"per_sa_sp_p0_preT_tot","name":"Poverty Headcount reduction (%) -  Social Pension -poorest quintile (preT)","source":{"id":"29","value":"Global Social Protection"},"sourceNote":"NULL","sourceOrganization":"The Atlas of Social Protection: Indicators of Resilience and Equity (ASPIRE)","topics":[{"id":"10","value":"Social Protection & Labor"}]},{"id":"per_sa_sp_p0_ep_tot","name":"Poverty Headcount reduction (%) -  Social Pension -extreme poor (<$1.25 a day)","source":{"id":"29","value":"Global Social Protection"},"sourceNote":"NULL","sourceOrganization":"The Atlas of Social Protection: Indicators of Resilience and Equity (ASPIRE)","topics":[{"id":"10","value":"Social Protection & Labor"}]},{"id":"per_sa_sp_p0_ep_preT_tot","name":"Poverty Headcount reduction (%) -  Social Pension -extreme poor (<$1.25 a day) (preT)","source":{"id":"29","value":"Global Social Protection"},"sourceNote":"NULL","sourceOrganization":"The Atlas of Social Protection: Indicators of Resilience and Equity (ASPIRE)","topics":[{"id":"10","value":"Social Protection & Labor"}]},{"id":"per_sa_sp_gini_urb","name":"Gini inequality reduction (%) -  Social Pension - poorest quintile -urban","source":{"id":"29","value":"Global Social Protection"},"sourceNote":"NULL","sourceOrganization":"The Atlas of Social Protection: Indicators of Resilience and Equity (ASPIRE)","topics":[{"id":"10","value":"Social Protection & Labor"}]},{"id":"per_sa_sp_gini_tot","name":"Gini inequality reduction (%) -  Social Pension -poorest quintile","source":{"id":"29","value":"Global Social Protection"},"sourceNote":"NULL","sourceOrganization":"The Atlas of Social Protection: Indicators of Resilience and Equity (ASPIRE)","topics":[{"id":"10","value":"Social Protection & Labor"}]},{"id":"per_sa_sp_gini_rur","name":"Gini inequality reduction (%) -  Social Pension -poorest quintile -rural","source":{"id":"29","value":"Global Social Protection"},"sourceNote":"NULL","sourceOrganization":"The Atlas of Social Protection: Indicators of Resilience and Equity (ASPIRE)","topics":[{"id":"10","value":"Social Protection & Labor"}]},{"id":"per_sa_sp_gini_preT_tot","name":"Gini inequality reduction (%) -  Social Pension -poorest quintile (preT)","source":{"id":"29","value":"Global Social Protection"},"sourceNote":"NULL","sourceOrganization":"The Atlas of Social Protection: Indicators of Resilience and Equity (ASPIRE)","topics":[{"id":"10","value":"Social Protection & Labor"}]},{"id":"per_sa_sp_gini_ep_tot","name":"Gini inequality reduction (%) -  Social Pension -extreme poor (<$1.25 a day)","source":{"id":"29","value":"Global Social Protection"},"sourceNote":"NULL","sourceOrganization":"The Atlas of Social Protection: Indicators of Resilience and Equity (ASPIRE)","topics":[{"id":"10","value":"Social Protection & Labor"}]},{"id":"per_sa_sp_gini_ep_preT_tot","name":"Gini inequality reduction (%) -  Social Pension -extreme poor (<$1.25 a day) (preT)","source":{"id":"29","value":"Global Social Protection"},"sourceNote":"NULL","sourceOrganization":"The Atlas of Social Protection: Indicators of Resilience and Equity (ASPIRE)","topics":[{"id":"10","value":"Social Protection & Labor"}]},{"id":"per_sa_sp.cov_q5_urb","name":"Coverage in richest quintile (%) - Social Pensions -urban","source":{"id":"29","value":"Global Social Protection"},"sourceNote":"NULL","sourceOrganization":"The Atlas of Social Protection: Indicators of Resilience and Equity (ASPIRE)","topics":[{"id":"10","value":"Social Protection & Labor"}]},{"id":"per_sa_sp.cov_q5_tot","name":"Coverage in richest quintile (%) - Social Pensions ","source":{"id":"29","value":"Global Social Protection"},"sourceNote":"NULL","sourceOrganization":"The Atlas of Social Protection: Indicators of Resilience and Equity (ASPIRE)","topics":[{"id":"10","value":"Social Protection & Labor"}]}]]