[{"page":105,"pages":324,"per_page":"50","total":16174},[{"id":"GC.LBL.TOTL.CN","name":"Net incurrence of liabilities, total (current LCU)","source":{"id":"2","value":"World Development Indicators"},"sourceNote":"Net incurrence of government liabilities includes foreign financing (obtained from nonresidents) and domestic financing (obtained from residents), or the means by which a government provides financial resources to cover a budget deficit or allocates financial resources arising from a budget surplus. The net incurrence of liabilities should be offset by the net acquisition of financial assets.","sourceOrganization":"International Monetary Fund, Government Finance Statistics Yearbook and data files.","topics":[{"id":"13","value":"Public Sector "}]},{"id":"GC.DOD.TOTL.GD.ZS","name":"Central government debt, total (% of GDP)","source":{"id":"2","value":"World Development Indicators"},"sourceNote":"Debt is the entire stock of direct government fixed-term contractual obligations to others outstanding on a particular date. It includes domestic and foreign liabilities such as currency and money deposits, securities other than shares, and loans. It is the gross amount of government liabilities reduced by the amount of equity and financial derivatives held by the government. Because debt is a stock rather than a flow, it is measured as of a given date, usually the last day of the fiscal year.","sourceOrganization":"International Monetary Fund, Government Finance Statistics Yearbook and data files, and World Bank and OECD GDP estimates.","topics":[{"id":"3","value":"Economy & Growth"},{"id":"13","value":"Public Sector "}]},{"id":"GC.DOD.TOTL.CN","name":"Central government debt, total (current LCU)","source":{"id":"2","value":"World Development Indicators"},"sourceNote":"Debt is the entire stock of direct government fixed-term contractual obligations to others outstanding on a particular date. It includes domestic and foreign liabilities such as currency and money deposits, securities other than shares, and loans. It is the gross amount of government liabilities reduced by the amount of equity and financial derivatives held by the government. Because debt is a stock rather than a flow, it is measured as of a given date, usually the last day of the fiscal year.","sourceOrganization":"International Monetary Fund, Government Finance Statistics Yearbook and data files.","topics":[{"id":"13","value":"Public Sector "}]},{"id":"GC.BAL.CASH.CD","name":"Fiscal balance, cash surplus\/deficit (current US$)","source":{"id":"11","value":"Africa Development Indicators"},"sourceNote":"Cash surplus or deficit is revenue (including grants) minus expense, minus net acquisition of nonfinancial assets. In the 1986 GFS manual nonfinancial assets were included under revenue and expenditure in gross terms. This cash surplus or deficit is closest to the earlier overall budget balance (still missing is lending minus repayments, which are now a financing item under net acquisition of financial assets).","sourceOrganization":"International Monetary Fund, Government Finance Statistics Yearbook and data files.","topics":[]},{"id":"GC.AST.TOTL.GD.ZS","name":"Net acquisition of financial assets (% of GDP)","source":{"id":"2","value":"World Development Indicators"},"sourceNote":"Net acquisition of government financial assets includes domestic and foreign financial claims, SDRs, and gold bullion held by monetary authorities as a reserve asset. The net acquisition of financial assets should be offset by the net incurrence of liabilities.","sourceOrganization":"International Monetary Fund, Government Finance Statistics Yearbook and data files.","topics":[{"id":"13","value":"Public Sector "}]},{"id":"GC.AST.TOTL.CN","name":"Net acquisition of financial assets (current LCU)","source":{"id":"2","value":"World Development Indicators"},"sourceNote":"Net acquisition of government financial assets includes domestic and foreign financial claims, SDRs, and gold bullion held by monetary authorities as a reserve asset. The net acquisition of financial assets should be offset by the net incurrence of liabilities.","sourceOrganization":"International Monetary Fund, Government Finance Statistics Yearbook and data files.","topics":[{"id":"13","value":"Public Sector "}]},{"id":"GB.XPL.TRNL.CN","name":"Capital transfers (current LCU)","source":{"id":"11","value":"Africa Development Indicators"},"sourceNote":"Capital transfers. Data are in current local currency.    ","sourceOrganization":"World Bank country economists.","topics":[]},{"id":"GB.XPK.RINV.CN","name":"Budgetary investment (current LCU)","source":{"id":"11","value":"Africa Development Indicators"},"sourceNote":"Budgetary investment.  Data are in current local currency.  ","sourceOrganization":"World Bank country economists","topics":[]},{"id":"GB.XPK.INLD.CN","name":"Total capital expenditure and net lending (current LCU)","source":{"id":"11","value":"Africa Development Indicators"},"sourceNote":"Expenditure for acquisition of land, intangible assets, government   stocks, and nonmilitary and nonfinancial assets; also for capital  grants and lending minus repayments. Data are in current local currency.  ","sourceOrganization":"World Bank country economists.","topics":[]},{"id":"GB.XPD.RSDV.GD.ZS","name":"Research and development expenditure (% of GDP)","source":{"id":"2","value":"World Development Indicators"},"sourceNote":"Expenditures for research and development are current and capital expenditures (both public and private) on creative work undertaken systematically to increase knowledge, including knowledge of humanity, culture, and society, and the use of knowledge for new applications. R&D covers basic research, applied research, and experimental development.","sourceOrganization":"United Nations Educational, Scientific, and Cultural Organization (UNESCO) Institute for Statistics.","topics":[{"id":"14","value":"Science & Technology "}]},{"id":"GB.XPD.INLD.CN","name":"Total expenditure and net lending (current LCU)","source":{"id":"11","value":"Africa Development Indicators"},"sourceNote":"Total expenditure and net lending includes both current and capital (development) expenditures and includes lending minus repayments. Data are shown for central government only.  Data are in current local currency.  ","sourceOrganization":"World Bank country economists.","topics":[]},{"id":"GB.XPD.DEFN.CN","name":"Defense expenditure (current LCU)","source":{"id":"11","value":"Africa Development Indicators"},"sourceNote":"Defense expenditures for NATO countries are based on the NATO definition, which covers military-related expenditures of the defense ministry (including recruiting, training, construction, and the purchase of military supplies and equipment) and other ministries. Civilian-type expenditures of the defense ministry are excluded. Military assistance is included in the expenditures of the donor country, and purchases of military equipment on credit are included at the time the debt is incurred, not at the time of payment. Data for other countries generally cover expenditures of the ministry of defense (excluded are expenditures on public order and safety, which are classified separately). Data are in current local currency.  ","sourceOrganization":"World Bank country economists.","topics":[]},{"id":"GB.XPC.WAGE.CN","name":"Wages and salaries (current LCU)","source":{"id":"11","value":"Africa Development Indicators"},"sourceNote":"Wages and salaries consist of all payments in cash, but not in kind, to employees in return for services rendered, before deduction of withholding taxes and employees  contributions to social security and pension funds. Data are shown for central government only.  Data are in current local currency.","sourceOrganization":"World Bank country economists.","topics":[]},{"id":"GB.XPC.TRFO.CN","name":"Other current transfers (current LCU)","source":{"id":"11","value":"Africa Development Indicators"},"sourceNote":"Other current transfers include all unrequited, nonrepayable transfers on current account to private and public enterprises. Data are in current local currency.  ","sourceOrganization":"World Bank country economists.","topics":[]},{"id":"GB.XPC.TOTL.CN","name":"Current expenditure, total (current LCU)","source":{"id":"11","value":"Africa Development Indicators"},"sourceNote":"Total current expenditure includes requited payments other than for capital assets or for goods or services to be used in the production of capital assets, and unrequited payments for purposes other than permitting the recipients to acquire capital assets, compensating the recipients for damage or destruction of capital assets, or increasing the financial capital of the recipients.  Data are shown for central government only.  Data are in current local currency.","sourceOrganization":"World Bank country economists.","topics":[]},{"id":"GB.XPC.SUBS.CN","name":"Subsidies (GFS, current LCU)","source":{"id":"11","value":"Africa Development Indicators"},"sourceNote":"Subsidies are current unrequited payments that government units make to enterprises, resident producers and importers. Subsidies may be designed to influence enterprises level or type of production, or the prices at which the products are sold. (Capital grants are in the national accounts classified as capital transfers.) Subsidies consists of ‘subsidies on products’, subsidies payable per unit of a good or a service, and ‘other subsidies on production’, which cover all other subsidies enterprises receives as a consequence of engaging in production. Data are in current local currency.  ","sourceOrganization":"World Bank country economists.","topics":[]},{"id":"GB.XPC.INTE.CN","name":"Interest on external debt (current LCU)","source":{"id":"11","value":"Africa Development Indicators"},"sourceNote":"Interest on external debt (current LCU). Data are in current local currency.  ","sourceOrganization":"World Bank country economists.","topics":[]},{"id":"GB.XPC.INTD.CN","name":"Interest on domestic debt (current LCU)","source":{"id":"11","value":"Africa Development Indicators"},"sourceNote":"Interest on domestic debt.  Data are in current local currency.  ","sourceOrganization":"World Bank country economists.","topics":[]},{"id":"GB.XPC.GSRV.CN","name":"Government consumption (current LCU)","source":{"id":"11","value":"Africa Development Indicators"},"sourceNote":"Current expenditure on goods and services comprises payments of wages and salaries in cash to employees (including the armed forces) before deduction of withholding taxes and employees' contributions to social security and pension funds, as well as employers' contributions to superannuation schemes outside government, and other purchases of goods and services (wages and salaries in kind, office supplies and maintenance charges etc.). Data are in current local currency.  ","sourceOrganization":"World Bank country economists.","topics":[]},{"id":"GB.TDS.FRGN.CN","name":"Central government debt service, external (current LCU)","source":{"id":"11","value":"Africa Development Indicators"},"sourceNote":"Debt is the entire stock of direct government fixed-term contractual obligations to others outstanding on a particular date such as money deposits, securities, shares and loans. Data are in current local currency.  ","sourceOrganization":"World Bank country economists","topics":[]},{"id":"GB.TDS.ABRD.CN","name":"Adjustments to foreign scheduled debt service (current LCU)","source":{"id":"11","value":"Africa Development Indicators"},"sourceNote":"Debt is the entire stock of direct government fixed-term contractual obligations to others outstanding on a particular date such as money deposits, securities, shares and loans.  Data are in current local currency.  ","sourceOrganization":"World Bank country economists","topics":[]},{"id":"GB.TAX.INTT.CN","name":"Taxes on international trade, GB (current LCU)","source":{"id":"11","value":"Africa Development Indicators"},"sourceNote":"Taxes on international trade include import duties, export duties, profits of export or import monopolies, exchange profits, and exchange taxes.  Current revenue includes all revenue from taxes and nonrepayable receipts (other than grants) from the sale of land, intangible assets, government stocks, or fixed capital assets, or from capital transfers from nongovernmental sources.  It also includes fines, fees, recoveries, inheritance taxes, and nonrecurrent levies on capital.  Data are shown for central government only.  Data are in current local currency.","sourceOrganization":"World Bank country economists.","topics":[]},{"id":"GB.TAX.IDRT.CN","name":"Indirect taxes less subsidies (current LCU)","source":{"id":"11","value":"Africa Development Indicators"},"sourceNote":"Indirect taxes are the sum of indirect taxes less subsidies. Indirect taxes are those taxes payable by producers that relate to the production, sale, purchase or use of the goods and services. Subsidies are grants on the current account made by general government to private enterprises and unincorporated public enterprises.  Data are in current local currency.","sourceOrganization":"World Bank country economists.","topics":[]},{"id":"GB.TAX.GSRV.CN","name":"Taxes on goods and services, GB (current LCU)","source":{"id":"11","value":"Africa Development Indicators"},"sourceNote":"Taxes on goods and services include all taxes and duties levied by central governments on the production, extraction, sale, transfer, leasing, or delivery of goods and rendering of services, or on the use of goods or permission to use goods or perform activities. These include general sales taxes, turnover or value added taxes, excise taxes, and motor vehicle taxes. Data are shown for central government only and are in current local currency.  ","sourceOrganization":"World Bank country economists.","topics":[]},{"id":"GB.TAX.DRCT.CN","name":"Direct taxes (current LCU)","source":{"id":"11","value":"Africa Development Indicators"},"sourceNote":"Direct taxes on goods and services include all taxes and duties levied  on production, extraction, sale, transfer, leasing, or delivery of goods and rendering of services, or in respect of the use of goods, or permission to use goods or to perform activities, are covered.  Examples include all general sales taxes, value added taxes and excises.  Data are in current local currency.","sourceOrganization":"World Bank country economists.","topics":[]},{"id":"GB.TAX.CMAR.ZS","name":"Highest marginal tax rate, corporate rate (%)","source":{"id":"11","value":"Africa Development Indicators"},"sourceNote":"Highest marginal tax rate (corporate rate) is the highest rate shown on the schedule of tax rates applied to the taxable income of corporations.","sourceOrganization":"KPMG's Corporate and Indirect Tax Rate Survey 2009 (www.kpmg.com), and PricewaterhouseCoopers's Worldwide Tax Summaries Online (www.pwc.com).","topics":[{"id":"13","value":"Public Sector "}]},{"id":"GB.RVK.TOTL.CN","name":"Capital revenue (current LCU)","source":{"id":"11","value":"Africa Development Indicators"},"sourceNote":"Capital revenue comprises proceeds from the sale of nonfinancial capital assets, including land, intangible assets, stocks, and fixed capital assets of buildings, construction and equipment of more than a minimum value and usable for more than one year in the process of production, and receipts of unrequited transfers for capital purposes from nongovernmental sources. Data are in current local currency.","sourceOrganization":"World Bank country economists.","topics":[]},{"id":"GB.RVC.TOTL.CN","name":"Current revenue, excluding grants (current LCU)","source":{"id":"11","value":"Africa Development Indicators"},"sourceNote":"Revenue is cash receipts from taxes, social contributions, and other revenues such as fines, fees, rent, and income from property or sales.  Data are in current local currency.","sourceOrganization":"World Bank country economists","topics":[]},{"id":"GB.RVC.IGRT.CN","name":"Total currrent revenues  including current grants (current LCU)","source":{"id":"11","value":"Africa Development Indicators"},"sourceNote":"Current revenue (including grants) includes all revenue from taxes and current nontax revenues such as fines, fees, recoveries, and income from property or sales, and grants. Data are shown for central government only, and are in current local currency.  ","sourceOrganization":"World Bank country economists.","topics":[]},{"id":"GB.REV.XAGT.CN.ZS","name":"Central government revenues, excluding all grants (% of GDP)","source":{"id":"11","value":"Africa Development Indicators"},"sourceNote":"Central government revenues, excluding all grants.  ","sourceOrganization":"World Bank country economists.","topics":[]},{"id":"GB.REV.XAGT.CN","name":"Central government revenue excluding all grants  (current LCU)","source":{"id":"11","value":"Africa Development Indicators"},"sourceNote":"Central government revenue excluding all grants.  Data are in current local currency.","sourceOrganization":"World Bank country economists.","topics":[]},{"id":"GB.REV.IGRT.CN","name":"Total revenue including current grants (current LCU)","source":{"id":"11","value":"Africa Development Indicators"},"sourceNote":"Total revenue and grants equals the sum of government revenue and grants. Revenue includes all nonrepayable and nonrepaying government  receipts other than grants. Grants are defined as unrequited, nonrepayable, noncompulsory receipts. Data are in current local currency.","sourceOrganization":"World Bank country economists.","topics":[]},{"id":"GB.NTX.CIGR.CN","name":"Nontax receipts (current LCU)","source":{"id":"11","value":"Africa Development Indicators"},"sourceNote":"Receipts from sources other than the tax system like property income, fees, fines, and contributions to government employee pension funds within government.  Data ate in current local currency.","sourceOrganization":"World Bank country economists.","topics":[]},{"id":"GB.GRT.KFRN.CN","name":"External capital grants (current LCU)","source":{"id":"11","value":"Africa Development Indicators"},"sourceNote":"Grants are unrequited, nonrepayable, noncompulsory receipts of government from other governments or international institutions. In determination of the deficit\/surplus, grants are grouped with revenue and expenditure rather than with financing. Values are","sourceOrganization":"World Bank country economists.","topics":[]},{"id":"GB.GRT.CTOT.CN","name":"Total current grants (current LCU)","source":{"id":"11","value":"Africa Development Indicators"},"sourceNote":"Grants include grants from other foreign governments, international organizations, and other government units.  Data are in current local currency.  ","sourceOrganization":"World Bank country economists.","topics":[]},{"id":"GB.FIN.IKFR.CN","name":"Financing, including external capital grants (current LCU)","source":{"id":"11","value":"Africa Development Indicators"},"sourceNote":"Financing, including external capital grants. Data are in current local currency.","sourceOrganization":"World Bank country economists","topics":[]},{"id":"GB.FIN.DNMS.CN","name":"Other domestic borrowing (current LCU)","source":{"id":"11","value":"Africa Development Indicators"},"sourceNote":"Domestic financing (obtained from residents) refer to the means by which a government provides financial resources to cover a budget deficit or allocates financial resources arising from a budget surplus. It includes all government liabilities--other than those for currency issues or demand, time, or savings deposits with government--or claims on others held by government and changes in government holdings of cash and deposits. Government guarantees of the debt of others are excluded. Data are shown for central government only, and are in current local currency. ","sourceOrganization":"World Bank country economists.","topics":[]},{"id":"GB.FIN.DMSY.CN","name":"Domestic financing, monetary system credit (current LCU)","source":{"id":"11","value":"Africa Development Indicators"},"sourceNote":"Domestic financing, monetary system credit. Data are in current local currency.","sourceOrganization":"World Bank country economists.","topics":[]},{"id":"GB.FIN.ABRD.CN","name":"External borrowing, net (current LCU)","source":{"id":"11","value":"Africa Development Indicators"},"sourceNote":"Financing from abroad (obtained from nonresidents) refer to the means by which a government provides financial resources to cover a budget deficit or allocates financial resources arising from a budget surplus. It includes all government liabilities--other.  Data are in current local currency.","sourceOrganization":"World Bank country economists.","topics":[]},{"id":"GB.DTA.FRGN.CN","name":"Central government arrears on external debt (current LCU)","source":{"id":"11","value":"Africa Development Indicators"},"sourceNote":"Central government arrears on external debt.  Data are in current local currency.  ","sourceOrganization":"World Bank country economists.","topics":[]},{"id":"GB.DTA.DOMS.CN","name":"Central government arrears on domestic debt (current LCU)","source":{"id":"11","value":"Africa Development Indicators"},"sourceNote":"Central government arrears on domestic debt.  Data are in current local currency.  ","sourceOrganization":"World Bank country economists.","topics":[]},{"id":"GB.DOD.TOTL.CN","name":"Total government debt (current LCU)","source":{"id":"11","value":"Africa Development Indicators"},"sourceNote":"Debt is the entire stock of direct government fixed-term contractual obligations to others outstanding on a particular date. It includes domestic and foreign liabilities such as currency and money deposits, securities other than shares, and loans. It is the gross amount of government liabilities reduced by the amount of equity and financial derivatives held by the government. Because debt is a stock rather than a flow, it is measured as of a given date, usually the last day of the fiscal year.  Data are in current local currency.  ","sourceOrganization":"World Bank country economists.","topics":[]},{"id":"GB.DOD.FRGN.CN","name":"External debt, end year (current LCU)","source":{"id":"11","value":"Africa Development Indicators"},"sourceNote":"Foreign debt consists of the outstanding stock or recognized, direct liabilities of the government to the rest of the world, generated in the  past and scheduled to be extinguished by government operations in the future or to continue as perpetual debt. Data are in current local currency.  ","sourceOrganization":"World Bank country economists.","topics":[]},{"id":"GB.DOD.FRGN.CD","name":"External debt, end year (current US$)","source":{"id":"11","value":"Africa Development Indicators"},"sourceNote":"Foreign debt consists of the outstanding stock or recognized, direct liabilities of the government to the rest of the world, generated in the  past and scheduled to be extinguished by government operations in the future or to continue as perpetual debt. Data are in current U.S. dollars.  ","sourceOrganization":"World Bank country economists.","topics":[]},{"id":"GB.DOD.DNMS.CN","name":"Central government debt, other domestic (current LCU)","source":{"id":"11","value":"Africa Development Indicators"},"sourceNote":"Domestic debt to other in current local currencies. ","sourceOrganization":"World Bank and Global Development Finance.","topics":[]},{"id":"GB.DOD.DMSY.CN","name":"Central government debt, monetary system credit (current LCU)","source":{"id":"11","value":"Africa Development Indicators"},"sourceNote":"Domestic debt consists of the outstanding stock or recognized, direct liabilities to the monetary system. Data are in current local currencies.  ","sourceOrganization":"World Bank country economists.","topics":[]},{"id":"GB.BAL.XINT.CN","name":"Primary balance, excluding interest (current LCU)","source":{"id":"11","value":"Africa Development Indicators"},"sourceNote":"Primary deficit, excluding interest (current LCU).  ","sourceOrganization":"World Bank country economists.","topics":[]},{"id":"GB.BAL.OVXG.CN","name":"Overall surplus\/deficit, excluding all grants (current LCU)","source":{"id":"11","value":"Africa Development Indicators"},"sourceNote":"Overall budget deficit is current and capital revenue excluding current grants less total expenditure and lending minus repayments. Values are in current local currencies.  ","sourceOrganization":"World Bank country economists.","topics":[]},{"id":"GB.BAL.OVRX.CN","name":"Overall surplus\/deficit, excluding current grants (current LCU)","source":{"id":"11","value":"Africa Development Indicators"},"sourceNote":"Overall budget surplus\/deficit (excluding current grants) is current and capital revenue excluding current grants, less total expenditure and lending minus repayments. Data are shown for central government only, and are in current local currency.  ","sourceOrganization":"World Bank country economists.","topics":[]},{"id":"GB.BAL.OVRL.CN","name":"Overall budget balance, including grants (current LCU)","source":{"id":"11","value":"Africa Development Indicators"},"sourceNote":"Overall budget deficit is current and capital revenue and official grants received, less total expenditure and lending minus repayments. Data are shown for central government only, and are in current local currency.  ","sourceOrganization":"World Bank country economists.","topics":[{}]}]]