[{"page":104,"pages":324,"per_page":"50","total":16174},[{"id":"GB.BAL.CIGR.CN","name":"Current budget balance, including grants (current LCU)","source":{"id":"11","value":"Africa Development Indicators"},"sourceNote":"The excess of current revenue over current expenditure. data are in current local currencies.  ","sourceOrganization":"World Bank country economists.","topics":[]},{"id":"GB.AMA.ABRD.CN","name":"Adjustments to foreign scheduled principal repayments (current LCU)","source":{"id":"11","value":"Africa Development Indicators"},"sourceNote":"Principal repayments are actual amounts of principal (amortization) paid in currency, goods, or services in the year specified.  ","sourceOrganization":"World Bank country economists","topics":[]},{"id":"FZINC","name":"Zinc, nominal, $\/mt","source":{"id":"55","value":"Commodity Prices- History and Projections, updated quarterly"},"sourceNote":"","sourceOrganization":"","topics":[]},{"id":"FWHEAT_US_HRW","name":"Wheat, US HRW, nominal, $\/mt","source":{"id":"55","value":"Commodity Prices- History and Projections, updated quarterly"},"sourceNote":"","sourceOrganization":"","topics":[]},{"id":"FUREA_EE_BULK","name":"Urea, nominal, $\/mt","source":{"id":"55","value":"Commodity Prices- History and Projections, updated quarterly"},"sourceNote":"","sourceOrganization":"","topics":[]},{"id":"FTSP","name":"TSP, nominal, $\/mt","source":{"id":"55","value":"Commodity Prices- History and Projections, updated quarterly"},"sourceNote":"","sourceOrganization":"","topics":[]},{"id":"FTOBAC_US","name":"Tobacco, US import u.v., nominal, $\/mt","source":{"id":"55","value":"Commodity Prices- History and Projections, updated quarterly"},"sourceNote":"","sourceOrganization":"","topics":[]},{"id":"FTIN","name":"Tin, nominal, $\/mt","source":{"id":"55","value":"Commodity Prices- History and Projections, updated quarterly"},"sourceNote":"","sourceOrganization":"","topics":[]},{"id":"FTEA_AVG","name":"Tea, avg 3 auctions, nominal, $\/kg","source":{"id":"55","value":"Commodity Prices- History and Projections, updated quarterly"},"sourceNote":"","sourceOrganization":"","topics":[]},{"id":"FSUGAR_WLD","name":"Sugar, world, nominal, $\/kg","source":{"id":"55","value":"Commodity Prices- History and Projections, updated quarterly"},"sourceNote":"","sourceOrganization":"","topics":[]},{"id":"FSOYBEANS","name":"Soybeans, nominal, $\/mt","source":{"id":"55","value":"Commodity Prices- History and Projections, updated quarterly"},"sourceNote":"","sourceOrganization":"","topics":[]},{"id":"FSOYBEAN_OIL","name":"Soybean oil, nominal, $\/mt","source":{"id":"55","value":"Commodity Prices- History and Projections, updated quarterly"},"sourceNote":"","sourceOrganization":"","topics":[]},{"id":"FSOYBEAN_MEAL","name":"Soybean meal, nominal, $\/mt","source":{"id":"55","value":"Commodity Prices- History and Projections, updated quarterly"},"sourceNote":"","sourceOrganization":"","topics":[]},{"id":"FSILVER","name":"Silver, nominal, $\/troy oz","source":{"id":"55","value":"Commodity Prices- History and Projections, updated quarterly"},"sourceNote":"","sourceOrganization":"","topics":[]},{"id":"FSHRIMP_MEX","name":"Shirmps, Mexican, nominal, $\/kg","source":{"id":"55","value":"Commodity Prices- History and Projections, updated quarterly"},"sourceNote":"","sourceOrganization":"","topics":[]},{"id":"FSAWNWD_MYS","name":"Sawnwood, Malaysian, nominal, $\/cubic meter","source":{"id":"55","value":"Commodity Prices- History and Projections, updated quarterly"},"sourceNote":"","sourceOrganization":"","topics":[]},{"id":"FS.XPC.TDPT.CN","name":"Time deposits (current LCU)","source":{"id":"11","value":"Africa Development Indicators"},"sourceNote":"Time deposits.  ","sourceOrganization":"International Monetary Fund.","topics":[]},{"id":"FS.XPC.DDPT.CN","name":"Demand deposits (current LCU)","source":{"id":"11","value":"Africa Development Indicators"},"sourceNote":"Demand deposits.  ","sourceOrganization":"International Monetary Fund.","topics":[]},{"id":"FS.AST.PRVT.GD.ZS","name":"Domestic credit to private sector (% of GDP)","source":{"id":"2","value":"World Development Indicators"},"sourceNote":"Domestic credit to private sector refers to financial resources provided to the private sector by financial corporations, such as through loans, purchases of nonequity securities, and trade credits and other accounts receivable, that establish a claim for repayment. For some countries these claims include credit to public enterprises. The financial corporations include monetary authorities and deposit money banks, as well as other financial corporations where data are available (including corporations that do not accept transferable deposits but do incur such liabilities as time and savings deposits). Examples of other financial corporations are finance and leasing companies, money lenders, insurance corporations, pension funds, and foreign exchange companies.","sourceOrganization":"International Monetary Fund, International Financial Statistics and data files, and World Bank and OECD GDP estimates.","topics":[{"id":"7","value":"Financial Sector "},{"id":"12","value":"Private Sector"}]},{"id":"FS.AST.PRVT.CN","name":"Banking survey: claims on private sector (current LCU)","source":{"id":"11","value":"Africa Development Indicators"},"sourceNote":"Domestic credit to private sector refers to financial resources provided to the private sector, such as through loans, purchases of nonequity securities, and trade credits and other accounts receivable, that establish a claim for repayment. For some countries these claims include credit to public enterprises.","sourceOrganization":"International Monetary Fund, International Financial Statistics and data files.","topics":[]},{"id":"FS.AST.DOMS.GD.ZS","name":"Domestic credit provided by financial sector (% of GDP)","source":{"id":"2","value":"World Development Indicators"},"sourceNote":"Domestic credit provided by the financial sector includes all credit to various sectors on a gross basis, with the exception of credit to the central government, which is net. The financial sector includes monetary authorities and deposit money banks, as well as other financial corporations where data are available (including corporations that do not accept transferable deposits but do incur such liabilities as time and savings deposits). Examples of other financial corporations are finance and leasing companies, money lenders, insurance corporations, pension funds, and foreign exchange companies.","sourceOrganization":"International Monetary Fund, International Financial Statistics and data files, and World Bank and OECD GDP estimates.","topics":[{"id":"7","value":"Financial Sector "}]},{"id":"FS.AST.DOMO.GD.ZS","name":"Claims on other sectors of the domestic economy (% of GDP)","source":{"id":"2","value":"World Development Indicators"},"sourceNote":"Claims on other sectors of the domestic economy (IFS line 52S or 32S) include gross credit from the financial system to households, nonprofit institutions serving households, nonfinancial corporations, state and local governments, and social security funds.","sourceOrganization":"International Monetary Fund, International Financial Statistics and data files, and World Bank and OECD GDP estimates.","topics":[{"id":"7","value":"Financial Sector "}]},{"id":"FS.AST.CGOV.GD.ZS","name":"Claims on central government, etc. (% GDP)","source":{"id":"2","value":"World Development Indicators"},"sourceNote":"Claims on central government (IFS line 52AN or 32AN) include loans to central government institutions net of deposits.","sourceOrganization":"International Monetary Fund, International Financial Statistics and data files, and World Bank and OECD GDP estimates.","topics":[{"id":"7","value":"Financial Sector "}]},{"id":"FRUBBER1_MYSG","name":"Rubber, SGP\/MYS, nominal, $\/kg","source":{"id":"55","value":"Commodity Prices- History and Projections, updated quarterly"},"sourceNote":"","sourceOrganization":"","topics":[]},{"id":"FRICE_05","name":"Rice, Thai 5% , nominal, $\/mt","source":{"id":"55","value":"Commodity Prices- History and Projections, updated quarterly"},"sourceNote":"","sourceOrganization":"","topics":[]},{"id":"FR.INR.TDPT.RL","name":"Real interest on time deposit (%)","source":{"id":"11","value":"Africa Development Indicators"},"sourceNote":"IFS, line 60 lc deflated by CPI. ","sourceOrganization":"International Monetary Fund, International Financial Statistics.","topics":[]},{"id":"FR.INR.TDPT","name":"Time deposits interest rate (%)","source":{"id":"11","value":"Africa Development Indicators"},"sourceNote":"Interest, deposit rate, shows the average rate offered by banks to resident customers for demand, time, and savings deposits. This item is equal to line 60l..zf in the IMFs International Financial Statistics publication.  ","sourceOrganization":"International Monetary Fund, International Financial Statistics and data files.","topics":[]},{"id":"FR.INR.RISK","name":"Risk premium on lending (lending rate minus treasury bill rate, %)","source":{"id":"2","value":"World Development Indicators"},"sourceNote":"Risk premium on lending is the interest rate charged by banks on loans to private sector customers minus the \"risk free\" treasury bill interest rate at which short-term government securities are issued or traded in the market. In some countries this spread may be negative, indicating that the market considers its best corporate clients to be lower risk than the government. The terms and conditions attached to lending rates differ by country, however, limiting their comparability.","sourceOrganization":"International Monetary Fund, International Financial Statistics database.","topics":[{"id":"7","value":"Financial Sector "}]},{"id":"FR.INR.RINR","name":"Real interest rate (%)","source":{"id":"2","value":"World Development Indicators"},"sourceNote":"Real interest rate is the lending interest rate adjusted for inflation as measured by the GDP deflator. The terms and conditions attached to lending rates differ by country, however, limiting their comparability.","sourceOrganization":"International Monetary Fund, International Financial Statistics and data files using World Bank data on the GDP deflator.","topics":[{"id":"7","value":"Financial Sector "}]},{"id":"FR.INR.MMKT","name":"Money market rate (%)","source":{"id":"11","value":"Africa Development Indicators"},"sourceNote":"Money market interest rate, IFS line 60b (%).  ","sourceOrganization":"International Monetary Fund, International Financial Statistics and data files.","topics":[]},{"id":"FR.INR.LNDP","name":"Interest rate spread (lending rate minus deposit rate, %)","source":{"id":"2","value":"World Development Indicators"},"sourceNote":"Interest rate spread is the interest rate charged by banks on loans to private sector customers minus the interest rate paid by commercial or similar banks for demand, time, or savings deposits. The terms and conditions attached to these rates differ by country, however, limiting their comparability.","sourceOrganization":"International Monetary Fund, International Financial Statistics and data files.","topics":[{"id":"7","value":"Financial Sector "}]},{"id":"FR.INR.LEND","name":"Lending interest rate (%)","source":{"id":"2","value":"World Development Indicators"},"sourceNote":"Lending rate is the bank rate that usually meets the short- and medium-term financing needs of the private sector. This rate is normally differentiated according to creditworthiness of borrowers and objectives of financing. The terms and conditions attached to these rates differ by country, however, limiting their comparability.","sourceOrganization":"International Monetary Fund, International Financial Statistics and data files.","topics":[{"id":"7","value":"Financial Sector "}]},{"id":"FR.INR.IMPL","name":"International interest rate, implicit (%)","source":{"id":"11","value":"Africa Development Indicators"},"sourceNote":"International interest rate (implicit, %).  ","sourceOrganization":"World Bank country economists.","topics":[]},{"id":"FR.INR.GBND","name":"Bond interest rate (%)","source":{"id":"11","value":"Africa Development Indicators"},"sourceNote":"Bond interest rate (%).  ","sourceOrganization":"International Monetary Fund, International Financial Statistics and data files.","topics":[]},{"id":"FR.INR.DPST.DP","name":"Real deposit interest rate (%)","source":{"id":"11","value":"Africa Development Indicators"},"sourceNote":"Real interest rate is the lending interest rate adjusted for inflation as measured by the GDP deflator.  ","sourceOrganization":"International Monetary Fund, International Financial Statistics and data files using World Bank data on the GDP deflator.","topics":[]},{"id":"FR.INR.DPST","name":"Deposit interest rate (%)","source":{"id":"2","value":"World Development Indicators"},"sourceNote":"Deposit interest rate is the rate paid by commercial or similar banks for demand, time, or savings deposits. The terms and conditions attached to these rates differ by country, however, limiting their comparability.","sourceOrganization":"International Monetary Fund, International Financial Statistics and data files.","topics":[{"id":"7","value":"Financial Sector "}]},{"id":"FPOTASH","name":"Potarsium chloride, nominal, $\/mt","source":{"id":"55","value":"Commodity Prices- History and Projections, updated quarterly"},"sourceNote":"","sourceOrganization":"","topics":[]},{"id":"FPLATINUM","name":"Platinum, nominal, $\/troy oz","source":{"id":"55","value":"Commodity Prices- History and Projections, updated quarterly"},"sourceNote":"","sourceOrganization":"","topics":[]},{"id":"FPHOSROCK","name":"Phosphate rock, nominal, $\/mt","source":{"id":"55","value":"Commodity Prices- History and Projections, updated quarterly"},"sourceNote":"","sourceOrganization":"","topics":[]},{"id":"FPALM_OIL","name":"Palm oil, nominal, $\/mt","source":{"id":"55","value":"Commodity Prices- History and Projections, updated quarterly"},"sourceNote":"","sourceOrganization":"","topics":[]},{"id":"FP.WPI.TOTL","name":"Wholesale price index (2010 = 100)","source":{"id":"2","value":"World Development Indicators"},"sourceNote":"Wholesale price index refers to a mix of agricultural and industrial goods at various stages of production and distribution, including import duties. The Laspeyres formula is generally used.","sourceOrganization":"International Monetary Fund, International Financial Statistics and data files.","topics":[{"id":"7","value":"Financial Sector "}]},{"id":"FP.CPI.TOTL.ZG","name":"Inflation, consumer prices (annual %)","source":{"id":"2","value":"World Development Indicators"},"sourceNote":"Inflation as measured by the consumer price index reflects the annual percentage change in the cost to the average consumer of acquiring a basket of goods and services that may be fixed or changed at specified intervals, such as yearly. The Laspeyres formula is generally used.","sourceOrganization":"International Monetary Fund, International Financial Statistics and data files.","topics":[{"id":"3","value":"Economy & Growth"},{"id":"7","value":"Financial Sector "}]},{"id":"FP.CPI.TOTL","name":"Consumer price index (2010 = 100)","source":{"id":"2","value":"World Development Indicators"},"sourceNote":"Consumer price index reflects changes in the cost to the average consumer of acquiring a basket of goods and services that may be fixed or changed at specified intervals, such as yearly. The Laspeyres formula is generally used. Data are period averages.","sourceOrganization":"International Monetary Fund, International Financial Statistics and data files.","topics":[{"id":"7","value":"Financial Sector "}]},{"id":"FORANGE","name":"Orange, nominal, $\/kg","source":{"id":"55","value":"Commodity Prices- History and Projections, updated quarterly"},"sourceNote":"","sourceOrganization":"","topics":[]},{"id":"FNICKEL","name":"Nickel, nominal, $\/mt","source":{"id":"55","value":"Commodity Prices- History and Projections, updated quarterly"},"sourceNote":"","sourceOrganization":"","topics":[]},{"id":"FNGAS_US","name":"Natural gas, US, nominal, $\/mmbtu","source":{"id":"55","value":"Commodity Prices- History and Projections, updated quarterly"},"sourceNote":"","sourceOrganization":"","topics":[]},{"id":"FNGAS_JP","name":"Liquefied natural gas, Japan, nominal, $\/mmbtu","source":{"id":"55","value":"Commodity Prices- History and Projections, updated quarterly"},"sourceNote":"","sourceOrganization":"","topics":[]},{"id":"FNGAS_EUR","name":"Natural gas, Europe, nominal, $\/mmbtu","source":{"id":"55","value":"Commodity Prices- History and Projections, updated quarterly"},"sourceNote":"","sourceOrganization":"","topics":[]},{"id":"FN.LOAN.CBK.TOTL","name":"Total Commercial and Rural Banks Loans Rupiah and Foreign Currency (province level, in IDR Million)","source":{"id":"45","value":"INDO-DAPOER"},"sourceNote":"","sourceOrganization":"Bank Indonesia, Commercial Bank Monthly Report","topics":[]},{"id":"FN.INR.CBIR","name":"Central bank intervention rate (%)","source":{"id":"11","value":"Africa Development Indicators"},"sourceNote":"Central bank intervention rate.  ","sourceOrganization":"World Bank country economists.","topics":[{}]}]]