[{"page":251,"pages":324,"per_page":"50","total":16174},[{"id":"SE.TER.CUAT.DO.MA.ZS","name":"Educational attainment, Doctoral or equivalent, population 25+, male (%) (cumulative)","source":{"id":"2","value":"World Development Indicators"},"sourceNote":"The percentage of population ages 25 and over that attained or completed Doctoral or equivalent.","sourceOrganization":"United Nations Educational, Scientific, and Cultural Organization (UNESCO) Institute for Statistics.","topics":[{"id":"4","value":"Education "},{"id":"17","value":"Gender"}]},{"id":"SE.TER.CUAT.DO.FE.ZS","name":"Educational attainment, Doctoral or equivalent, population 25+, female (%) (cumulative)","source":{"id":"2","value":"World Development Indicators"},"sourceNote":"The percentage of population ages 25 and over that attained or completed Doctoral or equivalent.","sourceOrganization":"United Nations Educational, Scientific, and Cultural Organization (UNESCO) Institute for Statistics.","topics":[{"id":"4","value":"Education "},{"id":"17","value":"Gender"}]},{"id":"SE.TER.CUAT.BA.ZS","name":"Educational attainment, at least Bachelor's or equivalent, population 25+, total (%) (cumulative)","source":{"id":"2","value":"World Development Indicators"},"sourceNote":"The percentage of population ages 25 and over that attained or completed Bachelor's or equivalent.","sourceOrganization":"United Nations Educational, Scientific, and Cultural Organization (UNESCO) Institute for Statistics.","topics":[{"id":"4","value":"Education "},{"id":"17","value":"Gender"}]},{"id":"SE.TER.CUAT.BA.MA.ZS","name":"Educational attainment, at least Bachelor's or equivalent, population 25+, male (%) (cumulative)","source":{"id":"2","value":"World Development Indicators"},"sourceNote":"The percentage of population ages 25 and over that attained or completed Bachelor's or equivalent.","sourceOrganization":"United Nations Educational, Scientific, and Cultural Organization (UNESCO) Institute for Statistics.","topics":[{"id":"4","value":"Education "},{"id":"17","value":"Gender"}]},{"id":"SE.TER.CUAT.BA.FE.ZS","name":"Educational attainment, at least Bachelor's or equivalent, population 25+, female (%) (cumulative)","source":{"id":"2","value":"World Development Indicators"},"sourceNote":"The percentage of population ages 25 and over that attained or completed Bachelor's or equivalent.","sourceOrganization":"United Nations Educational, Scientific, and Cultural Organization (UNESCO) Institute for Statistics.","topics":[{"id":"4","value":"Education "},{"id":"17","value":"Gender"}]},{"id":"SE.TER.CMPL.ZS","name":"Gross graduation ratio from first degree programmes (ISCED 6 and 7) in tertiary education, both sexes (%)","source":{"id":"12","value":"Education Statistics"},"sourceNote":"Number of graduates from first degree programmes (at ISCED 6 and 7) expressed as a percentage of the population of the theoretical graduation age of the most common first degree programme.","sourceOrganization":"UNESCO Institute for Statistics","topics":[{"id":"4","value":"Education "}]},{"id":"SE.TER.CMPL.MA.ZS","name":"Gross graduation ratio, tertiary, first degree programmes (ISCED 6 and 7), male (%)","source":{"id":"12","value":"Education Statistics"},"sourceNote":"Number of graduates from first degree programmes (at ISCED 6 and 7) expressed as a percentage of the population of the theoretical graduation age of the most common first degree programme.","sourceOrganization":"United Nations Educational, Scientific, and Cultural Organization (UNESCO) Institute for Statistics.","topics":[{"id":"4","value":"Education "}]},{"id":"SE.TER.CMPL.FE.ZS","name":"Gross graduation ratio, tertiary, first degree programmes (ISCED 6 and 7), female (%)","source":{"id":"12","value":"Education Statistics"},"sourceNote":"Number of graduates from first degree programmes (at ISCED 6 and 7) expressed as a percentage of the population of the theoretical graduation age of the most common first degree programme.","sourceOrganization":"United Nations Educational, Scientific, and Cultural Organization (UNESCO) Institute for Statistics.","topics":[{"id":"4","value":"Education "}]},{"id":"SE.TCHR.SRSEC","name":"Number of Teacher: Senior Secondary Level (in number of people, 2009 data only)","source":{"id":"45","value":"INDO-DAPOER"},"sourceNote":"","sourceOrganization":"Ministry of Education","topics":[]},{"id":"SE.TCHR.PRM","name":"Number of Teacher: Primary Level (in number of people, 2009 data only)","source":{"id":"45","value":"INDO-DAPOER"},"sourceNote":"","sourceOrganization":"Ministry of Education","topics":[]},{"id":"SE.TCHR.JRSEC","name":"Number of Teacher: Junior Secondary Level (in number of people, 2009 data only)","source":{"id":"45","value":"INDO-DAPOER"},"sourceNote":"","sourceOrganization":"Ministry of Education","topics":[]},{"id":"SE.STUD.SRSEC","name":"Number of Student: Senior Secondary Level (in number of people, 2009 data only)","source":{"id":"45","value":"INDO-DAPOER"},"sourceNote":"","sourceOrganization":"Ministry of Education","topics":[]},{"id":"SE.STUD.PRM","name":"Number of Student: Primary Level (in number of people, 2009 data only)","source":{"id":"45","value":"INDO-DAPOER"},"sourceNote":"","sourceOrganization":"Ministry of Education","topics":[]},{"id":"SE.STUD.JRSEC","name":"Number of Student: Junior Secondary Level (in number of people, 2009 data only)","source":{"id":"45","value":"INDO-DAPOER"},"sourceNote":"","sourceOrganization":"Ministry of Education","topics":[]},{"id":"SE.SRSEC.NENR.ZS","name":"Net Enrollment Ratio: Senior Secondary (in %)","source":{"id":"45","value":"INDO-DAPOER"},"sourceNote":"","sourceOrganization":"BADAN PUSAT STATISTIK - Statistics Indonesia, National Social Economic Survey (SUSENAS)","topics":[]},{"id":"SE.SEC.UNER.LO.ZS","name":"Adolescents out of school (% of lower secondary school age)","source":{"id":"2","value":"World Development Indicators"},"sourceNote":"Adolescents out of school are the percentage of lower secondary school age adolescents who are not enrolled in school.","sourceOrganization":"United Nations Educational, Scientific, and Cultural Organization (UNESCO) Institute for Statistics.","topics":[{"id":"4","value":"Education "}]},{"id":"SE.SEC.UNER.LO.MA.ZS","name":"Adolescents out of school, male (% of male lower secondary school age)","source":{"id":"2","value":"World Development Indicators"},"sourceNote":"Adolescents out of school are the percentage of lower secondary school age adolescents who are not enrolled in school.","sourceOrganization":"United Nations Educational, Scientific, and Cultural Organization (UNESCO) Institute for Statistics.","topics":[{"id":"4","value":"Education "}]},{"id":"SE.SEC.UNER.LO.FE.ZS","name":"Adolescents out of school, female (% of female lower secondary school age)","source":{"id":"2","value":"World Development Indicators"},"sourceNote":"Adolescents out of school are the percentage of lower secondary school age adolescents who are not enrolled in school.","sourceOrganization":"United Nations Educational, Scientific, and Cultural Organization (UNESCO) Institute for Statistics.","topics":[{"id":"4","value":"Education "}]},{"id":"SE.SEC.TCHR.FE.ZS","name":"Secondary education, teachers (% female)","source":{"id":"2","value":"World Development Indicators"},"sourceNote":"Female teachers as a percentage of total secondary education teachers includes full-time and part-time teachers.","sourceOrganization":"United Nations Educational, Scientific, and Cultural Organization (UNESCO) Institute for Statistics.","topics":[{"id":"4","value":"Education "},{"id":"17","value":"Gender"}]},{"id":"SE.SEC.TCHR.FE","name":"Teachers in secondary education, female (number)","source":{"id":"2","value":"World Development Indicators"},"sourceNote":"Total number of female teachers in public and private secondary education institutions (ISCED 2 and 3). Teachers are persons employed full time or part time in an official capacity to guide and direct the learning experience of pupils and students, irrespective of their qualifications or the delivery mechanism, i.e. face-to-face and\/or at a distance. This definition excludes educational personnel who have no active teaching duties (e.g. headmasters, headmistresses or principals who do not teach) and persons who work occasionally or in a voluntary capacity in educational institutions.","sourceOrganization":"UNESCO Institute for Statistics","topics":[{"id":"4","value":"Education "}]},{"id":"SE.SEC.TCHR","name":"Teachers in secondary education, both sexes (number)","source":{"id":"2","value":"World Development Indicators"},"sourceNote":"Total number of teachers in public and private secondary education institutions (ISCED 2 and 3). Teachers are persons employed full time or part time in an official capacity to guide and direct the learning experience of pupils and students, irrespective of their qualifications or the delivery mechanism, i.e. face-to-face and\/or at a distance. This definition excludes educational personnel who have no active teaching duties (e.g. headmasters, headmistresses or principals who do not teach) and persons who work occasionally or in a voluntary capacity in educational institutions.","sourceOrganization":"UNESCO Institute for Statistics","topics":[{"id":"4","value":"Education "}]},{"id":"SE.SEC.TCAQ.ZS","name":"Percentage of teachers in secondary education who are trained, both sexes (%)","source":{"id":"2","value":"World Development Indicators"},"sourceNote":"Number of teachers who have received the minimum organized teacher training (pre-service or in-service) required for teaching at the secondary level in the given country, expressed as a percentage of the total number of teachers at the secondary level.","sourceOrganization":"UNESCO Institute for Statistics","topics":[{"id":"4","value":"Education "}]},{"id":"SE.SEC.TCAQ.UP.ZS","name":"Trained teachers in upper secondary education (% of total teachers)","source":{"id":"2","value":"World Development Indicators"},"sourceNote":"Trained teachers in upper secondary education are the percentage of upper secondary school teachers who have received the minimum organized teacher training (pre-service or in-service) required for teaching in a given country.","sourceOrganization":"United Nations Educational, Scientific, and Cultural Organization (UNESCO) Institute for Statistics.","topics":[{"id":"4","value":"Education "}]},{"id":"SE.SEC.TCAQ.UP.MA.ZS","name":"Trained teachers in upper secondary education, male (% of male teachers)","source":{"id":"2","value":"World Development Indicators"},"sourceNote":"Trained teachers in upper secondary education are the percentage of upper secondary school teachers who have received the minimum organized teacher training (pre-service or in-service) required for teaching in a given country.","sourceOrganization":"United Nations Educational, Scientific, and Cultural Organization (UNESCO) Institute for Statistics.","topics":[{"id":"4","value":"Education "}]},{"id":"SE.SEC.TCAQ.UP.FE.ZS","name":"Trained teachers in upper secondary education, female (% of female teachers)","source":{"id":"2","value":"World Development Indicators"},"sourceNote":"Trained teachers in upper secondary education are the percentage of upper secondary school teachers who have received the minimum organized teacher training (pre-service or in-service) required for teaching in a given country.","sourceOrganization":"United Nations Educational, Scientific, and Cultural Organization (UNESCO) Institute for Statistics.","topics":[{"id":"4","value":"Education "}]},{"id":"SE.SEC.TCAQ.MA.ZS","name":"Percentage of male teachers in secondary education who are trained, male (%)","source":{"id":"2","value":"World Development Indicators"},"sourceNote":"Number of male teachers who have received the minimum organized teacher training (pre-service or in-service) required for teaching at the secondary level in the given country, expressed as a percentage of the total number of male teachers at the secondary level.","sourceOrganization":"UNESCO Institute for Statistics","topics":[{"id":"4","value":"Education "}]},{"id":"SE.SEC.TCAQ.LO.ZS","name":"Trained teachers in lower secondary education (% of total teachers)","source":{"id":"2","value":"World Development Indicators"},"sourceNote":"Trained teachers in lower secondary education are the percentage of lower secondary school teachers who have received the minimum organized teacher training (pre-service or in-service) required for teaching in a given country.","sourceOrganization":"United Nations Educational, Scientific, and Cultural Organization (UNESCO) Institute for Statistics.","topics":[{"id":"4","value":"Education "}]},{"id":"SE.SEC.TCAQ.LO.MA.ZS","name":"Trained teachers in lower secondary education, male (% of male teachers)","source":{"id":"2","value":"World Development Indicators"},"sourceNote":"Trained teachers in lower secondary education are the percentage of lower secondary school teachers who have received the minimum organized teacher training (pre-service or in-service) required for teaching in a given country.","sourceOrganization":"United Nations Educational, Scientific, and Cultural Organization (UNESCO) Institute for Statistics.","topics":[{"id":"4","value":"Education "}]},{"id":"SE.SEC.TCAQ.LO.FE.ZS","name":"Trained teachers in lower secondary education, female (% of female teachers)","source":{"id":"2","value":"World Development Indicators"},"sourceNote":"Trained teachers in lower secondary education are the percentage of lower secondary school teachers who have received the minimum organized teacher training (pre-service or in-service) required for teaching in a given country.","sourceOrganization":"United Nations Educational, Scientific, and Cultural Organization (UNESCO) Institute for Statistics.","topics":[{"id":"4","value":"Education "}]},{"id":"SE.SEC.TCAQ.FE.ZS","name":"Percentage of female teachers in secondary education who are trained, female (%)","source":{"id":"2","value":"World Development Indicators"},"sourceNote":"Number of female teachers who have received the minimum organized teacher training (pre-service or in-service) required for teaching at the secondary level in the given country, expressed as a percentage of the total number of female teachers at the secondary level.","sourceOrganization":"UNESCO Institute for Statistics","topics":[{"id":"4","value":"Education "}]},{"id":"SE.SEC.PROG.ZS","name":"Effective transition rate from primary to lower secondary general education, both sexes (%)","source":{"id":"2","value":"World Development Indicators"},"sourceNote":"Number of students admitted to the first grade of a higher level of education in a given year, expressed as a percentage of the number of students enrolled in the final grade of the lower level of education in the previous year. Divide the number of new entrants in the first grade of the specified higher cycle or level of education by the number of pupils who were enrolled in the final grade of the preceding cycle or level of education in the previous school year, and multiply by 100. High transition rates indicate a high level of access or transition from one level of education to the next. They also reflect the intake capacity of the next level of education. Inversely, low transition rates can signal problems in the bridging between two cycles or levels of education, due to either deficiencies in the examination system, or inadequate admission capacity in the higher cycle or level of education, or both. This indicator can be distorted by incorrect distinction between new entrants and repeaters, especially in the first grade of the specified higher level of education. Students who interrupted their studies for one or more years after having completed the lower level of education, together with the migrant students, could also affect the quality of this indicator.","sourceOrganization":"UNESCO Institute for Statistics","topics":[{"id":"4","value":"Education "}]},{"id":"SE.SEC.PROG.MA.ZS","name":"Progression to secondary school, male (%)","source":{"id":"2","value":"World Development Indicators"},"sourceNote":"Progression to secondary school refers to the number of new entrants to the first grade of secondary school in a given year as a percentage of the number of students enrolled in the final grade of primary school in the previous year (minus the number of repeaters from the last grade of primary education in the given year).","sourceOrganization":"United Nations Educational, Scientific, and Cultural Organization (UNESCO) Institute for Statistics.","topics":[{"id":"4","value":"Education "},{"id":"17","value":"Gender"}]},{"id":"SE.SEC.PROG.FE.ZS","name":"Progression to secondary school, female (%)","source":{"id":"2","value":"World Development Indicators"},"sourceNote":"Progression to secondary school refers to the number of new entrants to the first grade of secondary school in a given year as a percentage of the number of students enrolled in the final grade of primary school in the previous year (minus the number of repeaters from the last grade of primary education in the given year).","sourceOrganization":"United Nations Educational, Scientific, and Cultural Organization (UNESCO) Institute for Statistics.","topics":[{"id":"4","value":"Education "},{"id":"17","value":"Gender"}]},{"id":"SE.SEC.PRIV.ZS","name":"Percentage of enrolment in secondary education in private institutions (%)","source":{"id":"2","value":"World Development Indicators"},"sourceNote":"Total number of students in secondary education enrolled in institutions that are not operated by a public authority but controlled and managed, whether for profit or not, by a private body (e.g., non-governmental organisation, religious body, special interest group, foundation or business enterprise), expressed as a percentage of total number of students enrolled in secondary education.","sourceOrganization":"UNESCO Institute for Statistics","topics":[{"id":"4","value":"Education "}]},{"id":"SE.SEC.NENR.MA","name":"School enrollment, secondary, male (% net)","source":{"id":"2","value":"World Development Indicators"},"sourceNote":"Net enrollment rate is the ratio of children of official school age who are enrolled in school to the population of the corresponding official school age. Secondary education completes the provision of basic education that began at the primary level, and aims at laying the foundations for lifelong learning and human development, by offering more subject- or skill-oriented instruction using more specialized teachers.","sourceOrganization":"United Nations Educational, Scientific, and Cultural Organization (UNESCO) Institute for Statistics.","topics":[{"id":"4","value":"Education "},{"id":"17","value":"Gender"}]},{"id":"SE.SEC.NENR.FE","name":"School enrollment, secondary, female (% net)","source":{"id":"2","value":"World Development Indicators"},"sourceNote":"Net enrollment rate is the ratio of children of official school age who are enrolled in school to the population of the corresponding official school age. Secondary education completes the provision of basic education that began at the primary level, and aims at laying the foundations for lifelong learning and human development, by offering more subject- or skill-oriented instruction using more specialized teachers.","sourceOrganization":"United Nations Educational, Scientific, and Cultural Organization (UNESCO) Institute for Statistics.","topics":[{"id":"4","value":"Education "},{"id":"17","value":"Gender"}]},{"id":"SE.SEC.NENR","name":"Net enrolment rate, secondary, both sexes (%)","source":{"id":"2","value":"World Development Indicators"},"sourceNote":"Total number of students in the theoretical age group for secondary education enrolled in that level, expressed as a percentage of the total population in that age group. Divide the number of students enrolled who are of the official age group for secondary education by the population for the same age group and multiply the result by 100. NER at each level of education should be based on enrolment of the relevant age group in all types of schools and education institutions, including public, private and all other institutions that provide organized educational programmes.","sourceOrganization":"UNESCO Institute for Statistics","topics":[{"id":"4","value":"Education "}]},{"id":"SE.SEC.HIAT.UP.MA.ZS","name":"Educational attainment, completed upper secondary, population 25+ years, male (%)","source":{"id":"14","value":"Gender Statistics"},"sourceNote":"The percentage of population ages 25 and over that attained or completed upper secondary education as the highest level of education.","sourceOrganization":"United Nations Educational, Scientific, and Cultural Organization (UNESCO) Institute for Statistics.","topics":[{"id":"17","value":"Gender"}]},{"id":"SE.SEC.HIAT.UP.FE.ZS","name":"Educational attainment, completed upper secondary, population 25+ years, female (%)","source":{"id":"14","value":"Gender Statistics"},"sourceNote":"The percentage of population ages 25 and over that attained or completed upper secondary education as the highest level of education.","sourceOrganization":"United Nations Educational, Scientific, and Cultural Organization (UNESCO) Institute for Statistics.","topics":[{"id":"17","value":"Gender"}]},{"id":"SE.SEC.HIAT.PO.MA.ZS","name":"Educational attainment, completed post-secondary, population 25+ years, male (%)","source":{"id":"14","value":"Gender Statistics"},"sourceNote":"The percentage of population ages 25 and over that attained or completed post-secondary non-tertiary education as the highest level of education.","sourceOrganization":"United Nations Educational, Scientific, and Cultural Organization (UNESCO) Institute for Statistics.","topics":[{"id":"17","value":"Gender"}]},{"id":"SE.SEC.HIAT.PO.FE.ZS","name":"Educational attainment, completed post-secondary, population 25+ years, female (%)","source":{"id":"14","value":"Gender Statistics"},"sourceNote":"The percentage of population ages 25 and over that attained or completed post-secondary non-tertiary education as the highest level of education.","sourceOrganization":"United Nations Educational, Scientific, and Cultural Organization (UNESCO) Institute for Statistics.","topics":[{"id":"17","value":"Gender"}]},{"id":"SE.SEC.HIAT.LO.MA.ZS","name":"Educational attainment, completed lower secondary, population 25+ years, male (%)","source":{"id":"14","value":"Gender Statistics"},"sourceNote":"The percentage of population ages 25 and over that attained or completed lower secondary education as the highest level of education.","sourceOrganization":"United Nations Educational, Scientific, and Cultural Organization (UNESCO) Institute for Statistics.","topics":[{"id":"17","value":"Gender"}]},{"id":"SE.SEC.HIAT.LO.FE.ZS","name":"Educational attainment, completed lower secondary, population 25+ years, female (%)","source":{"id":"14","value":"Gender Statistics"},"sourceNote":"The percentage of population ages 25 and over that attained or completed lower secondary education as the highest level of education.","sourceOrganization":"United Nations Educational, Scientific, and Cultural Organization (UNESCO) Institute for Statistics.","topics":[{"id":"17","value":"Gender"}]},{"id":"SE.SEC.ENRR.UP.MA","name":"Gross enrolment ratio, upper secondary, male (%)","source":{"id":"12","value":"Education Statistics"},"sourceNote":"Total male enrollment in upper secondary education, regardless of age, expressed as a percentage of the male population of official upper secondary education age.","sourceOrganization":"UNESCO Institute for Statistics","topics":[{"id":"4","value":"Education "}]},{"id":"SE.SEC.ENRR.UP.FE","name":"Gross enrolment ratio, upper secondary, female (%)","source":{"id":"12","value":"Education Statistics"},"sourceNote":"Total female enrollment in upper secondary education, regardless of age, expressed as a percentage of the female population of official upper secondary education age.","sourceOrganization":"UNESCO Institute for Statistics","topics":[{"id":"4","value":"Education "}]},{"id":"SE.SEC.ENRR.UP","name":"Gross enrolment ratio, upper secondary, both sexes (%)","source":{"id":"12","value":"Education Statistics"},"sourceNote":"Total enrollment in upper secondary education, regardless of age, expressed as a percentage of the total population of official upper secondary education age.","sourceOrganization":"UNESCO Institute for Statistics","topics":[{"id":"4","value":"Education "}]},{"id":"SE.SEC.ENRR.MA","name":"School enrollment, secondary, male (% gross)","source":{"id":"2","value":"World Development Indicators"},"sourceNote":"Gross enrollment ratio is the ratio of total enrollment, regardless of age, to the population of the age group that officially corresponds to the level of education shown. Secondary education completes the provision of basic education that began at the primary level, and aims at laying the foundations for lifelong learning and human development, by offering more subject- or skill-oriented instruction using more specialized teachers.","sourceOrganization":"United Nations Educational, Scientific, and Cultural Organization (UNESCO) Institute for Statistics.","topics":[{"id":"4","value":"Education "},{"id":"17","value":"Gender"}]},{"id":"SE.SEC.ENRR.LO.MA","name":"Gross enrolment ratio, lower secondary, male (%)","source":{"id":"12","value":"Education Statistics"},"sourceNote":"Total male enrollment in lower secondary education, regardless of age, expressed as a percentage of the total male population of official lower secondary education age. GER can exceed 100% due to the inclusion of over-aged and under-aged students because of early or late school entrance and grade repetition.","sourceOrganization":"UNESCO Institute for Statistics","topics":[{"id":"4","value":"Education "}]},{"id":"SE.SEC.ENRR.LO.FE","name":"Gross enrolment ratio, lower secondary, female (%)","source":{"id":"12","value":"Education Statistics"},"sourceNote":"Total female enrollment in lower secondary education, regardless of age, expressed as a percentage of the total female population of official lower secondary education age. GER can exceed 100% due to the inclusion of over-aged and under-aged students because of early or late school entrance and grade repetition.","sourceOrganization":"UNESCO Institute for Statistics","topics":[{"id":"4","value":"Education "}]},{"id":"SE.SEC.ENRR.LO","name":"Gross enrolment ratio, lower secondary, both sexes (%)","source":{"id":"12","value":"Education Statistics"},"sourceNote":"Total enrollment in lower secondary education, regardless of age, expressed as a percentage of the total population of official lower secondary education age. GER can exceed 100% due to the inclusion of over-aged and under-aged students because of early or late school entrance and grade repetition.","sourceOrganization":"UNESCO Institute for Statistics","topics":[{"id":"4","value":"Education "}]}]]