[{"page":59,"pages":324,"per_page":"50","total":16174},[{"id":"DT.DOD.DECT.CD.MA.AR.GE.US","name":"Gross Ext. Debt Pos., Central Bank, All maturities, All instruments, Beginning pos., USD","source":{"id":"22","value":"Quarterly External Debt Statistics\/SDDS (New)"},"sourceNote":"","sourceOrganization":"","topics":[]},{"id":"DT.DOD.DECT.CD.MA.AR.EX.US","name":"Gross Ext. Debt Pos., Central Bank, All maturities, All instruments, Exchange rate chg, USD","source":{"id":"22","value":"Quarterly External Debt Statistics\/SDDS (New)"},"sourceNote":"","sourceOrganization":"","topics":[]},{"id":"DT.DOD.DECT.CD.MA.AR.EN.US","name":"Gross Ext. Debt Pos., Central Bank, All maturities, All instruments, end of period, USD","source":{"id":"22","value":"Quarterly External Debt Statistics\/SDDS (New)"},"sourceNote":"","sourceOrganization":"","topics":[]},{"id":"DT.DOD.DECT.CD.MA.AR.EA.US","name":"Ext. Assets in Debt Instruments, Central Bank, All maturities, All instruments, USD","source":{"id":"22","value":"Quarterly External Debt Statistics\/SDDS (New)"},"sourceNote":"","sourceOrganization":"","topics":[]},{"id":"DT.DOD.DECT.CD.MA.AR.BE.US","name":"Gross Ext. Debt Pos., Central Bank, All maturities, All instruments, Beginning of period, USD","source":{"id":"22","value":"Quarterly External Debt Statistics\/SDDS (New)"},"sourceNote":"","sourceOrganization":"","topics":[]},{"id":"DT.DOD.DECT.CD.LT.US","name":"Gross Ext. Debt Pos., All Sectors, Long-term, All instruments, USD","source":{"id":"23","value":"Quarterly External Debt Statistics\/GDDS (New)"},"sourceNote":"","sourceOrganization":"","topics":[]},{"id":"DT.DOD.DECT.CD.LT.TD.NV.US","name":"Gross Ext. Debt Pos., All Sectors, Long-term, Debt Securities, Nominal Value, USD","source":{"id":"22","value":"Quarterly External Debt Statistics\/SDDS (New)"},"sourceNote":"","sourceOrganization":"","topics":[]},{"id":"DT.DOD.DECT.CD.LT.TD.MV.US","name":"Gross Ext. Debt Pos., All Sectors, Long-term, Debt Securities, Market Value, USD","source":{"id":"22","value":"Quarterly External Debt Statistics\/SDDS (New)"},"sourceNote":"","sourceOrganization":"","topics":[]},{"id":"DT.DOD.DECT.CD.LT.TD.MP.US","name":"Gross Ext. Debt Pos., All Sectors, Long-term, Debt Securities, Diff. with Market Value, USD","source":{"id":"22","value":"Quarterly External Debt Statistics\/SDDS (New)"},"sourceNote":"","sourceOrganization":"","topics":[]},{"id":"DT.DOD.DECT.CD.IL.US","name":"Gross Ext. Debt Pos., DI: Intercom Lending, All maturities, All instruments, USD","source":{"id":"22","value":"Quarterly External Debt Statistics\/SDDS (New)"},"sourceNote":"","sourceOrganization":"","topics":[]},{"id":"DT.DOD.DECT.CD.IL.AR.TR.US","name":"Gross Ext. Debt Pos., DI: Intercom Lending, All maturities, All instruments, Transactions, USD","source":{"id":"22","value":"Quarterly External Debt Statistics\/SDDS (New)"},"sourceNote":"","sourceOrganization":"","topics":[]},{"id":"DT.DOD.DECT.CD.IL.AR.PX.US","name":"Gross Ext. Debt Pos., DI: Intercom Lending, All maturities, All instruments, Other price chg, USD","source":{"id":"22","value":"Quarterly External Debt Statistics\/SDDS (New)"},"sourceNote":"","sourceOrganization":"","topics":[]},{"id":"DT.DOD.DECT.CD.IL.AR.OC.US","name":"Gross Ext. Debt Pos., DI: Intercom Lending, All maturities, All instruments, Other chg in vol., USD","source":{"id":"22","value":"Quarterly External Debt Statistics\/SDDS (New)"},"sourceNote":"","sourceOrganization":"","topics":[]},{"id":"DT.DOD.DECT.CD.IL.AR.NE.US","name":"Net Ext. Debt Position, DI: Intercom Lending, All maturities, All instruments, USD","source":{"id":"22","value":"Quarterly External Debt Statistics\/SDDS (New)"},"sourceNote":"","sourceOrganization":"","topics":[]},{"id":"DT.DOD.DECT.CD.IL.AR.GE.US","name":"Gross Ext. Debt Pos., DI: Intercom Lending, All maturities, All instruments, Beginning pos., USD","source":{"id":"22","value":"Quarterly External Debt Statistics\/SDDS (New)"},"sourceNote":"","sourceOrganization":"","topics":[]},{"id":"DT.DOD.DECT.CD.IL.AR.EX.US","name":"Gross Ext. Debt Pos., DI: Intercom Lending, All maturities, All instruments, Exchange rate chg, USD","source":{"id":"22","value":"Quarterly External Debt Statistics\/SDDS (New)"},"sourceNote":"","sourceOrganization":"","topics":[]},{"id":"DT.DOD.DECT.CD.IL.AR.EN.US","name":"Gross Ext. Debt Pos., DI: Intercom Lending, All maturities, All instruments, end of period, USD","source":{"id":"22","value":"Quarterly External Debt Statistics\/SDDS (New)"},"sourceNote":"","sourceOrganization":"","topics":[]},{"id":"DT.DOD.DECT.CD.IL.AR.EA.US","name":"Ext. Assets in Debt Instruments, DI: Intercom Lending, All maturities, All instruments, USD","source":{"id":"22","value":"Quarterly External Debt Statistics\/SDDS (New)"},"sourceNote":"","sourceOrganization":"","topics":[]},{"id":"DT.DOD.DECT.CD.IL.AR.BE.US","name":"Gross Ext. Debt Pos., DI: Intercom Lending, All maturities, All instruments, Beginning of period, USD","source":{"id":"22","value":"Quarterly External Debt Statistics\/SDDS (New)"},"sourceNote":"","sourceOrganization":"","topics":[]},{"id":"DT.DOD.DECT.CD.HN.US","name":"Gross Ext. Debt Pos., HH and nonprofit institu. (NPISHs), All maturities, All instruments, USD","source":{"id":"22","value":"Quarterly External Debt Statistics\/SDDS (New)"},"sourceNote":"","sourceOrganization":"","topics":[]},{"id":"DT.DOD.DECT.CD.GG.TD.NV.US","name":"Gross Ext. Debt Pos., General Government, All maturities, Debt Securities, Nominal Value, USD","source":{"id":"22","value":"Quarterly External Debt Statistics\/SDDS (New)"},"sourceNote":"","sourceOrganization":"","topics":[]},{"id":"DT.DOD.DECT.CD.GG.TD.MV.US","name":"Gross Ext. Debt Pos., General Government, All maturities, Debt Securities, Market Value, USD","source":{"id":"22","value":"Quarterly External Debt Statistics\/SDDS (New)"},"sourceNote":"","sourceOrganization":"","topics":[]},{"id":"DT.DOD.DECT.CD.GG.TD.MP.US","name":"Gross Ext. Debt Pos., General Government, All maturities, Debt Securities, Diff. with Market Value, USD","source":{"id":"22","value":"Quarterly External Debt Statistics\/SDDS (New)"},"sourceNote":"","sourceOrganization":"","topics":[]},{"id":"DT.DOD.DECT.CD.GG.AR.US","name":"Gross Ext. Debt Pos., General Government, All maturities, All instruments, USD","source":{"id":"22","value":"Quarterly External Debt Statistics\/SDDS (New)"},"sourceNote":"","sourceOrganization":"","topics":[]},{"id":"DT.DOD.DECT.CD.GG.AR.TR.US","name":"Gross Ext. Debt Pos., General Government, All maturities, All instruments, Transactions, USD","source":{"id":"22","value":"Quarterly External Debt Statistics\/SDDS (New)"},"sourceNote":"","sourceOrganization":"","topics":[]},{"id":"DT.DOD.DECT.CD.GG.AR.PX.US","name":"Gross Ext. Debt Pos., General Government, All maturities, All instruments, Other price chg, USD","source":{"id":"22","value":"Quarterly External Debt Statistics\/SDDS (New)"},"sourceNote":"","sourceOrganization":"","topics":[]},{"id":"DT.DOD.DECT.CD.GG.AR.OC.US","name":"Gross Ext. Debt Pos., General Government, All maturities, All instruments, Other chg in vol., USD","source":{"id":"22","value":"Quarterly External Debt Statistics\/SDDS (New)"},"sourceNote":"","sourceOrganization":"","topics":[]},{"id":"DT.DOD.DECT.CD.GG.AR.NE.US","name":"Net Ext. Debt Position, General Government, All maturities, All instruments, USD","source":{"id":"22","value":"Quarterly External Debt Statistics\/SDDS (New)"},"sourceNote":"","sourceOrganization":"","topics":[]},{"id":"DT.DOD.DECT.CD.GG.AR.GE.US","name":"Gross Ext. Debt Pos., General Government, All maturities, All instruments, Beginning pos., USD","source":{"id":"22","value":"Quarterly External Debt Statistics\/SDDS (New)"},"sourceNote":"","sourceOrganization":"","topics":[]},{"id":"DT.DOD.DECT.CD.GG.AR.EX.US","name":"Gross Ext. Debt Pos., General Government, All maturities, All instruments, Exchange rate chg, USD","source":{"id":"22","value":"Quarterly External Debt Statistics\/SDDS (New)"},"sourceNote":"","sourceOrganization":"","topics":[]},{"id":"DT.DOD.DECT.CD.GG.AR.EN.US","name":"Gross Ext. Debt Pos., General Government , All maturities, All instruments, end of period, USD","source":{"id":"22","value":"Quarterly External Debt Statistics\/SDDS (New)"},"sourceNote":"","sourceOrganization":"","topics":[]},{"id":"DT.DOD.DECT.CD.GG.AR.EA.US","name":"Ext. Assets in Debt Instruments, General Government, All maturities, All instruments, USD","source":{"id":"22","value":"Quarterly External Debt Statistics\/SDDS (New)"},"sourceNote":"","sourceOrganization":"","topics":[]},{"id":"DT.DOD.DECT.CD.GG.AR.BE.US","name":"Gross Ext. Debt Pos., General Government, All maturities, All instruments, Beginning of period, USD","source":{"id":"22","value":"Quarterly External Debt Statistics\/SDDS (New)"},"sourceNote":"","sourceOrganization":"","topics":[]},{"id":"DT.DOD.DECT.CD.FF.YE.US","name":"Gross Ext. F. Curr Debt Pos., All Sectors, All maturities, All instruments, Yen, USD","source":{"id":"22","value":"Quarterly External Debt Statistics\/SDDS (New)"},"sourceNote":"","sourceOrganization":"","topics":[]},{"id":"DT.DOD.DECT.CD.FF.UD.US","name":"Gross Ext. F. Curr Debt Pos., All Sectors, All maturities, All instruments, US dollar, USD","source":{"id":"22","value":"Quarterly External Debt Statistics\/SDDS (New)"},"sourceNote":"","sourceOrganization":"","topics":[]},{"id":"DT.DOD.DECT.CD.FF.TT.US","name":"Gross Ext. F. Curr Debt Pos., All Sectors, All maturities, All instruments, All curr., USD","source":{"id":"22","value":"Quarterly External Debt Statistics\/SDDS (New)"},"sourceNote":"","sourceOrganization":"","topics":[]},{"id":"DT.DOD.DECT.CD.FF.OD.US","name":"Gross Ext. F. Curr Debt Pos., All Sectors, All maturities, All instruments, Other curr., USD","source":{"id":"22","value":"Quarterly External Debt Statistics\/SDDS (New)"},"sourceNote":"","sourceOrganization":"","topics":[]},{"id":"DT.DOD.DECT.CD.FF.ER.US","name":"Gross Ext. F. Curr Debt Pos., All Sectors, All maturities, All instruments, Euro, USD","source":{"id":"22","value":"Quarterly External Debt Statistics\/SDDS (New)"},"sourceNote":"","sourceOrganization":"","topics":[]},{"id":"DT.DOD.DECT.CD.FC.US","name":"Gross Ext. Debt Pos., All Sectors, All maturities, All instruments, Foreign currency, USD","source":{"id":"22","value":"Quarterly External Debt Statistics\/SDDS (New)"},"sourceNote":"","sourceOrganization":"","topics":[]},{"id":"DT.DOD.DECT.CD.FC.T5.US","name":"Public and Publicly Guar. Private Sector Ext. Debt Pos., All Sectors, All maturities, All instruments, Foreign currency, USD","source":{"id":"23","value":"Quarterly External Debt Statistics\/GDDS (New)"},"sourceNote":"","sourceOrganization":"","topics":[]},{"id":"DT.DOD.DECT.CD.FC.OT.US.US","name":"Gross Ext. F. Curr Debt Pos., Other Sectors, All maturities, All instruments, US dollar, USD","source":{"id":"22","value":"Quarterly External Debt Statistics\/SDDS (New)"},"sourceNote":"","sourceOrganization":"","topics":[]},{"id":"DT.DOD.DECT.CD.FC.OT.TO.US","name":"Gross Ext. F. Curr Debt Pos., Other Sectors, All maturities, All instruments, All curr., USD","source":{"id":"22","value":"Quarterly External Debt Statistics\/SDDS (New)"},"sourceNote":"","sourceOrganization":"","topics":[]},{"id":"DT.DOD.DECT.CD.FC.OT.OT.US","name":"Gross Ext. F. Curr Debt Pos., Other Sectors, All maturities, All instruments, Other curr., USD","source":{"id":"22","value":"Quarterly External Debt Statistics\/SDDS (New)"},"sourceNote":"","sourceOrganization":"","topics":[]},{"id":"DT.DOD.DECT.CD.FC.OT.JY.US","name":"Gross Ext. F. Curr Debt Pos., Other Sectors, All maturities, All instruments, Yen, USD","source":{"id":"22","value":"Quarterly External Debt Statistics\/SDDS (New)"},"sourceNote":"","sourceOrganization":"","topics":[]},{"id":"DT.DOD.DECT.CD.FC.OT.EU.US","name":"Gross Ext. F. Curr Debt Pos., Other Sectors, All maturities, All instruments, Euro, USD","source":{"id":"22","value":"Quarterly External Debt Statistics\/SDDS (New)"},"sourceNote":"","sourceOrganization":"","topics":[]},{"id":"DT.DOD.DECT.CD.FC.MA.US.US","name":"Gross Ext. F. Curr Debt Pos., Central Bank, All maturities, All instruments, US dollar, USD","source":{"id":"22","value":"Quarterly External Debt Statistics\/SDDS (New)"},"sourceNote":"","sourceOrganization":"","topics":[]},{"id":"DT.DOD.DECT.CD.FC.MA.TO.US","name":"Gross Ext. F. Curr Debt Pos., Central Bank, All maturities, All instruments, All curr., USD","source":{"id":"22","value":"Quarterly External Debt Statistics\/SDDS (New)"},"sourceNote":"","sourceOrganization":"","topics":[]},{"id":"DT.DOD.DECT.CD.FC.MA.OT.US","name":"Gross Ext. F. Curr Debt Pos., Central Bank, All maturities, All instruments, Other curr., USD","source":{"id":"22","value":"Quarterly External Debt Statistics\/SDDS (New)"},"sourceNote":"","sourceOrganization":"","topics":[]},{"id":"DT.DOD.DECT.CD.FC.MA.JY.US","name":"Gross Ext. F. Curr Debt Pos., Central Bank, All maturities, All instruments, Yen, USD","source":{"id":"22","value":"Quarterly External Debt Statistics\/SDDS (New)"},"sourceNote":"","sourceOrganization":"","topics":[]},{"id":"DT.DOD.DECT.CD.FC.MA.EU.US","name":"Gross Ext. F. Curr Debt Pos., Central Bank, All maturities, All instruments, Euro, USD","source":{"id":"22","value":"Quarterly External Debt Statistics\/SDDS (New)"},"sourceNote":"","sourceOrganization":"","topics":[{}]}]]