[{"page":27,"pages":324,"per_page":"50","total":16174},[{"id":"BAR.SEC.ICMP.2024.ZS","name":"Barro-Lee: Percentage of population age 20-24 with secondary schooling. Total (Incomplete and Completed Secondary)","source":{"id":"12","value":"Education Statistics"},"sourceNote":"Percentage of population age 20-24 with secondary schooling. Total (Incomplete and Completed Secondary)","sourceOrganization":"Robert J. Barro and Jong-Wha Lee: http:\/\/www.barrolee.com\/","topics":[{"id":"4","value":"Education "}]},{"id":"BAR.SEC.ICMP.2024.FE.ZS","name":"Barro-Lee: Percentage of female population age 20-24 with secondary schooling. Total (Incomplete and Completed Secondary)","source":{"id":"12","value":"Education Statistics"},"sourceNote":"Percentage of female population age 20-24 with secondary schooling. Total (Incomplete and Completed Secondary)","sourceOrganization":"Robert J. Barro and Jong-Wha Lee: http:\/\/www.barrolee.com\/","topics":[{"id":"4","value":"Education "}]},{"id":"BAR.SEC.ICMP.15UP.ZS","name":"Barro-Lee: Percentage of population age 15+ with secondary schooling. Total (Incomplete and Completed Secondary)","source":{"id":"12","value":"Education Statistics"},"sourceNote":"Percentage of population age 15+ with secondary schooling. Total (Incomplete and Completed Secondary)","sourceOrganization":"Robert J. Barro and Jong-Wha Lee: http:\/\/www.barrolee.com\/","topics":[{"id":"4","value":"Education "}]},{"id":"BAR.SEC.ICMP.15UP.FE.ZS","name":"Barro-Lee: Percentage of female population age 15+ with secondary schooling. Total (Incomplete and Completed Secondary)","source":{"id":"12","value":"Education Statistics"},"sourceNote":"Percentage of female population age 15+ with secondary schooling. Total (Incomplete and Completed Secondary)","sourceOrganization":"Robert J. Barro and Jong-Wha Lee: http:\/\/www.barrolee.com\/","topics":[{"id":"4","value":"Education "}]},{"id":"BAR.SEC.ICMP.1519.ZS","name":"Barro-Lee: Percentage of population age 15-19 with secondary schooling. Total (Incomplete and Completed Secondary)","source":{"id":"12","value":"Education Statistics"},"sourceNote":"Percentage of population age 15-19 with secondary schooling. Total (Incomplete and Completed Secondary)","sourceOrganization":"Robert J. Barro and Jong-Wha Lee: http:\/\/www.barrolee.com\/","topics":[{"id":"4","value":"Education "}]},{"id":"BAR.SEC.ICMP.1519.FE.ZS","name":"Barro-Lee: Percentage of female population age 15-19 with secondary schooling. Total (Incomplete and Completed Secondary)","source":{"id":"12","value":"Education Statistics"},"sourceNote":"Percentage of female population age 15-19 with secondary schooling. Total (Incomplete and Completed Secondary)","sourceOrganization":"Robert J. Barro and Jong-Wha Lee: http:\/\/www.barrolee.com\/","topics":[{"id":"4","value":"Education "}]},{"id":"BAR.SEC.CMPT.75UP.ZS","name":"Barro-Lee: Percentage of population age 75+ with secondary schooling. Completed Secondary","source":{"id":"12","value":"Education Statistics"},"sourceNote":"Percentage of population age 75+ with secondary schooling. Completed Secondary","sourceOrganization":"Robert J. Barro and Jong-Wha Lee: http:\/\/www.barrolee.com\/","topics":[]},{"id":"BAR.SEC.CMPT.75UP.FE.ZS","name":"Barro-Lee: Percentage of female population age 75+ with secondary schooling. Completed Secondary","source":{"id":"12","value":"Education Statistics"},"sourceNote":"Percentage of female population age 75+ with secondary schooling. Completed Secondary","sourceOrganization":"Robert J. Barro and Jong-Wha Lee: http:\/\/www.barrolee.com\/","topics":[]},{"id":"BAR.SEC.CMPT.7074.ZS","name":"Barro-Lee: Percentage of population age 70-74 with secondary schooling. Completed Secondary","source":{"id":"12","value":"Education Statistics"},"sourceNote":"Percentage of population age 70-74 with secondary schooling. Completed Secondary","sourceOrganization":"Robert J. Barro and Jong-Wha Lee: http:\/\/www.barrolee.com\/","topics":[]},{"id":"BAR.SEC.CMPT.7074.FE.ZS","name":"Barro-Lee: Percentage of female population age 70-74 with secondary schooling. Completed Secondary","source":{"id":"12","value":"Education Statistics"},"sourceNote":"Percentage of female population age 70-74 with secondary schooling. Completed Secondary","sourceOrganization":"Robert J. Barro and Jong-Wha Lee: http:\/\/www.barrolee.com\/","topics":[]},{"id":"BAR.SEC.CMPT.6569.ZS","name":"Barro-Lee: Percentage of population age 65-69 with secondary schooling. Completed Secondary","source":{"id":"12","value":"Education Statistics"},"sourceNote":"Percentage of population age 65-69 with secondary schooling. Completed Secondary","sourceOrganization":"Robert J. Barro and Jong-Wha Lee: http:\/\/www.barrolee.com\/","topics":[]},{"id":"BAR.SEC.CMPT.6569.FE.ZS","name":"Barro-Lee: Percentage of female population age 65-69 with secondary schooling. Completed Secondary","source":{"id":"12","value":"Education Statistics"},"sourceNote":"Percentage of female population age 65-69 with secondary schooling. Completed Secondary","sourceOrganization":"Robert J. Barro and Jong-Wha Lee: http:\/\/www.barrolee.com\/","topics":[]},{"id":"BAR.SEC.CMPT.6064.ZS","name":"Barro-Lee: Percentage of population age 60-64 with secondary schooling. Completed Secondary","source":{"id":"12","value":"Education Statistics"},"sourceNote":"Percentage of population age 60-64 with secondary schooling. Completed Secondary","sourceOrganization":"Robert J. Barro and Jong-Wha Lee: http:\/\/www.barrolee.com\/","topics":[{"id":"4","value":"Education "}]},{"id":"BAR.SEC.CMPT.6064.FE.ZS","name":"Barro-Lee: Percentage of female population age 60-64 with secondary schooling. Completed Secondary","source":{"id":"12","value":"Education Statistics"},"sourceNote":"Percentage of female population age 60-64 with secondary schooling. Completed Secondary","sourceOrganization":"Robert J. Barro and Jong-Wha Lee: http:\/\/www.barrolee.com\/","topics":[{"id":"4","value":"Education "}]},{"id":"BAR.SEC.CMPT.5559.ZS","name":"Barro-Lee: Percentage of population age 55-59 with secondary schooling. Completed Secondary","source":{"id":"12","value":"Education Statistics"},"sourceNote":"Percentage of population age 55-59 with secondary schooling. Completed Secondary","sourceOrganization":"Robert J. Barro and Jong-Wha Lee: http:\/\/www.barrolee.com\/","topics":[{"id":"4","value":"Education "}]},{"id":"BAR.SEC.CMPT.5559.FE.ZS","name":"Barro-Lee: Percentage of female population age 55-59 with secondary schooling. Completed Secondary","source":{"id":"12","value":"Education Statistics"},"sourceNote":"Percentage of female population age 55-59 with secondary schooling. Completed Secondary","sourceOrganization":"Robert J. Barro and Jong-Wha Lee: http:\/\/www.barrolee.com\/","topics":[{"id":"4","value":"Education "}]},{"id":"BAR.SEC.CMPT.5054.ZS","name":"Barro-Lee: Percentage of population age 50-54 with secondary schooling. Completed Secondary","source":{"id":"12","value":"Education Statistics"},"sourceNote":"Percentage of population age 50-54 with secondary schooling. Completed Secondary","sourceOrganization":"Robert J. Barro and Jong-Wha Lee: http:\/\/www.barrolee.com\/","topics":[{"id":"4","value":"Education "}]},{"id":"BAR.SEC.CMPT.5054.FE.ZS","name":"Barro-Lee: Percentage of female population age 50-54 with secondary schooling. Completed Secondary","source":{"id":"12","value":"Education Statistics"},"sourceNote":"Percentage of female population age 50-54 with secondary schooling. Completed Secondary","sourceOrganization":"Robert J. Barro and Jong-Wha Lee: http:\/\/www.barrolee.com\/","topics":[{"id":"4","value":"Education "}]},{"id":"BAR.SEC.CMPT.4549.ZS","name":"Barro-Lee: Percentage of population age 45-49 with secondary schooling. Completed Secondary","source":{"id":"12","value":"Education Statistics"},"sourceNote":"Percentage of population age 45-49 with secondary schooling. Completed Secondary","sourceOrganization":"Robert J. Barro and Jong-Wha Lee: http:\/\/www.barrolee.com\/","topics":[{"id":"4","value":"Education "}]},{"id":"BAR.SEC.CMPT.4549.FE.ZS","name":"Barro-Lee: Percentage of female population age 45-49 with secondary schooling. Completed Secondary","source":{"id":"12","value":"Education Statistics"},"sourceNote":"Percentage of female population age 45-49 with secondary schooling. Completed Secondary","sourceOrganization":"Robert J. Barro and Jong-Wha Lee: http:\/\/www.barrolee.com\/","topics":[{"id":"4","value":"Education "}]},{"id":"BAR.SEC.CMPT.4044.ZS","name":"Barro-Lee: Percentage of population age 40-44 with secondary schooling. Completed Secondary","source":{"id":"12","value":"Education Statistics"},"sourceNote":"Percentage of population age 40-44 with secondary schooling. Completed Secondary","sourceOrganization":"Robert J. Barro and Jong-Wha Lee: http:\/\/www.barrolee.com\/","topics":[{"id":"4","value":"Education "}]},{"id":"BAR.SEC.CMPT.4044.FE.ZS","name":"Barro-Lee: Percentage of female population age 40-44 with secondary schooling. Completed Secondary","source":{"id":"12","value":"Education Statistics"},"sourceNote":"Percentage of female population age 40-44 with secondary schooling. Completed Secondary","sourceOrganization":"Robert J. Barro and Jong-Wha Lee: http:\/\/www.barrolee.com\/","topics":[{"id":"4","value":"Education "}]},{"id":"BAR.SEC.CMPT.3539.ZS","name":"Barro-Lee: Percentage of population age 35-39 with secondary schooling. Completed Secondary","source":{"id":"12","value":"Education Statistics"},"sourceNote":"Percentage of population age 35-39 with secondary schooling. Completed Secondary","sourceOrganization":"Robert J. Barro and Jong-Wha Lee: http:\/\/www.barrolee.com\/","topics":[{"id":"4","value":"Education "}]},{"id":"BAR.SEC.CMPT.3539.FE.ZS","name":"Barro-Lee: Percentage of female population age 35-39 with secondary schooling. Completed Secondary","source":{"id":"12","value":"Education Statistics"},"sourceNote":"Percentage of female population age 35-39 with secondary schooling. Completed Secondary","sourceOrganization":"Robert J. Barro and Jong-Wha Lee: http:\/\/www.barrolee.com\/","topics":[{"id":"4","value":"Education "}]},{"id":"BAR.SEC.CMPT.3034.ZS","name":"Barro-Lee: Percentage of population age 30-34 with secondary schooling. Completed Secondary","source":{"id":"12","value":"Education Statistics"},"sourceNote":"Percentage of population age 30-34 with secondary schooling. Completed Secondary","sourceOrganization":"Robert J. Barro and Jong-Wha Lee: http:\/\/www.barrolee.com\/","topics":[{"id":"4","value":"Education "}]},{"id":"BAR.SEC.CMPT.3034.FE.ZS","name":"Barro-Lee: Percentage of female population age 30-34 with secondary schooling. Completed Secondary","source":{"id":"12","value":"Education Statistics"},"sourceNote":"Percentage of female population age 30-34 with secondary schooling. Completed Secondary","sourceOrganization":"Robert J. Barro and Jong-Wha Lee: http:\/\/www.barrolee.com\/","topics":[{"id":"4","value":"Education "}]},{"id":"BAR.SEC.CMPT.25UP.ZS","name":"Barro-Lee: Percentage of population age 25+ with secondary schooling. Completed Secondary","source":{"id":"12","value":"Education Statistics"},"sourceNote":"Percentage of population age 25+ with secondary schooling. Completed Secondary","sourceOrganization":"Robert J. Barro and Jong-Wha Lee: http:\/\/www.barrolee.com\/","topics":[{"id":"4","value":"Education "}]},{"id":"BAR.SEC.CMPT.25UP.FE.ZS","name":"Barro-Lee: Percentage of female population age 25+ with secondary schooling. Completed Secondary","source":{"id":"12","value":"Education Statistics"},"sourceNote":"Percentage of female population age 25+ with secondary schooling. Completed Secondary","sourceOrganization":"Robert J. Barro and Jong-Wha Lee: http:\/\/www.barrolee.com\/","topics":[{"id":"4","value":"Education "}]},{"id":"BAR.SEC.CMPT.2529.ZS","name":"Barro-Lee: Percentage of population age 25-29 with secondary schooling. Completed Secondary","source":{"id":"12","value":"Education Statistics"},"sourceNote":"Percentage of population age 25-29 with secondary schooling. Completed Secondary","sourceOrganization":"Robert J. Barro and Jong-Wha Lee: http:\/\/www.barrolee.com\/","topics":[{"id":"4","value":"Education "}]},{"id":"BAR.SEC.CMPT.2529.FE.ZS","name":"Barro-Lee: Percentage of female population age 25-29 with secondary schooling. Completed Secondary","source":{"id":"12","value":"Education Statistics"},"sourceNote":"Percentage of female population age 25-29 with secondary schooling. Completed Secondary","sourceOrganization":"Robert J. Barro and Jong-Wha Lee: http:\/\/www.barrolee.com\/","topics":[{"id":"4","value":"Education "}]},{"id":"BAR.SEC.CMPT.2024.ZS","name":"Barro-Lee: Percentage of population age 20-24 with secondary schooling. Completed Secondary","source":{"id":"12","value":"Education Statistics"},"sourceNote":"Percentage of population age 20-24 with secondary schooling. Completed Secondary","sourceOrganization":"Robert J. Barro and Jong-Wha Lee: http:\/\/www.barrolee.com\/","topics":[{"id":"4","value":"Education "}]},{"id":"BAR.SEC.CMPT.2024.FE.ZS","name":"Barro-Lee: Percentage of female population age 20-24 with secondary schooling. Completed Secondary","source":{"id":"12","value":"Education Statistics"},"sourceNote":"Percentage of female population age 20-24 with secondary schooling. Completed Secondary","sourceOrganization":"Robert J. Barro and Jong-Wha Lee: http:\/\/www.barrolee.com\/","topics":[{"id":"4","value":"Education "}]},{"id":"BAR.SEC.CMPT.15UP.ZS","name":"Barro-Lee: Percentage of population age 15+ with secondary schooling. Completed Secondary","source":{"id":"12","value":"Education Statistics"},"sourceNote":"Percentage of population age 15+ with secondary schooling. Completed Secondary","sourceOrganization":"Robert J. Barro and Jong-Wha Lee: http:\/\/www.barrolee.com\/","topics":[{"id":"4","value":"Education "}]},{"id":"BAR.SEC.CMPT.15UP.FE.ZS","name":"Barro-Lee: Percentage of female population age 15+ with secondary schooling. Completed Secondary","source":{"id":"12","value":"Education Statistics"},"sourceNote":"Percentage of female population age 15+ with secondary schooling. Completed Secondary","sourceOrganization":"Robert J. Barro and Jong-Wha Lee: http:\/\/www.barrolee.com\/","topics":[{"id":"4","value":"Education "}]},{"id":"BAR.SEC.CMPT.1519.ZS","name":"Barro-Lee: Percentage of population age 15-19 with secondary schooling. Completed Secondary","source":{"id":"12","value":"Education Statistics"},"sourceNote":"Percentage of population age 15-19 with secondary schooling. Completed Secondary","sourceOrganization":"Robert J. Barro and Jong-Wha Lee: http:\/\/www.barrolee.com\/","topics":[{"id":"4","value":"Education "}]},{"id":"BAR.SEC.CMPT.1519.FE.ZS","name":"Barro-Lee: Percentage of female population age 15-19 with secondary schooling. Completed Secondary","source":{"id":"12","value":"Education Statistics"},"sourceNote":"Percentage of female population age 15-19 with secondary schooling. Completed Secondary","sourceOrganization":"Robert J. Barro and Jong-Wha Lee: http:\/\/www.barrolee.com\/","topics":[{"id":"4","value":"Education "}]},{"id":"BAR.SCHL.75UP.FE","name":"Barro-Lee: Average years of total schooling, age 75+, female","source":{"id":"12","value":"Education Statistics"},"sourceNote":"Average years of total schooling, 75+, female is the average years of education completed among females over age 75.","sourceOrganization":"Robert J. Barro and Jong-Wha Lee: http:\/\/www.barrolee.com\/","topics":[]},{"id":"BAR.SCHL.75UP","name":"Barro-Lee: Average years of total schooling, age 75+, total","source":{"id":"12","value":"Education Statistics"},"sourceNote":"Average years of total schooling, 75+, total is the average years of education completed among people over age 75.","sourceOrganization":"Robert J. Barro and Jong-Wha Lee: http:\/\/www.barrolee.com\/","topics":[]},{"id":"BAR.SCHL.7074.FE","name":"Barro-Lee: Average years of total schooling, age 70-74, female","source":{"id":"12","value":"Education Statistics"},"sourceNote":"Average years of total schooling, 70-74, female is the average years of education completed among females age 70-74.","sourceOrganization":"Robert J. Barro and Jong-Wha Lee: http:\/\/www.barrolee.com\/","topics":[]},{"id":"BAR.SCHL.7074","name":"Barro-Lee: Average years of total schooling, age 70-74, total","source":{"id":"12","value":"Education Statistics"},"sourceNote":"Average years of total schooling, 70-74, total is the average years of education completed among people age 70-74.","sourceOrganization":"Robert J. Barro and Jong-Wha Lee: http:\/\/www.barrolee.com\/","topics":[]},{"id":"BAR.SCHL.6569.FE","name":"Barro-Lee: Average years of total schooling, age 65-69, female","source":{"id":"12","value":"Education Statistics"},"sourceNote":"Average years of total schooling, 65-69, female is the average years of education completed among females age 65-69.","sourceOrganization":"Robert J. Barro and Jong-Wha Lee: http:\/\/www.barrolee.com\/","topics":[]},{"id":"BAR.SCHL.6569","name":"Barro-Lee: Average years of total schooling, age 65-69, total","source":{"id":"12","value":"Education Statistics"},"sourceNote":"Average years of total schooling, 65-69, total is the average years of education completed among people age 65-69.","sourceOrganization":"Robert J. Barro and Jong-Wha Lee: http:\/\/www.barrolee.com\/","topics":[]},{"id":"BAR.SCHL.6064.FE","name":"Barro-Lee: Average years of total schooling, age 60-64, female","source":{"id":"12","value":"Education Statistics"},"sourceNote":"Average years of total schooling, 60-64, female is the average years of education completed among females age 60-64.","sourceOrganization":"Robert J. Barro and Jong-Wha Lee: http:\/\/www.barrolee.com\/","topics":[{"id":"4","value":"Education "}]},{"id":"BAR.SCHL.6064","name":"Barro-Lee: Average years of total schooling, age 60-64, total","source":{"id":"12","value":"Education Statistics"},"sourceNote":"Average years of total schooling, 60-64, total is the average years of education completed among people age 60-64.","sourceOrganization":"Robert J. Barro and Jong-Wha Lee: http:\/\/www.barrolee.com\/","topics":[{"id":"4","value":"Education "}]},{"id":"BAR.SCHL.5559.FE","name":"Barro-Lee: Average years of total schooling, age 55-59, female","source":{"id":"12","value":"Education Statistics"},"sourceNote":"Average years of total schooling, 55-59, female is the average years of education completed among females age 55-59.","sourceOrganization":"Robert J. Barro and Jong-Wha Lee: http:\/\/www.barrolee.com\/","topics":[{"id":"4","value":"Education "}]},{"id":"BAR.SCHL.5559","name":"Barro-Lee: Average years of total schooling, age 55-59, total","source":{"id":"12","value":"Education Statistics"},"sourceNote":"Average years of total schooling, 55-59, total is the average years of education completed among people age 55-59.","sourceOrganization":"Robert J. Barro and Jong-Wha Lee: http:\/\/www.barrolee.com\/","topics":[{"id":"4","value":"Education "}]},{"id":"BAR.SCHL.5054.FE","name":"Barro-Lee: Average years of total schooling, age 50-54, female","source":{"id":"12","value":"Education Statistics"},"sourceNote":"Average years of total schooling, 50-54, female is the average years of education completed among females age 50-54.","sourceOrganization":"Robert J. Barro and Jong-Wha Lee: http:\/\/www.barrolee.com\/","topics":[{"id":"4","value":"Education "}]},{"id":"BAR.SCHL.5054","name":"Barro-Lee: Average years of total schooling, age 50-54, total","source":{"id":"12","value":"Education Statistics"},"sourceNote":"Average years of total schooling, 50-54, total is the average years of education completed among people age 50-54.","sourceOrganization":"Robert J. Barro and Jong-Wha Lee: http:\/\/www.barrolee.com\/","topics":[{"id":"4","value":"Education "}]},{"id":"BAR.SCHL.4549.FE","name":"Barro-Lee: Average years of total schooling, age 45-49, female","source":{"id":"12","value":"Education Statistics"},"sourceNote":"Average years of total schooling, 45-49, female is the average years of education completed among females age 45-49.","sourceOrganization":"Robert J. Barro and Jong-Wha Lee: http:\/\/www.barrolee.com\/","topics":[{"id":"4","value":"Education "}]},{"id":"BAR.SCHL.4549","name":"Barro-Lee: Average years of total schooling, age 45-49, total","source":{"id":"12","value":"Education Statistics"},"sourceNote":"Average years of total schooling, 45-49, total is the average years of education completed among people age 45-49.","sourceOrganization":"Robert J. Barro and Jong-Wha Lee: http:\/\/www.barrolee.com\/","topics":[{"id":"4","value":"Education "}]}]]