[{"page":77,"pages":324,"per_page":"50","total":16174},[{"id":"DT.DOR.DECT.MA.DS.US","name":"Gross Ext. Debt Pos., ST Rem., Central Bank, All maturities, Debt securities, Memo item, USD","source":{"id":"22","value":"Quarterly External Debt Statistics\/SDDS (New)"},"sourceNote":"","sourceOrganization":"","topics":[]},{"id":"DT.DOR.DECT.MA.AR.US","name":"Gross Ext. Debt Pos., ST Rem., Central Bank, All maturities, All instruments, Arrears, USD","source":{"id":"22","value":"Quarterly External Debt Statistics\/SDDS (New)"},"sourceNote":"","sourceOrganization":"","topics":[]},{"id":"DT.DOR.DECT.IL.AR.US","name":"Gross Ext. Debt Pos., ST Rem., DI: Intercom Lending, All maturities, All instruments, Arrears, USD","source":{"id":"22","value":"Quarterly External Debt Statistics\/SDDS (New)"},"sourceNote":"","sourceOrganization":"","topics":[]},{"id":"DT.DOR.DECT.GG.DS.US","name":"Gross Ext. Debt Pos., ST Rem., General Government, All maturities, Debt securities, Memo item, USD","source":{"id":"22","value":"Quarterly External Debt Statistics\/SDDS (New)"},"sourceNote":"","sourceOrganization":"","topics":[]},{"id":"DT.DOR.DECT.GG.AR.US","name":"Gross Ext. Debt Pos., ST Rem., General Government, All maturities, All instruments, Arrears, USD","source":{"id":"22","value":"Quarterly External Debt Statistics\/SDDS (New)"},"sourceNote":"","sourceOrganization":"","topics":[]},{"id":"DT.DOR.DECT.DS.US","name":"Gross Ext. Debt Pos., ST Rem., All Sectors, All maturities, Debt securities, Memo item, USD","source":{"id":"22","value":"Quarterly External Debt Statistics\/SDDS (New)"},"sourceNote":"","sourceOrganization":"","topics":[]},{"id":"DT.DOR.DECT.CD.OT.AR.US","name":"Gross Ext. Debt Pos., ST Rem., Other Sectors, All maturities, All instruments, USD","source":{"id":"22","value":"Quarterly External Debt Statistics\/SDDS (New)"},"sourceNote":"","sourceOrganization":"","topics":[]},{"id":"DT.DOR.DECT.CD.MA.AR.US","name":"Gross Ext. Debt Pos., ST Rem., Central Bank, All maturities, All instruments, USD","source":{"id":"22","value":"Quarterly External Debt Statistics\/SDDS (New)"},"sourceNote":"","sourceOrganization":"","topics":[]},{"id":"DT.DOR.DECT.CD.IL.US","name":"Gross Ext. Debt Pos., ST Rem., DI: Intercom Lending, All maturities, All instruments, USD","source":{"id":"22","value":"Quarterly External Debt Statistics\/SDDS (New)"},"sourceNote":"","sourceOrganization":"","topics":[]},{"id":"DT.DOR.DECT.CD.GG.AR.US","name":"Gross Ext. Debt Pos., ST Rem., General Government, All maturities, All instruments, USD","source":{"id":"22","value":"Quarterly External Debt Statistics\/SDDS (New)"},"sourceNote":"","sourceOrganization":"","topics":[]},{"id":"DT.DOR.DECT.CD.CB.AR.US","name":"Gross Ext. Debt Pos., ST Rem., Deposit-Taking Corp., exc. CB, All maturities, All instruments, USD","source":{"id":"22","value":"Quarterly External Debt Statistics\/SDDS (New)"},"sourceNote":"","sourceOrganization":"","topics":[]},{"id":"DT.DOR.DECT.CB.DS.US","name":"Gross Ext. Debt Pos., ST Rem., Deposit-Taking Corp., exc. CB, All maturities, Debt securities, Memo item, USD","source":{"id":"22","value":"Quarterly External Debt Statistics\/SDDS (New)"},"sourceNote":"","sourceOrganization":"","topics":[]},{"id":"DT.DOR.DECT.CB.AR.US","name":"Gross Ext. Debt Pos., ST Rem., Deposit-Taking Corp., exc. CB, All maturities, All instruments, Arrears, USD","source":{"id":"22","value":"Quarterly External Debt Statistics\/SDDS (New)"},"sourceNote":"","sourceOrganization":"","topics":[]},{"id":"DT.DOR.DECT.AR.US","name":"Gross Ext. Debt Pos., ST Rem., All Sectors, All maturities, All instruments, Arrears, USD","source":{"id":"22","value":"Quarterly External Debt Statistics\/SDDS (New)"},"sourceNote":"","sourceOrganization":"","topics":[]},{"id":"DT.DOD.VTOT.CD","name":"External debt stocks, variable rate (DOD, current US$)","source":{"id":"2","value":"World Development Indicators"},"sourceNote":"Variable interest rate is long-term external debt with interest rates that float with movements in a key market rate; for example, the London interbank offered rate (LIBOR) or the U.S. prime rate. This item conveys information about the borrower's exposure to changes in international interest rates. Long-term external debt is defined as debt that has an original or extended maturity of more than one year and that is owed to nonresidents by residents of an economy and repayable in currency, goods, or services. Data are in current U.S. dollars.","sourceOrganization":"World Bank, International Debt Statistics.","topics":[{"id":"20","value":"External Debt"}]},{"id":"DT.DOD.TCST.CD.PU.AR.US","name":"Gross Ext. Debt Pos., Public Sector Ext. Debt, Short-term, Trade credit and advances, USD","source":{"id":"22","value":"Quarterly External Debt Statistics\/SDDS (New)"},"sourceNote":"","sourceOrganization":"","topics":[]},{"id":"DT.DOD.TCST.CD.PR.AR.US","name":"Gross Ext. Debt Pos., Publicly Guar. Private Sector Ext. Debt, Short-term, Trade credit and advances, USD","source":{"id":"22","value":"Quarterly External Debt Statistics\/SDDS (New)"},"sourceNote":"","sourceOrganization":"","topics":[]},{"id":"DT.DOD.TCLT.CD.PU.AR.US","name":"Gross Ext. Debt Pos., Public Sector Ext. Debt, Long-term, Trade credit and advances, USD","source":{"id":"22","value":"Quarterly External Debt Statistics\/SDDS (New)"},"sourceNote":"","sourceOrganization":"","topics":[]},{"id":"DT.DOD.TCLT.CD.PR.AR.US","name":"Gross Ext. Debt Pos., Publicly Guar. Private Sector Ext. Debt, Long-term, Trade credit and advances, USD","source":{"id":"22","value":"Quarterly External Debt Statistics\/SDDS (New)"},"sourceNote":"","sourceOrganization":"","topics":[]},{"id":"DT.DOD.SDLT.CD.PU.US","name":"Gross Ext. Debt Pos., Public Sector Ext. Debt, Long-term, Special drawing rights (allocations), USD","source":{"id":"22","value":"Quarterly External Debt Statistics\/SDDS (New)"},"sourceNote":"","sourceOrganization":"","topics":[]},{"id":"DT.DOD.RSDL.CD","name":"Residual, debt stock-flow reconciliation (current US$)","source":{"id":"2","value":"World Development Indicators"},"sourceNote":"The residual difference, i.e. the change in stock not explained by any of the factors identified under debt stock-flow reconciliation, is calculated as the sum of identified accounts minus the change in stock. Where the latter is large it can, in some cases, serve as an illustration of the inconsistencies in the reported data. More often however, it can be explained by specific borrowing phenomenon in individual countries. Data are in current U.S. dollars.","sourceOrganization":"World Bank, International Debt Statistics.","topics":[{"id":"20","value":"External Debt"}]},{"id":"DT.DOD.PVLX.ND.ZS","name":"Present value to nominal value of debt (%)","source":{"id":"11","value":"Africa Development Indicators"},"sourceNote":"Present value of debt is the sum of short-term external debt plus the discounted sum of total debt service payments due on public, publicly guaranteed, and private nonguaranteed long-term external debt over the life of existing loans.  Total external debt is debt owed to nonresidents repayable in currency, goods, or services. Total external debt is the sum of public, publicly guaranteed, and private nonguaranteed long-term debt, use of IMF credit, and short-term debt. Short-term debt includes all debt having an original maturity of one year or less and interest in arrears on long-term debt. Data are in current U.S. dollars.  ","sourceOrganization":"World Bank, Global Development Finance.","topics":[]},{"id":"DT.DOD.PVLX.GN.ZS","name":"Present value of external debt (% of GNI)","source":{"id":"2","value":"World Development Indicators"},"sourceNote":"Present value of debt is the sum of short-term external debt plus the discounted sum of total debt service payments due on public, publicly guaranteed, and private nonguaranteed long-term external debt over the life of existing loans. The GNI denominator is a three-year average.","sourceOrganization":"World Bank, International Debt Statistics.","topics":[{"id":"3","value":"Economy & Growth"},{"id":"20","value":"External Debt"}]},{"id":"DT.DOD.PVLX.EX.ZS","name":"Present value of external debt (% of exports of goods, services and primary income)","source":{"id":"2","value":"World Development Indicators"},"sourceNote":"Present value of debt is the sum of short-term external debt plus the discounted sum of total debt service payments due on public, publicly guaranteed, and private nonguaranteed long-term external debt over the life of existing loans. The exports denominator is a three-year average.","sourceOrganization":"World Bank, International Debt Statistics.","topics":[{"id":"3","value":"Economy & Growth"},{"id":"20","value":"External Debt"}]},{"id":"DT.DOD.PVLX.CD","name":"Present value of external debt (current US$)","source":{"id":"2","value":"World Development Indicators"},"sourceNote":"Present value of debt is the sum of short-term external debt plus the discounted sum of total debt service payments due on public, publicly guaranteed, and private nonguaranteed long-term external debt over the life of existing loans. Data are in current U.S. dollars.","sourceOrganization":"World Bank, International Debt Statistics.","topics":[{"id":"3","value":"Economy & Growth"},{"id":"20","value":"External Debt"}]},{"id":"DT.DOD.PUTD.CD.US","name":"Public Sector Ext. Debt Pos., Debt securities' holders, All maturities, All instruments, USD","source":{"id":"23","value":"Quarterly External Debt Statistics\/GDDS (New)"},"sourceNote":"","sourceOrganization":"","topics":[]},{"id":"DT.DOD.PUTD.CD.ST.US","name":"Public Sector Ext. Debt Pos., Debt securities' holders, Short-term, All instruments, USD","source":{"id":"23","value":"Quarterly External Debt Statistics\/GDDS (New)"},"sourceNote":"","sourceOrganization":"","topics":[]},{"id":"DT.DOD.PUTD.CD.LT.US","name":"Public Sector Ext. Debt Pos., Debt securities' holders, Long-term, All instruments, USD","source":{"id":"23","value":"Quarterly External Debt Statistics\/GDDS (New)"},"sourceNote":"","sourceOrganization":"","topics":[]},{"id":"DT.DOD.PUTC.ST.AR.US","name":"Public Sector Ext. Debt Pos., Short-term, Trade credit and advances, USD","source":{"id":"23","value":"Quarterly External Debt Statistics\/GDDS (New)"},"sourceNote":"","sourceOrganization":"","topics":[]},{"id":"DT.DOD.PUTC.LT.AR.US","name":"Public Sector Ext. Debt Pos., Long-term, Trade credit and advances, USD","source":{"id":"23","value":"Quarterly External Debt Statistics\/GDDS (New)"},"sourceNote":"","sourceOrganization":"","topics":[]},{"id":"DT.DOD.PUST.CD.PU.AR.US","name":"Gross Ext. Debt Pos., Public Sector Ext. Debt, Short-term, All instruments, USD","source":{"id":"22","value":"Quarterly External Debt Statistics\/SDDS (New)"},"sourceNote":"","sourceOrganization":"","topics":[]},{"id":"DT.DOD.PUOT.CD.US","name":"Public Sector Ext. Debt Pos., Other creditors, All maturities, All instruments, USD","source":{"id":"23","value":"Quarterly External Debt Statistics\/GDDS (New)"},"sourceNote":"","sourceOrganization":"","topics":[]},{"id":"DT.DOD.PUOT.CD.ST.US","name":"Public Sector Ext. Debt Pos., Other creditors, Short-term, All instruments, USD","source":{"id":"23","value":"Quarterly External Debt Statistics\/GDDS (New)"},"sourceNote":"","sourceOrganization":"","topics":[]},{"id":"DT.DOD.PUOT.CD.LT.US","name":"Public Sector Ext. Debt Pos., Other creditors, Long-term, All instruments, USD","source":{"id":"23","value":"Quarterly External Debt Statistics\/GDDS (New)"},"sourceNote":"","sourceOrganization":"","topics":[]},{"id":"DT.DOD.PUOO.ST.AR.US","name":"Public Sector Ext. Debt Pos., Short-term, Other debt liabilities, USD","source":{"id":"23","value":"Quarterly External Debt Statistics\/GDDS (New)"},"sourceNote":"","sourceOrganization":"","topics":[]},{"id":"DT.DOD.PUOD.LT.AR.US","name":"Public Sector Ext. Debt Pos., Long-term, Other debt liabilities, USD","source":{"id":"23","value":"Quarterly External Debt Statistics\/GDDS (New)"},"sourceNote":"","sourceOrganization":"","topics":[]},{"id":"DT.DOD.PUMU.CD.US","name":"Public Sector Ext. Debt Pos., Multilateral creditors, All maturities, All instruments, USD","source":{"id":"23","value":"Quarterly External Debt Statistics\/GDDS (New)"},"sourceNote":"","sourceOrganization":"","topics":[]},{"id":"DT.DOD.PUMU.CD.ST.US","name":"Public Sector Ext. Debt Pos., Multilateral creditors, Short-term, All instruments, USD","source":{"id":"23","value":"Quarterly External Debt Statistics\/GDDS (New)"},"sourceNote":"","sourceOrganization":"","topics":[]},{"id":"DT.DOD.PUMU.CD.LT.US","name":"Public Sector Ext. Debt Pos., Multilateral creditors, Long-term, All instruments, USD","source":{"id":"23","value":"Quarterly External Debt Statistics\/GDDS (New)"},"sourceNote":"","sourceOrganization":"","topics":[]},{"id":"DT.DOD.PUMM.ST.AR.US","name":"Public Sector Ext. Debt Pos., Short-term, Debt securities, USD","source":{"id":"23","value":"Quarterly External Debt Statistics\/GDDS (New)"},"sourceNote":"","sourceOrganization":"","topics":[]},{"id":"DT.DOD.PULT.CD.PU.AR.US","name":"Gross Ext. Debt Pos., Public Sector Ext. Debt, Long-term, All instruments, USD","source":{"id":"22","value":"Quarterly External Debt Statistics\/SDDS (New)"},"sourceNote":"","sourceOrganization":"","topics":[]},{"id":"DT.DOD.PULO.ST.AR.US","name":"Public Sector Ext. Debt Pos., Short-term, Loans, USD","source":{"id":"23","value":"Quarterly External Debt Statistics\/GDDS (New)"},"sourceNote":"","sourceOrganization":"","topics":[]},{"id":"DT.DOD.PULO.LT.AR.US","name":"Public Sector Ext. Debt Pos., Long-term, Loans, USD","source":{"id":"23","value":"Quarterly External Debt Statistics\/GDDS (New)"},"sourceNote":"","sourceOrganization":"","topics":[]},{"id":"DT.DOD.PUFE.IL.US","name":"Public Sector Ext. Debt Pos., All maturities, Debt liab. to fellow ent., USD","source":{"id":"23","value":"Quarterly External Debt Statistics\/GDDS (New)"},"sourceNote":"","sourceOrganization":"","topics":[]},{"id":"DT.DOD.PUDI.IL.US","name":"Public Sector Ext. Debt Pos., All maturities, Debt liab. of DI ent. to dir. investors, USD","source":{"id":"23","value":"Quarterly External Debt Statistics\/GDDS (New)"},"sourceNote":"","sourceOrganization":"","topics":[]},{"id":"DT.DOD.PUCD.ST.AR.US","name":"Public Sector Ext. Debt Pos., Short-term, Currency and deposits , USD","source":{"id":"23","value":"Quarterly External Debt Statistics\/GDDS (New)"},"sourceNote":"","sourceOrganization":"","topics":[]},{"id":"DT.DOD.PUCD.LT.AR.US","name":"Public Sector Ext. Debt Pos., Long-term, Currency and deposits , USD","source":{"id":"23","value":"Quarterly External Debt Statistics\/GDDS (New)"},"sourceNote":"","sourceOrganization":"","topics":[]},{"id":"DT.DOD.PUBS.TO.T4.US","name":"Public Sector Ext. Debt Pos., All maturities, All instruments, USD","source":{"id":"23","value":"Quarterly External Debt Statistics\/GDDS (New)"},"sourceNote":"","sourceOrganization":"","topics":[]},{"id":"DT.DOD.PUBS.ST.AR.US","name":"Public Sector Ext. Debt Pos., Short-term, All instruments, USD","source":{"id":"23","value":"Quarterly External Debt Statistics\/GDDS (New)"},"sourceNote":"","sourceOrganization":"","topics":[]},{"id":"DT.DOD.PUBS.PR.T4.US","name":"Public Sector Ext. Debt Pos., All maturities, Arrears, Principal, USD","source":{"id":"23","value":"Quarterly External Debt Statistics\/GDDS (New)"},"sourceNote":"","sourceOrganization":"","topics":[{}]}]]