[{"page":58,"pages":324,"per_page":"50","total":16174},[{"id":"DT.DOD.DECT.CD.FC.IL.US.US","name":"Gross Ext. F. Curr Debt Pos., DI: Intercom Lending, All maturities, All instruments, US dollar, USD","source":{"id":"22","value":"Quarterly External Debt Statistics\/SDDS (New)"},"sourceNote":"","sourceOrganization":"","topics":[]},{"id":"DT.DOD.DECT.CD.FC.IL.TO.US","name":"Gross Ext. F. Curr Debt Pos., DI: Intercom Lending, All maturities, All instruments, All curr., USD","source":{"id":"22","value":"Quarterly External Debt Statistics\/SDDS (New)"},"sourceNote":"","sourceOrganization":"","topics":[]},{"id":"DT.DOD.DECT.CD.FC.IL.OT.US","name":"Gross Ext. F. Curr Debt Pos., DI: Intercom Lending, All maturities, All instruments, Other curr., USD","source":{"id":"22","value":"Quarterly External Debt Statistics\/SDDS (New)"},"sourceNote":"","sourceOrganization":"","topics":[]},{"id":"DT.DOD.DECT.CD.FC.IL.JY.US","name":"Gross Ext. F. Curr Debt Pos., DI: Intercom Lending, All maturities, All instruments, Yen, USD","source":{"id":"22","value":"Quarterly External Debt Statistics\/SDDS (New)"},"sourceNote":"","sourceOrganization":"","topics":[]},{"id":"DT.DOD.DECT.CD.FC.IL.EU.US","name":"Gross Ext. F. Curr Debt Pos., DI: Intercom Lending, All maturities, All instruments, Euro, USD","source":{"id":"22","value":"Quarterly External Debt Statistics\/SDDS (New)"},"sourceNote":"","sourceOrganization":"","topics":[]},{"id":"DT.DOD.DECT.CD.FC.GG.US.US","name":"Gross Ext. F. Curr Debt Pos., General Government, All maturities, All instruments, US dollar, USD","source":{"id":"22","value":"Quarterly External Debt Statistics\/SDDS (New)"},"sourceNote":"","sourceOrganization":"","topics":[]},{"id":"DT.DOD.DECT.CD.FC.GG.TO.US","name":"Gross Ext. F. Curr Debt Pos., General Government, All maturities, All instruments, All curr., USD","source":{"id":"22","value":"Quarterly External Debt Statistics\/SDDS (New)"},"sourceNote":"","sourceOrganization":"","topics":[]},{"id":"DT.DOD.DECT.CD.FC.GG.OT.US","name":"Gross Ext. F. Curr Debt Pos., General Government, All maturities, All instruments, Other curr., USD","source":{"id":"22","value":"Quarterly External Debt Statistics\/SDDS (New)"},"sourceNote":"","sourceOrganization":"","topics":[]},{"id":"DT.DOD.DECT.CD.FC.GG.JY.US","name":"Gross Ext. F. Curr Debt Pos., General Government, All maturities, All instruments, Yen, USD","source":{"id":"22","value":"Quarterly External Debt Statistics\/SDDS (New)"},"sourceNote":"","sourceOrganization":"","topics":[]},{"id":"DT.DOD.DECT.CD.FC.GG.EU.US","name":"Gross Ext. F. Curr Debt Pos., General Government, All maturities, All instruments, Euro, USD","source":{"id":"22","value":"Quarterly External Debt Statistics\/SDDS (New)"},"sourceNote":"","sourceOrganization":"","topics":[]},{"id":"DT.DOD.DECT.CD.FC.CB.US.US","name":"Gross Ext. F. Curr Debt Pos., Deposit-Taking Corp., exc. CB, All maturities, All instruments, US dollar, USD","source":{"id":"22","value":"Quarterly External Debt Statistics\/SDDS (New)"},"sourceNote":"","sourceOrganization":"","topics":[]},{"id":"DT.DOD.DECT.CD.FC.CB.TO.US","name":"Gross Ext. F. Curr Debt Pos., Deposit-Taking Corp., exc. CB, All maturities, All instruments, All curr., USD","source":{"id":"22","value":"Quarterly External Debt Statistics\/SDDS (New)"},"sourceNote":"","sourceOrganization":"","topics":[]},{"id":"DT.DOD.DECT.CD.FC.CB.OT.US","name":"Gross Ext. F. Curr Debt Pos., Deposit-Taking Corp., exc. CB, All maturities, All instruments, Other curr., USD","source":{"id":"22","value":"Quarterly External Debt Statistics\/SDDS (New)"},"sourceNote":"","sourceOrganization":"","topics":[]},{"id":"DT.DOD.DECT.CD.FC.CB.JY.US","name":"Gross Ext. F. Curr Debt Pos., Deposit-Taking Corp., exc. CB, All maturities, All instruments, Yen, USD","source":{"id":"22","value":"Quarterly External Debt Statistics\/SDDS (New)"},"sourceNote":"","sourceOrganization":"","topics":[]},{"id":"DT.DOD.DECT.CD.FC.CB.EU.US","name":"Gross Ext. F. Curr Debt Pos., Deposit-Taking Corp., exc. CB, All maturities, All instruments, Euro, USD","source":{"id":"22","value":"Quarterly External Debt Statistics\/SDDS (New)"},"sourceNote":"","sourceOrganization":"","topics":[]},{"id":"DT.DOD.DECT.CD.DT.US","name":"Gross Ext. Debt Pos., All Sectors, All maturities, All instruments, All currencies, USD","source":{"id":"22","value":"Quarterly External Debt Statistics\/SDDS (New)"},"sourceNote":"","sourceOrganization":"","topics":[]},{"id":"DT.DOD.DECT.CD.DC.US","name":"Gross Ext. Debt Pos., All Sectors, All maturities, All instruments, Domestic currency, USD","source":{"id":"22","value":"Quarterly External Debt Statistics\/SDDS (New)"},"sourceNote":"","sourceOrganization":"","topics":[]},{"id":"DT.DOD.DECT.CD.DC.T5.US","name":"Public and Publicly Guar. Private Sector Ext. Debt Pos., All Sectors, All maturities, All instruments, Domestic currency, USD","source":{"id":"23","value":"Quarterly External Debt Statistics\/GDDS (New)"},"sourceNote":"","sourceOrganization":"","topics":[]},{"id":"DT.DOD.DECT.CD.CG","name":"Total change in external debt stocks (current US$)","source":{"id":"2","value":"World Development Indicators"},"sourceNote":"Total change in debt stocks shows the variation in debt stock between two consecutive years. Data are in current U.S. dollars.","sourceOrganization":"World Bank, International Debt Statistics.","topics":[{"id":"20","value":"External Debt"}]},{"id":"DT.DOD.DECT.CD.CB.TD.NV.US","name":"Gross Ext. Debt Pos., Deposit-Taking Corp., exc. CB, All maturities, Debt Securities, Nominal Value, USD","source":{"id":"22","value":"Quarterly External Debt Statistics\/SDDS (New)"},"sourceNote":"","sourceOrganization":"","topics":[]},{"id":"DT.DOD.DECT.CD.CB.TD.MV.US","name":"Gross Ext. Debt Pos., Deposit-Taking Corp., exc. CB, All maturities, Debt Securities, Market Value, USD","source":{"id":"22","value":"Quarterly External Debt Statistics\/SDDS (New)"},"sourceNote":"","sourceOrganization":"","topics":[]},{"id":"DT.DOD.DECT.CD.CB.TD.MP.US","name":"Gross Ext. Debt Pos., Deposit-Taking Corp., exc. CB, All maturities, Debt Securities, Diff. with Market Value, USD","source":{"id":"22","value":"Quarterly External Debt Statistics\/SDDS (New)"},"sourceNote":"","sourceOrganization":"","topics":[]},{"id":"DT.DOD.DECT.CD.CB.AR.US","name":"Gross Ext. Debt Pos., Deposit-Taking Corp., exc. CB, All maturities, All instruments, USD","source":{"id":"22","value":"Quarterly External Debt Statistics\/SDDS (New)"},"sourceNote":"","sourceOrganization":"","topics":[]},{"id":"DT.DOD.DECT.CD.CB.AR.TR.US","name":"Gross Ext. Debt Pos., Deposit-Taking Corp., exc. CB, All maturities, All instruments, Transactions, USD","source":{"id":"22","value":"Quarterly External Debt Statistics\/SDDS (New)"},"sourceNote":"","sourceOrganization":"","topics":[]},{"id":"DT.DOD.DECT.CD.CB.AR.PX.US","name":"Gross Ext. Debt Pos., Deposit-Taking Corp., exc. CB, All maturities, All instruments, Other price chg, USD","source":{"id":"22","value":"Quarterly External Debt Statistics\/SDDS (New)"},"sourceNote":"","sourceOrganization":"","topics":[]},{"id":"DT.DOD.DECT.CD.CB.AR.OC.US","name":"Gross Ext. Debt Pos., Deposit-Taking Corp., exc. CB, All maturities, All instruments, Other chg in vol., USD","source":{"id":"22","value":"Quarterly External Debt Statistics\/SDDS (New)"},"sourceNote":"","sourceOrganization":"","topics":[]},{"id":"DT.DOD.DECT.CD.CB.AR.NE.US","name":"Net Ext. Debt Position, Deposit-Taking Corp., exc. CB, All maturities, All instruments, USD","source":{"id":"22","value":"Quarterly External Debt Statistics\/SDDS (New)"},"sourceNote":"","sourceOrganization":"","topics":[]},{"id":"DT.DOD.DECT.CD.CB.AR.GE.US","name":"Gross Ext. Debt Pos., Deposit-Taking Corp., exc. CB, All maturities, All instruments, Beginning pos., USD","source":{"id":"22","value":"Quarterly External Debt Statistics\/SDDS (New)"},"sourceNote":"","sourceOrganization":"","topics":[]},{"id":"DT.DOD.DECT.CD.CB.AR.EX.US","name":"Gross Ext. Debt Pos., Deposit-Taking Corp., exc. CB, All maturities, All instruments, Exchange rate chg, USD","source":{"id":"22","value":"Quarterly External Debt Statistics\/SDDS (New)"},"sourceNote":"","sourceOrganization":"","topics":[]},{"id":"DT.DOD.DECT.CD.CB.AR.EN.US","name":"Gross Ext. Debt Pos., Deposit-Taking Corp., exc. CB, All maturities, All instruments, end of period, USD","source":{"id":"22","value":"Quarterly External Debt Statistics\/SDDS (New)"},"sourceNote":"","sourceOrganization":"","topics":[]},{"id":"DT.DOD.DECT.CD.CB.AR.EA.US","name":"Ext. Assets in Debt Instruments, Deposit-Taking Corp., exc. CB, All maturities, All instruments, USD","source":{"id":"22","value":"Quarterly External Debt Statistics\/SDDS (New)"},"sourceNote":"","sourceOrganization":"","topics":[]},{"id":"DT.DOD.DECT.CD.CB.AR.BE.US","name":"Gross Ext. Debt Pos., Deposit-Taking Corp., exc. CB, All maturities, All instruments, Beginning of period, USD","source":{"id":"22","value":"Quarterly External Debt Statistics\/SDDS (New)"},"sourceNote":"","sourceOrganization":"","topics":[]},{"id":"DT.DOD.DECT.CD.AR.US","name":"Gross Ext. Debt Pos., All Sectors, All maturities, All instruments, USD","source":{"id":"22","value":"Quarterly External Debt Statistics\/SDDS (New)"},"sourceNote":"","sourceOrganization":"","topics":[]},{"id":"DT.DOD.DECT.CD.AR.TR.US","name":"Gross Ext. Debt Pos., All Sectors, All maturities, All instruments, Transactions, USD","source":{"id":"22","value":"Quarterly External Debt Statistics\/SDDS (New)"},"sourceNote":"","sourceOrganization":"","topics":[]},{"id":"DT.DOD.DECT.CD.AR.TL.US","name":"Gross Ext. Debt Pos., All Sectors, All maturities, Arrears, USD","source":{"id":"23","value":"Quarterly External Debt Statistics\/GDDS (New)"},"sourceNote":"","sourceOrganization":"","topics":[]},{"id":"DT.DOD.DECT.CD.AR.PX.US","name":"Gross Ext. Debt Pos., All Sectors, All maturities, All instruments, Other price chg, USD","source":{"id":"22","value":"Quarterly External Debt Statistics\/SDDS (New)"},"sourceNote":"","sourceOrganization":"","topics":[]},{"id":"DT.DOD.DECT.CD.AR.OC.US","name":"Gross Ext. Debt Pos., All Sectors, All maturities, All instruments, Other chg in vol., USD","source":{"id":"22","value":"Quarterly External Debt Statistics\/SDDS (New)"},"sourceNote":"","sourceOrganization":"","topics":[]},{"id":"DT.DOD.DECT.CD.AR.NE.US","name":"Net Ext. Debt Position, All Sectors, All maturities, All instruments, USD","source":{"id":"22","value":"Quarterly External Debt Statistics\/SDDS (New)"},"sourceNote":"","sourceOrganization":"","topics":[]},{"id":"DT.DOD.DECT.CD.AR.GE.US","name":"Gross Ext. Debt Pos., All Sectors, All maturities, All instruments, Beginning pos., USD","source":{"id":"22","value":"Quarterly External Debt Statistics\/SDDS (New)"},"sourceNote":"","sourceOrganization":"","topics":[]},{"id":"DT.DOD.DECT.CD.AR.EX.US","name":"Gross Ext. Debt Pos., All Sectors, All maturities, All instruments,  Exchange rate chg, USD","source":{"id":"22","value":"Quarterly External Debt Statistics\/SDDS (New)"},"sourceNote":"","sourceOrganization":"","topics":[]},{"id":"DT.DOD.DECT.CD.AR.EN.US","name":"Gross Ext. Debt Pos., All Sectors, All maturities, All instruments, end of period, USD","source":{"id":"22","value":"Quarterly External Debt Statistics\/SDDS (New)"},"sourceNote":"","sourceOrganization":"","topics":[]},{"id":"DT.DOD.DECT.CD.AR.EA.US","name":"Ext. Assets in Debt Instruments, All Sectors, All maturities, All instruments, USD","source":{"id":"22","value":"Quarterly External Debt Statistics\/SDDS (New)"},"sourceNote":"","sourceOrganization":"","topics":[]},{"id":"DT.DOD.DECT.CD.AR.BE.US","name":"Gross Ext. Debt Pos., All Sectors, All maturities, All instruments, Beginning of period, USD","source":{"id":"22","value":"Quarterly External Debt Statistics\/SDDS (New)"},"sourceNote":"","sourceOrganization":"","topics":[]},{"id":"DT.DOD.DECT.CD","name":"External debt stocks, total (DOD, current US$)","source":{"id":"2","value":"World Development Indicators"},"sourceNote":"Total external debt is debt owed to nonresidents repayable in currency, goods, or services. Total external debt is the sum of public, publicly guaranteed, and private nonguaranteed long-term debt, use of IMF credit, and short-term debt. Short-term debt includes all debt having an original maturity of one year or less and interest in arrears on long-term debt. Data are in current U.S. dollars.","sourceOrganization":"World Bank, International Debt Statistics.","topics":[{"id":"3","value":"Economy & Growth"},{"id":"20","value":"External Debt"}]},{"id":"DT.DOD.DECT.CB.DS.US","name":"Gross Ext. Debt Pos., Deposit-Taking Corp., exc. CB, All maturities, Debt Securities, Memo item, USD","source":{"id":"22","value":"Quarterly External Debt Statistics\/SDDS (New)"},"sourceNote":"","sourceOrganization":"","topics":[]},{"id":"DT.DOD.DECT.CB.AR.US","name":"Gross Ext. Debt Pos., Deposit-Taking Corp., exc. CB, All maturities, All instruments, Arrears, USD","source":{"id":"22","value":"Quarterly External Debt Statistics\/SDDS (New)"},"sourceNote":"","sourceOrganization":"","topics":[]},{"id":"DT.DOD.DECT.AR.US","name":"Gross Ext. Debt Pos., All Sectors, All maturities, All instruments, Arrears, USD","source":{"id":"22","value":"Quarterly External Debt Statistics\/SDDS (New)"},"sourceNote":"","sourceOrganization":"","topics":[]},{"id":"DT.DOD.DECT.AR.T4.US","name":"Public and Publicly Guar. Private Sector Ext. Debt Pos., All maturities, All instruments, Prin. and Int., USD","source":{"id":"23","value":"Quarterly External Debt Statistics\/GDDS (New)"},"sourceNote":"","sourceOrganization":"","topics":[]},{"id":"DT.DOD.CDST.CD.PU.AR.US","name":"Gross Ext. Debt Pos., Public Sector Ext. Debt, Short-term, Currency and deposits, USD","source":{"id":"22","value":"Quarterly External Debt Statistics\/SDDS (New)"},"sourceNote":"","sourceOrganization":"","topics":[]},{"id":"DT.DOD.CDST.CD.PR.AR.US","name":"Gross Ext. Debt Pos., Publicly Guar. Private Sector Ext. Debt, Short-term, Currency and deposits, USD","source":{"id":"22","value":"Quarterly External Debt Statistics\/SDDS (New)"},"sourceNote":"","sourceOrganization":"","topics":[{}]}]]