[{"page":56,"pages":324,"per_page":"50","total":16174},[{"id":"DT.COM.OFFT.CD","name":"Commitments, official creditors (COM, current US$)","source":{"id":"2","value":"World Development Indicators"},"sourceNote":"Commitments are the amount of long-term loans for which contracts were signed in the year specified. Debt from official creditors includes loans from international organizations (multilateral loans) and loans from governments (bilateral loans). Loans from international organization include loans and credits from the World Bank, regional development banks, and other multilateral and intergovernmental agencies. Excluded are loans from funds administered by an international organization on behalf of a single donor government; these are classified as loans from governments. Government loans include loans from governments and their agencies (including central banks), loans from autonomous bodies, and direct loans from official export credit agencies. Long-term external debt is defined as debt that has an original or extended maturity of more than one year and that is owed to nonresidents by residents of an economy and repayable in currency, goods, or services. Data are in current U.S. dollars.","sourceOrganization":"World Bank, International Debt Statistics.","topics":[{"id":"20","value":"External Debt"}]},{"id":"DT.COM.MIDA.CD","name":"Commitments, IDA (COM, current US$)","source":{"id":"2","value":"World Development Indicators"},"sourceNote":"Commitments (IDA) are the sum of new commitments on public and publicly guaranteed loans from the International Development Association (IDA). Data are in current U.S. dollars.","sourceOrganization":"World Bank, International Debt Statistics.","topics":[{"id":"20","value":"External Debt"}]},{"id":"DT.COM.MIBR.CD","name":"Commitments, IBRD (COM, current US$)","source":{"id":"2","value":"World Development Indicators"},"sourceNote":"Commitments (IBRD) are the sum of new commitments on public and publicly guaranteed loans from the International Bank for Reconstruction and Development (IBRD). Data are in current U.S. dollars.","sourceOrganization":"World Bank, International Debt Statistics.","topics":[{"id":"20","value":"External Debt"}]},{"id":"DT.COM.DPPG.CD","name":"Commitments, public and publicly guaranteed (COM, current US$)","source":{"id":"2","value":"World Development Indicators"},"sourceNote":"Commitments are the total amount of long-term loans for which contracts were signed in the year specified; data for private nonguaranteed debt are not available. Long-term external debt is defined as debt that has an original or extended maturity of more than one year and that is owed to nonresidents by residents of an economy and repayable in currency, goods, or services. Data are in current U.S. dollars.","sourceOrganization":"World Bank, International Debt Statistics.","topics":[{"id":"20","value":"External Debt"}]},{"id":"DT.AXR.PRVT.CD","name":"Principal rescheduled, private (current US$)","source":{"id":"2","value":"World Development Indicators"},"sourceNote":"Principal rescheduled is the amount of principal due or in arrears that was rescheduled in any given year. Debt from private creditors include bonds that are either publicly issued or privately placed; commercial bank loans from private banks and other private financial institutions; and other private credits from manufacturers, exporters, and other suppliers of goods, and bank credits covered by a guarantee of an export credit agency. Data are in current U.S. dollars.","sourceOrganization":"World Bank, International Debt Statistics.","topics":[{"id":"20","value":"External Debt"}]},{"id":"DT.AXR.OFFT.CD","name":"Principal rescheduled, official (current US$)","source":{"id":"2","value":"World Development Indicators"},"sourceNote":"Principal rescheduled is the amount of principal due or in arrears that was rescheduled in any given year. Debt from official creditors includes loans from international organizations (multilateral loans) and loans from governments (bilateral loans). Loans from international organization include loans and credits from the World Bank, regional development banks, and other multilateral and intergovernmental agencies. Excluded are loans from funds administered by an international organization on behalf of a single donor government; these are classified as loans from governments. Government loans include loans from governments and their agencies (including central banks), loans from autonomous bodies, and direct loans from official export credit agencies. Data are in current U.S. dollars.","sourceOrganization":"World Bank, International Debt Statistics.","topics":[{"id":"20","value":"External Debt"}]},{"id":"DT.AXR.DPPG.CD","name":"Principal rescheduled (current US$)","source":{"id":"2","value":"World Development Indicators"},"sourceNote":"Principal rescheduled is the amount of principal due or in arrears that was rescheduled in any given year. Data are in current U.S. dollars.","sourceOrganization":"World Bank, International Debt Statistics.","topics":[{"id":"20","value":"External Debt"}]},{"id":"DT.AXF.DPPG.CD","name":"Principal forgiven (current US$)","source":{"id":"2","value":"World Development Indicators"},"sourceNote":"Principal forgiven is the amount of principal due or in arrears that was written off or forgiven in any given year. It includes debt forgiven within and outside Paris Club agreements, principal forgiven and principal arrears forgiven. Data are in current U.S. dollars.","sourceOrganization":"World Bank, International Debt Statistics.","topics":[{"id":"20","value":"External Debt"}]},{"id":"DT.AXA.PRVT.CD","name":"Principal arrears, private creditors (current US$)","source":{"id":"2","value":"World Development Indicators"},"sourceNote":"Principal in arrears on long-term debt is defined as principal repayment due but not paid, on a cumulative basis. Debt from private creditors include bonds that are either publicly issued or privately placed; commercial bank loans from private banks and other private financial institutions; and other private credits from manufacturers, exporters, and other suppliers of goods, and bank credits covered by a guarantee of an export credit agency. Long-term external debt is defined as debt that has an original or extended maturity of more than one year and that is owed to nonresidents by residents of an economy and repayable in currency, goods, or services. Data are in current U.S. dollars.","sourceOrganization":"World Bank, International Debt Statistics.","topics":[{"id":"20","value":"External Debt"}]},{"id":"DT.AXA.OFFT.CD","name":"Principal arrears, official creditors (current US$)","source":{"id":"2","value":"World Development Indicators"},"sourceNote":"Principal in arrears on long-term debt is defined as principal repayment due but not paid, on a cumulative basis. Debt from official creditors includes loans from international organizations (multilateral loans) and loans from governments (bilateral loans). Loans from international organization include loans and credits from the World Bank, regional development banks, and other multilateral and intergovernmental agencies. Excluded are loans from funds administered by an international organization on behalf of a single donor government; these are classified as loans from governments. Government loans include loans from governments and their agencies (including central banks), loans from autonomous bodies, and direct loans from official export credit agencies. Long-term external debt is defined as debt that has an original or extended maturity of more than one year and that is owed to nonresidents by residents of an economy and repayable in currency, goods, or services. Data are in current U.S. dollars.","sourceOrganization":"World Bank, International Debt Statistics.","topics":[{"id":"20","value":"External Debt"}]},{"id":"DT.AXA.DPPG.CD","name":"Principal arrears, long-term DOD (US$)","source":{"id":"2","value":"World Development Indicators"},"sourceNote":"Principal in arrears on long-term debt is defined as principal repayment due but not paid, on a cumulative basis. Long-term external debt is defined as debt that has an original or extended maturity of more than one year and that is owed to nonresidents by residents of an economy and repayable in currency, goods, or services. Data are in current U.S. dollars.","sourceOrganization":"World Bank, International Debt Statistics.","topics":[{"id":"20","value":"External Debt"}]},{"id":"DT.AXA.DIIE.CD.IL.US","name":"Gross Ext. Debt Pos., Debt liab. of dir. investors to DI ent., All maturities, All instruments, Principal, USD","source":{"id":"22","value":"Quarterly External Debt Statistics\/SDDS (New)"},"sourceNote":"","sourceOrganization":"","topics":[]},{"id":"DT.AXA.DIFE.CD.IL.US","name":"Gross Ext. Debt Pos., Debt liab. to fellow ent., All maturities, All instruments, Principal, USD","source":{"id":"22","value":"Quarterly External Debt Statistics\/SDDS (New)"},"sourceNote":"","sourceOrganization":"","topics":[]},{"id":"DT.AXA.DIDI.CD.IL.US","name":"Gross Ext. Debt Pos., Debt liab. of DI ent. to dir. investors, All maturities, All instruments, Principal, USD","source":{"id":"22","value":"Quarterly External Debt Statistics\/SDDS (New)"},"sourceNote":"","sourceOrganization":"","topics":[]},{"id":"DT.AXA.DECT.CD.OT.US","name":"Gross Ext. Debt Pos., Other Sectors, All maturities, All instruments, Principal, USD","source":{"id":"22","value":"Quarterly External Debt Statistics\/SDDS (New)"},"sourceNote":"","sourceOrganization":"","topics":[]},{"id":"DT.AXA.DECT.CD.OT.NF.US","name":"Gross Ext. Debt Pos., Nonfinancial corporations, All maturities, All instruments, Principal, USD","source":{"id":"22","value":"Quarterly External Debt Statistics\/SDDS (New)"},"sourceNote":"","sourceOrganization":"","topics":[]},{"id":"DT.AXA.DECT.CD.OT.NB.US","name":"Gross Ext. Debt Pos., Other financial corporations, All maturities, All instruments, Principal, USD","source":{"id":"22","value":"Quarterly External Debt Statistics\/SDDS (New)"},"sourceNote":"","sourceOrganization":"","topics":[]},{"id":"DT.AXA.DECT.CD.OT.HH.US","name":"Gross Ext. Debt Pos., HH and nonprofit institu. (NPISHs), All maturities, All instruments, Principal, USD","source":{"id":"22","value":"Quarterly External Debt Statistics\/SDDS (New)"},"sourceNote":"","sourceOrganization":"","topics":[]},{"id":"DT.AXA.DECT.CD.MA.US","name":"Gross Ext. Debt Pos., Central Bank, All maturities, All instruments, Principal, USD","source":{"id":"22","value":"Quarterly External Debt Statistics\/SDDS (New)"},"sourceNote":"","sourceOrganization":"","topics":[]},{"id":"DT.AXA.DECT.CD.GG.US","name":"Gross Ext. Debt Pos., General Government, All maturities, All instruments, Principal, Arrears, USD","source":{"id":"22","value":"Quarterly External Debt Statistics\/SDDS (New)"},"sourceNote":"","sourceOrganization":"","topics":[]},{"id":"DT.AXA.DECT.CD.CB.US","name":"Gross Ext. Debt Pos., Deposit-Taking Corp., exc. CB, All maturities, All instruments, Principal, USD","source":{"id":"22","value":"Quarterly External Debt Statistics\/SDDS (New)"},"sourceNote":"","sourceOrganization":"","topics":[]},{"id":"DT.AMT.PUBS.CD.IQ.00.US","name":"Ext. Debt Service Pmt, Public Sector Ext. Debt, Immediately, All instruments, Principal, USD","source":{"id":"23","value":"Quarterly External Debt Statistics\/GDDS (New)"},"sourceNote":"","sourceOrganization":"","topics":[]},{"id":"DT.AMT.PUBS.CD.19.24.MO.US","name":"Ext. Debt Service Pmt, Public Sector Ext. Debt, 18 to 24 mo., All instruments, Principal, USD","source":{"id":"23","value":"Quarterly External Debt Statistics\/GDDS (New)"},"sourceNote":"","sourceOrganization":"","topics":[]},{"id":"DT.AMT.PUBS.CD.15.UP.YR.US","name":"Ext. Debt Service Pmt, Public Sector Ext. Debt, More than15yrs, All instruments, Principal, USD","source":{"id":"23","value":"Quarterly External Debt Statistics\/GDDS (New)"},"sourceNote":"","sourceOrganization":"","topics":[]},{"id":"DT.AMT.PUBS.CD.13.18.MO.US","name":"Ext. Debt Service Pmt, Public Sector Ext. Debt, 12 to 18 mo., All instruments, Principal, USD","source":{"id":"23","value":"Quarterly External Debt Statistics\/GDDS (New)"},"sourceNote":"","sourceOrganization":"","topics":[]},{"id":"DT.AMT.PUBS.CD.10.15.YR.US","name":"Ext. Debt Service Pmt, Public Sector Ext. Debt, 10 to 15 yrs, All instruments, Principal, USD","source":{"id":"23","value":"Quarterly External Debt Statistics\/GDDS (New)"},"sourceNote":"","sourceOrganization":"","topics":[]},{"id":"DT.AMT.PUBS.CD.10.12.MO.US","name":"Ext. Debt Service Pmt, Public Sector Ext. Debt, 9 to 12 mo., All instruments, Principal, USD","source":{"id":"23","value":"Quarterly External Debt Statistics\/GDDS (New)"},"sourceNote":"","sourceOrganization":"","topics":[]},{"id":"DT.AMT.PUBS.CD.07.09.MO.US","name":"Ext. Debt Service Pmt, Public Sector Ext. Debt, 6 to 9 mo., All instruments, Principal, USD","source":{"id":"23","value":"Quarterly External Debt Statistics\/GDDS (New)"},"sourceNote":"","sourceOrganization":"","topics":[]},{"id":"DT.AMT.PUBS.CD.05.YR.US","name":"Ext. Debt Service Pmt, Public Sector Ext. Debt, 5yrs, All instruments, Principal, USD","source":{"id":"23","value":"Quarterly External Debt Statistics\/GDDS (New)"},"sourceNote":"","sourceOrganization":"","topics":[]},{"id":"DT.AMT.PUBS.CD.05.10.YR.US","name":"Ext. Debt Service Pmt, Public Sector Ext. Debt, 5 to 10 yrs, All instruments, Principal, USD","source":{"id":"23","value":"Quarterly External Debt Statistics\/GDDS (New)"},"sourceNote":"","sourceOrganization":"","topics":[]},{"id":"DT.AMT.PUBS.CD.04.YR.US","name":"Ext. Debt Service Pmt, Public Sector Ext. Debt, 4yrs, All instruments, Principal, USD","source":{"id":"23","value":"Quarterly External Debt Statistics\/GDDS (New)"},"sourceNote":"","sourceOrganization":"","topics":[]},{"id":"DT.AMT.PUBS.CD.04.06.MO.US","name":"Ext. Debt Service Pmt, Public Sector Ext. Debt, 3 to 6 mo., All instruments, Principal, USD","source":{"id":"23","value":"Quarterly External Debt Statistics\/GDDS (New)"},"sourceNote":"","sourceOrganization":"","topics":[]},{"id":"DT.AMT.PUBS.CD.03.YR.US","name":"Ext. Debt Service Pmt, Public Sector Ext. Debt, 3yrs, All instruments, Principal, USD","source":{"id":"23","value":"Quarterly External Debt Statistics\/GDDS (New)"},"sourceNote":"","sourceOrganization":"","topics":[]},{"id":"DT.AMT.PUBS.CD.00.03.MO.US","name":"Ext. Debt Service Pmt, Public Sector Ext. Debt, 0 to 3 mo., All instruments, Principal, USD","source":{"id":"23","value":"Quarterly External Debt Statistics\/GDDS (New)"},"sourceNote":"","sourceOrganization":"","topics":[]},{"id":"DT.AMT.PRVT.CD","name":"PPG, private creditors (AMT, current US$)","source":{"id":"2","value":"World Development Indicators"},"sourceNote":"Public and publicly guaranteed debt from private creditors include bonds that are either publicly issued or privately placed; commercial bank loans from private banks and other private financial institutions; and other private credits from manufacturers, exporters, and other suppliers of goods, and bank credits covered by a guarantee of an export credit agency. Principal repayments are actual amounts of principal (amortization) paid by the borrower in currency, goods, or services in the year specified. Data are in current U.S. dollars.","sourceOrganization":"World Bank, International Debt Statistics.","topics":[{"id":"20","value":"External Debt"}]},{"id":"DT.AMT.PRVS.CD.IQ.00.US","name":"Ext. Debt Service Pmt, Publicly Guar. Private Sector Ext. Debt, Immediately, All instruments, Principal, USD","source":{"id":"23","value":"Quarterly External Debt Statistics\/GDDS (New)"},"sourceNote":"","sourceOrganization":"","topics":[]},{"id":"DT.AMT.PRVS.CD.19.24.MO.US","name":"Ext. Debt Service Pmt, Publicly Guar. Private Sector Ext. Debt, 18 to 24 mo., All instruments, Principal, USD","source":{"id":"23","value":"Quarterly External Debt Statistics\/GDDS (New)"},"sourceNote":"","sourceOrganization":"","topics":[]},{"id":"DT.AMT.PRVS.CD.15.UP.YR.US","name":"Ext. Debt Service Pmt, Publicly Guar. Private Sector Ext. Debt, More than15yrs, All instruments, Principal, USD","source":{"id":"23","value":"Quarterly External Debt Statistics\/GDDS (New)"},"sourceNote":"","sourceOrganization":"","topics":[]},{"id":"DT.AMT.PRVS.CD.13.18.MO.US","name":"Ext. Debt Service Pmt, Publicly Guar. Private Sector Ext. Debt, 12 to 18 mo., All instruments, Principal, USD","source":{"id":"23","value":"Quarterly External Debt Statistics\/GDDS (New)"},"sourceNote":"","sourceOrganization":"","topics":[]},{"id":"DT.AMT.PRVS.CD.10.15.YR.US","name":"Ext. Debt Service Pmt, Publicly Guar. Private Sector Ext. Debt, 10 to 15 yrs, All instruments, Principal, USD","source":{"id":"23","value":"Quarterly External Debt Statistics\/GDDS (New)"},"sourceNote":"","sourceOrganization":"","topics":[]},{"id":"DT.AMT.PRVS.CD.10.12.MO.US","name":"Ext. Debt Service Pmt, Publicly Guar. Private Sector Ext. Debt, 9 to 12 mo., All instruments, Principal, USD","source":{"id":"23","value":"Quarterly External Debt Statistics\/GDDS (New)"},"sourceNote":"","sourceOrganization":"","topics":[]},{"id":"DT.AMT.PRVS.CD.07.09.MO.US","name":"Ext. Debt Service Pmt, Publicly Guar. Private Sector Ext. Debt, 6 to 9 mo., All instruments, Principal, USD","source":{"id":"23","value":"Quarterly External Debt Statistics\/GDDS (New)"},"sourceNote":"","sourceOrganization":"","topics":[]},{"id":"DT.AMT.PRVS.CD.05.YR.US","name":"Ext. Debt Service Pmt, Publicly Guar. Private Sector Ext. Debt, 5yrs, All instruments, Principal, USD","source":{"id":"23","value":"Quarterly External Debt Statistics\/GDDS (New)"},"sourceNote":"","sourceOrganization":"","topics":[]},{"id":"DT.AMT.PRVS.CD.05.10.YR.US","name":"Ext. Debt Service Pmt, Publicly Guar. Private Sector Ext. Debt, 5 to 10 yrs, All instruments, Principal, USD","source":{"id":"23","value":"Quarterly External Debt Statistics\/GDDS (New)"},"sourceNote":"","sourceOrganization":"","topics":[]},{"id":"DT.AMT.PRVS.CD.04.YR.US","name":"Ext. Debt Service Pmt, Publicly Guar. Private Sector Ext. Debt, 4yrs, All instruments, Principal, USD","source":{"id":"23","value":"Quarterly External Debt Statistics\/GDDS (New)"},"sourceNote":"","sourceOrganization":"","topics":[]},{"id":"DT.AMT.PRVS.CD.04.06.MO.US","name":"Ext. Debt Service Pmt, Publicly Guar. Private Sector Ext. Debt, 3 to 6 mo., All instruments, Principal, USD","source":{"id":"23","value":"Quarterly External Debt Statistics\/GDDS (New)"},"sourceNote":"","sourceOrganization":"","topics":[]},{"id":"DT.AMT.PRVS.CD.03.YR.US","name":"Ext. Debt Service Pmt, Publicly Guar. Private Sector Ext. Debt, 3yrs, All instruments, Principal, USD","source":{"id":"23","value":"Quarterly External Debt Statistics\/GDDS (New)"},"sourceNote":"","sourceOrganization":"","topics":[]},{"id":"DT.AMT.PRVS.CD.00.03.MO.US","name":"Ext. Debt Service Pmt, Publicly Guar. Private Sector Ext. Debt, 0 to 3 mo., All instruments, Principal, USD","source":{"id":"23","value":"Quarterly External Debt Statistics\/GDDS (New)"},"sourceNote":"","sourceOrganization":"","topics":[]},{"id":"DT.AMT.PROP.CD","name":"PPG, other private creditors (AMT, current US$)","source":{"id":"2","value":"World Development Indicators"},"sourceNote":"Public and publicly guaranteed other private credits from manufacturers, exporters, and other suppliers of goods, and bank credits covered by a guarantee of an export credit agency. Principal repayments are actual amounts of principal (amortization) paid by the borrower in currency, goods, or services in the year specified. Data are in current U.S. dollars.","sourceOrganization":"World Bank, International Debt Statistics.","topics":[{"id":"20","value":"External Debt"}]},{"id":"DT.AMT.PNGC.CD","name":"PNG, commercial banks and other creditors (AMT, current US$)","source":{"id":"2","value":"World Development Indicators"},"sourceNote":"Nonguaranteed long-term commercial bank loans from private banks and other private financial institutions. Principal repayments are actual amounts of principal (amortization) paid by the borrower in currency, goods, or services in the year specified. Data are in current U.S. dollars.","sourceOrganization":"World Bank, International Debt Statistics.","topics":[{"id":"20","value":"External Debt"}]}]]