[{"page":222,"pages":324,"per_page":"50","total":16174},[{"id":"per_sa_su_gini_ep_tot","name":"Gini inequality reduction (%) -  Subsidies -extreme poor (<$1.25 a day)","source":{"id":"29","value":"Global Social Protection"},"sourceNote":"Gini inequality index reduction due to SPL programs as % of pre-transfer Gini index","sourceOrganization":"ASPIRE","topics":[{"id":"10","value":"Social Protection & Labor"}]},{"id":"per_sa_su_gini_ep_preT_tot","name":"Gini inequality reduction (%) -  Subsidies -extreme poor (<$1.25 a day) (preT)","source":{"id":"29","value":"Global Social Protection"},"sourceNote":"Gini inequality index reduction due to SPL programs as % of pre-transfer Gini index","sourceOrganization":"ASPIRE","topics":[{"id":"10","value":"Social Protection & Labor"}]},{"id":"per_sa_su.cov_q5_urb","name":"Coverage in richest quintile (%) - Subsidies -urban","source":{"id":"29","value":"Global Social Protection"},"sourceNote":"Percentage of population participating in Social Protection and Labor programs (includes direct and indirect beneficiaries)","sourceOrganization":"ASPIRE","topics":[{"id":"10","value":"Social Protection & Labor"}]},{"id":"per_sa_su.cov_q5_tot","name":"Coverage in richest quintile (%) - Subsidies","source":{"id":"29","value":"Global Social Protection"},"sourceNote":"Percentage of population participating in Social Protection and Labor programs (includes direct and indirect beneficiaries)","sourceOrganization":"ASPIRE","topics":[{"id":"10","value":"Social Protection & Labor"}]},{"id":"per_sa_su.cov_q5_rur","name":"Coverage in richest quintile (%) - Subsidies -rural","source":{"id":"29","value":"Global Social Protection"},"sourceNote":"Percentage of population participating in Social Protection and Labor programs (includes direct and indirect beneficiaries)","sourceOrganization":"ASPIRE","topics":[{"id":"10","value":"Social Protection & Labor"}]},{"id":"per_sa_su.cov_q5_preT_tot","name":"Coverage in richest quintile (%) - Subsidies (preT)","source":{"id":"29","value":"Global Social Protection"},"sourceNote":"Percentage of population participating in Social Protection and Labor programs (includes direct and indirect beneficiaries)","sourceOrganization":"ASPIRE","topics":[{"id":"10","value":"Social Protection & Labor"}]},{"id":"per_sa_su.cov_q4_urb","name":"Coverage in 4th quintile (%) - Subsidies -urban","source":{"id":"29","value":"Global Social Protection"},"sourceNote":"Percentage of population participating in Social Protection and Labor programs (includes direct and indirect beneficiaries)","sourceOrganization":"ASPIRE","topics":[{"id":"10","value":"Social Protection & Labor"}]},{"id":"per_sa_su.cov_q4_tot","name":"Coverage in 4th quintile (%) - Subsidies","source":{"id":"29","value":"Global Social Protection"},"sourceNote":"Percentage of population participating in Social Protection and Labor programs (includes direct and indirect beneficiaries)","sourceOrganization":"ASPIRE","topics":[{"id":"10","value":"Social Protection & Labor"}]},{"id":"per_sa_su.cov_q4_rur","name":"Coverage in 4th quintile (%) - Subsidies -rural","source":{"id":"29","value":"Global Social Protection"},"sourceNote":"Percentage of population participating in Social Protection and Labor programs (includes direct and indirect beneficiaries)","sourceOrganization":"ASPIRE","topics":[{"id":"10","value":"Social Protection & Labor"}]},{"id":"per_sa_su.cov_q4_preT_tot","name":"Coverage in 4th quintile (%) - Subsidies (preT)","source":{"id":"29","value":"Global Social Protection"},"sourceNote":"Percentage of population participating in Social Protection and Labor programs (includes direct and indirect beneficiaries)","sourceOrganization":"ASPIRE","topics":[{"id":"10","value":"Social Protection & Labor"}]},{"id":"per_sa_su.cov_q3_urb","name":"Coverage in 3rd quintile (%) - Subsidies -urban","source":{"id":"29","value":"Global Social Protection"},"sourceNote":"Percentage of population participating in Social Protection and Labor programs (includes direct and indirect beneficiaries)","sourceOrganization":"ASPIRE","topics":[{"id":"10","value":"Social Protection & Labor"}]},{"id":"per_sa_su.cov_q3_tot","name":"Coverage in 3rd quintile (%) - Subsidies","source":{"id":"29","value":"Global Social Protection"},"sourceNote":"Percentage of population participating in Social Protection and Labor programs (includes direct and indirect beneficiaries)","sourceOrganization":"ASPIRE","topics":[{"id":"10","value":"Social Protection & Labor"}]},{"id":"per_sa_su.cov_q3_rur","name":"Coverage in 3rd quintile (%) - Subsidies -rural","source":{"id":"29","value":"Global Social Protection"},"sourceNote":"Percentage of population participating in Social Protection and Labor programs (includes direct and indirect beneficiaries)","sourceOrganization":"ASPIRE","topics":[{"id":"10","value":"Social Protection & Labor"}]},{"id":"per_sa_su.cov_q3_preT_tot","name":"Coverage in 3rd quintile (%) - Subsidies (preT)","source":{"id":"29","value":"Global Social Protection"},"sourceNote":"Percentage of population participating in Social Protection and Labor programs (includes direct and indirect beneficiaries)","sourceOrganization":"ASPIRE","topics":[{"id":"10","value":"Social Protection & Labor"}]},{"id":"per_sa_su.cov_q2_urb","name":"Coverage in 2nd quintile (%) - Subsidies -urban","source":{"id":"29","value":"Global Social Protection"},"sourceNote":"Percentage of population participating in Social Protection and Labor programs (includes direct and indirect beneficiaries)","sourceOrganization":"ASPIRE","topics":[{"id":"10","value":"Social Protection & Labor"}]},{"id":"per_sa_su.cov_q2_tot","name":"Coverage in 2nd quintile (%) - Subsidies","source":{"id":"29","value":"Global Social Protection"},"sourceNote":"Percentage of population participating in Social Protection and Labor programs (includes direct and indirect beneficiaries)","sourceOrganization":"ASPIRE","topics":[{"id":"10","value":"Social Protection & Labor"}]},{"id":"per_sa_su.cov_q2_rur","name":"Coverage in 2nd quintile (%) - Subsidies -rural","source":{"id":"29","value":"Global Social Protection"},"sourceNote":"Percentage of population participating in Social Protection and Labor programs (includes direct and indirect beneficiaries)","sourceOrganization":"ASPIRE","topics":[{"id":"10","value":"Social Protection & Labor"}]},{"id":"per_sa_su.cov_q2_preT_tot","name":"Coverage in 2nd quintile (%) - Subsidies (preT)","source":{"id":"29","value":"Global Social Protection"},"sourceNote":"Percentage of population participating in Social Protection and Labor programs (includes direct and indirect beneficiaries)","sourceOrganization":"ASPIRE","topics":[{"id":"10","value":"Social Protection & Labor"}]},{"id":"per_sa_su.cov_q1_urb","name":"Coverage in poorest quintile (%) - Subsidies -urban","source":{"id":"29","value":"Global Social Protection"},"sourceNote":"Percentage of population participating in Social Protection and Labor programs (includes direct and indirect beneficiaries)","sourceOrganization":"ASPIRE","topics":[{"id":"10","value":"Social Protection & Labor"}]},{"id":"per_sa_su.cov_q1_tot","name":"Coverage in poorest quintile (%) - Subsidies","source":{"id":"29","value":"Global Social Protection"},"sourceNote":"Percentage of population participating in Social Protection and Labor programs (includes direct and indirect beneficiaries)","sourceOrganization":"ASPIRE","topics":[{"id":"10","value":"Social Protection & Labor"}]},{"id":"per_sa_su.cov_q1_rur","name":"Coverage in poorest quintile (%) - Subsidies -rural","source":{"id":"29","value":"Global Social Protection"},"sourceNote":"Percentage of population participating in Social Protection and Labor programs (includes direct and indirect beneficiaries)","sourceOrganization":"ASPIRE","topics":[{"id":"10","value":"Social Protection & Labor"}]},{"id":"per_sa_su.cov_q1_preT_tot","name":"Coverage in poorest quintile (%) - Subsidies (preT)","source":{"id":"29","value":"Global Social Protection"},"sourceNote":"Percentage of population participating in Social Protection and Labor programs (includes direct and indirect beneficiaries)","sourceOrganization":"ASPIRE","topics":[{"id":"10","value":"Social Protection & Labor"}]},{"id":"per_sa_su.cov_pop_urb","name":"Coverage (%) - Subsidies -urban","source":{"id":"29","value":"Global Social Protection"},"sourceNote":"Percentage of population participating in Social Protection and Labor programs (includes direct and indirect beneficiaries)","sourceOrganization":"ASPIRE","topics":[{"id":"10","value":"Social Protection & Labor"}]},{"id":"per_sa_su.cov_pop_tot","name":"Coverage (%) - Subsidies","source":{"id":"29","value":"Global Social Protection"},"sourceNote":"Percentage of population participating in Social Protection and Labor programs (includes direct and indirect beneficiaries)","sourceOrganization":"ASPIRE","topics":[{"id":"10","value":"Social Protection & Labor"}]},{"id":"per_sa_su.cov_pop_rur","name":"Coverage (%) - Subsidies -rural","source":{"id":"29","value":"Global Social Protection"},"sourceNote":"Percentage of population participating in Social Protection and Labor programs (includes direct and indirect beneficiaries)","sourceOrganization":"ASPIRE","topics":[{"id":"10","value":"Social Protection & Labor"}]},{"id":"per_sa_su.cov_pop_preT_tot","name":"Coverage (%) - Subsidies (preT)","source":{"id":"29","value":"Global Social Protection"},"sourceNote":"Percentage of population participating in Social Protection and Labor programs (includes direct and indirect beneficiaries)","sourceOrganization":"ASPIRE","topics":[{"id":"10","value":"Social Protection & Labor"}]},{"id":"per_sa_su.cov_ep_tot","name":"Coverage in extreme poor (<$1.25 a day) (%) - Subsidies","source":{"id":"29","value":"Global Social Protection"},"sourceNote":"Percentage of population participating in Social Protection and Labor programs (includes direct and indirect beneficiaries)","sourceOrganization":"ASPIRE","topics":[{"id":"10","value":"Social Protection & Labor"}]},{"id":"per_sa_su.cov_ep_preT_tot","name":"Coverage in extreme poor (<$1.25 a day) (%) - Subsidies (preT)","source":{"id":"29","value":"Global Social Protection"},"sourceNote":"Percentage of population participating in Social Protection and Labor programs (includes direct and indirect beneficiaries)","sourceOrganization":"ASPIRE","topics":[{"id":"10","value":"Social Protection & Labor"}]},{"id":"per_sa_su.cba_q1_urb","name":"Benefit-cost ratio -  Subsidies - poorest quintile -urban","source":{"id":"29","value":"Global Social Protection"},"sourceNote":"Poverty gap reduction obtained for each $1 spent in SPL programs (%)","sourceOrganization":"ASPIRE","topics":[{"id":"10","value":"Social Protection & Labor"}]},{"id":"per_sa_su.cba_q1_tot","name":"Benefit-cost ratio -  Subsidies -poorest quintile","source":{"id":"29","value":"Global Social Protection"},"sourceNote":"Poverty gap reduction obtained for each $1 spent in SPL programs (%)","sourceOrganization":"ASPIRE","topics":[{"id":"10","value":"Social Protection & Labor"}]},{"id":"per_sa_su.cba_q1_rur","name":"Benefit-cost ratio -  Subsidies -poorest quintile -rural","source":{"id":"29","value":"Global Social Protection"},"sourceNote":"Poverty gap reduction obtained for each $1 spent in SPL programs (%)","sourceOrganization":"ASPIRE","topics":[{"id":"10","value":"Social Protection & Labor"}]},{"id":"per_sa_su.cba_q1_preT_tot","name":"Benefit-cost ratio -  Subsidies -poorest quintile (preT)","source":{"id":"29","value":"Global Social Protection"},"sourceNote":"Poverty gap reduction obtained for each $1 spent in SPL programs (%)","sourceOrganization":"ASPIRE","topics":[{"id":"10","value":"Social Protection & Labor"}]},{"id":"per_sa_su.cba_ep_tot","name":"Benefit-cost ratio -  Subsidies -extreme poor (<$1.25 a day)","source":{"id":"29","value":"Global Social Protection"},"sourceNote":"Poverty gap reduction obtained for each $1 spent in SPL programs (%)","sourceOrganization":"ASPIRE","topics":[{"id":"10","value":"Social Protection & Labor"}]},{"id":"per_sa_su.cba_ep_preT_tot","name":"Benefit-cost ratio -  Subsidies -extreme poor (<$1.25 a day) (preT)","source":{"id":"29","value":"Global Social Protection"},"sourceNote":"Poverty gap reduction obtained for each $1 spent in SPL programs (%)","sourceOrganization":"ASPIRE","topics":[{"id":"10","value":"Social Protection & Labor"}]},{"id":"per_sa_su.bry_q5_urb","name":"Beneficiary incidence in richest quintile (%) - Subsidies -urban","source":{"id":"29","value":"Global Social Protection"},"sourceNote":"Percentage of program beneficiaries in a quintile relative to the total number of beneficiaries in the population","sourceOrganization":"ASPIRE","topics":[{"id":"10","value":"Social Protection & Labor"}]},{"id":"per_sa_su.bry_q5_tot","name":"Beneficiary incidence in richest quintile (%) - Subsidies","source":{"id":"29","value":"Global Social Protection"},"sourceNote":"Percentage of program beneficiaries in a quintile relative to the total number of beneficiaries in the population","sourceOrganization":"ASPIRE","topics":[{"id":"10","value":"Social Protection & Labor"}]},{"id":"per_sa_su.bry_q5_rur","name":"Beneficiary incidence in richest quintile (%) - Subsidies -rural","source":{"id":"29","value":"Global Social Protection"},"sourceNote":"Percentage of program beneficiaries in a quintile relative to the total number of beneficiaries in the population","sourceOrganization":"ASPIRE","topics":[{"id":"10","value":"Social Protection & Labor"}]},{"id":"per_sa_su.bry_q5_preT_tot","name":"Beneficiary incidence in richest quintile (%) - Subsidies (preT)","source":{"id":"29","value":"Global Social Protection"},"sourceNote":"Percentage of program beneficiaries in a quintile relative to the total number of beneficiaries in the population","sourceOrganization":"ASPIRE","topics":[{"id":"10","value":"Social Protection & Labor"}]},{"id":"per_sa_su.bry_q4_urb","name":"Beneficiary incidence in 4th quintile (%) - Subsidies -urban","source":{"id":"29","value":"Global Social Protection"},"sourceNote":"Percentage of program beneficiaries in a quintile relative to the total number of beneficiaries in the population","sourceOrganization":"ASPIRE","topics":[{"id":"10","value":"Social Protection & Labor"}]},{"id":"per_sa_su.bry_q4_tot","name":"Beneficiary incidence in 4th quintile (%) - Subsidies","source":{"id":"29","value":"Global Social Protection"},"sourceNote":"Percentage of program beneficiaries in a quintile relative to the total number of beneficiaries in the population","sourceOrganization":"ASPIRE","topics":[{"id":"10","value":"Social Protection & Labor"}]},{"id":"per_sa_su.bry_q4_rur","name":"Beneficiary incidence in 4th quintile (%) - Subsidies -rural","source":{"id":"29","value":"Global Social Protection"},"sourceNote":"Percentage of program beneficiaries in a quintile relative to the total number of beneficiaries in the population","sourceOrganization":"ASPIRE","topics":[{"id":"10","value":"Social Protection & Labor"}]},{"id":"per_sa_su.bry_q4_preT_tot","name":"Beneficiary incidence in 4th quintile (%) - Subsidies (preT)","source":{"id":"29","value":"Global Social Protection"},"sourceNote":"Percentage of program beneficiaries in a quintile relative to the total number of beneficiaries in the population","sourceOrganization":"ASPIRE","topics":[{"id":"10","value":"Social Protection & Labor"}]},{"id":"per_sa_su.bry_q3_urb","name":"Beneficiary incidence in 3rd quintile (%) - Subsidies -urban","source":{"id":"29","value":"Global Social Protection"},"sourceNote":"Percentage of program beneficiaries in a quintile relative to the total number of beneficiaries in the population","sourceOrganization":"ASPIRE","topics":[{"id":"10","value":"Social Protection & Labor"}]},{"id":"per_sa_su.bry_q3_tot","name":"Beneficiary incidence in 3rd quintile (%) - Subsidies","source":{"id":"29","value":"Global Social Protection"},"sourceNote":"Percentage of program beneficiaries in a quintile relative to the total number of beneficiaries in the population","sourceOrganization":"ASPIRE","topics":[{"id":"10","value":"Social Protection & Labor"}]},{"id":"per_sa_su.bry_q3_rur","name":"Beneficiary incidence in 3rd quintile (%) - Subsidies -rural","source":{"id":"29","value":"Global Social Protection"},"sourceNote":"Percentage of program beneficiaries in a quintile relative to the total number of beneficiaries in the population","sourceOrganization":"ASPIRE","topics":[{"id":"10","value":"Social Protection & Labor"}]},{"id":"per_sa_su.bry_q3_preT_tot","name":"Beneficiary incidence in 3rd quintile (%) - Subsidies (preT)","source":{"id":"29","value":"Global Social Protection"},"sourceNote":"Percentage of program beneficiaries in a quintile relative to the total number of beneficiaries in the population","sourceOrganization":"ASPIRE","topics":[{"id":"10","value":"Social Protection & Labor"}]},{"id":"per_sa_su.bry_q2_urb","name":"Beneficiary incidence in 2nd quintile (%) - Subsidies -urban","source":{"id":"29","value":"Global Social Protection"},"sourceNote":"Percentage of program beneficiaries in a quintile relative to the total number of beneficiaries in the population","sourceOrganization":"ASPIRE","topics":[{"id":"10","value":"Social Protection & Labor"}]},{"id":"per_sa_su.bry_q2_tot","name":"Beneficiary incidence in 2nd quintile (%) - Subsidies","source":{"id":"29","value":"Global Social Protection"},"sourceNote":"Percentage of program beneficiaries in a quintile relative to the total number of beneficiaries in the population","sourceOrganization":"ASPIRE","topics":[{"id":"10","value":"Social Protection & Labor"}]},{"id":"per_sa_su.bry_q2_rur","name":"Beneficiary incidence in 2nd quintile (%) - Subsidies -rural","source":{"id":"29","value":"Global Social Protection"},"sourceNote":"Percentage of program beneficiaries in a quintile relative to the total number of beneficiaries in the population","sourceOrganization":"ASPIRE","topics":[{"id":"10","value":"Social Protection & Labor"}]},{"id":"per_sa_su.bry_q2_preT_tot","name":"Beneficiary incidence in 2nd quintile (%) - Subsidies (preT)","source":{"id":"29","value":"Global Social Protection"},"sourceNote":"Percentage of program beneficiaries in a quintile relative to the total number of beneficiaries in the population","sourceOrganization":"ASPIRE","topics":[{"id":"10","value":"Social Protection & Labor"}]}]]