[{"page":307,"pages":324,"per_page":"50","total":16174},[{"id":"WP_time_08.6","name":"Borrowed from family or friends, primary education or less (% ages 15+) [ts]","source":{"id":"28","value":"Global Findex ( Global Financial Inclusion database)"},"sourceNote":"Denotes the percentage of respondents who report borrowing any money from family, relatives, or friends in the past 12 months (see year-specific definitions for details) (primary education or less, % age 15+). [ts: data are available for multiple waves].","sourceOrganization":"Demirguc-Kunt et al., 2015","topics":[{"id":"7","value":"Financial Sector "}]},{"id":"WP_time_08.5","name":"Borrowed from family or friends, older adults (% ages 25+) [ts]","source":{"id":"28","value":"Global Findex ( Global Financial Inclusion database)"},"sourceNote":"Denotes the percentage of respondents who report borrowing any money from family, relatives, or friends in the past 12 months (see year-specific definitions for details) (% age 25+). [ts: data are available for multiple waves].","sourceOrganization":"Demirguc-Kunt et al., 2015","topics":[{"id":"7","value":"Financial Sector "}]},{"id":"WP_time_08.4","name":"Borrowed from family or friends, young adults (% ages 15-24) [ts]","source":{"id":"28","value":"Global Findex ( Global Financial Inclusion database)"},"sourceNote":"Denotes the percentage of respondents who report borrowing any money from family, relatives, or friends in the past 12 months (see year-specific definitions for details) (% ages 15-24). [ts: data are available for multiple waves].","sourceOrganization":"Demirguc-Kunt et al., 2015","topics":[{"id":"7","value":"Financial Sector "}]},{"id":"WP_time_08.3","name":"Borrowed from family or friends, female (% age 15+) [ts]","source":{"id":"28","value":"Global Findex ( Global Financial Inclusion database)"},"sourceNote":"Denotes the percentage of respondents who report borrowing any money from family, relatives, or friends in the past 12 months (see year-specific definitions for details) (female, % age 15+). [ts: data are available for multiple waves].","sourceOrganization":"Demirguc-Kunt et al., 2015","topics":[{"id":"7","value":"Financial Sector "}]},{"id":"WP_time_08.2","name":"Borrowed from family or friends, male (% age 15+) [ts]","source":{"id":"28","value":"Global Findex ( Global Financial Inclusion database)"},"sourceNote":"Denotes the percentage of respondents who report borrowing any money from family, relatives, or friends in the past 12 months (see year-specific definitions for details) (male, % age 15+). [ts: data are available for multiple waves].","sourceOrganization":"Demirguc-Kunt et al., 2015","topics":[{"id":"7","value":"Financial Sector "}]},{"id":"WP_time_08.1","name":"Borrowed from family or friends (% age 15+) [ts]","source":{"id":"28","value":"Global Findex ( Global Financial Inclusion database)"},"sourceNote":"Denotes the percentage of respondents who report borrowing any money from family, relatives, or friends in the past 12 months (see year-specific definitions for details) (% age 15+). [ts: data are available for multiple waves].","sourceOrganization":"Demirguc-Kunt et al., 2015","topics":[{"id":"7","value":"Financial Sector "}]},{"id":"WP_time_06.9","name":"Borrowed from a financial institution, income, richest 60% (% ages 15+) [ts]","source":{"id":"28","value":"Global Findex ( Global Financial Inclusion database)"},"sourceNote":"Denotes the percentage of respondents who report borrowing any money from a bank or another type of financial institution in the past 12 months (see year-specific definitions for details) (income, richest 60%, % age 15+). [ts: data are available for multiple waves].","sourceOrganization":"Demirguc-Kunt et al., 2015","topics":[{"id":"7","value":"Financial Sector "}]},{"id":"WP_time_06.8","name":"Borrowed from a financial institution, income, poorest 40% (% ages 15+) [ts]","source":{"id":"28","value":"Global Findex ( Global Financial Inclusion database)"},"sourceNote":"Denotes the percentage of respondents who report borrowing any money from a bank or another type of financial institution in the past 12 months (see year-specific definitions for details) (income, poorest 40%, % age 15+). [ts: data are available for multiple waves].","sourceOrganization":"Demirguc-Kunt et al., 2015","topics":[{"id":"7","value":"Financial Sector "}]},{"id":"WP_time_06.7","name":"Borrowed from a financial institution, secondary education or more (% ages 15+) [ts]","source":{"id":"28","value":"Global Findex ( Global Financial Inclusion database)"},"sourceNote":"Denotes the percentage of respondents who report borrowing any money from a bank or another type of financial institution in the past 12 months (see year-specific definitions for details) (secondary education or more, % age 15+). [ts: data are available for multiple waves].","sourceOrganization":"Demirguc-Kunt et al., 2015","topics":[{"id":"7","value":"Financial Sector "}]},{"id":"WP_time_06.6","name":"Borrowed from a financial institution, primary education or less (% ages 15+) [ts]","source":{"id":"28","value":"Global Findex ( Global Financial Inclusion database)"},"sourceNote":"Denotes the percentage of respondents who report borrowing any money from a bank or another type of financial institution in the past 12 months (see year-specific definitions for details) (primary education or less, % age 15+). [ts: data are available for multiple waves].","sourceOrganization":"Demirguc-Kunt et al., 2015","topics":[{"id":"7","value":"Financial Sector "}]},{"id":"WP_time_06.5","name":"Borrowed from a financial institution, older adults (% ages 25+) [ts]","source":{"id":"28","value":"Global Findex ( Global Financial Inclusion database)"},"sourceNote":"Denotes the percentage of respondents who report borrowing any money from a bank or another type of financial institution in the past 12 months (see year-specific definitions for details) (% age 25+). [ts: data are available for multiple waves].","sourceOrganization":"Demirguc-Kunt et al., 2015","topics":[{"id":"7","value":"Financial Sector "}]},{"id":"WP_time_06.4","name":"Borrowed from a financial institution, young adults (% ages 15-24) [ts]","source":{"id":"28","value":"Global Findex ( Global Financial Inclusion database)"},"sourceNote":"Denotes the percentage of respondents who report borrowing any money from a bank or another type of financial institution in the past 12 months (see year-specific definitions for details) (% ages 15-24). [ts: data are available for multiple waves].","sourceOrganization":"Demirguc-Kunt et al., 2015","topics":[{"id":"7","value":"Financial Sector "}]},{"id":"WP_time_06.3","name":"Borrowed from a financial institution, female (% age 15+) [ts]","source":{"id":"28","value":"Global Findex ( Global Financial Inclusion database)"},"sourceNote":"Denotes the percentage of respondents who report borrowing any money from a bank or another type of financial institution in the past 12 months (see year-specific definitions for details) (female, % age 15+). [ts: data are available for multiple waves].","sourceOrganization":"Demirguc-Kunt et al., 2015","topics":[{"id":"7","value":"Financial Sector "}]},{"id":"WP_time_06.2","name":"Borrowed from a financial institution, male (% age 15+) [ts]","source":{"id":"28","value":"Global Findex ( Global Financial Inclusion database)"},"sourceNote":"Denotes the percentage of respondents who report borrowing any money from a bank or another type of financial institution in the past 12 months (see year-specific definitions for details) (male, % age 15+). [ts: data are available for multiple waves].","sourceOrganization":"Demirguc-Kunt et al., 2015","topics":[{"id":"7","value":"Financial Sector "}]},{"id":"WP_time_06.1","name":"Borrowed from a financial institution (% age 15+) [ts]","source":{"id":"28","value":"Global Findex ( Global Financial Inclusion database)"},"sourceNote":"Denotes the percentage of respondents who report borrowing any money from a bank or another type of financial institution in the past 12 months (see year-specific definitions for details) (% age 15+). [ts: data are available for multiple waves].","sourceOrganization":"Demirguc-Kunt et al., 2015","topics":[{"id":"7","value":"Financial Sector "}]},{"id":"WP_time_05.9","name":"Saved using a savings club or a person outside the family, income, richest 60% (% ages 15+) [ts]","source":{"id":"28","value":"Global Findex ( Global Financial Inclusion database)"},"sourceNote":"Denotes the percentage of respondents who report saving or setting aside any money using a savings club or a person outside the family in the past 12 months (see year-specific definitions for details) (income, richest 60%, % age 15+). [ts: data are available for multiple waves].","sourceOrganization":"Demirguc-Kunt et al., 2015","topics":[{"id":"7","value":"Financial Sector "}]},{"id":"WP_time_05.8","name":"Saved using a savings club or a person outside the family, income, poorest 40% (% ages 15+) [ts]","source":{"id":"28","value":"Global Findex ( Global Financial Inclusion database)"},"sourceNote":"Denotes the percentage of respondents who report saving or setting aside any money using a savings club or a person outside the family in the past 12 months (see year-specific definitions for details) (income, poorest 40%, % age 15+). [ts: data are available for multiple waves].","sourceOrganization":"Demirguc-Kunt et al., 2015","topics":[{"id":"7","value":"Financial Sector "}]},{"id":"WP_time_05.7","name":"Saved using a savings club or a person outside the family, secondary education or more (% ages 15+) [ts]","source":{"id":"28","value":"Global Findex ( Global Financial Inclusion database)"},"sourceNote":"Denotes the percentage of respondents who report saving or setting aside any money using a savings club or a person outside the family in the past 12 months (see year-specific definitions for details) (secondary education or more, % age 15+). [ts: data are available for multiple waves].","sourceOrganization":"Demirguc-Kunt et al., 2015","topics":[{"id":"7","value":"Financial Sector "}]},{"id":"WP_time_05.6","name":"Saved using a savings club or a person outside the family, primary education or less (% ages 15+) [ts]","source":{"id":"28","value":"Global Findex ( Global Financial Inclusion database)"},"sourceNote":"Denotes the percentage of respondents who report saving or setting aside any money using a savings club or a person outside the family in the past 12 months (see year-specific definitions for details) (primary education or less, % age 15+). [ts: data are available for multiple waves].","sourceOrganization":"Demirguc-Kunt et al., 2015","topics":[{"id":"7","value":"Financial Sector "}]},{"id":"WP_time_05.5","name":"Saved using a savings club or a person outside the family, older adults (% ages 25+) [ts]","source":{"id":"28","value":"Global Findex ( Global Financial Inclusion database)"},"sourceNote":"Denotes the percentage of respondents who report saving or setting aside any money using a savings club or a person outside the family in the past 12 months (see year-specific definitions for details) (% age 25+). [ts: data are available for multiple waves].","sourceOrganization":"Demirguc-Kunt et al., 2015","topics":[{"id":"7","value":"Financial Sector "}]},{"id":"WP_time_05.4","name":"Saved using a savings club or a person outside the family, young adults (% ages 15-24) [ts]","source":{"id":"28","value":"Global Findex ( Global Financial Inclusion database)"},"sourceNote":"Denotes the percentage of respondents who report saving or setting aside any money using a savings club or a person outside the family in the past 12 months (see year-specific definitions for details) (% ages 15-24). [ts: data are available for multiple waves].","sourceOrganization":"Demirguc-Kunt et al., 2015","topics":[{"id":"7","value":"Financial Sector "}]},{"id":"WP_time_05.3","name":"Saved using a savings club or a person outside the family, female (% age 15+) [ts]","source":{"id":"28","value":"Global Findex ( Global Financial Inclusion database)"},"sourceNote":"Denotes the percentage of respondents who report saving or setting aside any money using a savings club or a person outside the family in the past 12 months (see year-specific definitions for details) (female, % age 15+). [ts: data are available for multiple waves].","sourceOrganization":"Demirguc-Kunt et al., 2015","topics":[{"id":"7","value":"Financial Sector "}]},{"id":"WP_time_05.2","name":"Saved using a savings club or a person outside the family, male (% age 15+) [ts]","source":{"id":"28","value":"Global Findex ( Global Financial Inclusion database)"},"sourceNote":"Denotes the percentage of respondents who report saving or setting aside any money using a savings club or a person outside the family in the past 12 months (see year-specific definitions for details) (male, % age 15+). [ts: data are available for multiple waves].","sourceOrganization":"Demirguc-Kunt et al., 2015","topics":[{"id":"7","value":"Financial Sector "}]},{"id":"WP_time_05.1","name":"Saved using a savings club or a person outside the family (% age 15+) [ts]","source":{"id":"28","value":"Global Findex ( Global Financial Inclusion database)"},"sourceNote":"Denotes the percentage of respondents who report saving or setting aside any money using a savings club or a person outside the family in the past 12 months (see year-specific definitions for details) (% age 15+). [ts: data are available for multiple waves].","sourceOrganization":"Demirguc-Kunt et al., 2015","topics":[{"id":"7","value":"Financial Sector "}]},{"id":"WP_time_04.9","name":"Saved at a financial institution, income, richest 60% (% ages 15+) [ts]","source":{"id":"28","value":"Global Findex ( Global Financial Inclusion database)"},"sourceNote":"Denotes the percentage of respondents who report saving or setting aside any money at a bank or another type of financial institution in the past 12 months (see year-specific definitions for details) (income, richest 60%, % age 15+). [ts: data are available for multiple waves].","sourceOrganization":"Demirguc-Kunt et al., 2015","topics":[{"id":"7","value":"Financial Sector "}]},{"id":"WP_time_04.8","name":"Saved at a financial institution, income, poorest 40% (% ages 15+) [ts]","source":{"id":"28","value":"Global Findex ( Global Financial Inclusion database)"},"sourceNote":"Denotes the percentage of respondents who report saving or setting aside any money at a bank or another type of financial institution in the past 12 months (see year-specific definitions for details) (income, poorest 40%, % age 15+). [ts: data are available for multiple waves].","sourceOrganization":"Demirguc-Kunt et al., 2015","topics":[{"id":"7","value":"Financial Sector "}]},{"id":"WP_time_04.7","name":"Saved at a financial institution, secondary education or more (% ages 15+) [ts]","source":{"id":"28","value":"Global Findex ( Global Financial Inclusion database)"},"sourceNote":"Denotes the percentage of respondents who report saving or setting aside any money at a bank or another type of financial institution in the past 12 months (see year-specific definitions for details) (secondary education or more, % age 15+). [ts: data are available for multiple waves].","sourceOrganization":"Demirguc-Kunt et al., 2015","topics":[{"id":"7","value":"Financial Sector "}]},{"id":"WP_time_04.6","name":"Saved at a financial institution, primary education or less (% ages 15+) [ts]","source":{"id":"28","value":"Global Findex ( Global Financial Inclusion database)"},"sourceNote":"Denotes the percentage of respondents who report saving or setting aside any money at a bank or another type of financial institution in the past 12 months (see year-specific definitions for details) (primary education or less, % age 15+). [ts: data are available for multiple waves].","sourceOrganization":"Demirguc-Kunt et al., 2015","topics":[{"id":"7","value":"Financial Sector "}]},{"id":"WP_time_04.5","name":"Saved at a financial institution, older adults (% ages 25+) [ts]","source":{"id":"28","value":"Global Findex ( Global Financial Inclusion database)"},"sourceNote":"Denotes the percentage of respondents who report saving or setting aside any money at a bank or another type of financial institution in the past 12 months (see year-specific definitions for details) (% age 25+). [ts: data are available for multiple waves].","sourceOrganization":"Demirguc-Kunt et al., 2015","topics":[{"id":"7","value":"Financial Sector "}]},{"id":"WP_time_04.4","name":"Saved at a financial institution, young adults (% ages 15-24) [ts]","source":{"id":"28","value":"Global Findex ( Global Financial Inclusion database)"},"sourceNote":"Denotes the percentage of respondents who report saving or setting aside any money at a bank or another type of financial institution in the past 12 months (see year-specific definitions for details) (% ages 15-24). [ts: data are available for multiple waves].","sourceOrganization":"Demirguc-Kunt et al., 2015","topics":[{"id":"7","value":"Financial Sector "}]},{"id":"WP_time_04.3","name":"Saved at a financial institution, female (% age 15+) [ts]","source":{"id":"28","value":"Global Findex ( Global Financial Inclusion database)"},"sourceNote":"Denotes the percentage of respondents who report saving or setting aside any money at a bank or another type of financial institution in the past 12 months (see year-specific definitions for details) (female, % age 15+). [ts: data are available for multiple waves].","sourceOrganization":"Demirguc-Kunt et al., 2015","topics":[{"id":"7","value":"Financial Sector "}]},{"id":"WP_time_04.2","name":"Saved at a financial institution, male (% age 15+) [ts]","source":{"id":"28","value":"Global Findex ( Global Financial Inclusion database)"},"sourceNote":"Denotes the percentage of respondents who report saving or setting aside any money at a bank or another type of financial institution in the past 12 months (see year-specific definitions for details) (male, % age 15+). [ts: data are available for multiple waves].","sourceOrganization":"Demirguc-Kunt et al., 2015","topics":[{"id":"7","value":"Financial Sector "}]},{"id":"WP_time_04.1","name":"Saved at a financial institution (% age 15+) [ts]","source":{"id":"28","value":"Global Findex ( Global Financial Inclusion database)"},"sourceNote":"Denotes the percentage of respondents who report saving or setting aside any money at a bank or another type of financial institution in the past 12 months (see year-specific definitions for details) (% age 15+). [ts: data are available for multiple waves].","sourceOrganization":"Demirguc-Kunt et al., 2015","topics":[{"id":"7","value":"Financial Sector "}]},{"id":"WP_time_03.9","name":"Credit card, income, richest 60% (% ages 15+) [ts]","source":{"id":"28","value":"Global Findex ( Global Financial Inclusion database)"},"sourceNote":"Denotes the percentage of respondents who report having a credit card (see year-specific definitions for details) (income, richest 60%, % age 15+). [ts: data are available for multiple waves].","sourceOrganization":"Demirguc-Kunt et al., 2015","topics":[{"id":"7","value":"Financial Sector "}]},{"id":"WP_time_03.8","name":"Credit card, income, poorest 40% (% ages 15+) [ts]","source":{"id":"28","value":"Global Findex ( Global Financial Inclusion database)"},"sourceNote":"Denotes the percentage of respondents who report having a credit card (see year-specific definitions for details) (income, poorest 40%, % age 15+). [ts: data are available for multiple waves].","sourceOrganization":"Demirguc-Kunt et al., 2015","topics":[{"id":"7","value":"Financial Sector "}]},{"id":"WP_time_03.7","name":"Credit card, secondary education or more (% ages 15+) [ts]","source":{"id":"28","value":"Global Findex ( Global Financial Inclusion database)"},"sourceNote":"Denotes the percentage of respondents who report having a credit card (see year-specific definitions for details) (secondary education or more, % age 15+). [ts: data are available for multiple waves].","sourceOrganization":"Demirguc-Kunt et al., 2015","topics":[{"id":"7","value":"Financial Sector "}]},{"id":"WP_time_03.6","name":"Credit card, primary education or less (% ages 15+) [ts]","source":{"id":"28","value":"Global Findex ( Global Financial Inclusion database)"},"sourceNote":"Denotes the percentage of respondents who report having a credit card (see year-specific definitions for details) (primary education or less, % age 15+). [ts: data are available for multiple waves].","sourceOrganization":"Demirguc-Kunt et al., 2015","topics":[{"id":"7","value":"Financial Sector "}]},{"id":"WP_time_03.5","name":"Credit card, older adults (% ages 25+) [ts]","source":{"id":"28","value":"Global Findex ( Global Financial Inclusion database)"},"sourceNote":"Denotes the percentage of respondents who report having a credit card (see year-specific definitions for details) (% age 25+). [ts: data are available for multiple waves].","sourceOrganization":"Demirguc-Kunt et al., 2015","topics":[{"id":"7","value":"Financial Sector "}]},{"id":"WP_time_03.4","name":"Credit card, young adults (% ages 15-24) [ts]","source":{"id":"28","value":"Global Findex ( Global Financial Inclusion database)"},"sourceNote":"Denotes the percentage of respondents who report having a credit card (see year-specific definitions for details) (% ages 15-24). [ts: data are available for multiple waves].","sourceOrganization":"Demirguc-Kunt et al., 2015","topics":[{"id":"7","value":"Financial Sector "}]},{"id":"WP_time_03.3","name":"Credit card, female (% age 15+) [ts]","source":{"id":"28","value":"Global Findex ( Global Financial Inclusion database)"},"sourceNote":"Denotes the percentage of respondents who report having a credit card (see year-specific definitions for details) (female, % age 15+). [ts: data are available for multiple waves].","sourceOrganization":"Demirguc-Kunt et al., 2015","topics":[{"id":"7","value":"Financial Sector "}]},{"id":"WP_time_03.2","name":"Credit card, male (% age 15+) [ts]","source":{"id":"28","value":"Global Findex ( Global Financial Inclusion database)"},"sourceNote":"Denotes the percentage of respondents who report having a credit card (see year-specific definitions for details) (male, % age 15+). [ts: data are available for multiple waves].","sourceOrganization":"Demirguc-Kunt et al., 2015","topics":[{"id":"7","value":"Financial Sector "}]},{"id":"WP_time_03.1","name":"Credit card (% age 15+) [ts]","source":{"id":"28","value":"Global Findex ( Global Financial Inclusion database)"},"sourceNote":"Denotes the percentage of respondents who report having a credit card (see year-specific definitions for details) (% age 15+). [ts: data are available for multiple waves].","sourceOrganization":"Demirguc-Kunt et al., 2015","topics":[{"id":"7","value":"Financial Sector "}]},{"id":"WP_time_02.9","name":"Debit card, income, richest 60% (% ages 15+) [ts]","source":{"id":"28","value":"Global Findex ( Global Financial Inclusion database)"},"sourceNote":"Denotes the percentage of respondents who report having a debit card (see year-specific definitions for details) (income, richest 60%, % age 15+). [ts: data are available for multiple waves].","sourceOrganization":"Demirguc-Kunt et al., 2015","topics":[{"id":"7","value":"Financial Sector "}]},{"id":"WP_time_02.8","name":"Debit card, income, poorest 40% (% ages 15+) [ts]","source":{"id":"28","value":"Global Findex ( Global Financial Inclusion database)"},"sourceNote":"Denotes the percentage of respondents who report having a debit card (see year-specific definitions for details) (income, poorest 40%, % age 15+). [ts: data are available for multiple waves].","sourceOrganization":"Demirguc-Kunt et al., 2015","topics":[{"id":"7","value":"Financial Sector "}]},{"id":"WP_time_02.7","name":"Debit card, secondary education or more (% ages 15+) [ts]","source":{"id":"28","value":"Global Findex ( Global Financial Inclusion database)"},"sourceNote":"Denotes the percentage of respondents who report having a debit card (see year-specific definitions for details) (secondary education or more, % age 15+). [ts: data are available for multiple waves].","sourceOrganization":"Demirguc-Kunt et al., 2015","topics":[{"id":"7","value":"Financial Sector "}]},{"id":"WP_time_02.6","name":"Debit card, primary education or less (% ages 15+) [ts]","source":{"id":"28","value":"Global Findex ( Global Financial Inclusion database)"},"sourceNote":"Denotes the percentage of respondents who report having a debit card (see year-specific definitions for details) (primary education or less, % age 15+). [ts: data are available for multiple waves].","sourceOrganization":"Demirguc-Kunt et al., 2015","topics":[{"id":"7","value":"Financial Sector "}]},{"id":"WP_time_02.5","name":"Debit card, older adults (% ages 25+) [ts]","source":{"id":"28","value":"Global Findex ( Global Financial Inclusion database)"},"sourceNote":"Denotes the percentage of respondents who report having a debit card (see year-specific definitions for details) (% age 25+). [ts: data are available for multiple waves].","sourceOrganization":"Demirguc-Kunt et al., 2015","topics":[{"id":"7","value":"Financial Sector "}]},{"id":"WP_time_02.4","name":"Debit card, young adults (% ages 15-24) [ts]","source":{"id":"28","value":"Global Findex ( Global Financial Inclusion database)"},"sourceNote":"Denotes the percentage of respondents who report having a debit card (see year-specific definitions for details) (% ages 15-24). [ts: data are available for multiple waves].","sourceOrganization":"Demirguc-Kunt et al., 2015","topics":[{"id":"7","value":"Financial Sector "}]},{"id":"WP_time_02.3","name":"Debit card, female (% age 15+) [ts]","source":{"id":"28","value":"Global Findex ( Global Financial Inclusion database)"},"sourceNote":"Denotes the percentage of respondents who report having a debit card (see year-specific definitions for details) (female, % age 15+). [ts: data are available for multiple waves].","sourceOrganization":"Demirguc-Kunt et al., 2015","topics":[{"id":"7","value":"Financial Sector "}]},{"id":"WP_time_02.2","name":"Debit card, male (% age 15+) [ts]","source":{"id":"28","value":"Global Findex ( Global Financial Inclusion database)"},"sourceNote":"Denotes the percentage of respondents who report having a debit card (see year-specific definitions for details) (male, % age 15+). [ts: data are available for multiple waves].","sourceOrganization":"Demirguc-Kunt et al., 2015","topics":[{"id":"7","value":"Financial Sector "}]}]]