[{"page":170,"pages":324,"per_page":"50","total":16174},[{"id":"per_lm_pa.ben_q5_rur","name":"Benefits incidence in richest quintile (%) - Passive Labor Market -rural","source":{"id":"29","value":"Global Social Protection"},"sourceNote":"","sourceOrganization":"The Atlas of Social Protection: Indicators of Resilience and Equity (ASPIRE)","topics":[]},{"id":"per_lm_pa.ben_q5_preT_tot","name":"Benefits incidence in richest quintile (%) - Passive Labor Market (preT)","source":{"id":"29","value":"Global Social Protection"},"sourceNote":"","sourceOrganization":"The Atlas of Social Protection: Indicators of Resilience and Equity (ASPIRE)","topics":[]},{"id":"per_lm_pa.ben_q4_urb","name":"Benefits incidence in 4th quintile (%) - Passive Labor Market -urban","source":{"id":"29","value":"Global Social Protection"},"sourceNote":"","sourceOrganization":"The Atlas of Social Protection: Indicators of Resilience and Equity (ASPIRE)","topics":[]},{"id":"per_lm_pa.ben_q4_tot","name":"Benefits incidence in 4th quintile (%) - Passive Labor Market ","source":{"id":"29","value":"Global Social Protection"},"sourceNote":"","sourceOrganization":"The Atlas of Social Protection: Indicators of Resilience and Equity (ASPIRE)","topics":[]},{"id":"per_lm_pa.ben_q4_rur","name":"Benefits incidence in 4th quintile (%) - Passive Labor Market -rural","source":{"id":"29","value":"Global Social Protection"},"sourceNote":"","sourceOrganization":"The Atlas of Social Protection: Indicators of Resilience and Equity (ASPIRE)","topics":[]},{"id":"per_lm_pa.ben_q4_preT_tot","name":"Benefits incidence in 4th quintile (%) - Passive Labor Market (preT)","source":{"id":"29","value":"Global Social Protection"},"sourceNote":"","sourceOrganization":"The Atlas of Social Protection: Indicators of Resilience and Equity (ASPIRE)","topics":[]},{"id":"per_lm_pa.ben_q3_urb","name":"Benefits incidence in 3rd quintile (%) - Passive Labor Market -urban","source":{"id":"29","value":"Global Social Protection"},"sourceNote":"","sourceOrganization":"The Atlas of Social Protection: Indicators of Resilience and Equity (ASPIRE)","topics":[]},{"id":"per_lm_pa.ben_q3_tot","name":"Benefits incidence in 3rd quintile (%) - Passive Labor Market ","source":{"id":"29","value":"Global Social Protection"},"sourceNote":"","sourceOrganization":"The Atlas of Social Protection: Indicators of Resilience and Equity (ASPIRE)","topics":[]},{"id":"per_lm_pa.ben_q3_rur","name":"Benefits incidence in 3rd quintile (%) - Passive Labor Market -rural","source":{"id":"29","value":"Global Social Protection"},"sourceNote":"","sourceOrganization":"The Atlas of Social Protection: Indicators of Resilience and Equity (ASPIRE)","topics":[]},{"id":"per_lm_pa.ben_q3_preT_tot","name":"Benefits incidence in 3rd quintile (%) - Passive Labor Market (preT)","source":{"id":"29","value":"Global Social Protection"},"sourceNote":"","sourceOrganization":"The Atlas of Social Protection: Indicators of Resilience and Equity (ASPIRE)","topics":[]},{"id":"per_lm_pa.ben_q2_urb","name":"Benefits incidence in 2nd quintile (%) - Passive Labor Market -urban","source":{"id":"29","value":"Global Social Protection"},"sourceNote":"","sourceOrganization":"The Atlas of Social Protection: Indicators of Resilience and Equity (ASPIRE)","topics":[]},{"id":"per_lm_pa.ben_q2_tot","name":"Benefits incidence in 2nd quintile (%) - Passive Labor Market ","source":{"id":"29","value":"Global Social Protection"},"sourceNote":"","sourceOrganization":"The Atlas of Social Protection: Indicators of Resilience and Equity (ASPIRE)","topics":[]},{"id":"per_lm_pa.ben_q2_rur","name":"Benefits incidence in 2nd quintile (%) - Passive Labor Market -rural","source":{"id":"29","value":"Global Social Protection"},"sourceNote":"","sourceOrganization":"The Atlas of Social Protection: Indicators of Resilience and Equity (ASPIRE)","topics":[]},{"id":"per_lm_pa.ben_q2_preT_tot","name":"Benefits incidence in 2nd quintile (%) - Passive Labor Market (preT)","source":{"id":"29","value":"Global Social Protection"},"sourceNote":"","sourceOrganization":"The Atlas of Social Protection: Indicators of Resilience and Equity (ASPIRE)","topics":[]},{"id":"per_lm_pa.ben_q1_urb","name":"Benefits incidence in poorest quintile (%) - Passive Labor Market -urban","source":{"id":"29","value":"Global Social Protection"},"sourceNote":"","sourceOrganization":"The Atlas of Social Protection: Indicators of Resilience and Equity (ASPIRE)","topics":[]},{"id":"per_lm_pa.ben_q1_tot","name":"Benefits incidence in poorest quintile (%) - Passive Labor Market ","source":{"id":"29","value":"Global Social Protection"},"sourceNote":"","sourceOrganization":"The Atlas of Social Protection: Indicators of Resilience and Equity (ASPIRE)","topics":[]},{"id":"per_lm_pa.ben_q1_rur","name":"Benefits incidence in poorest quintile (%) - Passive Labor Market -rural","source":{"id":"29","value":"Global Social Protection"},"sourceNote":"","sourceOrganization":"The Atlas of Social Protection: Indicators of Resilience and Equity (ASPIRE)","topics":[]},{"id":"per_lm_pa.ben_q1_preT_tot","name":"Benefits incidence in poorest quintile (%) - Passive Labor Market (preT)","source":{"id":"29","value":"Global Social Protection"},"sourceNote":"","sourceOrganization":"The Atlas of Social Protection: Indicators of Resilience and Equity (ASPIRE)","topics":[]},{"id":"per_lm_pa.ben_ep_tot","name":"Benefits incidence in extreme poor (<$1.25 a day) (%) - Passive Labor Market ","source":{"id":"29","value":"Global Social Protection"},"sourceNote":"","sourceOrganization":"The Atlas of Social Protection: Indicators of Resilience and Equity (ASPIRE)","topics":[]},{"id":"per_lm_pa.ben_ep_preT_tot","name":"Benefits incidence in extreme poor (<$1.25 a day) (%) - Passive Labor Market  (preT)","source":{"id":"29","value":"Global Social Protection"},"sourceNote":"","sourceOrganization":"The Atlas of Social Protection: Indicators of Resilience and Equity (ASPIRE)","topics":[]},{"id":"per_lm_pa.avt_q5_urb","name":"Average per capita transfer held by richest quintile - Passive Labor Market -urban","source":{"id":"29","value":"Global Social Protection"},"sourceNote":"","sourceOrganization":"The Atlas of Social Protection: Indicators of Resilience and Equity (ASPIRE)","topics":[]},{"id":"per_lm_pa.avt_q5_tot","name":"Average per capita transfer held by richest quintile - Passive Labor Market ","source":{"id":"29","value":"Global Social Protection"},"sourceNote":"","sourceOrganization":"The Atlas of Social Protection: Indicators of Resilience and Equity (ASPIRE)","topics":[]},{"id":"per_lm_pa.avt_q5_rur","name":"Average per capita transfer held by richest quintile - Passive Labor Market -rural","source":{"id":"29","value":"Global Social Protection"},"sourceNote":"","sourceOrganization":"The Atlas of Social Protection: Indicators of Resilience and Equity (ASPIRE)","topics":[]},{"id":"per_lm_pa.avt_q5_preT_tot","name":"Average per capita transfer held by richest quintile - Passive Labor Market (preT)","source":{"id":"29","value":"Global Social Protection"},"sourceNote":"","sourceOrganization":"The Atlas of Social Protection: Indicators of Resilience and Equity (ASPIRE)","topics":[]},{"id":"per_lm_pa.avt_q4_urb","name":"Average per capita transfer held by 4th quintile - Passive Labor Market -urban","source":{"id":"29","value":"Global Social Protection"},"sourceNote":"","sourceOrganization":"The Atlas of Social Protection: Indicators of Resilience and Equity (ASPIRE)","topics":[]},{"id":"per_lm_pa.avt_q4_tot","name":"Average per capita transfer held by 4th quintile - Passive Labor Market ","source":{"id":"29","value":"Global Social Protection"},"sourceNote":"","sourceOrganization":"The Atlas of Social Protection: Indicators of Resilience and Equity (ASPIRE)","topics":[]},{"id":"per_lm_pa.avt_q4_rur","name":"Average per capita transfer held by 4th quintile - Passive Labor Market -rural","source":{"id":"29","value":"Global Social Protection"},"sourceNote":"","sourceOrganization":"The Atlas of Social Protection: Indicators of Resilience and Equity (ASPIRE)","topics":[]},{"id":"per_lm_pa.avt_q4_preT_tot","name":"Average per capita transfer held by 4th quintile - Passive Labor Market (preT)","source":{"id":"29","value":"Global Social Protection"},"sourceNote":"","sourceOrganization":"The Atlas of Social Protection: Indicators of Resilience and Equity (ASPIRE)","topics":[]},{"id":"per_lm_pa.avt_q3_urb","name":"Average per capita transfer held by 3rd quintile - Passive Labor Market -urban","source":{"id":"29","value":"Global Social Protection"},"sourceNote":"","sourceOrganization":"The Atlas of Social Protection: Indicators of Resilience and Equity (ASPIRE)","topics":[]},{"id":"per_lm_pa.avt_q3_tot","name":"Average per capita transfer held by 3rd quintile - Passive Labor Market ","source":{"id":"29","value":"Global Social Protection"},"sourceNote":"","sourceOrganization":"The Atlas of Social Protection: Indicators of Resilience and Equity (ASPIRE)","topics":[]},{"id":"per_lm_pa.avt_q3_rur","name":"Average per capita transfer held by 3rd quintile - Passive Labor Market -rural","source":{"id":"29","value":"Global Social Protection"},"sourceNote":"","sourceOrganization":"The Atlas of Social Protection: Indicators of Resilience and Equity (ASPIRE)","topics":[]},{"id":"per_lm_pa.avt_q3_preT_tot","name":"Average per capita transfer held by 3rd quintile - Passive Labor Market (preT)","source":{"id":"29","value":"Global Social Protection"},"sourceNote":"","sourceOrganization":"The Atlas of Social Protection: Indicators of Resilience and Equity (ASPIRE)","topics":[]},{"id":"per_lm_pa.avt_q2_urb","name":"Average per capita transfer held by 2nd quintile - Passive Labor Market -urban","source":{"id":"29","value":"Global Social Protection"},"sourceNote":"","sourceOrganization":"The Atlas of Social Protection: Indicators of Resilience and Equity (ASPIRE)","topics":[]},{"id":"per_lm_pa.avt_q2_tot","name":"Average per capita transfer held by 2nd quintile - Passive Labor Market ","source":{"id":"29","value":"Global Social Protection"},"sourceNote":"","sourceOrganization":"The Atlas of Social Protection: Indicators of Resilience and Equity (ASPIRE)","topics":[]},{"id":"per_lm_pa.avt_q2_rur","name":"Average per capita transfer held by 2nd quintile - Passive Labor Market -rural","source":{"id":"29","value":"Global Social Protection"},"sourceNote":"","sourceOrganization":"The Atlas of Social Protection: Indicators of Resilience and Equity (ASPIRE)","topics":[]},{"id":"per_lm_pa.avt_q2_preT_tot","name":"Average per capita transfer held by 2nd quintile - Passive Labor Market (preT)","source":{"id":"29","value":"Global Social Protection"},"sourceNote":"","sourceOrganization":"The Atlas of Social Protection: Indicators of Resilience and Equity (ASPIRE)","topics":[]},{"id":"per_lm_pa.avt_q1_urb","name":"Average per capita transfer held by poorest quintile - Passive Labor Market -urban","source":{"id":"29","value":"Global Social Protection"},"sourceNote":"","sourceOrganization":"The Atlas of Social Protection: Indicators of Resilience and Equity (ASPIRE)","topics":[]},{"id":"per_lm_pa.avt_q1_tot","name":"Average per capita transfer held by poorest quintile - Passive Labor Market ","source":{"id":"29","value":"Global Social Protection"},"sourceNote":"","sourceOrganization":"The Atlas of Social Protection: Indicators of Resilience and Equity (ASPIRE)","topics":[]},{"id":"per_lm_pa.avt_q1_rur","name":"Average per capita transfer held by poorest quintile - Passive Labor Market -rural","source":{"id":"29","value":"Global Social Protection"},"sourceNote":"","sourceOrganization":"The Atlas of Social Protection: Indicators of Resilience and Equity (ASPIRE)","topics":[]},{"id":"per_lm_pa.avt_q1_preT_tot","name":"Average per capita transfer held by poorest quintile - Passive Labor Market (preT)","source":{"id":"29","value":"Global Social Protection"},"sourceNote":"","sourceOrganization":"The Atlas of Social Protection: Indicators of Resilience and Equity (ASPIRE)","topics":[]},{"id":"per_lm_pa.avt_pop_urb","name":"Average per capita transfer - Passive Labor Market -urban","source":{"id":"29","value":"Global Social Protection"},"sourceNote":"","sourceOrganization":"The Atlas of Social Protection: Indicators of Resilience and Equity (ASPIRE)","topics":[]},{"id":"per_lm_pa.avt_pop_tot","name":"Average per capita transfer - Passive Labor Market ","source":{"id":"29","value":"Global Social Protection"},"sourceNote":"","sourceOrganization":"The Atlas of Social Protection: Indicators of Resilience and Equity (ASPIRE)","topics":[]},{"id":"per_lm_pa.avt_pop_rur","name":"Average per capita transfer - Passive Labor Market -rural","source":{"id":"29","value":"Global Social Protection"},"sourceNote":"","sourceOrganization":"The Atlas of Social Protection: Indicators of Resilience and Equity (ASPIRE)","topics":[]},{"id":"per_lm_pa.avt_pop_preT_tot","name":"Average per capita transfer - Passive Labor Market (preT)","source":{"id":"29","value":"Global Social Protection"},"sourceNote":"","sourceOrganization":"The Atlas of Social Protection: Indicators of Resilience and Equity (ASPIRE)","topics":[]},{"id":"per_lm_pa.avt_ep_tot","name":"Average per capita transfer held by extreme poor (<$1.25 a day) - Passive Labor Market ","source":{"id":"29","value":"Global Social Protection"},"sourceNote":"","sourceOrganization":"The Atlas of Social Protection: Indicators of Resilience and Equity (ASPIRE)","topics":[]},{"id":"per_lm_pa.avt_ep_preT_tot","name":"Average per capita transfer held by extreme poor (<$1.25 a day) - Passive Labor Market  (preT)","source":{"id":"29","value":"Global Social Protection"},"sourceNote":"","sourceOrganization":"The Atlas of Social Protection: Indicators of Resilience and Equity (ASPIRE)","topics":[]},{"id":"per_lm_pa.adq_q5_urb","name":"Adequacy of benefits in richest quintile (%) - Passive Labor Market -urban","source":{"id":"29","value":"Global Social Protection"},"sourceNote":"","sourceOrganization":"The Atlas of Social Protection: Indicators of Resilience and Equity (ASPIRE)","topics":[]},{"id":"per_lm_pa.adq_q5_tot","name":"Adequacy of benefits in richest quintile (%) - Passive Labor Market ","source":{"id":"29","value":"Global Social Protection"},"sourceNote":"","sourceOrganization":"The Atlas of Social Protection: Indicators of Resilience and Equity (ASPIRE)","topics":[]},{"id":"per_lm_pa.adq_q5_rur","name":"Adequacy of benefits in richest quintile (%) - Passive Labor Market -rural","source":{"id":"29","value":"Global Social Protection"},"sourceNote":"","sourceOrganization":"The Atlas of Social Protection: Indicators of Resilience and Equity (ASPIRE)","topics":[]},{"id":"per_lm_pa.adq_q5_preT_tot","name":"Adequacy of benefits in richest quintile (%) - Passive Labor Market (preT)","source":{"id":"29","value":"Global Social Protection"},"sourceNote":"","sourceOrganization":"The Atlas of Social Protection: Indicators of Resilience and Equity (ASPIRE)","topics":[{}]}]]