[{"page":261,"pages":324,"per_page":"50","total":16174},[{"id":"SH.HIV.KNOW.MA.ZS","name":"% of males ages 15-49 having comprehensive correct knowledge about HIV (2 prevent ways and reject 3 misconceptions)","source":{"id":"16","value":"Health Nutrition and Population Statistics"},"sourceNote":"Knowledge of HIV is the percentage of respondents who correctly identify the two major ways of preventing the sexual transmission of HIV (using condoms and limiting sex to one faithful, uninfected partner), who reject the two most common local misconceptions about HIV transmission, and who know that a healthy-looking person can have HIV.","sourceOrganization":"Household surveys such as Demographic and Health Surveys and Multiple Indicator Cluster Surveys.  Largely compiled by UNICEF.","topics":[]},{"id":"SH.HIV.KNOW.FE.ZS","name":"% of females ages 15-49 having comprehensive correct knowledge about HIV (2 prevent ways and reject 3 misconceptions)","source":{"id":"16","value":"Health Nutrition and Population Statistics"},"sourceNote":"Knowledge of HIV is the percentage of respondents who correctly identify the two major ways of preventing the sexual transmission of HIV (using condoms and limiting sex to one faithful, uninfected partner), who reject the two most common local misconceptions about HIV transmission, and who know that a healthy-looking person can have HIV.","sourceOrganization":"Household surveys such as Demographic and Health Surveys and Multiple Indicator Cluster Surveys.  Largely compiled by UNICEF.","topics":[]},{"id":"SH.HIV.INCD.ZS","name":"Incidence of HIV (% of uninfected population ages 15-49)","source":{"id":"2","value":"World Development Indicators"},"sourceNote":"Number of new HIV infections among uninfected populations ages 15-49 expressed per 100 uninfected population in the year before the period.","sourceOrganization":"UNAIDS estimates.","topics":[{"id":"8","value":"Health "}]},{"id":"SH.HIV.INCD.TL","name":"Adults (ages 15+) and children (ages 0-14) newly infected with HIV","source":{"id":"2","value":"World Development Indicators"},"sourceNote":"Number of adults (ages 15+) and children (ages 0-14) newly infected with HIV.","sourceOrganization":"UNAIDS estimates.","topics":[{"id":"8","value":"Health "}]},{"id":"SH.HIV.INCD.14","name":"Children (ages 0-14) newly infected with HIV","source":{"id":"2","value":"World Development Indicators"},"sourceNote":"Number of children (ages 0-14) newly infected with HIV.","sourceOrganization":"UNAIDS estimates.","topics":[{"id":"8","value":"Health "}]},{"id":"SH.HIV.INCD","name":"Adults (ages 15+) newly infected with HIV","source":{"id":"2","value":"World Development Indicators"},"sourceNote":"Number of adults (ages 15+) newly infected with HIV.","sourceOrganization":"UNAIDS estimates.","topics":[{"id":"8","value":"Health "}]},{"id":"SH.HIV.DTS.NUM","name":"AIDS deaths in adults and children","source":{"id":"11","value":"Africa Development Indicators"},"sourceNote":"Deaths due to HIV\/AIDS are the estimated number of adults and children that have died in a specific year based in the modeling of HIV surveillance data using standard and appropriate tools.  ","sourceOrganization":"UNAIDS and the WHO's Report on the Global AIDS Epidemic.","topics":[]},{"id":"SH.HIV.DTS.LW.NUM","name":"AIDS deaths in adults and children (low estimate)","source":{"id":"11","value":"Africa Development Indicators"},"sourceNote":"Deaths due to HIV\/AIDS are the estimated number of adults and children that have died in a specific year based in the modeling of HIV surveillance data using standard and appropriate tools.  ","sourceOrganization":"UNAIDS and the WHO's Report on the Global AIDS Epidemic.","topics":[]},{"id":"SH.HIV.DTS.HG.NUM","name":"AIDS deaths in adults and children (high estimate)","source":{"id":"11","value":"Africa Development Indicators"},"sourceNote":"Deaths due to HIV\/AIDS are the estimated number of adults and children that have died in a specific year based in the modeling of HIV surveillance data using standard and appropriate tools.  ","sourceOrganization":"UNAIDS and the WHO's Report on the Global AIDS Epidemic.","topics":[]},{"id":"SH.HIV.ARTC.ZS","name":"Antiretroviral therapy coverage (% of people living with HIV)","source":{"id":"2","value":"World Development Indicators"},"sourceNote":"Antiretroviral therapy coverage indicates the percentage of all people living with HIV who are receiving antiretroviral therapy.","sourceOrganization":"UNAIDS estimates.","topics":[{"id":"8","value":"Health "}]},{"id":"SH.HIV.ARTC.MA.ZS","name":"Antiretroviral therapy coverage (% of adult males living with HIV)","source":{"id":"14","value":"Gender Statistics"},"sourceNote":"The percentage of adult males living with HIV who are receiving antiretroviral therapy.","sourceOrganization":"UNAIDS estimates.","topics":[{"id":"17","value":"Gender"}]},{"id":"SH.HIV.ARTC.FE.ZS","name":"Antiretroviral therapy coverage (% of adult females living with HIV)","source":{"id":"14","value":"Gender Statistics"},"sourceNote":"The percentage of adult females living with HIV who are receiving antiretroviral therapy.","sourceOrganization":"UNAIDS estimates.","topics":[{"id":"17","value":"Gender"}]},{"id":"SH.HIV.1524.MA.ZS","name":"Prevalence of HIV, male (% ages 15-24)","source":{"id":"2","value":"World Development Indicators"},"sourceNote":"Prevalence of HIV, male is the percentage of males who are infected with HIV. Youth rates are as a percentage of the relevant age group.","sourceOrganization":"UNAIDS estimates.","topics":[{"id":"8","value":"Health "},{"id":"17","value":"Gender"},{"id":"15","value":"Social Development "}]},{"id":"SH.HIV.1524.MA.LW.ZS","name":"Prevalence of HIV, young men 15-24 years (%; low estimate)","source":{"id":"11","value":"Africa Development Indicators"},"sourceNote":"Prevalence of HIV, male refers to the percentage of females ages 15-24 who are infected with HIV based the low estimate.  ","sourceOrganization":"UNAIDS and the WHO's Report on the Global AIDS Epidemic.","topics":[]},{"id":"SH.HIV.1524.MA.HG.ZS","name":"Prevalence of HIV, young men 15-24 years (%; high estimate)","source":{"id":"11","value":"Africa Development Indicators"},"sourceNote":"Prevalence of HIV, male refers to the percentage of females ages 15-24 who are infected with HIV based the high estimate.  ","sourceOrganization":"UNAIDS and the WHO's Report on the Global AIDS Epidemic.","topics":[]},{"id":"SH.HIV.1524.KW.MA.ZS","name":"Comprehensive correct knowledge of HIV\/AIDS, ages 15-24, male (2 prevent ways and reject 3 misconceptions)","source":{"id":"16","value":"Health Nutrition and Population Statistics"},"sourceNote":"The percent of male respondents ages 15-24 who correctly identify the two major ways of preventing the sexual transmission of HIV (using condoms and limiting sex to one faithful, uninfected partner), who reject the two most common local misconceptions about HIV transmission, and who know that a healthy-looking person can have HIV.","sourceOrganization":"Household surveys such as Demographic and Health Surveys and Multiple Indicator Cluster Surveys.  Largely compiled by UNICEF.","topics":[]},{"id":"SH.HIV.1524.KW.FE.ZS","name":"Comprehensive correct knowledge of HIV\/AIDS, ages 15-24, female (2 prevent ways and reject 3 misconceptions)","source":{"id":"16","value":"Health Nutrition and Population Statistics"},"sourceNote":"The percent of female respondents ages 15-24 who correctly identify the two major ways of preventing the sexual transmission of HIV (using condoms and limiting sex to one faithful, uninfected partner), who reject the two most common local misconceptions about HIV transmission, and who know that a healthy-looking person can have HIV.","sourceOrganization":"Household surveys such as Demographic and Health Surveys and Multiple Indicator Cluster Surveys.  Largely compiled by UNICEF.","topics":[]},{"id":"SH.HIV.1524.FE.ZS","name":"Prevalence of HIV, female (% ages 15-24)","source":{"id":"2","value":"World Development Indicators"},"sourceNote":"Prevalence of HIV, female is the percentage of females who are infected with HIV. Youth rates are as a percentage of the relevant age group.","sourceOrganization":"UNAIDS estimates.","topics":[{"id":"8","value":"Health "},{"id":"17","value":"Gender"},{"id":"15","value":"Social Development "}]},{"id":"SH.HIV.1524.FE.LW.ZS","name":"Prevalence of HIV, young women 15-24 years (%; low estimate)","source":{"id":"11","value":"Africa Development Indicators"},"sourceNote":"Prevalence of HIV, female refers to the percentage of females ages 15-24 who are infected with HIV based the low estimate.  ","sourceOrganization":"UNAIDS and the WHO's Report on the Global AIDS Epidemic.","topics":[]},{"id":"SH.HIV.1524.FE.HG.ZS","name":"Prevalence of HIV, young women 15-24 years (%; high estimate)","source":{"id":"11","value":"Africa Development Indicators"},"sourceNote":"Prevalence of HIV, female refers to the percentage of females ages 15-24 who are infected with HIV based the high estimate.  ","sourceOrganization":"UNAIDS and the WHO's Report on the Global AIDS Epidemic.","topics":[]},{"id":"SH.HIV.0014","name":"Children (0-14) living with HIV","source":{"id":"2","value":"World Development Indicators"},"sourceNote":"Children living with HIV refers to the number of children ages 0-14 who are infected with HIV.","sourceOrganization":"UNAIDS estimates.","topics":[{"id":"8","value":"Health "}]},{"id":"SH.H2O.SAFE.ZS","name":"Improved water source (% of population with access)","source":{"id":"2","value":"World Development Indicators"},"sourceNote":"Access to an improved water source refers to the percentage of the population using an improved drinking water source. The improved drinking water source includes piped water on premises (piped household water connection located inside the user’s dwelling, plot or yard), and other improved drinking water sources (public taps or standpipes, tube wells or boreholes, protected dug wells, protected springs, and rainwater collection).","sourceOrganization":"WHO\/UNICEF Joint Monitoring Programme (JMP) for Water Supply and Sanitation (http:\/\/www.wssinfo.org\/).","topics":[{"id":"19","value":"Climate Change"},{"id":"9","value":"Infrastructure "},{"id":"8","value":"Health "}]},{"id":"SH.H2O.SAFE.UR.ZS","name":"Improved water source, urban (% of urban population with access)","source":{"id":"2","value":"World Development Indicators"},"sourceNote":"Access to an improved water source, urban, refers to the percentage of the urban population using an improved drinking water source. The improved drinking water source includes piped water on premises (piped household water connection located inside the user’s dwelling, plot or yard), and other improved drinking water sources (public taps or standpipes, tube wells or boreholes, protected dug wells, protected springs, and rainwater collection).","sourceOrganization":"WHO\/UNICEF Joint Monitoring Programme (JMP) for Water Supply and Sanitation (http:\/\/www.wssinfo.org\/).","topics":[{"id":"19","value":"Climate Change"},{"id":"9","value":"Infrastructure "},{"id":"8","value":"Health "},{"id":"16","value":"Urban Development "}]},{"id":"SH.H2O.SAFE.UR.Q5.ZS","name":"Access to an improved water source, urban (% of urban population): Q5 (highest)","source":{"id":"39","value":"Health Nutrition and Population Statistics by Wealth Quintile"},"sourceNote":"","sourceOrganization":"","topics":[]},{"id":"SH.H2O.SAFE.UR.Q4.ZS","name":"Access to an improved water source, urban (% of urban population): Q4","source":{"id":"39","value":"Health Nutrition and Population Statistics by Wealth Quintile"},"sourceNote":"","sourceOrganization":"","topics":[]},{"id":"SH.H2O.SAFE.UR.Q3.ZS","name":"Access to an improved water source, urban (% of urban population): Q3","source":{"id":"39","value":"Health Nutrition and Population Statistics by Wealth Quintile"},"sourceNote":"","sourceOrganization":"","topics":[]},{"id":"SH.H2O.SAFE.UR.Q2.ZS","name":"Access to an improved water source, urban (% of urban population): Q2","source":{"id":"39","value":"Health Nutrition and Population Statistics by Wealth Quintile"},"sourceNote":"","sourceOrganization":"","topics":[]},{"id":"SH.H2O.SAFE.UR.Q1.ZS","name":"Access to an improved water source, urban (% of urban population): Q1 (lowest)","source":{"id":"39","value":"Health Nutrition and Population Statistics by Wealth Quintile"},"sourceNote":"","sourceOrganization":"","topics":[]},{"id":"SH.H2O.SAFE.RU.ZS","name":"Improved water source, rural (% of rural population with access)","source":{"id":"2","value":"World Development Indicators"},"sourceNote":"Access to an improved water source, rural, refers to the percentage of the rural population using an improved drinking water source. The improved drinking water source includes piped water on premises (piped household water connection located inside the user’s dwelling, plot or yard), and other improved drinking water sources (public taps or standpipes, tube wells or boreholes, protected dug wells, protected springs, and rainwater collection).","sourceOrganization":"WHO\/UNICEF Joint Monitoring Programme (JMP) for Water Supply and Sanitation (http:\/\/www.wssinfo.org\/).","topics":[{"id":"1","value":"Agriculture & Rural Development  "},{"id":"19","value":"Climate Change"},{"id":"9","value":"Infrastructure "},{"id":"8","value":"Health "}]},{"id":"SH.H2O.SAFE.RU.Q5.ZS","name":"Access to an improved water source , rural (% of rural population): Q5 (highest)","source":{"id":"39","value":"Health Nutrition and Population Statistics by Wealth Quintile"},"sourceNote":"","sourceOrganization":"","topics":[]},{"id":"SH.H2O.SAFE.RU.Q4.ZS","name":"Access to an improved water source, rural (% of rural population): Q4","source":{"id":"39","value":"Health Nutrition and Population Statistics by Wealth Quintile"},"sourceNote":"","sourceOrganization":"","topics":[]},{"id":"SH.H2O.SAFE.RU.Q3.ZS","name":"Access to an improved water source, rural (% of rural population): Q3","source":{"id":"39","value":"Health Nutrition and Population Statistics by Wealth Quintile"},"sourceNote":"","sourceOrganization":"","topics":[]},{"id":"SH.H2O.SAFE.RU.Q2.ZS","name":"Access to an improved water source, rural (% of rural population): Q2","source":{"id":"39","value":"Health Nutrition and Population Statistics by Wealth Quintile"},"sourceNote":"","sourceOrganization":"","topics":[]},{"id":"SH.H2O.SAFE.RU.Q1.ZS","name":"Access to an improved water source, rural (% of rural population): Q1 (lowest)","source":{"id":"39","value":"Health Nutrition and Population Statistics by Wealth Quintile"},"sourceNote":"","sourceOrganization":"","topics":[]},{"id":"SH.FPL.WNTD.Q5.ZS","name":"Fertility planning status (wanted then) (% of births): Q5 (highest)","source":{"id":"39","value":"Health Nutrition and Population Statistics by Wealth Quintile"},"sourceNote":"Fertility planning status: Percentage of births in the five years preceding the survey which are planned (wanted then), mistimed (wanted later), and unplanned (wanted no more).","sourceOrganization":"Household Surveys (DHS, MICS)","topics":[{"id":"8","value":"Health "}]},{"id":"SH.FPL.WNTD.Q4.ZS","name":"Fertility planning status (wanted then) (% of births): Q4","source":{"id":"39","value":"Health Nutrition and Population Statistics by Wealth Quintile"},"sourceNote":"Fertility planning status: Percentage of births in the five years preceding the survey which are planned (wanted then), mistimed (wanted later), and unplanned (wanted no more).","sourceOrganization":"Household Surveys (DHS, MICS)","topics":[{"id":"8","value":"Health "}]},{"id":"SH.FPL.WNTD.Q3.ZS","name":"Fertility planning status (wanted then) (% of births): Q3","source":{"id":"39","value":"Health Nutrition and Population Statistics by Wealth Quintile"},"sourceNote":"Fertility planning status: Percentage of births in the five years preceding the survey which are planned (wanted then), mistimed (wanted later), and unplanned (wanted no more).","sourceOrganization":"Household Surveys (DHS, MICS)","topics":[{"id":"8","value":"Health "}]},{"id":"SH.FPL.WNTD.Q2.ZS","name":"Fertility planning status (wanted then) (% of births): Q2","source":{"id":"39","value":"Health Nutrition and Population Statistics by Wealth Quintile"},"sourceNote":"Fertility planning status: Percentage of births in the five years preceding the survey which are planned (wanted then), mistimed (wanted later), and unplanned (wanted no more).","sourceOrganization":"Household Surveys (DHS, MICS)","topics":[{"id":"8","value":"Health "}]},{"id":"SH.FPL.WNTD.Q1.ZS","name":"Fertility planning status (wanted then) (% of births): Q1 (lowest)","source":{"id":"39","value":"Health Nutrition and Population Statistics by Wealth Quintile"},"sourceNote":"Fertility planning status: Percentage of births in the five years preceding the survey which are planned (wanted then), mistimed (wanted later), and unplanned (wanted no more).","sourceOrganization":"Household Surveys (DHS, MICS)","topics":[{"id":"8","value":"Health "}]},{"id":"SH.FPL.UWTD.Q5.ZS","name":"Fertility planning status (wanted no more) (% of births): Q5 (highest)","source":{"id":"39","value":"Health Nutrition and Population Statistics by Wealth Quintile"},"sourceNote":"Fertility planning status: Percentage of births in the five years preceding the survey which are planned (wanted then), mistimed (wanted later), and unplanned (wanted no more).","sourceOrganization":"Household Surveys (DHS, MICS)","topics":[{"id":"8","value":"Health "}]},{"id":"SH.FPL.UWTD.Q4.ZS","name":"Fertility planning status (wanted no more) (% of births): Q4","source":{"id":"39","value":"Health Nutrition and Population Statistics by Wealth Quintile"},"sourceNote":"Fertility planning status: Percentage of births in the five years preceding the survey which are planned (wanted then), mistimed (wanted later), and unplanned (wanted no more).","sourceOrganization":"Household Surveys (DHS, MICS)","topics":[{"id":"8","value":"Health "}]},{"id":"SH.FPL.UWTD.Q3.ZS","name":"Fertility planning status (wanted no more) (% of births): Q3","source":{"id":"39","value":"Health Nutrition and Population Statistics by Wealth Quintile"},"sourceNote":"Fertility planning status: Percentage of births in the five years preceding the survey which are planned (wanted then), mistimed (wanted later), and unplanned (wanted no more).","sourceOrganization":"Household Surveys (DHS, MICS)","topics":[{"id":"8","value":"Health "}]},{"id":"SH.FPL.UWTD.Q2.ZS","name":"Fertility planning status (wanted no more) (% of births): Q2","source":{"id":"39","value":"Health Nutrition and Population Statistics by Wealth Quintile"},"sourceNote":"Fertility planning status: Percentage of births in the five years preceding the survey which are planned (wanted then), mistimed (wanted later), and unplanned (wanted no more).","sourceOrganization":"Household Surveys (DHS, MICS)","topics":[{"id":"8","value":"Health "}]},{"id":"SH.FPL.UWTD.Q1.ZS","name":"Fertility planning status (wanted no more) (% of births): Q1 (lowest)","source":{"id":"39","value":"Health Nutrition and Population Statistics by Wealth Quintile"},"sourceNote":"Fertility planning status: Percentage of births in the five years preceding the survey which are planned (wanted then), mistimed (wanted later), and unplanned (wanted no more).","sourceOrganization":"Household Surveys (DHS, MICS)","topics":[{"id":"8","value":"Health "}]},{"id":"SH.FPL.SATM.ZS","name":"Demand for family planning satisfied by modern methods (% of married women with demand for family planning)","source":{"id":"2","value":"World Development Indicators"},"sourceNote":"Demand for family planning satisfied by modern methods refers to the percentage of married women ages 15-49 years whose need for family planning is satisfied with modern methods.","sourceOrganization":"Demographic and Health Surveys (DHS).","topics":[{"id":"8","value":"Health "}]},{"id":"SH.FPL.READ.Q5.ZS","name":"Family planning messages in print (% of women): Q5 (highest)","source":{"id":"39","value":"Health Nutrition and Population Statistics by Wealth Quintile"},"sourceNote":"Family planning messages in print: Percentage of all women who have received a message about family planning from printed media in the last few months prior to the interview.","sourceOrganization":"Household Surveys (DHS, MICS)","topics":[{"id":"8","value":"Health "}]},{"id":"SH.FPL.READ.Q4.ZS","name":"Family planning messages in print (% of women): Q4","source":{"id":"39","value":"Health Nutrition and Population Statistics by Wealth Quintile"},"sourceNote":"Family planning messages in print: Percentage of all women who have received a message about family planning from printed media in the last few months prior to the interview.","sourceOrganization":"Household Surveys (DHS, MICS)","topics":[{"id":"8","value":"Health "}]},{"id":"SH.FPL.READ.Q3.ZS","name":"Family planning messages in print (% of women): Q3","source":{"id":"39","value":"Health Nutrition and Population Statistics by Wealth Quintile"},"sourceNote":"Family planning messages in print: Percentage of all women who have received a message about family planning from printed media in the last few months prior to the interview.","sourceOrganization":"Household Surveys (DHS, MICS)","topics":[{"id":"8","value":"Health "}]},{"id":"SH.FPL.READ.Q2.ZS","name":"Family planning messages in print (% of women): Q2","source":{"id":"39","value":"Health Nutrition and Population Statistics by Wealth Quintile"},"sourceNote":"Family planning messages in print: Percentage of all women who have received a message about family planning from printed media in the last few months prior to the interview.","sourceOrganization":"Household Surveys (DHS, MICS)","topics":[{"id":"8","value":"Health "}]},{"id":"SH.FPL.READ.Q1.ZS","name":"Family planning messages in print (% of women): Q1 (lowest)","source":{"id":"39","value":"Health Nutrition and Population Statistics by Wealth Quintile"},"sourceNote":"Family planning messages in print: Percentage of all women who have received a message about family planning from printed media in the last few months prior to the interview.","sourceOrganization":"Household Surveys (DHS, MICS)","topics":[{"id":"8","value":"Health "}]}]]