[{"page":128,"pages":324,"per_page":"50","total":16174},[{"id":"KFCOCOA","name":"Cocoa, real, $\/kg","source":{"id":"55","value":"Commodity Prices- History and Projections, updated quarterly"},"sourceNote":"","sourceOrganization":"","topics":[]},{"id":"KFCOAL_AUS","name":"Coal, Australian, real, $\/mt","source":{"id":"55","value":"Commodity Prices- History and Projections, updated quarterly"},"sourceNote":"","sourceOrganization":"","topics":[]},{"id":"KFCHICKEN","name":"Meat, chicken, real, $\/kg","source":{"id":"55","value":"Commodity Prices- History and Projections, updated quarterly"},"sourceNote":"","sourceOrganization":"","topics":[]},{"id":"KFBEEF","name":"Beef, real, $\/kg","source":{"id":"55","value":"Commodity Prices- History and Projections, updated quarterly"},"sourceNote":"","sourceOrganization":"","topics":[]},{"id":"KFBARLEY","name":"Barley, real, $\/mt","source":{"id":"55","value":"Commodity Prices- History and Projections, updated quarterly"},"sourceNote":"","sourceOrganization":"","topics":[]},{"id":"KFBANANA_US","name":"Banana, US, real, $\/kg","source":{"id":"55","value":"Commodity Prices- History and Projections, updated quarterly"},"sourceNote":"","sourceOrganization":"","topics":[]},{"id":"KFALUMINUM","name":"Aluminum, real, $\/mt","source":{"id":"55","value":"Commodity Prices- History and Projections, updated quarterly"},"sourceNote":"","sourceOrganization":"","topics":[]},{"id":"KDAP","name":"DAP, $\/mt, constant 2000$","source":{"id":"21","value":"Global Economic Monitor (GEM) Commodities"},"sourceNote":"","sourceOrganization":"World Bank.","topics":[]},{"id":"KCRUDE_WTI","name":"Crude oil, WTI, $\/bbl, constant 2000$","source":{"id":"21","value":"Global Economic Monitor (GEM) Commodities"},"sourceNote":"","sourceOrganization":"World Bank.","topics":[]},{"id":"KCRUDE_PETRO","name":"Crude oil, avg, spot, $\/bbl, constant 2000$","source":{"id":"21","value":"Global Economic Monitor (GEM) Commodities"},"sourceNote":"","sourceOrganization":"World Bank.","topics":[]},{"id":"KCRUDE_DUBAI","name":"Crude oil, Dubai, $\/bbl, constant 2000$","source":{"id":"21","value":"Global Economic Monitor (GEM) Commodities"},"sourceNote":"","sourceOrganization":"World Bank.","topics":[]},{"id":"KCRUDE_BRENT","name":"Crude oil, Brendt, $\/bbl, constant 2000$","source":{"id":"21","value":"Global Economic Monitor (GEM) Commodities"},"sourceNote":"","sourceOrganization":"World Bank.","topics":[]},{"id":"KCOTTON_A_INDX","name":"Cotton, A Index, cents\/kg, constant 2000$","source":{"id":"21","value":"Global Economic Monitor (GEM) Commodities"},"sourceNote":"","sourceOrganization":"World Bank.","topics":[]},{"id":"KCOPRA","name":"Copra, $\/mt, constant 2000$","source":{"id":"21","value":"Global Economic Monitor (GEM) Commodities"},"sourceNote":"","sourceOrganization":"World Bank.","topics":[]},{"id":"KCOPPER","name":"Copper, $\/mt, constant 2000$","source":{"id":"21","value":"Global Economic Monitor (GEM) Commodities"},"sourceNote":"","sourceOrganization":"World Bank.","topics":[]},{"id":"KCOFFEE_ROBUS","name":"Coffee, Robusta, cents\/kg, constant 2000$","source":{"id":"21","value":"Global Economic Monitor (GEM) Commodities"},"sourceNote":"","sourceOrganization":"World Bank.","topics":[]},{"id":"KCOFFEE_ARABIC","name":"Coffee, Arabica, cents\/kg, constant 2000$","source":{"id":"21","value":"Global Economic Monitor (GEM) Commodities"},"sourceNote":"","sourceOrganization":"World Bank.","topics":[]},{"id":"KCOCONUT_OIL","name":"Coconut oil, $\/mt, constant 2000$","source":{"id":"21","value":"Global Economic Monitor (GEM) Commodities"},"sourceNote":"","sourceOrganization":"World Bank.","topics":[]},{"id":"KCOCOA","name":"Cocoa, cents\/kg, constant 2000$","source":{"id":"21","value":"Global Economic Monitor (GEM) Commodities"},"sourceNote":"","sourceOrganization":"World Bank.","topics":[]},{"id":"KCOAL_SAFRICA","name":"Coal, South African, $\/mt, real 2010$","source":{"id":"21","value":"Global Economic Monitor (GEM) Commodities"},"sourceNote":"","sourceOrganization":"","topics":[]},{"id":"KCOAL_COL","name":"Coal, Colombian, $\/mt, real 2010$","source":{"id":"21","value":"Global Economic Monitor (GEM) Commodities"},"sourceNote":"","sourceOrganization":"","topics":[]},{"id":"KCOAL_AUS","name":"Coal, Australia, $\/mt, constant 2000$","source":{"id":"21","value":"Global Economic Monitor (GEM) Commodities"},"sourceNote":"","sourceOrganization":"World Bank.","topics":[]},{"id":"KCHICKEN","name":"Meat, chicken, cents\/kg, constant 2000$","source":{"id":"21","value":"Global Economic Monitor (GEM) Commodities"},"sourceNote":"","sourceOrganization":"World Bank.","topics":[]},{"id":"KBEEF","name":"Meat, beef, cents\/kg, constant 2000$","source":{"id":"21","value":"Global Economic Monitor (GEM) Commodities"},"sourceNote":"","sourceOrganization":"World Bank.","topics":[]},{"id":"KBARLEY","name":"Barley, $\/mt, constant 2000$","source":{"id":"21","value":"Global Economic Monitor (GEM) Commodities"},"sourceNote":"","sourceOrganization":"World Bank.","topics":[]},{"id":"KBANANA_US","name":"Bananas, US, $\/mt, constant 2000$","source":{"id":"21","value":"Global Economic Monitor (GEM) Commodities"},"sourceNote":"","sourceOrganization":"World Bank.","topics":[]},{"id":"KBANANA_EU","name":"Bananas, EU, $\/mt, constant 2000$","source":{"id":"21","value":"Global Economic Monitor (GEM) Commodities"},"sourceNote":"","sourceOrganization":"World Bank.","topics":[]},{"id":"KALUMINUM","name":"Aluminum, $\/mt, constant 2000$","source":{"id":"21","value":"Global Economic Monitor (GEM) Commodities"},"sourceNote":"","sourceOrganization":"World Bank.","topics":[]},{"id":"ITIMBER","name":"Agr: Raw:1 Timber, 2000=100, current$","source":{"id":"21","value":"Global Economic Monitor (GEM) Commodities"},"sourceNote":"Timber index includes tropical hard logs and sawnwood.","sourceOrganization":"World Bank.","topics":[]},{"id":"IT.TVS.HOUS.ZS","name":"Households with television (%)","source":{"id":"11","value":"Africa Development Indicators"},"sourceNote":"Households with television are the share of households with a television set. Some countries report only the number of households with a color television set, and therefore the true number may be higher than reported.","sourceOrganization":"International Telecommunication Union, World Telecommunication\/ICT Development Report and database, and World Bank estimates.","topics":[{"id":"9","value":"Infrastructure "}]},{"id":"IT.TELC.XP.CD","name":"Telecommunication equipment - export (current US$)","source":{"id":"11","value":"Africa Development Indicators"},"sourceNote":"They are aggregated from the following Standard International Trade Classification (SITC) subgroupings: (1) 764.1 Electrical apparatus for line telephony or line telegraphy (including such apparatus for carrier-current line systems). Telephone sets; teleprinters; telephonic or telegraphic switching apparatus; other apparatus for carrier-current line systems; other telephonic or telegraphic apparatus. (2) 764.3 Transmission apparatus for radio-telephony, radio-telegraphy, radio-broadcasting or television, whether or not incorporating reception apparatus or sound-recording or reproducing apparatus. Transmission apparatus; transmission apparatus incorporating reception apparatus. (3) 762.81 reception apparatus for radio-telephony or radio-telegraphy; and (4) Parts and accessories suitable for use solely or principally with the apparatus of sub-group 764.1. Expressed in US dollars. ","sourceOrganization":"The United Nations.","topics":[]},{"id":"IT.TELC.IM.CD","name":"Telecommunication equipment - import (current US$)","source":{"id":"11","value":"Africa Development Indicators"},"sourceNote":"They are aggregated from the following Standard International Trade Classification (SITC) subgroupings: (1) 764.1 Electrical apparatus for line telephony or line telegraphy (including such apparatus for carrier-current line systems). Telephone sets; teleprinters; telephonic or telegraphic switching apparatus; other apparatus for carrier-current line systems; other telephonic or telegraphic apparatus. (2) 764.3 Transmission apparatus for radio-telephony, radio-telegraphy, radio-broadcasting or television, whether or not incorporating reception apparatus or sound-recording or reproducing apparatus. Transmission apparatus; transmission apparatus incorporating reception apparatus. (3) 762.81 reception apparatus for radio-telephony or radio-telegraphy; and (4) Parts and accessories suitable for use solely or principally with the apparatus of sub-group 764.1. Expressed in US dollars. ","sourceOrganization":"The  United Nations. ","topics":[]},{"id":"IT.TEL.UNMT.ZS","name":"Unmet demand (% of waiting list to number main fixed telephone lines in operation)","source":{"id":"11","value":"Africa Development Indicators"},"sourceNote":"Unmet demand is unmet applications for connection to the public switched telephone network that have had to be held over owing to a lack of technical facilities (equipment, lines, and the like) divided by the number of main telephone lines in operation.  ","sourceOrganization":"International Telecommunication Union, World Telecommunication Development Report and database, and World Bank estimates.","topics":[]},{"id":"IT.TEL.TOTL.P3","name":"Telephone (mainlines and mobile phone) subscribers (per 1,000 people)","source":{"id":"11","value":"Africa Development Indicators"},"sourceNote":"Please cite the International Telecommunication Union for third-party use of these data.  Fixed lines are telephone mainlines connecting a customer's equipment to the public switched telephone network. Mobile phone subscribers refer to users of portable telephones subscribing to an automatic public mobile telephone service using cellular technology that provides access to the public switched telephone network.","sourceOrganization":"International Telecommunication Union, World Telecommunication Development Report and database, and World Bank estimates.","topics":[]},{"id":"IT.TEL.TOTL.P2","name":"Fixed line and mobile cellular subscriptions (per 100 people)","source":{"id":"11","value":"Africa Development Indicators"},"sourceNote":"Fixed line and mobile cellular subscriptions are total telephone subscriptions (fixed line plus mobile). Fixed telephone subscriptions refers to the sum of active number of analogue fixed telephone lines, voice-over-IP (VoIP) subscriptions, fixed wireless local loop (WLL) subscriptions, ISDN voice-channel equivalents and fixed public payphones. Mobile cellular telephone subscriptions are subscriptions to a public mobile telephone service that provide access to the PSTN using cellular technology. The indicator includes (and is split into) the number of postpaid subscriptions, and the number of active prepaid accounts (i.e. that have been used during the last three months). The indicator applies to all mobile cellular subscriptions that offer voice communications. It excludes subscriptions via data cards or USB modems, subscriptions to public mobile data services, private trunked mobile radio, telepoint, radio paging and telemetry services.","sourceOrganization":"International Telecommunication Union, World Telecommunication\/ICT Development Report and database.","topics":[{"id":"9","value":"Infrastructure "}]},{"id":"IT.TEL.TOTL","name":"Mobile and fixed-line telephone subscribers","source":{"id":"11","value":"Africa Development Indicators"},"sourceNote":"International Telecommunication Union, World Telecommunication\/ICT Development Report and database.","sourceOrganization":"International Telecommunication Union, World Telecommunication\/ICT Development Report and database.","topics":[{"id":"9","value":"Infrastructure "}]},{"id":"IT.TEL.REVN.GD.ZS","name":"Telecommunications revenue (% GDP)","source":{"id":"11","value":"Africa Development Indicators"},"sourceNote":"Telecommunications revenue is the revenue from the provision of telecommunications services such as fixed-line, mobile, and data.","sourceOrganization":"International Telecommunication Union, World Telecommunication\/ICT Development Report and database, and World Bank estimates.","topics":[{"id":"9","value":"Infrastructure "}]},{"id":"IT.TEL.REVN.CN","name":"Telecommunications revenue (current LCU)","source":{"id":"11","value":"Africa Development Indicators"},"sourceNote":"Telecommunications revenue is the revenue from the provision of telecommunications services such as fixed-line, mobile, and data.","sourceOrganization":"International Telecommunication Union, World Telecommunication\/ICT Development Report and database, and World Bank estimates.","topics":[{"id":"9","value":"Infrastructure "}]},{"id":"IT.TEL.REVN.CD","name":"Total revenue from all telecommunication services (current US$)","source":{"id":"11","value":"Africa Development Indicators"},"sourceNote":"International Telecommunication Union, World Telecommunication\/ICT Development Report and database.","sourceOrganization":"International Telecommunication Union, World Telecommunication\/ICT Development Report and database.","topics":[]},{"id":"IT.TEL.INVS.RV.ZS","name":"Telecommunications investment (% of revenue)","source":{"id":"11","value":"Africa Development Indicators"},"sourceNote":"International Telecommunication Union, World Telecommunication\/ICT Development Report and database.","sourceOrganization":"International Telecommunication Union, World Telecommunication\/ICT Development Report and database.","topics":[{"id":"9","value":"Infrastructure "}]},{"id":"IT.TEL.INVS.CN","name":"Telecommunications investment (current LCU)","source":{"id":"11","value":"Africa Development Indicators"},"sourceNote":"Telecommunications investment refers to the expenditure associated with acquiring the ownership of telecommunication equipment infrastructure (including supporting land and buildings and intellectual and non-tangible property such as computer software). These include expenditure on initial installations and on additions to existing installations.","sourceOrganization":"International Telecommunication Union, World Telecommunication\/ICT Development Report and database, and World Bank estimates.","topics":[{"id":"9","value":"Infrastructure "}]},{"id":"IT.TEL.INVS.CD","name":"Total annual investment in telecom (current US$)","source":{"id":"11","value":"Africa Development Indicators"},"sourceNote":"International Telecommunication Union, World Telecommunication\/ICT Development Report and database.","sourceOrganization":"International Telecommunication Union, World Telecommunication\/ICT Development Report and database.","topics":[]},{"id":"IT.TEL.HOUS.ZS","name":"Households with a telephone (%)","source":{"id":"11","value":"Africa Development Indicators"},"sourceNote":"Please cite the International Telecommunication Union for third-party use of these data.  This percentage is obtained by dividing the number of main (fixed) lines serving households (i.e., lines which are not used for business, government or other professional purposes or as public telephone stations) by the total number of main lines. Respondents should indicate the definition of households that is being applied, and the source of this definition.","sourceOrganization":"International Telecommunication Union, World Telecommunication Development Report and database, and World Bank estimates.","topics":[]},{"id":"IT.RAD.SETS.P3","name":"Radio sets (per 1,000 people)","source":{"id":"11","value":"Africa Development Indicators"},"sourceNote":"Please cite the International Telecommunication Union for third-party use of these data.  Radio sets per 1000 inhabitants is obtained by dividing the number of radio sets in use by the population and multiplying by 1000.  ","sourceOrganization":"International Telecommunication Union, World Telecommunication Development Report and database, and World Bank estimates.","topics":[]},{"id":"IT.RAD.SETS","name":"Number of radio sets ","source":{"id":"11","value":"Africa Development Indicators"},"sourceNote":"Please cite the International Telecommunication Union for third-party use of these data.  The total number of radio sets. A radio set is a device capable of receiving broadcast radio signals, using popular frequencies, such as FM, AM, LW and SW.  A radio set may be a stand-alone device, or it may be integrated into another device, such as a Walkman, a car or an alarm clock.  ","sourceOrganization":"International Telecommunication Union, World Telecommunication Development Report and database, and World Bank estimates.","topics":[]},{"id":"IT.RAD.HOUS.ZS","name":"Households with a radio (%)","source":{"id":"11","value":"Africa Development Indicators"},"sourceNote":"Please cite the International Telecommunication Union for third-party use of these data.  The proportion of households with a radio is calculated by dividing the number of in-scope households with a radio by the total number of inscope Households.  ","sourceOrganization":"International Telecommunication Union, World Telecommunication Development Report and database, and World Bank estimates.","topics":[]},{"id":"IT.PRT.NEWS.P3","name":"Daily newspapers (per 1,000 people)","source":{"id":"25","value":"Jobs for Knowledge Platform"},"sourceNote":"Daily newspapers refer to those published at least four times a week and calculated as average circulation (or copies printed) per 1,000 people.","sourceOrganization":"United Nations Educational, Scientific, and Cultural Organization (UNESCO) Institute for Statistics.","topics":[{"id":"9","value":"Infrastructure "}]},{"id":"IT.PC.HOUS.ZS","name":"Homes with a personal computer (%)","source":{"id":"11","value":"Africa Development Indicators"},"sourceNote":"Please cite the International Telecommunication Union for third-party use of these data.    The proportion of households with a computer is calculated by dividing the number of in-scope households with a computer by the total number of inscope households.","sourceOrganization":"International Telecommunication Union, World Telecommunication Development Report and database, and World Bank estimates.","topics":[]},{"id":"IT.PAY.PHONES.P3","name":"Public payphones (per 1,000 people)","source":{"id":"11","value":"Africa Development Indicators"},"sourceNote":"Please cite the International Telecommunication Union for third-party use of these data.  Total number of all types of public telephones, including coin- and card-operated and public telephones in call offices. Publicly available phones installed in private places should also be included, as should mobile public telephones. All public telephones regardless of capability (e.g., local calls or national only) should be counted. If the national definition of \"payphone\" differs from that above (e.g., by excluding pay phones in private places), then respondents should indicate their own definition.  ","sourceOrganization":"International Telecommunication Union, World Telecommunication Development Report and database, and World Bank estimates.","topics":[]},{"id":"IT.PAY.PHONES","name":"Public payphones","source":{"id":"11","value":"Africa Development Indicators"},"sourceNote":"Please cite the International Telecommunication Union for third-party use of these data.  Total number of all types of public telephones, including coin- and card-operated and public telephones in call offices. Publicly available phones installed in private places should also be included, as should mobile public telephones. All public telephones regardless of capability (e.g., local calls or national only) should be counted. If the national definition of \"payphone\" differs from that above (e.g., by excluding pay phones in private places), then respondents should indicate their own definition.  ","sourceOrganization":"International Telecommunication Union, World Telecommunication Development Report and database, and World Bank estimates.","topics":[{}]}]]