[{"page":324,"pages":324,"per_page":"50","total":16174},[{"id":"ZINC","name":"Zinc, cents\/kg, current$","source":{"id":"21","value":"Global Economic Monitor (GEM) Commodities"},"sourceNote":"Zinc (LME), high grade, minimum 99.95% purity, settlement price beginning April 1990; previously special high grade, minimum 99.995%, cash prices ","sourceOrganization":"Platts Metals Week, Engineering and Mining Journal; Thomson Reuters Datastream; World Bank.","topics":[]},{"id":"XGDP.56.FSGOV.FDINSTADM.FFD","name":"Government expenditure in tertiary institutions as % of GDP (%)","source":{"id":"12","value":"Education Statistics"},"sourceNote":"Total general (local, regional and central) government expenditure in educational institutions (current and capital) at a given level of education, expressed as a percentage of GDP. It excludes transfers to private entities such as subsidies to households and students, but includes expenditure funded by transfers from international sources to government. Divide total expenditure in public institutions of a given level of education (ex. primary, secondary, or all levels combined) by the GDP, and multiply by 100. For more information, consult the UNESCO Institute of Statistics website: http:\/\/www.uis.unesco.org\/Education\/","sourceOrganization":"UNESCO Institute for Statistics","topics":[{"id":"4","value":"Education "}]},{"id":"XGDP.23.FSGOV.FDINSTADM.FFD","name":"Government expenditure in secondary institutions education as % of GDP (%)","source":{"id":"12","value":"Education Statistics"},"sourceNote":"Total general (local, regional and central) government expenditure in educational institutions (current and capital) at a given level of education, expressed as a percentage of GDP. It excludes transfers to private entities such as subsidies to households and students, but includes expenditure funded by transfers from international sources to government. Divide total expenditure in public institutions of a given level of education (ex. primary, secondary, or all levels combined) by the GDP, and multiply by 100. For more information, consult the UNESCO Institute of Statistics website: http:\/\/www.uis.unesco.org\/Education\/","sourceOrganization":"UNESCO Institute for Statistics","topics":[]},{"id":"WP15187.1","name":"Received payments for agricultural products: through a mobile phone (% recipients, age 15+) [w2]","source":{"id":"28","value":"Global Findex ( Global Financial Inclusion database)"},"sourceNote":"Denotes, among respondents reporting personally receiving money from any source for the sale of agricultural products, crops, produce, or livestock (self- or family-owned) in the past 12 months, the percentage who received this money through a mobile phone (% recipients, age 15+). [w2: data are available for wave 2].","sourceOrganization":"Demirguc-Kunt et al., 2015","topics":[{"id":"7","value":"Financial Sector "}]},{"id":"WP15186.1","name":"Received payments for agricultural products: into an account at a financial institution (% recipients, age 15+) [w2]","source":{"id":"28","value":"Global Findex ( Global Financial Inclusion database)"},"sourceNote":"Denotes, among respondents reporting personally receiving money from any source for the sale of agricultural products, crops, produce, or livestock (self- or family-owned) in the past 12 months, the percentage who received this money directly into an account at a bank or another type of financial institution (% recipients, age 15+). [w2: data are available for wave 2].","sourceOrganization":"Demirguc-Kunt et al., 2015","topics":[{"id":"7","value":"Financial Sector "}]},{"id":"WP15185.1","name":"Received payments for agricultural products: in cash (% recipients, age 15+) [w2]","source":{"id":"28","value":"Global Findex ( Global Financial Inclusion database)"},"sourceNote":"Denotes, among respondents reporting personally receiving money from any source for the sale of agricultural products, crops, produce, or livestock (self- or family-owned) in the past 12 months, the percentage who received this money directly in cash (% recipients, age 15+). [w2: data are available for wave 2].","sourceOrganization":"Demirguc-Kunt et al., 2015","topics":[{"id":"7","value":"Financial Sector "}]},{"id":"WP15184.9","name":"Received payments for agricultural products in the past year, income, richest 60% (% ages 15+) [w2]","source":{"id":"28","value":"Global Findex ( Global Financial Inclusion database)"},"sourceNote":"Denotes the percentage of respondents who report personally receiving money from any source for the sale of agricultural products, crops, produce, or livestock (self- or family-owned) in the past 12 months (income, richest 60%, % age 15+). [w2: data are available for wave 2].","sourceOrganization":"Demirguc-Kunt et al., 2015","topics":[{"id":"7","value":"Financial Sector "}]},{"id":"WP15184.8","name":"Received payments for agricultural products in the past year, income, poorest 40% (% ages 15+) [w2]","source":{"id":"28","value":"Global Findex ( Global Financial Inclusion database)"},"sourceNote":"Denotes the percentage of respondents who report personally receiving money from any source for the sale of agricultural products, crops, produce, or livestock (self- or family-owned) in the past 12 months (income, poorest 40%, % age 15+). [w2: data are available for wave 2].","sourceOrganization":"Demirguc-Kunt et al., 2015","topics":[{"id":"7","value":"Financial Sector "}]},{"id":"WP15184.7","name":"Received payments for agricultural products in the past year, secondary education or more (% ages 15+) [w2]","source":{"id":"28","value":"Global Findex ( Global Financial Inclusion database)"},"sourceNote":"Denotes the percentage of respondents who report personally receiving money from any source for the sale of agricultural products, crops, produce, or livestock (self- or family-owned) in the past 12 months (secondary education or more, % age 15+). [w2: data are available for wave 2].","sourceOrganization":"Demirguc-Kunt et al., 2015","topics":[{"id":"7","value":"Financial Sector "}]},{"id":"WP15184.6","name":"Received payments for agricultural products in the past year, primary education or less (% ages 15+) [w2]","source":{"id":"28","value":"Global Findex ( Global Financial Inclusion database)"},"sourceNote":"Denotes the percentage of respondents who report personally receiving money from any source for the sale of agricultural products, crops, produce, or livestock (self- or family-owned) in the past 12 months (primary education or less, % age 15+). [w2: data are available for wave 2].","sourceOrganization":"Demirguc-Kunt et al., 2015","topics":[{"id":"7","value":"Financial Sector "}]},{"id":"WP15184.5","name":"Received payments for agricultural products in the past year, older adults (% ages 25+) [w2]","source":{"id":"28","value":"Global Findex ( Global Financial Inclusion database)"},"sourceNote":"Denotes the percentage of respondents who report personally receiving money from any source for the sale of agricultural products, crops, produce, or livestock (self- or family-owned) in the past 12 months (% age 25+). [w2: data are available for wave 2].","sourceOrganization":"Demirguc-Kunt et al., 2015","topics":[{"id":"7","value":"Financial Sector "}]},{"id":"WP15184.4","name":"Received payments for agricultural products in the past year, young adults (% ages 15-24) [w2]","source":{"id":"28","value":"Global Findex ( Global Financial Inclusion database)"},"sourceNote":"Denotes the percentage of respondents who report personally receiving money from any source for the sale of agricultural products, crops, produce, or livestock (self- or family-owned) in the past 12 months (% ages 15-24). [w2: data are available for wave 2].","sourceOrganization":"Demirguc-Kunt et al., 2015","topics":[{"id":"7","value":"Financial Sector "}]},{"id":"WP15184.3","name":"Received payments for agricultural products in the past year, female (% age 15+) [w2]","source":{"id":"28","value":"Global Findex ( Global Financial Inclusion database)"},"sourceNote":"Denotes the percentage of respondents who report personally receiving money from any source for the sale of agricultural products, crops, produce, or livestock (self- or family-owned) in the past 12 months (female, % age 15+). [w2: data are available for wave 2].","sourceOrganization":"Demirguc-Kunt et al., 2015","topics":[{"id":"7","value":"Financial Sector "}]},{"id":"WP15184.2","name":"Received payments for agricultural products in the past year, male (% age 15+) [w2]","source":{"id":"28","value":"Global Findex ( Global Financial Inclusion database)"},"sourceNote":"Denotes the percentage of respondents who report personally receiving money from any source for the sale of agricultural products, crops, produce, or livestock (self- or family-owned) in the past 12 months (male, % age 15+). [w2: data are available for wave 2].","sourceOrganization":"Demirguc-Kunt et al., 2015","topics":[{"id":"7","value":"Financial Sector "}]},{"id":"WP15184.10","name":"Received payments for agricultural products in the past year, rural (% age 15+) [w2]","source":{"id":"28","value":"Global Findex ( Global Financial Inclusion database)"},"sourceNote":"Denotes the percentage of respondents who report personally receiving money from any source for the sale of agricultural products, crops, produce, or livestock (self- or family-owned) in the past 12 months (rural, % age 15+). [w2: data are available for wave 2].","sourceOrganization":"Demirguc-Kunt et al., 2015","topics":[{"id":"7","value":"Financial Sector "}]},{"id":"WP15184.1","name":"Received payments for agricultural products in the past year (% age 15+) [w2]","source":{"id":"28","value":"Global Findex ( Global Financial Inclusion database)"},"sourceNote":"Denotes the percentage of respondents who report personally receiving money from any source for the sale of agricultural products, crops, produce, or livestock (self- or family-owned) in the past 12 months (% age 15+). [w2: data are available for wave 2].","sourceOrganization":"Demirguc-Kunt et al., 2015","topics":[{"id":"7","value":"Financial Sector "}]},{"id":"WP15183.3.1","name":"Received government transfers: into a new and first account (% cashless transfer recipients, age 15+) [w2]","source":{"id":"28","value":"Global Findex ( Global Financial Inclusion database)"},"sourceNote":"Denotes, among respondents using an account at a bank or another type of financial institution, a card, or a mobile phone to receive financial support from the government in the past 12 months, the percentage who report opening their first account to receive transfers from the government (% cashless transfer recipients, age 15+). [w2: data are available for wave 2].","sourceOrganization":"Demirguc-Kunt et al., 2015","topics":[{"id":"7","value":"Financial Sector "}]},{"id":"WP15183.2.1","name":"Received government transfers: into a new but not first account (% cashless transfer recipients, age 15+) [w2]","source":{"id":"28","value":"Global Findex ( Global Financial Inclusion database)"},"sourceNote":"Denotes, among respondents using an account at a bank or another type of financial institution, a card, or a mobile phone to receive financial support from the government in the past 12 months, the percentage who report having an account before, but opening that particular account to receive transfers from the government (% cashless transfer recipients, age 15+). [w2: data are available for wave 2].","sourceOrganization":"Demirguc-Kunt et al., 2015","topics":[{"id":"7","value":"Financial Sector "}]},{"id":"WP15183.1.1","name":"Received government transfers: into a pre-existing account (% cashless transfer recipients, age 15+) [w2]","source":{"id":"28","value":"Global Findex ( Global Financial Inclusion database)"},"sourceNote":"Denotes, among respondents using an account at a bank or another type of financial institution, a card, or a mobile phone to receive financial support from the government in the past 12 months, the percentage who report having that particular account before they began receiving transfers from the government (% cashless transfer recipients, age 15+). [w2: data are available for wave 2].","sourceOrganization":"Demirguc-Kunt et al., 2015","topics":[{"id":"7","value":"Financial Sector "}]},{"id":"WP15182.2.1","name":"Received government transfers: withdraw over time as needed (% cashless transfer recipients, age 15+) [w2]","source":{"id":"28","value":"Global Findex ( Global Financial Inclusion database)"},"sourceNote":"Denotes, among respondents using an account at a bank or another type of financial institution, a card, or a mobile phone to receive financial support from the government in the past 12 months, the percentage who report withdrawing or transferring the money over time as needed (% cashless transfer recipients, age 15+). [w2: data are available for wave 2].","sourceOrganization":"Demirguc-Kunt et al., 2015","topics":[{"id":"7","value":"Financial Sector "}]},{"id":"WP15182.1.1","name":"Received government transfers: withdraw all right away (% cashless transfer recipients, age 15+) [w2]","source":{"id":"28","value":"Global Findex ( Global Financial Inclusion database)"},"sourceNote":"Denotes, among respondents using an account at a bank or another type of financial institution, a card, or a mobile phone to receive financial support from the government in the past 12 months, the percentage who report withdrawing or transferring all the money out of the account right away (% cashless transfer recipients, age 15+). [w2: data are available for wave 2].","sourceOrganization":"Demirguc-Kunt et al., 2015","topics":[{"id":"7","value":"Financial Sector "}]},{"id":"WP15181.1","name":"Received government transfers: through a mobile phone (% transfer recipients, age 15+) [w2]","source":{"id":"28","value":"Global Findex ( Global Financial Inclusion database)"},"sourceNote":"Denotes, among respondents reporting personally receiving any financial support from the government in the past 12 months, the percentage who received this financial support through a mobile phone (% non-cash transfer recipients, age 15+). [w2: data are available for wave 2].","sourceOrganization":"Demirguc-Kunt et al., 2015","topics":[{"id":"7","value":"Financial Sector "}]},{"id":"WP15179_2.1","name":"Received government transfers: into an account at a financial institution (% transfer recipients, age 15+) [w2]","source":{"id":"28","value":"Global Findex ( Global Financial Inclusion database)"},"sourceNote":"Denotes, among respondents reporting personally receiving any financial support from the government in the past 12 months, the percentage who received this financial support directly into an account at a bank or another type of financial institution or into a card (% transfer recipients, age 15+). [w2: data are available for wave 2].","sourceOrganization":"Demirguc-Kunt et al., 2015","topics":[{"id":"7","value":"Financial Sector "}]},{"id":"WP15178.1","name":"Received government transfers: in cash (% transfer recipients, age 15+) [w2]","source":{"id":"28","value":"Global Findex ( Global Financial Inclusion database)"},"sourceNote":"Denotes, among respondents reporting personally receiving any financial support from the government in the past 12 months, the percentage who received this financial support directly in cash (% transfer recipients, age 15+). [w2: data are available for wave 2].","sourceOrganization":"Demirguc-Kunt et al., 2015","topics":[{"id":"7","value":"Financial Sector "}]}]]