[{"page":64,"pages":324,"per_page":"50","total":16174},[{"id":"DT.DOD.DLTO.CD.GG.AR.PX.US","name":"Gross Ext. Debt Pos., General Government, Long-term, Other debt liabilities, Other price chg, USD","source":{"id":"22","value":"Quarterly External Debt Statistics\/SDDS (New)"},"sourceNote":"","sourceOrganization":"","topics":[]},{"id":"DT.DOD.DLTO.CD.GG.AR.OC.US","name":"Gross Ext. Debt Pos., General Government, Long-term, Other debt liabilities, Other chg in vol., USD","source":{"id":"22","value":"Quarterly External Debt Statistics\/SDDS (New)"},"sourceNote":"","sourceOrganization":"","topics":[]},{"id":"DT.DOD.DLTO.CD.GG.AR.NE.US","name":"Net Ext. Debt Position, General Government, Long-term, Other debt instruments, USD","source":{"id":"22","value":"Quarterly External Debt Statistics\/SDDS (New)"},"sourceNote":"","sourceOrganization":"","topics":[]},{"id":"DT.DOD.DLTO.CD.GG.AR.GE.US","name":"Gross Ext. Debt Pos., General Government, Long-term, Other debt instruments, Beginning pos., USD","source":{"id":"22","value":"Quarterly External Debt Statistics\/SDDS (New)"},"sourceNote":"","sourceOrganization":"","topics":[]},{"id":"DT.DOD.DLTO.CD.GG.AR.EX.US","name":"Gross Ext. Debt Pos., General Government, Long-term, Other debt liabilities, Exchange rate chg, USD","source":{"id":"22","value":"Quarterly External Debt Statistics\/SDDS (New)"},"sourceNote":"","sourceOrganization":"","topics":[]},{"id":"DT.DOD.DLTO.CD.GG.AR.EN.US","name":"Gross Ext. Debt Pos., General Government, Long-term, Other debt liabilities, end of period, USD","source":{"id":"22","value":"Quarterly External Debt Statistics\/SDDS (New)"},"sourceNote":"","sourceOrganization":"","topics":[]},{"id":"DT.DOD.DLTO.CD.GG.AR.EA.US","name":"Ext. Assets in Debt Instruments, General Government, Long-term, Other debt instruments, USD","source":{"id":"22","value":"Quarterly External Debt Statistics\/SDDS (New)"},"sourceNote":"","sourceOrganization":"","topics":[]},{"id":"DT.DOD.DLTO.CD.GG.AR.BE.US","name":"Gross Ext. Debt Pos., General Government, Long-term, Other debt liabilities, Beginning of period, USD","source":{"id":"22","value":"Quarterly External Debt Statistics\/SDDS (New)"},"sourceNote":"","sourceOrganization":"","topics":[]},{"id":"DT.DOD.DLTO.CD.CB.AR.US","name":"Gross Ext. Debt Pos., Deposit-Taking Corp., exc. CB, Long-term, Other debt liabilities, USD","source":{"id":"22","value":"Quarterly External Debt Statistics\/SDDS (New)"},"sourceNote":"","sourceOrganization":"","topics":[]},{"id":"DT.DOD.DLTO.CD.CB.AR.TR.US","name":"Gross Ext. Debt Pos., Deposit-Taking Corp., exc. CB, Long-term, Other debt liabilities, Transactions, USD","source":{"id":"22","value":"Quarterly External Debt Statistics\/SDDS (New)"},"sourceNote":"","sourceOrganization":"","topics":[]},{"id":"DT.DOD.DLTO.CD.CB.AR.PX.US","name":"Gross Ext. Debt Pos., Deposit-Taking Corp., exc. CB, Long-term, Other debt liabilities, Other price chg, USD","source":{"id":"22","value":"Quarterly External Debt Statistics\/SDDS (New)"},"sourceNote":"","sourceOrganization":"","topics":[]},{"id":"DT.DOD.DLTO.CD.CB.AR.OC.US","name":"Gross Ext. Debt Pos., Deposit-Taking Corp., exc. CB, Long-term, Other debt liabilities, Other chg in vol., USD","source":{"id":"22","value":"Quarterly External Debt Statistics\/SDDS (New)"},"sourceNote":"","sourceOrganization":"","topics":[]},{"id":"DT.DOD.DLTO.CD.CB.AR.NE.US","name":"Net Ext. Debt Position, Deposit-Taking Corp., exc. CB, Long-term, Other debt instruments, USD","source":{"id":"22","value":"Quarterly External Debt Statistics\/SDDS (New)"},"sourceNote":"","sourceOrganization":"","topics":[]},{"id":"DT.DOD.DLTO.CD.CB.AR.GE.US","name":"Gross Ext. Debt Pos., Deposit-Taking Corp., exc. CB, Long-term, Other debt instruments, Beginning pos., USD","source":{"id":"22","value":"Quarterly External Debt Statistics\/SDDS (New)"},"sourceNote":"","sourceOrganization":"","topics":[]},{"id":"DT.DOD.DLTO.CD.CB.AR.EX.US","name":"Gross Ext. Debt Pos., Deposit-Taking Corp., exc. CB, Long-term, Other debt liabilities, Exchange rate chg, USD","source":{"id":"22","value":"Quarterly External Debt Statistics\/SDDS (New)"},"sourceNote":"","sourceOrganization":"","topics":[]},{"id":"DT.DOD.DLTO.CD.CB.AR.EN.US","name":"Gross Ext. Debt Pos., Deposit-Taking Corp., exc. CB, Long-term, Other debt liabilities, end of period, USD","source":{"id":"22","value":"Quarterly External Debt Statistics\/SDDS (New)"},"sourceNote":"","sourceOrganization":"","topics":[]},{"id":"DT.DOD.DLTO.CD.CB.AR.EA.US","name":"Ext. Assets in Debt Instruments, Deposit-Taking Corp., exc. CB, Long-term, Other debt instruments, USD","source":{"id":"22","value":"Quarterly External Debt Statistics\/SDDS (New)"},"sourceNote":"","sourceOrganization":"","topics":[]},{"id":"DT.DOD.DLTO.CD.CB.AR.BE.US","name":"Gross Ext. Debt Pos., Deposit-Taking Corp., exc. CB, Long-term, Other debt liabilities, Beginning of period, USD","source":{"id":"22","value":"Quarterly External Debt Statistics\/SDDS (New)"},"sourceNote":"","sourceOrganization":"","topics":[]},{"id":"DT.DOD.DLTL.CD.OT.AR.US","name":"Gross Ext. Debt Pos., Other Sectors, Long-term, Loans, USD","source":{"id":"22","value":"Quarterly External Debt Statistics\/SDDS (New)"},"sourceNote":"","sourceOrganization":"","topics":[]},{"id":"DT.DOD.DLTL.CD.OT.AR.TR.US","name":"Gross Ext. Debt Pos., Other Sectors, Long-term, Loans, Transactions, USD","source":{"id":"22","value":"Quarterly External Debt Statistics\/SDDS (New)"},"sourceNote":"","sourceOrganization":"","topics":[]},{"id":"DT.DOD.DLTL.CD.OT.AR.PX.US","name":"Gross Ext. Debt Pos., Other Sectors, Long-term, Loans, Other price chg, USD","source":{"id":"22","value":"Quarterly External Debt Statistics\/SDDS (New)"},"sourceNote":"","sourceOrganization":"","topics":[]},{"id":"DT.DOD.DLTL.CD.OT.AR.OC.US","name":"Gross Ext. Debt Pos., Other Sectors, Long-term, Loans, Other chg in vol., USD","source":{"id":"22","value":"Quarterly External Debt Statistics\/SDDS (New)"},"sourceNote":"","sourceOrganization":"","topics":[]},{"id":"DT.DOD.DLTL.CD.OT.AR.NE.US","name":"Net Ext. Debt Position, Other Sectors, Long-term, Loans, USD","source":{"id":"22","value":"Quarterly External Debt Statistics\/SDDS (New)"},"sourceNote":"","sourceOrganization":"","topics":[]},{"id":"DT.DOD.DLTL.CD.OT.AR.GE.US","name":"Gross Ext. Debt Pos., Other Sectors, Long-term, Loans, Beginning pos., USD","source":{"id":"22","value":"Quarterly External Debt Statistics\/SDDS (New)"},"sourceNote":"","sourceOrganization":"","topics":[]},{"id":"DT.DOD.DLTL.CD.OT.AR.EX.US","name":"Gross Ext. Debt Pos., Other Sectors, Long-term, Loans, Exchange rate chg, USD","source":{"id":"22","value":"Quarterly External Debt Statistics\/SDDS (New)"},"sourceNote":"","sourceOrganization":"","topics":[]},{"id":"DT.DOD.DLTL.CD.OT.AR.EN.US","name":"Gross Ext. Debt Pos., Other Sectors, Long-term, Loans, end of period, USD","source":{"id":"22","value":"Quarterly External Debt Statistics\/SDDS (New)"},"sourceNote":"","sourceOrganization":"","topics":[]},{"id":"DT.DOD.DLTL.CD.OT.AR.EA.US","name":"Ext. Assets in Debt Instruments, Other Sectors, Long-term, Loans, USD","source":{"id":"22","value":"Quarterly External Debt Statistics\/SDDS (New)"},"sourceNote":"","sourceOrganization":"","topics":[]},{"id":"DT.DOD.DLTL.CD.OT.AR.BE.US","name":"Gross Ext. Debt Pos., Other Sectors, Long-term, Loans, Beginning of period, USD","source":{"id":"22","value":"Quarterly External Debt Statistics\/SDDS (New)"},"sourceNote":"","sourceOrganization":"","topics":[]},{"id":"DT.DOD.DLTL.CD.OF.US","name":"Gross Ext. Debt Pos., Other financial corporations, Long-term, Loans, USD","source":{"id":"22","value":"Quarterly External Debt Statistics\/SDDS (New)"},"sourceNote":"","sourceOrganization":"","topics":[]},{"id":"DT.DOD.DLTL.CD.NC.US","name":"Gross Ext. Debt Pos., Nonfinancial corporations, Long-term, Loans, USD","source":{"id":"22","value":"Quarterly External Debt Statistics\/SDDS (New)"},"sourceNote":"","sourceOrganization":"","topics":[]},{"id":"DT.DOD.DLTL.CD.MA.AR.US","name":"Gross Ext. Debt Pos., Central Bank, Long-term, Loans, USD","source":{"id":"22","value":"Quarterly External Debt Statistics\/SDDS (New)"},"sourceNote":"","sourceOrganization":"","topics":[]},{"id":"DT.DOD.DLTL.CD.MA.AR.TR.US","name":"Gross Ext. Debt Pos., Central Bank, Long-term, Loans, Transactions, USD","source":{"id":"22","value":"Quarterly External Debt Statistics\/SDDS (New)"},"sourceNote":"","sourceOrganization":"","topics":[]},{"id":"DT.DOD.DLTL.CD.MA.AR.PX.US","name":"Gross Ext. Debt Pos., Central Bank, Long-term, Loans, Other price chg, USD","source":{"id":"22","value":"Quarterly External Debt Statistics\/SDDS (New)"},"sourceNote":"","sourceOrganization":"","topics":[]},{"id":"DT.DOD.DLTL.CD.MA.AR.OC.US","name":"Gross Ext. Debt Pos., Central Bank, Long-term, Loans, Other chg in vol., USD","source":{"id":"22","value":"Quarterly External Debt Statistics\/SDDS (New)"},"sourceNote":"","sourceOrganization":"","topics":[]},{"id":"DT.DOD.DLTL.CD.MA.AR.NE.US","name":"Net Ext. Debt Position, Central Bank, Long-term, Loans, USD","source":{"id":"22","value":"Quarterly External Debt Statistics\/SDDS (New)"},"sourceNote":"","sourceOrganization":"","topics":[]},{"id":"DT.DOD.DLTL.CD.MA.AR.GE.US","name":"Gross Ext. Debt Pos., Central Bank, Long-term, Loans, Beginning pos., USD","source":{"id":"22","value":"Quarterly External Debt Statistics\/SDDS (New)"},"sourceNote":"","sourceOrganization":"","topics":[]},{"id":"DT.DOD.DLTL.CD.MA.AR.EX.US","name":"Gross Ext. Debt Pos., Central Bank, Long-term, Loans, Exchange rate chg, USD","source":{"id":"22","value":"Quarterly External Debt Statistics\/SDDS (New)"},"sourceNote":"","sourceOrganization":"","topics":[]},{"id":"DT.DOD.DLTL.CD.MA.AR.EN.US","name":"Gross Ext. Debt Pos., Central Bank, Long-term, Loans, end of period, USD","source":{"id":"22","value":"Quarterly External Debt Statistics\/SDDS (New)"},"sourceNote":"","sourceOrganization":"","topics":[]},{"id":"DT.DOD.DLTL.CD.MA.AR.EA.US","name":"Ext. Assets in Debt Instruments, Central Bank, Long-term, Loans, USD","source":{"id":"22","value":"Quarterly External Debt Statistics\/SDDS (New)"},"sourceNote":"","sourceOrganization":"","topics":[]},{"id":"DT.DOD.DLTL.CD.MA.AR.BE.US","name":"Gross Ext. Debt Pos., Central Bank, Long-term, Loans, Beginning of period, USD","source":{"id":"22","value":"Quarterly External Debt Statistics\/SDDS (New)"},"sourceNote":"","sourceOrganization":"","topics":[]},{"id":"DT.DOD.DLTL.CD.HN.US","name":"Gross Ext. Debt Pos., HH and nonprofit institu. (NPISHs), Long-term, Loans, USD","source":{"id":"22","value":"Quarterly External Debt Statistics\/SDDS (New)"},"sourceNote":"","sourceOrganization":"","topics":[]},{"id":"DT.DOD.DLTL.CD.GG.AR.US","name":"Gross Ext. Debt Pos., General Government, Long-term, Loans, USD","source":{"id":"22","value":"Quarterly External Debt Statistics\/SDDS (New)"},"sourceNote":"","sourceOrganization":"","topics":[]},{"id":"DT.DOD.DLTL.CD.GG.AR.TR.US","name":"Gross Ext. Debt Pos., General Government, Long-term, Loans, Transactions, USD","source":{"id":"22","value":"Quarterly External Debt Statistics\/SDDS (New)"},"sourceNote":"","sourceOrganization":"","topics":[]},{"id":"DT.DOD.DLTL.CD.GG.AR.PX.US","name":"Gross Ext. Debt Pos., General Government, Long-term, Loans, Other price chg, USD","source":{"id":"22","value":"Quarterly External Debt Statistics\/SDDS (New)"},"sourceNote":"","sourceOrganization":"","topics":[]},{"id":"DT.DOD.DLTL.CD.GG.AR.OC.US","name":"Gross Ext. Debt Pos., General Government, Long-term, Loans, Other chg in vol., USD","source":{"id":"22","value":"Quarterly External Debt Statistics\/SDDS (New)"},"sourceNote":"","sourceOrganization":"","topics":[]},{"id":"DT.DOD.DLTL.CD.GG.AR.NE.US","name":"Net Ext. Debt Position, General Government, Long-term, Loans, USD","source":{"id":"22","value":"Quarterly External Debt Statistics\/SDDS (New)"},"sourceNote":"","sourceOrganization":"","topics":[]},{"id":"DT.DOD.DLTL.CD.GG.AR.GE.US","name":"Gross Ext. Debt Pos., General Government, Long-term, Loans, Beginning pos., USD","source":{"id":"22","value":"Quarterly External Debt Statistics\/SDDS (New)"},"sourceNote":"","sourceOrganization":"","topics":[]},{"id":"DT.DOD.DLTL.CD.GG.AR.EX.US","name":"Gross Ext. Debt Pos., General Government, Long-term, Loans, Exchange rate chg, USD","source":{"id":"22","value":"Quarterly External Debt Statistics\/SDDS (New)"},"sourceNote":"","sourceOrganization":"","topics":[]},{"id":"DT.DOD.DLTL.CD.GG.AR.EN.US","name":"Gross Ext. Debt Pos., General Government, Long-term, Loans, end of period, USD","source":{"id":"22","value":"Quarterly External Debt Statistics\/SDDS (New)"},"sourceNote":"","sourceOrganization":"","topics":[]},{"id":"DT.DOD.DLTL.CD.GG.AR.EA.US","name":"Ext. Assets in Debt Instruments, General Government, Long-term, Loans, USD","source":{"id":"22","value":"Quarterly External Debt Statistics\/SDDS (New)"},"sourceNote":"","sourceOrganization":"","topics":[{}]}]]