[{"page":24,"pages":324,"per_page":"50","total":16174},[{"id":"BAR.PRM.CMPT.2024.ZS","name":"Barro-Lee: Percentage of population age 20-24 with primary schooling. Completed Primary","source":{"id":"12","value":"Education Statistics"},"sourceNote":"Percentage of population age 20-24 with primary schooling. Completed Primary","sourceOrganization":"Robert J. Barro and Jong-Wha Lee: http:\/\/www.barrolee.com\/","topics":[{"id":"4","value":"Education "}]},{"id":"BAR.PRM.CMPT.2024.FE.ZS","name":"Barro-Lee: Percentage of female population age 20-24 with primary schooling. Completed Primary","source":{"id":"12","value":"Education Statistics"},"sourceNote":"Percentage of female population age 20-24 with primary schooling. Completed Primary","sourceOrganization":"Robert J. Barro and Jong-Wha Lee: http:\/\/www.barrolee.com\/","topics":[{"id":"4","value":"Education "}]},{"id":"BAR.PRM.CMPT.15UP.ZS","name":"Barro-Lee: Percentage of population age 15+ with primary schooling. Completed Primary","source":{"id":"12","value":"Education Statistics"},"sourceNote":"Percentage of population age 15+ with primary schooling. Completed Primary","sourceOrganization":"Robert J. Barro and Jong-Wha Lee: http:\/\/www.barrolee.com\/","topics":[{"id":"4","value":"Education "}]},{"id":"BAR.PRM.CMPT.15UP.FE.ZS","name":"Barro-Lee: Percentage of female population age 15+ with primary schooling. Completed Primary","source":{"id":"12","value":"Education Statistics"},"sourceNote":"Percentage of female population age 15+ with primary schooling. Completed Primary","sourceOrganization":"Robert J. Barro and Jong-Wha Lee: http:\/\/www.barrolee.com\/","topics":[{"id":"4","value":"Education "}]},{"id":"BAR.PRM.CMPT.1519.ZS","name":"Barro-Lee: Percentage of population age 15-19 with primary schooling. Completed Primary","source":{"id":"12","value":"Education Statistics"},"sourceNote":"Percentage of population age 15-19 with primary schooling. Completed Primary","sourceOrganization":"Robert J. Barro and Jong-Wha Lee: http:\/\/www.barrolee.com\/","topics":[{"id":"4","value":"Education "}]},{"id":"BAR.PRM.CMPT.1519.FE.ZS","name":"Barro-Lee: Percentage of female population age 15-19 with primary schooling. Completed Primary","source":{"id":"12","value":"Education Statistics"},"sourceNote":"Percentage of female population age 15-19 with primary schooling. Completed Primary","sourceOrganization":"Robert J. Barro and Jong-Wha Lee: http:\/\/www.barrolee.com\/","topics":[{"id":"4","value":"Education "}]},{"id":"BAR.POP.75UP.FE","name":"Barro-Lee: Population in thousands, age 75+, female","source":{"id":"12","value":"Education Statistics"},"sourceNote":"Population in thousands, age 75+, female is the female population over age 75 in thousands estimated by Barro-Lee.","sourceOrganization":"Robert J. Barro and Jong-Wha Lee: http:\/\/www.barrolee.com\/","topics":[]},{"id":"BAR.POP.75UP","name":"Barro-Lee: Population in thousands, age 75+, total","source":{"id":"12","value":"Education Statistics"},"sourceNote":"Population in thousands, age 75+, total is the total population over age 75 in thousands estimated by Barro-Lee.","sourceOrganization":"Robert J. Barro and Jong-Wha Lee: http:\/\/www.barrolee.com\/","topics":[]},{"id":"BAR.POP.7074.FE","name":"Barro-Lee: Population in thousands, age 70-74, female","source":{"id":"12","value":"Education Statistics"},"sourceNote":"Population in thousands, age 70-74, female is the female population of 70-74 year olds in thousands estimated by Barro-Lee.","sourceOrganization":"Robert J. Barro and Jong-Wha Lee: http:\/\/www.barrolee.com\/","topics":[]},{"id":"BAR.POP.7074","name":"Barro-Lee: Population in thousands, age 70-74, total","source":{"id":"12","value":"Education Statistics"},"sourceNote":"Population in thousands, age 70-74, total is the total population of 70-74 year olds in thousands estimated by Barro-Lee.","sourceOrganization":"Robert J. Barro and Jong-Wha Lee: http:\/\/www.barrolee.com\/","topics":[]},{"id":"BAR.POP.6569.FE","name":"Barro-Lee: Population in thousands, age 65-69, female","source":{"id":"12","value":"Education Statistics"},"sourceNote":"Population in thousands, age 65-69, female is the female population of 65-69 year olds in thousands estimated by Barro-Lee.","sourceOrganization":"Robert J. Barro and Jong-Wha Lee: http:\/\/www.barrolee.com\/","topics":[]},{"id":"BAR.POP.6569","name":"Barro-Lee: Population in thousands, age 65-69, total","source":{"id":"12","value":"Education Statistics"},"sourceNote":"Population in thousands, age 65-69, total is the total population of 65-69 year olds in thousands estimated by Barro-Lee.","sourceOrganization":"Robert J. Barro and Jong-Wha Lee: http:\/\/www.barrolee.com\/","topics":[]},{"id":"BAR.POP.6064.FE","name":"Barro-Lee: Population in thousands, age 60-64, female","source":{"id":"12","value":"Education Statistics"},"sourceNote":"Population in thousands, age 60-64, female is the female population of 60-64 year olds in thousands estimated by Barro-Lee.","sourceOrganization":"Robert J. Barro and Jong-Wha Lee: http:\/\/www.barrolee.com\/","topics":[{"id":"4","value":"Education "}]},{"id":"BAR.POP.6064","name":"Barro-Lee: Population in thousands, age 60-64, total","source":{"id":"12","value":"Education Statistics"},"sourceNote":"Population in thousands, age 60-64, total is the total population of 60-64 year olds in thousands estimated by Barro-Lee.","sourceOrganization":"Robert J. Barro and Jong-Wha Lee: http:\/\/www.barrolee.com\/","topics":[{"id":"4","value":"Education "}]},{"id":"BAR.POP.5559.FE","name":"Barro-Lee: Population in thousands, age 55-59, female","source":{"id":"12","value":"Education Statistics"},"sourceNote":"Population in thousands, age 55-59, female is the female population of 55-59 year olds in thousands estimated by Barro-Lee.","sourceOrganization":"Robert J. Barro and Jong-Wha Lee: http:\/\/www.barrolee.com\/","topics":[{"id":"4","value":"Education "}]},{"id":"BAR.POP.5559","name":"Barro-Lee: Population in thousands, age 55-59, total","source":{"id":"12","value":"Education Statistics"},"sourceNote":"Population in thousands, age 55-59, total is the total population of 55-59 year olds in thousands estimated by Barro-Lee.","sourceOrganization":"Robert J. Barro and Jong-Wha Lee: http:\/\/www.barrolee.com\/","topics":[{"id":"4","value":"Education "}]},{"id":"BAR.POP.5054.FE","name":"Barro-Lee: Population in thousands, age 50-54, female","source":{"id":"12","value":"Education Statistics"},"sourceNote":"Population in thousands, age 50-54, female is the female population of 50-54 year olds in thousands estimated by Barro-Lee.","sourceOrganization":"Robert J. Barro and Jong-Wha Lee: http:\/\/www.barrolee.com\/","topics":[{"id":"4","value":"Education "}]},{"id":"BAR.POP.5054","name":"Barro-Lee: Population in thousands, age 50-54, total","source":{"id":"12","value":"Education Statistics"},"sourceNote":"Population in thousands, age 50-54, total is the total population of 50-54 year olds in thousands estimated by Barro-Lee.","sourceOrganization":"Robert J. Barro and Jong-Wha Lee: http:\/\/www.barrolee.com\/","topics":[{"id":"4","value":"Education "}]},{"id":"BAR.POP.4549.FE","name":"Barro-Lee: Population in thousands, age 45-49, female","source":{"id":"12","value":"Education Statistics"},"sourceNote":"Population in thousands, age 45-49, female is the female population of 45-49 year olds in thousands estimated by Barro-Lee.","sourceOrganization":"Robert J. Barro and Jong-Wha Lee: http:\/\/www.barrolee.com\/","topics":[{"id":"4","value":"Education "}]},{"id":"BAR.POP.4549","name":"Barro-Lee: Population in thousands, age 45-49, total","source":{"id":"12","value":"Education Statistics"},"sourceNote":"Population in thousands, age 45-49, total is the total population of 45-49 year olds in thousands estimated by Barro-Lee.","sourceOrganization":"Robert J. Barro and Jong-Wha Lee: http:\/\/www.barrolee.com\/","topics":[{"id":"4","value":"Education "}]},{"id":"BAR.POP.4044.FE","name":"Barro-Lee: Population in thousands, age 40-44, female","source":{"id":"12","value":"Education Statistics"},"sourceNote":"Population in thousands, age 40-44, female is the female population of 40-44 year olds in thousands estimated by Barro-Lee.","sourceOrganization":"Robert J. Barro and Jong-Wha Lee: http:\/\/www.barrolee.com\/","topics":[{"id":"4","value":"Education "}]},{"id":"BAR.POP.4044","name":"Barro-Lee: Population in thousands, age 40-44, total","source":{"id":"12","value":"Education Statistics"},"sourceNote":"Population in thousands, age 40-44, total is the total population of 40-44 year olds in thousands estimated by Barro-Lee.","sourceOrganization":"Robert J. Barro and Jong-Wha Lee: http:\/\/www.barrolee.com\/","topics":[{"id":"4","value":"Education "}]},{"id":"BAR.POP.3539.FE","name":"Barro-Lee: Population in thousands, age 35-39, female","source":{"id":"12","value":"Education Statistics"},"sourceNote":"Population in thousands, age 35-39, female is the female population of 35-39 year olds in thousands estimated by Barro-Lee.","sourceOrganization":"Robert J. Barro and Jong-Wha Lee: http:\/\/www.barrolee.com\/","topics":[{"id":"4","value":"Education "}]},{"id":"BAR.POP.3539","name":"Barro-Lee: Population in thousands, age 35-39, total","source":{"id":"12","value":"Education Statistics"},"sourceNote":"Population in thousands, age 35-39, total is the total population of 35-39 year olds in thousands estimated by Barro-Lee.","sourceOrganization":"Robert J. Barro and Jong-Wha Lee: http:\/\/www.barrolee.com\/","topics":[{"id":"4","value":"Education "}]},{"id":"BAR.POP.3034.FE","name":"Barro-Lee: Population in thousands, age 30-34, female","source":{"id":"12","value":"Education Statistics"},"sourceNote":"Population in thousands, age 30-34, female is the female population of 30-34 year olds in thousands estimated by Barro-Lee.","sourceOrganization":"Robert J. Barro and Jong-Wha Lee: http:\/\/www.barrolee.com\/","topics":[{"id":"4","value":"Education "}]},{"id":"BAR.POP.3034","name":"Barro-Lee: Population in thousands, age 30-34, total","source":{"id":"12","value":"Education Statistics"},"sourceNote":"Population in thousands, age 30-34, total is the total population of 30-34 year olds in thousands estimated by Barro-Lee.","sourceOrganization":"Robert J. Barro and Jong-Wha Lee: http:\/\/www.barrolee.com\/","topics":[{"id":"4","value":"Education "}]},{"id":"BAR.POP.25UP.FE","name":"Barro-Lee: Population in thousands, age 25+, female","source":{"id":"12","value":"Education Statistics"},"sourceNote":"Population in thousands, age 25+, female is the female population over age 25 in thousands estimated by Barro-Lee.","sourceOrganization":"Robert J. Barro and Jong-Wha Lee: http:\/\/www.barrolee.com\/","topics":[{"id":"4","value":"Education "}]},{"id":"BAR.POP.25UP","name":"Barro-Lee: Population in thousands, age 25+, total","source":{"id":"12","value":"Education Statistics"},"sourceNote":"Population in thousands, age 25+, total is the total population over age 25 in thousands estimated by Barro-Lee.","sourceOrganization":"Robert J. Barro and Jong-Wha Lee: http:\/\/www.barrolee.com\/","topics":[{"id":"4","value":"Education "}]},{"id":"BAR.POP.2529.FE","name":"Barro-Lee: Population in thousands, age 25-29, female","source":{"id":"12","value":"Education Statistics"},"sourceNote":"Population in thousands, age 25-29, female is the female population of 25-29 year olds in thousands estimated by Barro-Lee.","sourceOrganization":"Robert J. Barro and Jong-Wha Lee: http:\/\/www.barrolee.com\/","topics":[{"id":"4","value":"Education "}]},{"id":"BAR.POP.2529","name":"Barro-Lee: Population in thousands, age 25-29, total","source":{"id":"12","value":"Education Statistics"},"sourceNote":"Population in thousands, age 25-29, total is the total population of 25-29 year olds in thousands estimated by Barro-Lee.","sourceOrganization":"Robert J. Barro and Jong-Wha Lee: http:\/\/www.barrolee.com\/","topics":[{"id":"4","value":"Education "}]},{"id":"BAR.POP.2024.FE","name":"Barro-Lee: Population in thousands, age 20-24, female","source":{"id":"12","value":"Education Statistics"},"sourceNote":"Population in thousands, age 20-24, female is the female population of 20-24 year olds in thousands estimated by Barro-Lee.","sourceOrganization":"Robert J. Barro and Jong-Wha Lee: http:\/\/www.barrolee.com\/","topics":[{"id":"4","value":"Education "}]},{"id":"BAR.POP.2024","name":"Barro-Lee: Population in thousands, age 20-24, total","source":{"id":"12","value":"Education Statistics"},"sourceNote":"Population in thousands, age 20-24, total is the total population of 20-24 year olds in thousands estimated by Barro-Lee.","sourceOrganization":"Robert J. Barro and Jong-Wha Lee: http:\/\/www.barrolee.com\/","topics":[{"id":"4","value":"Education "}]},{"id":"BAR.POP.15UP.FE","name":"Barro-Lee: Population in thousands, age 15+, female","source":{"id":"12","value":"Education Statistics"},"sourceNote":"Population in thousands, age 15+, female is the female population over age 15 in thousands estimated by Barro-Lee.","sourceOrganization":"Robert J. Barro and Jong-Wha Lee: http:\/\/www.barrolee.com\/","topics":[{"id":"4","value":"Education "}]},{"id":"BAR.POP.15UP","name":"Barro-Lee: Population in thousands, age 15+, total","source":{"id":"12","value":"Education Statistics"},"sourceNote":"Population in thousands, age 15+, total is the total population over age 15 in thousands estimated by Barro-Lee.","sourceOrganization":"Robert J. Barro and Jong-Wha Lee: http:\/\/www.barrolee.com\/","topics":[{"id":"4","value":"Education "}]},{"id":"BAR.POP.1519.FE","name":"Barro-Lee: Population in thousands, age 15-19, female","source":{"id":"12","value":"Education Statistics"},"sourceNote":"Population in thousands, age 15-19, female is the female population of 15-19 year olds in thousands estimated by Barro-Lee.","sourceOrganization":"Robert J. Barro and Jong-Wha Lee: http:\/\/www.barrolee.com\/","topics":[{"id":"4","value":"Education "}]},{"id":"BAR.POP.1519","name":"Barro-Lee: Population in thousands, age 15-19, total","source":{"id":"12","value":"Education Statistics"},"sourceNote":"Population in thousands, age 15-19, total is the total population of 15-19 year olds in thousands estimated by Barro-Lee.","sourceOrganization":"Robert J. Barro and Jong-Wha Lee: http:\/\/www.barrolee.com\/","topics":[{"id":"4","value":"Education "}]},{"id":"BAR.NOED.75UP.ZS","name":"Barro-Lee: Percentage of population age 75+ with no education","source":{"id":"12","value":"Education Statistics"},"sourceNote":"Percentage of population age 75+ with no education","sourceOrganization":"Robert J. Barro and Jong-Wha Lee: http:\/\/www.barrolee.com\/","topics":[]},{"id":"BAR.NOED.75UP.FE.ZS","name":"Barro-Lee: Percentage of female population age 75+ with no education","source":{"id":"12","value":"Education Statistics"},"sourceNote":"Percentage of female population age 75+ with no education","sourceOrganization":"Robert J. Barro and Jong-Wha Lee: http:\/\/www.barrolee.com\/","topics":[]},{"id":"BAR.NOED.7074.ZS","name":"Barro-Lee: Percentage of population age 70-74 with no education","source":{"id":"12","value":"Education Statistics"},"sourceNote":"Percentage of population age 70-74 with no education","sourceOrganization":"Robert J. Barro and Jong-Wha Lee: http:\/\/www.barrolee.com\/","topics":[]},{"id":"BAR.NOED.7074.FE.ZS","name":"Barro-Lee: Percentage of female population age 70-74 with no education","source":{"id":"12","value":"Education Statistics"},"sourceNote":"Percentage of female population age 70-74 with no education","sourceOrganization":"Robert J. Barro and Jong-Wha Lee: http:\/\/www.barrolee.com\/","topics":[]},{"id":"BAR.NOED.6569.ZS","name":"Barro-Lee: Percentage of population age 65-69 with no education","source":{"id":"12","value":"Education Statistics"},"sourceNote":"Percentage of population age 65-69 with no education","sourceOrganization":"Robert J. Barro and Jong-Wha Lee: http:\/\/www.barrolee.com\/","topics":[]},{"id":"BAR.NOED.6569.FE.ZS","name":"Barro-Lee: Percentage of female population age 65-69 with no education","source":{"id":"12","value":"Education Statistics"},"sourceNote":"Percentage of female population age 65-69 with no education","sourceOrganization":"Robert J. Barro and Jong-Wha Lee: http:\/\/www.barrolee.com\/","topics":[]},{"id":"BAR.NOED.6064.ZS","name":"Barro-Lee: Percentage of population age 60-64 with no education","source":{"id":"12","value":"Education Statistics"},"sourceNote":"Percentage of population age 60-64 with no education","sourceOrganization":"Robert J. Barro and Jong-Wha Lee: http:\/\/www.barrolee.com\/","topics":[{"id":"4","value":"Education "}]},{"id":"BAR.NOED.6064.FE.ZS","name":"Barro-Lee: Percentage of female population age 60-64 with no education","source":{"id":"12","value":"Education Statistics"},"sourceNote":"Percentage of female population age 60-64 with no education","sourceOrganization":"Robert J. Barro and Jong-Wha Lee: http:\/\/www.barrolee.com\/","topics":[{"id":"4","value":"Education "}]},{"id":"BAR.NOED.5559.ZS","name":"Barro-Lee: Percentage of population age 55-59 with no education","source":{"id":"12","value":"Education Statistics"},"sourceNote":"Percentage of population age 55-59 with no education","sourceOrganization":"Robert J. Barro and Jong-Wha Lee: http:\/\/www.barrolee.com\/","topics":[{"id":"4","value":"Education "}]},{"id":"BAR.NOED.5559.FE.ZS","name":"Barro-Lee: Percentage of female population age 55-59 with no education","source":{"id":"12","value":"Education Statistics"},"sourceNote":"Percentage of female population age 55-59 with no education","sourceOrganization":"Robert J. Barro and Jong-Wha Lee: http:\/\/www.barrolee.com\/","topics":[{"id":"4","value":"Education "}]},{"id":"BAR.NOED.5054.ZS","name":"Barro-Lee: Percentage of population age 50-54 with no education","source":{"id":"12","value":"Education Statistics"},"sourceNote":"Percentage of population age 50-54 with no education","sourceOrganization":"Robert J. Barro and Jong-Wha Lee: http:\/\/www.barrolee.com\/","topics":[{"id":"4","value":"Education "}]},{"id":"BAR.NOED.5054.FE.ZS","name":"Barro-Lee: Percentage of female population age 50-54 with no education","source":{"id":"12","value":"Education Statistics"},"sourceNote":"Percentage of female population age 50-54 with no education","sourceOrganization":"Robert J. Barro and Jong-Wha Lee: http:\/\/www.barrolee.com\/","topics":[{"id":"4","value":"Education "}]},{"id":"BAR.NOED.4549.ZS","name":"Barro-Lee: Percentage of population age 45-49 with no education","source":{"id":"12","value":"Education Statistics"},"sourceNote":"Percentage of population age 45-49 with no education","sourceOrganization":"Robert J. Barro and Jong-Wha Lee: http:\/\/www.barrolee.com\/","topics":[{"id":"4","value":"Education "}]},{"id":"BAR.NOED.4549.FE.ZS","name":"Barro-Lee: Percentage of female population age 45-49 with no education","source":{"id":"12","value":"Education Statistics"},"sourceNote":"Percentage of female population age 45-49 with no education","sourceOrganization":"Robert J. Barro and Jong-Wha Lee: http:\/\/www.barrolee.com\/","topics":[{"id":"4","value":"Education "}]}]]