[{"page":245,"pages":324,"per_page":"50","total":16174},[{"id":"SABER.PRVT.GOAL4.LVL3","name":"SABER: (Engaging the Private Sector) Policy Goal 4 Level 3: Certification standards","source":{"id":"12","value":"Education Statistics"},"sourceNote":"Data Read: 1=Latent; 2=Emerging; 3Established; 4=Advanced","sourceOrganization":"The Systems Approach for Better Education Results (SABER), World Bank","topics":[]},{"id":"SABER.PRVT.GOAL4.LVL2","name":"SABER: (Engaging the Private Sector) Policy Goal 4 Level 2: Ownership","source":{"id":"12","value":"Education Statistics"},"sourceNote":"Data Read: 1=Latent; 2=Emerging; 3Established; 4=Advanced","sourceOrganization":"The Systems Approach for Better Education Results (SABER), World Bank","topics":[]},{"id":"SABER.PRVT.GOAL4.LVL1","name":"SABER: (Engaging the Private Sector) Policy Goal 4 Level 1: Tuition fees","source":{"id":"12","value":"Education Statistics"},"sourceNote":"Data Read: 1=Latent; 2=Emerging; 3Established; 4=Advanced","sourceOrganization":"The Systems Approach for Better Education Results (SABER), World Bank","topics":[]},{"id":"SABER.PRVT.GOAL4","name":"SABER: (Engaging the Private Sector) Policy Goal 4: Promoting diversity of supply","source":{"id":"12","value":"Education Statistics"},"sourceNote":"Data Read: 1=Latent; 2=Emerging; 3Established; 4=Advanced","sourceOrganization":"The Systems Approach for Better Education Results (SABER), World Bank","topics":[]},{"id":"SABER.PRVT.GOAL3.LVL3","name":"SABER: (Engaging the Private Sector) Policy Goal 3 Level 3: Financial Support","source":{"id":"12","value":"Education Statistics"},"sourceNote":"Data Read: 1=Latent; 2=Emerging; 3Established; 4=Advanced","sourceOrganization":"The Systems Approach for Better Education Results (SABER), World Bank","topics":[]},{"id":"SABER.PRVT.GOAL3.LVL2","name":"SABER: (Engaging the Private Sector) Policy Goal 3 Level 2: Voice","source":{"id":"12","value":"Education Statistics"},"sourceNote":"Data Read: 1=Latent; 2=Emerging; 3Established; 4=Advanced","sourceOrganization":"The Systems Approach for Better Education Results (SABER), World Bank","topics":[]},{"id":"SABER.PRVT.GOAL3.LVL1","name":"SABER: (Engaging the Private Sector) Policy Goal 3 Level 1: Information","source":{"id":"12","value":"Education Statistics"},"sourceNote":"Data Read: 1=Latent; 2=Emerging; 3Established; 4=Advanced","sourceOrganization":"The Systems Approach for Better Education Results (SABER), World Bank","topics":[]},{"id":"SABER.PRVT.GOAL3","name":"SABER: (Engaging the Private Sector) Policy Goal 3: Empowering all parents, students, and communities","source":{"id":"12","value":"Education Statistics"},"sourceNote":"Data Read: 1=Latent; 2=Emerging; 3Established; 4=Advanced","sourceOrganization":"The Systems Approach for Better Education Results (SABER), World Bank","topics":[]},{"id":"SABER.PRVT.GOAL2.LVL5","name":"SABER: (Engaging the Private Sector) Policy Goal 2 Level 5: Sanctions","source":{"id":"12","value":"Education Statistics"},"sourceNote":"Data Read: 1=Latent; 2=Emerging; 3Established; 4=Advanced","sourceOrganization":"The Systems Approach for Better Education Results (SABER), World Bank","topics":[]},{"id":"SABER.PRVT.GOAL2.LVL4","name":"SABER: (Engaging the Private Sector) Policy Goal 2 Level 4: Improvement planning ","source":{"id":"12","value":"Education Statistics"},"sourceNote":"Data Read: 1=Latent; 2=Emerging; 3Established; 4=Advanced","sourceOrganization":"The Systems Approach for Better Education Results (SABER), World Bank","topics":[]},{"id":"SABER.PRVT.GOAL2.LVL3","name":"SABER: (Engaging the Private Sector) Policy Goal 2 Level 3: Inspection","source":{"id":"12","value":"Education Statistics"},"sourceNote":"Data Read: 1=Latent; 2=Emerging; 3Established; 4=Advanced","sourceOrganization":"The Systems Approach for Better Education Results (SABER), World Bank","topics":[]},{"id":"SABER.PRVT.GOAL2.LVL2","name":"SABER: (Engaging the Private Sector) Policy Goal 2 Level 2: Student assessment","source":{"id":"12","value":"Education Statistics"},"sourceNote":"Data Read: 1=Latent; 2=Emerging; 3Established; 4=Advanced","sourceOrganization":"The Systems Approach for Better Education Results (SABER), World Bank","topics":[]},{"id":"SABER.PRVT.GOAL2.LVL1","name":"SABER: (Engaging the Private Sector) Policy Goal 2 Level 1: Student standards","source":{"id":"12","value":"Education Statistics"},"sourceNote":"Data Read: 1=Latent; 2=Emerging; 3Established; 4=Advanced","sourceOrganization":"The Systems Approach for Better Education Results (SABER), World Bank","topics":[]},{"id":"SABER.PRVT.GOAL2","name":"SABER: (Engaging the Private Sector) Policy Goal 2: Holding schools accountable","source":{"id":"12","value":"Education Statistics"},"sourceNote":"Data Read: 1=Latent; 2=Emerging; 3Established; 4=Advanced","sourceOrganization":"The Systems Approach for Better Education Results (SABER), World Bank","topics":[]},{"id":"SABER.PRVT.GOAL1.LVL6","name":"SABER: (Engaging the Private Sector) Policy Goal 1 Level 6: Classroom resourcing","source":{"id":"12","value":"Education Statistics"},"sourceNote":"Data Read: 1=Latent; 2=Emerging; 3Established; 4=Advanced","sourceOrganization":"The Systems Approach for Better Education Results (SABER), World Bank","topics":[]},{"id":"SABER.PRVT.GOAL1.LVL5","name":"SABER: (Engaging the Private Sector) Policy Goal 1 Level 5: Curriculum Delivery","source":{"id":"12","value":"Education Statistics"},"sourceNote":"Data Read: 1=Latent; 2=Emerging; 3Established; 4=Advanced","sourceOrganization":"The Systems Approach for Better Education Results (SABER), World Bank","topics":[]},{"id":"SABER.PRVT.GOAL1.LVL4","name":"SABER: (Engaging the Private Sector) Policy Goal 1 Level 4: Teacher dismissal","source":{"id":"12","value":"Education Statistics"},"sourceNote":"Data Read: 1=Latent; 2=Emerging; 3Established; 4=Advanced","sourceOrganization":"The Systems Approach for Better Education Results (SABER), World Bank","topics":[]},{"id":"SABER.PRVT.GOAL1.LVL3","name":"SABER: (Engaging the Private Sector) Policy Goal 1 Level 3: Teacher salaries","source":{"id":"12","value":"Education Statistics"},"sourceNote":"Data Read: 1=Latent; 2=Emerging; 3Established; 4=Advanced","sourceOrganization":"The Systems Approach for Better Education Results (SABER), World Bank","topics":[]},{"id":"SABER.PRVT.GOAL1.LVL2","name":"SABER: (Engaging the Private Sector) Policy Goal 1 Level 2: Teacher appointment and deployment","source":{"id":"12","value":"Education Statistics"},"sourceNote":"Data Read: 1=Latent; 2=Emerging; 3Established; 4=Advanced","sourceOrganization":"The Systems Approach for Better Education Results (SABER), World Bank","topics":[]},{"id":"SABER.PRVT.GOAL1.LVL1","name":"SABER: (Engaging the Private Sector) Policy Goal 1 Level 1: Teacher standards","source":{"id":"12","value":"Education Statistics"},"sourceNote":"Data Read: 1=Latent; 2=Emerging; 3Established; 4=Advanced","sourceOrganization":"The Systems Approach for Better Education Results (SABER), World Bank","topics":[]},{"id":"SABER.PRVT.GOAL1","name":"SABER: (Engaging the Private Sector) Policy Goal 1: Encouraging innovation by providers","source":{"id":"12","value":"Education Statistics"},"sourceNote":"Data Read: 1=Latent; 2=Emerging; 3Established; 4=Advanced","sourceOrganization":"The Systems Approach for Better Education Results (SABER), World Bank","topics":[]},{"id":"SABER.HLTH.GOAL9","name":"SABER: (School Health and School Feeding) Policy Goal 9: Skills-Based Health Education","source":{"id":"12","value":"Education Statistics"},"sourceNote":"Data Read: 1=Latent; 2=Emerging; 3Established; 4=Advanced","sourceOrganization":"The Systems Approach for Better Education Results (SABER), World Bank","topics":[]},{"id":"SABER.HLTH.GOAL8","name":"SABER: (School Health and School Feeding) Policy Goal 8: School-Based Health and Nutrition Services","source":{"id":"12","value":"Education Statistics"},"sourceNote":"Data Read: 1=Latent; 2=Emerging; 3Established; 4=Advanced","sourceOrganization":"The Systems Approach for Better Education Results (SABER), World Bank","topics":[]},{"id":"SABER.HLTH.GOAL7","name":"SABER: (School Health and School Feeding) Policy Goal 7: Safe, Supportive School Environments","source":{"id":"12","value":"Education Statistics"},"sourceNote":"Data Read: 1=Latent; 2=Emerging; 3Established; 4=Advanced","sourceOrganization":"The Systems Approach for Better Education Results (SABER), World Bank","topics":[]},{"id":"SABER.HLTH.GOAL6","name":"SABER: (School Health and School Feeding) Policy Goal 6: Health-related school policies","source":{"id":"12","value":"Education Statistics"},"sourceNote":"Data Read: 1=Latent; 2=Emerging; 3Established; 4=Advanced","sourceOrganization":"The Systems Approach for Better Education Results (SABER), World Bank","topics":[]},{"id":"SABER.HLTH.GOAL5","name":"SABER: (School Health and School Feeding) Policy Goal 5: Community Roles–Reaching Beyond Schools","source":{"id":"12","value":"Education Statistics"},"sourceNote":"Data Read: 1=Latent; 2=Emerging; 3Established; 4=Advanced","sourceOrganization":"The Systems Approach for Better Education Results (SABER), World Bank","topics":[]},{"id":"SABER.HLTH.GOAL4","name":"SABER: (School Health and School Feeding) Policy Goal 4: Design and Implementation","source":{"id":"12","value":"Education Statistics"},"sourceNote":"Data Read: 1=Latent; 2=Emerging; 3Established; 4=Advanced","sourceOrganization":"The Systems Approach for Better Education Results (SABER), World Bank","topics":[]},{"id":"SABER.HLTH.GOAL3","name":"SABER: (School Health and School Feeding) Policy Goal 3: Institutional Capacity and Coordination","source":{"id":"12","value":"Education Statistics"},"sourceNote":"Data Read: 1=Latent; 2=Emerging; 3Established; 4=Advanced","sourceOrganization":"The Systems Approach for Better Education Results (SABER), World Bank","topics":[]},{"id":"SABER.HLTH.GOAL2","name":"SABER: (School Health and School Feeding) Policy Goal 2: Financial Capacity","source":{"id":"12","value":"Education Statistics"},"sourceNote":"Data Read: 1=Latent; 2=Emerging; 3Established; 4=Advanced","sourceOrganization":"The Systems Approach for Better Education Results (SABER), World Bank","topics":[]},{"id":"SABER.HLTH.GOAL1","name":"SABER: (School Health and School Feeding) Policy Goal 1: Policy Frameworks","source":{"id":"12","value":"Education Statistics"},"sourceNote":"Data Read: 1=Latent; 2=Emerging; 3Established; 4=Advanced","sourceOrganization":"The Systems Approach for Better Education Results (SABER), World Bank","topics":[]},{"id":"SABER.ERL.CHLD.GOAL3.LVL3","name":"SABER: (Early Childhood Development) Policy Goal 3 Lever 3: Compliance with Standards","source":{"id":"12","value":"Education Statistics"},"sourceNote":"Data Read: 1=Latent; 2=Emerging; 3Established; 4=Advanced","sourceOrganization":"The Systems Approach for Better Education Results (SABER), World Bank","topics":[]},{"id":"SABER.ERL.CHLD.GOAL3.LVL2","name":"SABER: (Early Childhood Development) Policy Goal 3 Lever 2: Quality Standards","source":{"id":"12","value":"Education Statistics"},"sourceNote":"Data Read: 1=Latent; 2=Emerging; 3Established; 4=Advanced","sourceOrganization":"The Systems Approach for Better Education Results (SABER), World Bank","topics":[]},{"id":"SABER.ERL.CHLD.GOAL3.LVL1","name":"SABER: (Early Childhood Development) Policy Goal 3 Lever 1: Data Availability","source":{"id":"12","value":"Education Statistics"},"sourceNote":"Data Read: 1=Latent; 2=Emerging; 3Established; 4=Advanced","sourceOrganization":"The Systems Approach for Better Education Results (SABER), World Bank","topics":[]},{"id":"SABER.ERL.CHLD.GOAL3","name":"SABER: (Early Childhood Development) Policy Goal 3: Monitoring and Assuring Quality","source":{"id":"12","value":"Education Statistics"},"sourceNote":"Data Read: 1=Latent; 2=Emerging; 3Established; 4=Advanced","sourceOrganization":"The Systems Approach for Better Education Results (SABER), World Bank","topics":[]},{"id":"SABER.ERL.CHLD.GOAL2.LVL3","name":"SABER: (Early Childhood Development) Policy Goal 2 Lever 3: Equity","source":{"id":"12","value":"Education Statistics"},"sourceNote":"Data Read: 1=Latent; 2=Emerging; 3Established; 4=Advanced","sourceOrganization":"The Systems Approach for Better Education Results (SABER), World Bank","topics":[]},{"id":"SABER.ERL.CHLD.GOAL2.LVL2","name":"SABER: (Early Childhood Development) Policy Goal 2 Lever 2: Coverage","source":{"id":"12","value":"Education Statistics"},"sourceNote":"Data Read: 1=Latent; 2=Emerging; 3Established; 4=Advanced","sourceOrganization":"The Systems Approach for Better Education Results (SABER), World Bank","topics":[]},{"id":"SABER.ERL.CHLD.GOAL2.LVL1","name":"SABER: (Early Childhood Development) Policy Goal 2 Lever 1: Scope of Programs","source":{"id":"12","value":"Education Statistics"},"sourceNote":"Data Read: 1=Latent; 2=Emerging; 3Established; 4=Advanced","sourceOrganization":"The Systems Approach for Better Education Results (SABER), World Bank","topics":[]},{"id":"SABER.ERL.CHLD.GOAL2","name":"SABER: (Early Childhood Development) Policy Goal 2: Scope of Programs","source":{"id":"12","value":"Education Statistics"},"sourceNote":"Data Read: 1=Latent; 2=Emerging; 3Established; 4=Advanced","sourceOrganization":"The Systems Approach for Better Education Results (SABER), World Bank","topics":[]},{"id":"SABER.ERL.CHLD.GOAL1.LVL3","name":"SABER: (Early Childhood Development) Policy Goal 1 Lever 3: Finance","source":{"id":"12","value":"Education Statistics"},"sourceNote":"Data Read: 1=Latent; 2=Emerging; 3Established; 4=Advanced","sourceOrganization":"The Systems Approach for Better Education Results (SABER), World Bank","topics":[]},{"id":"SABER.ERL.CHLD.GOAL1.LVL2","name":"SABER: (Early Childhood Development) Policy Goal 1 Lever 2: Inter-sectoral Coordination","source":{"id":"12","value":"Education Statistics"},"sourceNote":"Data Read: 1=Latent; 2=Emerging; 3Established; 4=Advanced","sourceOrganization":"The Systems Approach for Better Education Results (SABER), World Bank","topics":[]},{"id":"SABER.ERL.CHLD.GOAL1.LVL1","name":"SABER: (Early Childhood Development) Policy Goal 1 Lever 1: Legal Framework","source":{"id":"12","value":"Education Statistics"},"sourceNote":"Data Read: 1=Latent; 2=Emerging; 3Established; 4=Advanced","sourceOrganization":"The Systems Approach for Better Education Results (SABER), World Bank","topics":[]},{"id":"SABER.ERL.CHLD.GOAL1","name":"SABER: (Early Childhood Development) Policy Goal 1: Establishing an Enabling Environment","source":{"id":"12","value":"Education Statistics"},"sourceNote":"Data Read: 1=Latent; 2=Emerging; 3Established; 4=Advanced","sourceOrganization":"The Systems Approach for Better Education Results (SABER), World Bank","topics":[]},{"id":"SABER.EMIS.GOAL4.LVL4","name":"SABER: (Education Management Information Systems) Policy Goal 4 Level 4: Effectiveness in Disseminating Findings","source":{"id":"12","value":"Education Statistics"},"sourceNote":"Data Read: 1=Latent; 2=Emerging; 3Established; 4=Advanced","sourceOrganization":"The Systems Approach for Better Education Results (SABER), World Bank","topics":[]},{"id":"SABER.EMIS.GOAL4.LVL3","name":"SABER: (Education Management Information Systems) Policy Goal 4 Level 3: Accessibility","source":{"id":"12","value":"Education Statistics"},"sourceNote":"Data Read: 1=Latent; 2=Emerging; 3Established; 4=Advanced","sourceOrganization":"The Systems Approach for Better Education Results (SABER), World Bank","topics":[]},{"id":"SABER.EMIS.GOAL4.LVL2","name":"SABER: (Education Management Information Systems) Policy Goal 4 Level 2: Operational Use","source":{"id":"12","value":"Education Statistics"},"sourceNote":"Data Read: 1=Latent; 2=Emerging; 3Established; 4=Advanced","sourceOrganization":"The Systems Approach for Better Education Results (SABER), World Bank","topics":[]},{"id":"SABER.EMIS.GOAL4.LVL1","name":"SABER: (Education Management Information Systems) Policy Goal 4 Level 1: Openness","source":{"id":"12","value":"Education Statistics"},"sourceNote":"Data Read: 1=Latent; 2=Emerging; 3Established; 4=Advanced","sourceOrganization":"The Systems Approach for Better Education Results (SABER), World Bank","topics":[]},{"id":"SABER.EMIS.GOAL4","name":"SABER: (Education Management Information Systems) Policy Goal 4: Utilization in decision making","source":{"id":"12","value":"Education Statistics"},"sourceNote":"Data Read: 1=Latent; 2=Emerging; 3Established; 4=Advanced","sourceOrganization":"The Systems Approach for Better Education Results (SABER), World Bank","topics":[]},{"id":"SABER.EMIS.GOAL3.LVL4","name":"SABER: (Education Management Information Systems) Policy Goal 3 Level 4: Periodicity and Timeliness","source":{"id":"12","value":"Education Statistics"},"sourceNote":"Data Read: 1=Latent; 2=Emerging; 3Established; 4=Advanced","sourceOrganization":"The Systems Approach for Better Education Results (SABER), World Bank","topics":[]},{"id":"SABER.EMIS.GOAL3.LVL3","name":"SABER: (Education Management Information Systems) Policy Goal 3 Level 3: Integrity","source":{"id":"12","value":"Education Statistics"},"sourceNote":"Data Read: 1=Latent; 2=Emerging; 3Established; 4=Advanced","sourceOrganization":"The Systems Approach for Better Education Results (SABER), World Bank","topics":[]},{"id":"SABER.EMIS.GOAL3.LVL2","name":"SABER: (Education Management Information Systems) Policy Goal 3 Level 2: Accuracy and Reliability","source":{"id":"12","value":"Education Statistics"},"sourceNote":"Data Read: 1=Latent; 2=Emerging; 3Established; 4=Advanced","sourceOrganization":"The Systems Approach for Better Education Results (SABER), World Bank","topics":[{}]}]]