[{"page":29,"pages":324,"per_page":"50","total":16174},[{"id":"BAR.TER.ICMP.4044.ZS","name":"Barro-Lee: Percentage of population age 40-44 with tertiary schooling. Total (Incomplete and Completed Tertiary)","source":{"id":"12","value":"Education Statistics"},"sourceNote":"Percentage of population age 40-44 with tertiary schooling. Total (Incomplete and Completed Tertiary)","sourceOrganization":"Robert J. Barro and Jong-Wha Lee: http:\/\/www.barrolee.com\/","topics":[{"id":"4","value":"Education "}]},{"id":"BAR.TER.ICMP.4044.FE.ZS","name":"Barro-Lee: Percentage of female population age 40-44 with tertiary schooling. Total (Incomplete and Completed Tertiary)","source":{"id":"12","value":"Education Statistics"},"sourceNote":"Percentage of female population age 40-44 with tertiary schooling. Total (Incomplete and Completed Tertiary)","sourceOrganization":"Robert J. Barro and Jong-Wha Lee: http:\/\/www.barrolee.com\/","topics":[{"id":"4","value":"Education "}]},{"id":"BAR.TER.ICMP.3539.ZS","name":"Barro-Lee: Percentage of population age 35-39 with tertiary schooling. Total (Incomplete and Completed Tertiary)","source":{"id":"12","value":"Education Statistics"},"sourceNote":"Percentage of population age 35-39 with tertiary schooling. Total (Incomplete and Completed Tertiary)","sourceOrganization":"Robert J. Barro and Jong-Wha Lee: http:\/\/www.barrolee.com\/","topics":[{"id":"4","value":"Education "}]},{"id":"BAR.TER.ICMP.3539.FE.ZS","name":"Barro-Lee: Percentage of female population age 35-39 with tertiary schooling. Total (Incomplete and Completed Tertiary)","source":{"id":"12","value":"Education Statistics"},"sourceNote":"Percentage of female population age 35-39 with tertiary schooling. Total (Incomplete and Completed Tertiary)","sourceOrganization":"Robert J. Barro and Jong-Wha Lee: http:\/\/www.barrolee.com\/","topics":[{"id":"4","value":"Education "}]},{"id":"BAR.TER.ICMP.3034.ZS","name":"Barro-Lee: Percentage of population age 30-34 with tertiary schooling. Total (Incomplete and Completed Tertiary)","source":{"id":"12","value":"Education Statistics"},"sourceNote":"Percentage of population age 30-34 with tertiary schooling. Total (Incomplete and Completed Tertiary)","sourceOrganization":"Robert J. Barro and Jong-Wha Lee: http:\/\/www.barrolee.com\/","topics":[{"id":"4","value":"Education "}]},{"id":"BAR.TER.ICMP.3034.FE.ZS","name":"Barro-Lee: Percentage of female population age 30-34 with tertiary schooling. Total (Incomplete and Completed Tertiary)","source":{"id":"12","value":"Education Statistics"},"sourceNote":"Percentage of female population age 30-34 with tertiary schooling. Total (Incomplete and Completed Tertiary)","sourceOrganization":"Robert J. Barro and Jong-Wha Lee: http:\/\/www.barrolee.com\/","topics":[{"id":"4","value":"Education "}]},{"id":"BAR.TER.ICMP.25UP.ZS","name":"Barro-Lee: Percentage of population age 25+ with tertiary schooling. Total (Incomplete and Completed Tertiary)","source":{"id":"12","value":"Education Statistics"},"sourceNote":"Percentage of population age 25+ with tertiary schooling. Total (Incomplete and Completed Tertiary)","sourceOrganization":"Robert J. Barro and Jong-Wha Lee: http:\/\/www.barrolee.com\/","topics":[{"id":"4","value":"Education "}]},{"id":"BAR.TER.ICMP.25UP.FE.ZS","name":"Barro-Lee: Percentage of female population age 25+ with tertiary schooling. Total (Incomplete and Completed Tertiary)","source":{"id":"12","value":"Education Statistics"},"sourceNote":"Percentage of female population age 25+ with tertiary schooling. Total (Incomplete and Completed Tertiary)","sourceOrganization":"Robert J. Barro and Jong-Wha Lee: http:\/\/www.barrolee.com\/","topics":[{"id":"4","value":"Education "}]},{"id":"BAR.TER.ICMP.2529.ZS","name":"Barro-Lee: Percentage of population age 25-29 with tertiary schooling. Total (Incomplete and Completed Tertiary)","source":{"id":"12","value":"Education Statistics"},"sourceNote":"Percentage of population age 25-29 with tertiary schooling. Total (Incomplete and Completed Tertiary)","sourceOrganization":"Robert J. Barro and Jong-Wha Lee: http:\/\/www.barrolee.com\/","topics":[{"id":"4","value":"Education "}]},{"id":"BAR.TER.ICMP.2529.FE.ZS","name":"Barro-Lee: Percentage of female population age 25-29 with tertiary schooling. Total (Incomplete and Completed Tertiary)","source":{"id":"12","value":"Education Statistics"},"sourceNote":"Percentage of female population age 25-29 with tertiary schooling. Total (Incomplete and Completed Tertiary)","sourceOrganization":"Robert J. Barro and Jong-Wha Lee: http:\/\/www.barrolee.com\/","topics":[{"id":"4","value":"Education "}]},{"id":"BAR.TER.ICMP.2024.ZS","name":"Barro-Lee: Percentage of population age 20-24 with tertiary schooling. Total (Incomplete and Completed Tertiary)","source":{"id":"12","value":"Education Statistics"},"sourceNote":"Percentage of population age 20-24 with tertiary schooling. Total (Incomplete and Completed Tertiary)","sourceOrganization":"Robert J. Barro and Jong-Wha Lee: http:\/\/www.barrolee.com\/","topics":[{"id":"4","value":"Education "}]},{"id":"BAR.TER.ICMP.2024.FE.ZS","name":"Barro-Lee: Percentage of female population age 20-24 with tertiary schooling. Total (Incomplete and Completed Tertiary)","source":{"id":"12","value":"Education Statistics"},"sourceNote":"Percentage of female population age 20-24 with tertiary schooling. Total (Incomplete and Completed Tertiary)","sourceOrganization":"Robert J. Barro and Jong-Wha Lee: http:\/\/www.barrolee.com\/","topics":[{"id":"4","value":"Education "}]},{"id":"BAR.TER.ICMP.15UP.ZS","name":"Barro-Lee: Percentage of population age 15+ with tertiary schooling. Total (Incomplete and Completed Tertiary)","source":{"id":"12","value":"Education Statistics"},"sourceNote":"Percentage of population age 15+ with tertiary schooling. Total (Incomplete and Completed Tertiary)","sourceOrganization":"Robert J. Barro and Jong-Wha Lee: http:\/\/www.barrolee.com\/","topics":[{"id":"4","value":"Education "}]},{"id":"BAR.TER.ICMP.15UP.FE.ZS","name":"Barro-Lee: Percentage of female population age 15+ with tertiary schooling. Total (Incomplete and Completed Tertiary)","source":{"id":"12","value":"Education Statistics"},"sourceNote":"Percentage of female population age 15+ with tertiary schooling. Total (Incomplete and Completed Tertiary)","sourceOrganization":"Robert J. Barro and Jong-Wha Lee: http:\/\/www.barrolee.com\/","topics":[{"id":"4","value":"Education "}]},{"id":"BAR.TER.ICMP.1519.ZS","name":"Barro-Lee: Percentage of population age 15-19 with tertiary schooling. Total (Incomplete and Completed Tertiary)","source":{"id":"12","value":"Education Statistics"},"sourceNote":"Percentage of population age 15-19 with tertiary schooling. Total (Incomplete and Completed Tertiary)","sourceOrganization":"Robert J. Barro and Jong-Wha Lee: http:\/\/www.barrolee.com\/","topics":[{"id":"4","value":"Education "}]},{"id":"BAR.TER.ICMP.1519.FE.ZS","name":"Barro-Lee: Percentage of female population age 15-19 with tertiary schooling. Total (Incomplete and Completed Tertiary)","source":{"id":"12","value":"Education Statistics"},"sourceNote":"Percentage of female population age 15-19 with tertiary schooling. Total (Incomplete and Completed Tertiary)","sourceOrganization":"Robert J. Barro and Jong-Wha Lee: http:\/\/www.barrolee.com\/","topics":[{"id":"4","value":"Education "}]},{"id":"BAR.TER.CMPT.75UP.ZS","name":"Barro-Lee: Percentage of population age 75+ with tertiary schooling. Completed Tertiary","source":{"id":"12","value":"Education Statistics"},"sourceNote":"Percentage of population age 75+ with tertiary schooling. Completed Tertiary","sourceOrganization":"Robert J. Barro and Jong-Wha Lee: http:\/\/www.barrolee.com\/","topics":[]},{"id":"BAR.TER.CMPT.75UP.FE.ZS","name":"Barro-Lee: Percentage of female population age 75+ with tertiary schooling. Completed Tertiary","source":{"id":"12","value":"Education Statistics"},"sourceNote":"Percentage of female population age 75+ with tertiary schooling. Completed Tertiary","sourceOrganization":"Robert J. Barro and Jong-Wha Lee: http:\/\/www.barrolee.com\/","topics":[]},{"id":"BAR.TER.CMPT.7074.ZS","name":"Barro-Lee: Percentage of population age 70-74 with tertiary schooling. Completed Tertiary","source":{"id":"12","value":"Education Statistics"},"sourceNote":"Percentage of population age 70-74 with tertiary schooling. Completed Tertiary","sourceOrganization":"Robert J. Barro and Jong-Wha Lee: http:\/\/www.barrolee.com\/","topics":[]},{"id":"BAR.TER.CMPT.7074.FE.ZS","name":"Barro-Lee: Percentage of female population age 70-74 with tertiary schooling. Completed Tertiary","source":{"id":"12","value":"Education Statistics"},"sourceNote":"Percentage of female population age 70-74 with tertiary schooling. Completed Tertiary","sourceOrganization":"Robert J. Barro and Jong-Wha Lee: http:\/\/www.barrolee.com\/","topics":[]},{"id":"BAR.TER.CMPT.6569.ZS","name":"Barro-Lee: Percentage of population age 65-69 with tertiary schooling. Completed Tertiary","source":{"id":"12","value":"Education Statistics"},"sourceNote":"Percentage of population age 65-69 with tertiary schooling. Completed Tertiary","sourceOrganization":"Robert J. Barro and Jong-Wha Lee: http:\/\/www.barrolee.com\/","topics":[]},{"id":"BAR.TER.CMPT.6569.FE.ZS","name":"Barro-Lee: Percentage of female population age 65-69 with tertiary schooling. Completed Tertiary","source":{"id":"12","value":"Education Statistics"},"sourceNote":"Percentage of female population age 65-69 with tertiary schooling. Completed Tertiary","sourceOrganization":"Robert J. Barro and Jong-Wha Lee: http:\/\/www.barrolee.com\/","topics":[]},{"id":"BAR.TER.CMPT.6064.ZS","name":"Barro-Lee: Percentage of population age 60-64 with tertiary schooling. Completed Tertiary","source":{"id":"12","value":"Education Statistics"},"sourceNote":"Percentage of population age 60-64 with tertiary schooling. Completed Tertiary","sourceOrganization":"Robert J. Barro and Jong-Wha Lee: http:\/\/www.barrolee.com\/","topics":[{"id":"4","value":"Education "}]},{"id":"BAR.TER.CMPT.6064.FE.ZS","name":"Barro-Lee: Percentage of female population age 60-64 with tertiary schooling. Completed Tertiary","source":{"id":"12","value":"Education Statistics"},"sourceNote":"Percentage of female population age 60-64 with tertiary schooling. Completed Tertiary","sourceOrganization":"Robert J. Barro and Jong-Wha Lee: http:\/\/www.barrolee.com\/","topics":[{"id":"4","value":"Education "}]},{"id":"BAR.TER.CMPT.5559.ZS","name":"Barro-Lee: Percentage of population age 55-59 with tertiary schooling. Completed Tertiary","source":{"id":"12","value":"Education Statistics"},"sourceNote":"Percentage of population age 55-59 with tertiary schooling. Completed Tertiary","sourceOrganization":"Robert J. Barro and Jong-Wha Lee: http:\/\/www.barrolee.com\/","topics":[{"id":"4","value":"Education "}]},{"id":"BAR.TER.CMPT.5559.FE.ZS","name":"Barro-Lee: Percentage of female population age 55-59 with tertiary schooling. Completed Tertiary","source":{"id":"12","value":"Education Statistics"},"sourceNote":"Percentage of female population age 55-59 with tertiary schooling. Completed Tertiary","sourceOrganization":"Robert J. Barro and Jong-Wha Lee: http:\/\/www.barrolee.com\/","topics":[{"id":"4","value":"Education "}]},{"id":"BAR.TER.CMPT.5054.ZS","name":"Barro-Lee: Percentage of population age 50-54 with tertiary schooling. Completed Tertiary","source":{"id":"12","value":"Education Statistics"},"sourceNote":"Percentage of population age 50-54 with tertiary schooling. Completed Tertiary","sourceOrganization":"Robert J. Barro and Jong-Wha Lee: http:\/\/www.barrolee.com\/","topics":[{"id":"4","value":"Education "}]},{"id":"BAR.TER.CMPT.5054.FE.ZS","name":"Barro-Lee: Percentage of female population age 50-54 with tertiary schooling. Completed Tertiary","source":{"id":"12","value":"Education Statistics"},"sourceNote":"Percentage of female population age 50-54 with tertiary schooling. Completed Tertiary","sourceOrganization":"Robert J. Barro and Jong-Wha Lee: http:\/\/www.barrolee.com\/","topics":[{"id":"4","value":"Education "}]},{"id":"BAR.TER.CMPT.4549.ZS","name":"Barro-Lee: Percentage of population age 45-49 with tertiary schooling. Completed Tertiary","source":{"id":"12","value":"Education Statistics"},"sourceNote":"Percentage of population age 45-49 with tertiary schooling. Completed Tertiary","sourceOrganization":"Robert J. Barro and Jong-Wha Lee: http:\/\/www.barrolee.com\/","topics":[{"id":"4","value":"Education "}]},{"id":"BAR.TER.CMPT.4549.FE.ZS","name":"Barro-Lee: Percentage of female population age 45-49 with tertiary schooling. Completed Tertiary","source":{"id":"12","value":"Education Statistics"},"sourceNote":"Percentage of female population age 45-49 with tertiary schooling. Completed Tertiary","sourceOrganization":"Robert J. Barro and Jong-Wha Lee: http:\/\/www.barrolee.com\/","topics":[{"id":"4","value":"Education "}]},{"id":"BAR.TER.CMPT.4044.ZS","name":"Barro-Lee: Percentage of population age 40-44 with tertiary schooling. Completed Tertiary","source":{"id":"12","value":"Education Statistics"},"sourceNote":"Percentage of population age 40-44 with tertiary schooling. Completed Tertiary","sourceOrganization":"Robert J. Barro and Jong-Wha Lee: http:\/\/www.barrolee.com\/","topics":[{"id":"4","value":"Education "}]},{"id":"BAR.TER.CMPT.4044.FE.ZS","name":"Barro-Lee: Percentage of female population age 40-44 with tertiary schooling. Completed Tertiary","source":{"id":"12","value":"Education Statistics"},"sourceNote":"Percentage of female population age 40-44 with tertiary schooling. Completed Tertiary","sourceOrganization":"Robert J. Barro and Jong-Wha Lee: http:\/\/www.barrolee.com\/","topics":[{"id":"4","value":"Education "}]},{"id":"BAR.TER.CMPT.3539.ZS","name":"Barro-Lee: Percentage of population age 35-39 with tertiary schooling. Completed Tertiary","source":{"id":"12","value":"Education Statistics"},"sourceNote":"Percentage of population age 35-39 with tertiary schooling. Completed Tertiary","sourceOrganization":"Robert J. Barro and Jong-Wha Lee: http:\/\/www.barrolee.com\/","topics":[{"id":"4","value":"Education "}]},{"id":"BAR.TER.CMPT.3539.FE.ZS","name":"Barro-Lee: Percentage of female population age 35-39 with tertiary schooling. Completed Tertiary","source":{"id":"12","value":"Education Statistics"},"sourceNote":"Percentage of female population age 35-39 with tertiary schooling. Completed Tertiary","sourceOrganization":"Robert J. Barro and Jong-Wha Lee: http:\/\/www.barrolee.com\/","topics":[{"id":"4","value":"Education "}]},{"id":"BAR.TER.CMPT.3034.ZS","name":"Barro-Lee: Percentage of population age 30-34 with tertiary schooling. Completed Tertiary","source":{"id":"12","value":"Education Statistics"},"sourceNote":"Percentage of population age 30-34 with tertiary schooling. Completed Tertiary","sourceOrganization":"Robert J. Barro and Jong-Wha Lee: http:\/\/www.barrolee.com\/","topics":[{"id":"4","value":"Education "}]},{"id":"BAR.TER.CMPT.3034.FE.ZS","name":"Barro-Lee: Percentage of female population age 30-34 with tertiary schooling. Completed Tertiary","source":{"id":"12","value":"Education Statistics"},"sourceNote":"Percentage of female population age 30-34 with tertiary schooling. Completed Tertiary","sourceOrganization":"Robert J. Barro and Jong-Wha Lee: http:\/\/www.barrolee.com\/","topics":[{"id":"4","value":"Education "}]},{"id":"BAR.TER.CMPT.25UP.ZS","name":"Barro-Lee: Percentage of population age 25+ with tertiary schooling. Completed Tertiary","source":{"id":"12","value":"Education Statistics"},"sourceNote":"Percentage of population age 25+ with tertiary schooling. Completed Tertiary","sourceOrganization":"Robert J. Barro and Jong-Wha Lee: http:\/\/www.barrolee.com\/","topics":[{"id":"4","value":"Education "}]},{"id":"BAR.TER.CMPT.25UP.FE.ZS","name":"Barro-Lee: Percentage of female population age 25+ with tertiary schooling. Completed Tertiary","source":{"id":"12","value":"Education Statistics"},"sourceNote":"Percentage of female population age 25+ with tertiary schooling. Completed Tertiary","sourceOrganization":"Robert J. Barro and Jong-Wha Lee: http:\/\/www.barrolee.com\/","topics":[{"id":"4","value":"Education "}]},{"id":"BAR.TER.CMPT.2529.ZS","name":"Barro-Lee: Percentage of population age 25-29 with tertiary schooling. Completed Tertiary","source":{"id":"12","value":"Education Statistics"},"sourceNote":"Percentage of population age 25-29 with tertiary schooling. Completed Tertiary","sourceOrganization":"Robert J. Barro and Jong-Wha Lee: http:\/\/www.barrolee.com\/","topics":[{"id":"4","value":"Education "}]},{"id":"BAR.TER.CMPT.2529.FE.ZS","name":"Barro-Lee: Percentage of female population age 25-29 with tertiary schooling. Completed Tertiary","source":{"id":"12","value":"Education Statistics"},"sourceNote":"Percentage of female population age 25-29 with tertiary schooling. Completed Tertiary","sourceOrganization":"Robert J. Barro and Jong-Wha Lee: http:\/\/www.barrolee.com\/","topics":[{"id":"4","value":"Education "}]},{"id":"BAR.TER.CMPT.2024.ZS","name":"Barro-Lee: Percentage of population age 20-24 with tertiary schooling. Completed Tertiary","source":{"id":"12","value":"Education Statistics"},"sourceNote":"Percentage of population age 20-24 with tertiary schooling. Completed Tertiary","sourceOrganization":"Robert J. Barro and Jong-Wha Lee: http:\/\/www.barrolee.com\/","topics":[{"id":"4","value":"Education "}]},{"id":"BAR.TER.CMPT.2024.FE.ZS","name":"Barro-Lee: Percentage of female population age 20-24 with tertiary schooling. Completed Tertiary","source":{"id":"12","value":"Education Statistics"},"sourceNote":"Percentage of female population age 20-24 with tertiary schooling. Completed Tertiary","sourceOrganization":"Robert J. Barro and Jong-Wha Lee: http:\/\/www.barrolee.com\/","topics":[{"id":"4","value":"Education "}]},{"id":"BAR.TER.CMPT.15UP.ZS","name":"Barro-Lee: Percentage of population age 15+ with tertiary schooling. Completed Tertiary","source":{"id":"12","value":"Education Statistics"},"sourceNote":"Percentage of population age 15+ with tertiary schooling. Completed Tertiary","sourceOrganization":"Robert J. Barro and Jong-Wha Lee: http:\/\/www.barrolee.com\/","topics":[{"id":"4","value":"Education "}]},{"id":"BAR.TER.CMPT.15UP.FE.ZS","name":"Barro-Lee: Percentage of female population age 15+ with tertiary schooling. Completed Tertiary","source":{"id":"12","value":"Education Statistics"},"sourceNote":"Percentage of female population age 15+ with tertiary schooling. Completed Tertiary","sourceOrganization":"Robert J. Barro and Jong-Wha Lee: http:\/\/www.barrolee.com\/","topics":[{"id":"4","value":"Education "}]},{"id":"BAR.TER.CMPT.1519.ZS","name":"Barro-Lee: Percentage of population age 15-19 with tertiary schooling. Completed Tertiary","source":{"id":"12","value":"Education Statistics"},"sourceNote":"Percentage of population age 15-19 with tertiary schooling. Completed Tertiary","sourceOrganization":"Robert J. Barro and Jong-Wha Lee: http:\/\/www.barrolee.com\/","topics":[{"id":"4","value":"Education "}]},{"id":"BAR.TER.CMPT.1519.FE.ZS","name":"Barro-Lee: Percentage of female population age 15-19 with tertiary schooling. Completed Tertiary","source":{"id":"12","value":"Education Statistics"},"sourceNote":"Percentage of female population age 15-19 with tertiary schooling. Completed Tertiary","sourceOrganization":"Robert J. Barro and Jong-Wha Lee: http:\/\/www.barrolee.com\/","topics":[{"id":"4","value":"Education "}]},{"id":"BAR.SEC.SCHL.75UP.FE","name":"Barro-Lee: Average years of secondary schooling, age 75+, female","source":{"id":"12","value":"Education Statistics"},"sourceNote":"Average years of secondary schooling, 75+, female is the average years of secondary education completed among females over age 75.","sourceOrganization":"Robert J. Barro and Jong-Wha Lee: http:\/\/www.barrolee.com\/","topics":[]},{"id":"BAR.SEC.SCHL.75UP","name":"Barro-Lee: Average years of secondary schooling, age 75+, total","source":{"id":"12","value":"Education Statistics"},"sourceNote":"Average years of secondary schooling, 75+, total is the average years of secondary education completed among people over age 75.","sourceOrganization":"Robert J. Barro and Jong-Wha Lee: http:\/\/www.barrolee.com\/","topics":[]},{"id":"BAR.SEC.SCHL.7074.FE","name":"Barro-Lee: Average years of secondary schooling, age 70-74, female","source":{"id":"12","value":"Education Statistics"},"sourceNote":"Average years of secondary schooling, 70-74, female is the average years of secondary education completed among females age 70-74.","sourceOrganization":"Robert J. Barro and Jong-Wha Lee: http:\/\/www.barrolee.com\/","topics":[]},{"id":"BAR.SEC.SCHL.7074","name":"Barro-Lee: Average years of secondary schooling, age 70-74, total","source":{"id":"12","value":"Education Statistics"},"sourceNote":"Average years of secondary schooling, 70-74, total is the average years of secondary education completed among people age 70-74.","sourceOrganization":"Robert J. Barro and Jong-Wha Lee: http:\/\/www.barrolee.com\/","topics":[{}]}]]