[{"page":178,"pages":324,"per_page":"50","total":16174},[{"id":"per_pr_allpr.cov_q3_urb","name":"Coverage in 3rd quintile (%) - All Private Transfers -urban","source":{"id":"29","value":"Global Social Protection"},"sourceNote":"","sourceOrganization":"The Atlas of Social Protection: Indicators of Resilience and Equity (ASPIRE)","topics":[]},{"id":"per_pr_allpr.cov_q3_tot","name":"Coverage in 3rd quintile (%) - All Private Transfers  ","source":{"id":"29","value":"Global Social Protection"},"sourceNote":"","sourceOrganization":"The Atlas of Social Protection: Indicators of Resilience and Equity (ASPIRE)","topics":[]},{"id":"per_pr_allpr.cov_q3_rur","name":"Coverage in 3rd quintile (%) - All Private Transfers -rural","source":{"id":"29","value":"Global Social Protection"},"sourceNote":"","sourceOrganization":"The Atlas of Social Protection: Indicators of Resilience and Equity (ASPIRE)","topics":[]},{"id":"per_pr_allpr.cov_q3_preT_tot","name":"Coverage in 3rd quintile (%) - All Private Transfers (preT)","source":{"id":"29","value":"Global Social Protection"},"sourceNote":"","sourceOrganization":"The Atlas of Social Protection: Indicators of Resilience and Equity (ASPIRE)","topics":[]},{"id":"per_pr_allpr.cov_q2_urb","name":"Coverage in 2nd quintile (%) - All Private Transfers -urban","source":{"id":"29","value":"Global Social Protection"},"sourceNote":"","sourceOrganization":"The Atlas of Social Protection: Indicators of Resilience and Equity (ASPIRE)","topics":[]},{"id":"per_pr_allpr.cov_q2_tot","name":"Coverage in 2nd quintile (%) - All Private Transfers  ","source":{"id":"29","value":"Global Social Protection"},"sourceNote":"","sourceOrganization":"The Atlas of Social Protection: Indicators of Resilience and Equity (ASPIRE)","topics":[]},{"id":"per_pr_allpr.cov_q2_rur","name":"Coverage in 2nd quintile (%) - All Private Transfers -rural","source":{"id":"29","value":"Global Social Protection"},"sourceNote":"","sourceOrganization":"The Atlas of Social Protection: Indicators of Resilience and Equity (ASPIRE)","topics":[]},{"id":"per_pr_allpr.cov_q2_preT_tot","name":"Coverage in 2nd quintile (%) - All Private Transfers (preT)","source":{"id":"29","value":"Global Social Protection"},"sourceNote":"","sourceOrganization":"The Atlas of Social Protection: Indicators of Resilience and Equity (ASPIRE)","topics":[]},{"id":"per_pr_allpr.cov_q1_urb","name":"Coverage in poorest quintile (%) - All Private Transfers -urban","source":{"id":"29","value":"Global Social Protection"},"sourceNote":"","sourceOrganization":"The Atlas of Social Protection: Indicators of Resilience and Equity (ASPIRE)","topics":[]},{"id":"per_pr_allpr.cov_q1_tot","name":"Coverage in poorest quintile (%) - All Private Transfers  ","source":{"id":"29","value":"Global Social Protection"},"sourceNote":"","sourceOrganization":"The Atlas of Social Protection: Indicators of Resilience and Equity (ASPIRE)","topics":[]},{"id":"per_pr_allpr.cov_q1_rur","name":"Coverage in poorest quintile (%) - All Private Transfers -rural","source":{"id":"29","value":"Global Social Protection"},"sourceNote":"","sourceOrganization":"The Atlas of Social Protection: Indicators of Resilience and Equity (ASPIRE)","topics":[]},{"id":"per_pr_allpr.cov_q1_preT_tot","name":"Coverage in poorest quintile (%) - All Private Transfers (preT)","source":{"id":"29","value":"Global Social Protection"},"sourceNote":"","sourceOrganization":"The Atlas of Social Protection: Indicators of Resilience and Equity (ASPIRE)","topics":[]},{"id":"per_pr_allpr.cov_pop_urb","name":"Coverage (%) - All Private Transfers -urban","source":{"id":"29","value":"Global Social Protection"},"sourceNote":"","sourceOrganization":"The Atlas of Social Protection: Indicators of Resilience and Equity (ASPIRE)","topics":[]},{"id":"per_pr_allpr.cov_pop_tot","name":"Coverage (%) - All Private Transfers  ","source":{"id":"29","value":"Global Social Protection"},"sourceNote":"","sourceOrganization":"The Atlas of Social Protection: Indicators of Resilience and Equity (ASPIRE)","topics":[]},{"id":"per_pr_allpr.cov_pop_rur","name":"Coverage (%) - All Private Transfers -rural","source":{"id":"29","value":"Global Social Protection"},"sourceNote":"","sourceOrganization":"The Atlas of Social Protection: Indicators of Resilience and Equity (ASPIRE)","topics":[]},{"id":"per_pr_allpr.cov_pop_preT_tot","name":"Coverage (%) - All Private Transfers (preT)","source":{"id":"29","value":"Global Social Protection"},"sourceNote":"","sourceOrganization":"The Atlas of Social Protection: Indicators of Resilience and Equity (ASPIRE)","topics":[]},{"id":"per_pr_allpr.cov_ep_tot","name":"Coverage in extreme poor (<$1.25 a day) (%) - All Private Transfers  ","source":{"id":"29","value":"Global Social Protection"},"sourceNote":"","sourceOrganization":"The Atlas of Social Protection: Indicators of Resilience and Equity (ASPIRE)","topics":[]},{"id":"per_pr_allpr.cov_ep_preT_tot","name":"Coverage in extreme poor (<$1.25 a day) (%) - All Private Transfers (preT)","source":{"id":"29","value":"Global Social Protection"},"sourceNote":"","sourceOrganization":"The Atlas of Social Protection: Indicators of Resilience and Equity (ASPIRE)","topics":[]},{"id":"per_pr_allpr.cba_q1_urb","name":"Benefit-cost ratio -  All Private Transfers - poorest quintile -urban","source":{"id":"29","value":"Global Social Protection"},"sourceNote":"","sourceOrganization":"The Atlas of Social Protection: Indicators of Resilience and Equity (ASPIRE)","topics":[]},{"id":"per_pr_allpr.cba_q1_tot","name":"Benefit-cost ratio -  All Private Transfers -poorest quintile","source":{"id":"29","value":"Global Social Protection"},"sourceNote":"","sourceOrganization":"The Atlas of Social Protection: Indicators of Resilience and Equity (ASPIRE)","topics":[]},{"id":"per_pr_allpr.cba_q1_rur","name":"Benefit-cost ratio -  All Private Transfers -poorest quintile -rural","source":{"id":"29","value":"Global Social Protection"},"sourceNote":"","sourceOrganization":"The Atlas of Social Protection: Indicators of Resilience and Equity (ASPIRE)","topics":[]},{"id":"per_pr_allpr.cba_q1_preT_tot","name":"Benefit-cost ratio -  All Private Transfers -poorest quintile (preT)","source":{"id":"29","value":"Global Social Protection"},"sourceNote":"","sourceOrganization":"The Atlas of Social Protection: Indicators of Resilience and Equity (ASPIRE)","topics":[]},{"id":"per_pr_allpr.cba_ep_tot","name":"Benefit-cost ratio -  All Private Transfers -extreme poor (<$1.25 a day)","source":{"id":"29","value":"Global Social Protection"},"sourceNote":"","sourceOrganization":"The Atlas of Social Protection: Indicators of Resilience and Equity (ASPIRE)","topics":[]},{"id":"per_pr_allpr.cba_ep_preT_tot","name":"Benefit-cost ratio -  All Private Transfers -extreme poor (<$1.25 a day) (preT)","source":{"id":"29","value":"Global Social Protection"},"sourceNote":"","sourceOrganization":"The Atlas of Social Protection: Indicators of Resilience and Equity (ASPIRE)","topics":[]},{"id":"per_pr_allpr.bry_q5_urb","name":"Beneficiary incidence in richest quintile (%) - All Private Transfers -urban","source":{"id":"29","value":"Global Social Protection"},"sourceNote":"","sourceOrganization":"The Atlas of Social Protection: Indicators of Resilience and Equity (ASPIRE)","topics":[]},{"id":"per_pr_allpr.bry_q5_tot","name":"Beneficiary incidence in richest quintile (%) - All Private Transfers  ","source":{"id":"29","value":"Global Social Protection"},"sourceNote":"","sourceOrganization":"The Atlas of Social Protection: Indicators of Resilience and Equity (ASPIRE)","topics":[]},{"id":"per_pr_allpr.bry_q5_rur","name":"Beneficiary incidence in richest quintile (%) - All Private Transfers -rural","source":{"id":"29","value":"Global Social Protection"},"sourceNote":"","sourceOrganization":"The Atlas of Social Protection: Indicators of Resilience and Equity (ASPIRE)","topics":[]},{"id":"per_pr_allpr.bry_q5_preT_tot","name":"Beneficiary incidence in richest quintile (%) - All Private Transfers (preT)","source":{"id":"29","value":"Global Social Protection"},"sourceNote":"","sourceOrganization":"The Atlas of Social Protection: Indicators of Resilience and Equity (ASPIRE)","topics":[]},{"id":"per_pr_allpr.bry_q4_urb","name":"Beneficiary incidence in 4th quintile (%) - All Private Transfers -urban","source":{"id":"29","value":"Global Social Protection"},"sourceNote":"","sourceOrganization":"The Atlas of Social Protection: Indicators of Resilience and Equity (ASPIRE)","topics":[]},{"id":"per_pr_allpr.bry_q4_tot","name":"Beneficiary incidence in 4th quintile (%) - All Private Transfers  ","source":{"id":"29","value":"Global Social Protection"},"sourceNote":"","sourceOrganization":"The Atlas of Social Protection: Indicators of Resilience and Equity (ASPIRE)","topics":[]},{"id":"per_pr_allpr.bry_q4_rur","name":"Beneficiary incidence in 4th quintile (%) - All Private Transfers -rural","source":{"id":"29","value":"Global Social Protection"},"sourceNote":"","sourceOrganization":"The Atlas of Social Protection: Indicators of Resilience and Equity (ASPIRE)","topics":[]},{"id":"per_pr_allpr.bry_q4_preT_tot","name":"Beneficiary incidence in 4th quintile (%) - All Private Transfers (preT)","source":{"id":"29","value":"Global Social Protection"},"sourceNote":"","sourceOrganization":"The Atlas of Social Protection: Indicators of Resilience and Equity (ASPIRE)","topics":[]},{"id":"per_pr_allpr.bry_q3_urb","name":"Beneficiary incidence in 3rd quintile (%) - All Private Transfers -urban","source":{"id":"29","value":"Global Social Protection"},"sourceNote":"","sourceOrganization":"The Atlas of Social Protection: Indicators of Resilience and Equity (ASPIRE)","topics":[]},{"id":"per_pr_allpr.bry_q3_tot","name":"Beneficiary incidence in 3rd quintile (%) - All Private Transfers  ","source":{"id":"29","value":"Global Social Protection"},"sourceNote":"","sourceOrganization":"The Atlas of Social Protection: Indicators of Resilience and Equity (ASPIRE)","topics":[]},{"id":"per_pr_allpr.bry_q3_rur","name":"Beneficiary incidence in 3rd quintile (%) - All Private Transfers -rural","source":{"id":"29","value":"Global Social Protection"},"sourceNote":"","sourceOrganization":"The Atlas of Social Protection: Indicators of Resilience and Equity (ASPIRE)","topics":[]},{"id":"per_pr_allpr.bry_q3_preT_tot","name":"Beneficiary incidence in 3rd quintile (%) - All Private Transfers (preT)","source":{"id":"29","value":"Global Social Protection"},"sourceNote":"","sourceOrganization":"The Atlas of Social Protection: Indicators of Resilience and Equity (ASPIRE)","topics":[]},{"id":"per_pr_allpr.bry_q2_urb","name":"Beneficiary incidence in 2nd quintile (%) - All Private Transfers -urban","source":{"id":"29","value":"Global Social Protection"},"sourceNote":"","sourceOrganization":"The Atlas of Social Protection: Indicators of Resilience and Equity (ASPIRE)","topics":[]},{"id":"per_pr_allpr.bry_q2_tot","name":"Beneficiary incidence in 2nd quintile (%) - All Private Transfers  ","source":{"id":"29","value":"Global Social Protection"},"sourceNote":"","sourceOrganization":"The Atlas of Social Protection: Indicators of Resilience and Equity (ASPIRE)","topics":[]},{"id":"per_pr_allpr.bry_q2_rur","name":"Beneficiary incidence in 2nd quintile (%) - All Private Transfers -rural","source":{"id":"29","value":"Global Social Protection"},"sourceNote":"","sourceOrganization":"The Atlas of Social Protection: Indicators of Resilience and Equity (ASPIRE)","topics":[]},{"id":"per_pr_allpr.bry_q2_preT_tot","name":"Beneficiary incidence in 2nd quintile (%) - All Private Transfers (preT)","source":{"id":"29","value":"Global Social Protection"},"sourceNote":"","sourceOrganization":"The Atlas of Social Protection: Indicators of Resilience and Equity (ASPIRE)","topics":[]},{"id":"per_pr_allpr.bry_q1_urb","name":"Beneficiary incidence in poorest quintile (%) - All Private Transfers -urban","source":{"id":"29","value":"Global Social Protection"},"sourceNote":"","sourceOrganization":"The Atlas of Social Protection: Indicators of Resilience and Equity (ASPIRE)","topics":[]},{"id":"per_pr_allpr.bry_q1_tot","name":"Beneficiary incidence in poorest quintile (%) - All Private Transfers  ","source":{"id":"29","value":"Global Social Protection"},"sourceNote":"","sourceOrganization":"The Atlas of Social Protection: Indicators of Resilience and Equity (ASPIRE)","topics":[]},{"id":"per_pr_allpr.bry_q1_rur","name":"Beneficiary incidence in poorest quintile (%) - All Private Transfers -rural","source":{"id":"29","value":"Global Social Protection"},"sourceNote":"","sourceOrganization":"The Atlas of Social Protection: Indicators of Resilience and Equity (ASPIRE)","topics":[]},{"id":"per_pr_allpr.bry_q1_preT_tot","name":"Beneficiary incidence in poorest quintile (%) - All Private Transfers (preT)","source":{"id":"29","value":"Global Social Protection"},"sourceNote":"","sourceOrganization":"The Atlas of Social Protection: Indicators of Resilience and Equity (ASPIRE)","topics":[]},{"id":"per_pr_allpr.bry_ep_tot","name":"Beneficiary incidence in extreme poor (<$1.25 a day) (%) - All Private Transfers  ","source":{"id":"29","value":"Global Social Protection"},"sourceNote":"","sourceOrganization":"The Atlas of Social Protection: Indicators of Resilience and Equity (ASPIRE)","topics":[]},{"id":"per_pr_allpr.bry_ep_preT_tot","name":"Beneficiary incidence in extreme poor (<$1.25 a day) (%) - All Private Transfers (preT)","source":{"id":"29","value":"Global Social Protection"},"sourceNote":"","sourceOrganization":"The Atlas of Social Protection: Indicators of Resilience and Equity (ASPIRE)","topics":[]},{"id":"per_pr_allpr.ben_q5_urb","name":"Benefits incidence in richest quintile (%) - All Private Transfers -urban","source":{"id":"29","value":"Global Social Protection"},"sourceNote":"","sourceOrganization":"The Atlas of Social Protection: Indicators of Resilience and Equity (ASPIRE)","topics":[]},{"id":"per_pr_allpr.ben_q5_tot","name":"Benefits incidence in richest quintile (%) - All Private Transfers  ","source":{"id":"29","value":"Global Social Protection"},"sourceNote":"","sourceOrganization":"The Atlas of Social Protection: Indicators of Resilience and Equity (ASPIRE)","topics":[]},{"id":"per_pr_allpr.ben_q5_rur","name":"Benefits incidence in richest quintile (%) - All Private Transfers -rural","source":{"id":"29","value":"Global Social Protection"},"sourceNote":"","sourceOrganization":"The Atlas of Social Protection: Indicators of Resilience and Equity (ASPIRE)","topics":[]},{"id":"per_pr_allpr.ben_q5_preT_tot","name":"Benefits incidence in richest quintile (%) - All Private Transfers (preT)","source":{"id":"29","value":"Global Social Protection"},"sourceNote":"","sourceOrganization":"The Atlas of Social Protection: Indicators of Resilience and Equity (ASPIRE)","topics":[{}]}]]