[{"page":285,"pages":324,"per_page":"50","total":16174},[{"id":"TX.VAL.MRCH.AL.ZS","name":"Merchandise exports to economies in the Arab World (% of total merchandise exports)","source":{"id":"2","value":"World Development Indicators"},"sourceNote":"Merchandise exports to economies in the Arab World are the sum of merchandise exports by the reporting economy to economies in the Arab World. Data are expressed as a percentage of total merchandise exports by the economy. Data are computed only if at least half of the economies in the partner country group had non-missing data.","sourceOrganization":"World Bank staff estimates based data from International Monetary Fund's Direction of Trade database.","topics":[{"id":"12","value":"Private Sector"},{"id":"21","value":"Trade"}]},{"id":"TX.VAL.MMTL.ZS.UN","name":"Ores and metals exports (% of merchandise exports)","source":{"id":"2","value":"World Development Indicators"},"sourceNote":"Ores and metals comprise the commodities in SITC sections 27 (crude fertilizer, minerals nes); 28 (metalliferous ores, scrap); and 68 (non-ferrous metals).","sourceOrganization":"World Bank staff estimates through the WITS platform from the Comtrade database maintained by the United Nations Statistics Division.","topics":[{"id":"5","value":"Energy & Mining "},{"id":"12","value":"Private Sector"},{"id":"21","value":"Trade"}]},{"id":"TX.VAL.MANF.ZS.UN","name":"Manufactures exports (% of merchandise exports)","source":{"id":"2","value":"World Development Indicators"},"sourceNote":"Manufactures comprise commodities in SITC sections 5 (chemicals), 6 (basic manufactures), 7 (machinery and transport equipment), and 8 (miscellaneous manufactured goods), excluding division 68 (non-ferrous metals).","sourceOrganization":"World Bank staff estimates through the WITS platform from the Comtrade database maintained by the United Nations Statistics Division.","topics":[{"id":"12","value":"Private Sector"},{"id":"21","value":"Trade"}]},{"id":"TX.VAL.MANF.KD.WB","name":"Manufactures exports (constant US$)","source":{"id":"11","value":"Africa Development Indicators"},"sourceNote":"Manufactures comprise the commodities in SITC sections 5 (chemicals), 6 (basic manufactures), 7 (machinery and transport equipment), and 8 (miscellaneous manufactured goods), excluding division 68 (nonferrous metals) in 1987 constant US dollars. Values are on fob basis.","sourceOrganization":"World Bank  country economists.","topics":[]},{"id":"TX.VAL.MANF.CD.WB","name":"Manufactures exports (current US$)","source":{"id":"11","value":"Africa Development Indicators"},"sourceNote":"Manufactures comprise the commodities in SITC sections 5 (chemicals), 6 (basic manufactures), 7 (machinery and transport equipment), and 8 (miscellaneous manufactured goods), excluding division 68 (nonferrous metals).","sourceOrganization":"World Bank staff estimates from the COMTRADE database maintained by the United Nations Statistics Division.","topics":[]},{"id":"TX.VAL.INSF.ZS.WT","name":"Insurance and financial services (% of commercial service exports)","source":{"id":"2","value":"World Development Indicators"},"sourceNote":"Insurance and financial services cover freight insurance on goods exported and other direct insurance such as life insurance; financial intermediation services such as commissions, foreign exchange transactions, and brokerage services; and auxiliary services such as financial market operational and regulatory services.","sourceOrganization":"International Monetary Fund, Balance of Payments Statistics Yearbook and data files.","topics":[{"id":"12","value":"Private Sector"},{"id":"21","value":"Trade"}]},{"id":"TX.VAL.ICTG.ZS.UN","name":"ICT goods exports (% of total goods exports)","source":{"id":"2","value":"World Development Indicators"},"sourceNote":"Information and communication technology goods exports include computers and peripheral equipment, communication equipment, consumer electronic equipment, electronic components, and other information and technology goods (miscellaneous).","sourceOrganization":"United Nations Conference on Trade and Development's UNCTADstat database at http:\/\/unctadstat.unctad.org\/ReportFolders\/reportFolders.aspx.","topics":[{"id":"9","value":"Infrastructure "},{"id":"12","value":"Private Sector"},{"id":"21","value":"Trade"}]},{"id":"TX.VAL.FUEL.ZS.UN","name":"Fuel exports (% of merchandise exports)","source":{"id":"2","value":"World Development Indicators"},"sourceNote":"Fuels comprise the commodities in SITC section 3 (mineral fuels, lubricants and related materials).","sourceOrganization":"World Bank staff estimates through the WITS platform from the Comtrade database maintained by the United Nations Statistics Division.","topics":[{"id":"5","value":"Energy & Mining "},{"id":"12","value":"Private Sector"},{"id":"21","value":"Trade"}]},{"id":"TX.VAL.FOOD.ZS.UN","name":"Food exports (% of merchandise exports)","source":{"id":"2","value":"World Development Indicators"},"sourceNote":"Food comprises the commodities in SITC sections 0 (food and live animals), 1 (beverages and tobacco), and 4 (animal and vegetable oils and fats) and SITC division 22 (oil seeds, oil nuts, and oil kernels).","sourceOrganization":"World Bank staff estimates through the WITS platform from the Comtrade database maintained by the United Nations Statistics Division.","topics":[{"id":"12","value":"Private Sector"},{"id":"21","value":"Trade"}]},{"id":"TX.VAL.COM4.KD.WB","name":"Exports of commodity 4 (constant US$)","source":{"id":"11","value":"Africa Development Indicators"},"sourceNote":"Exports of commodity 4 in 1987 constant US dollars and fob basis. ","sourceOrganization":" World Bank country economists.","topics":[]},{"id":"TX.VAL.COM4.CD.WB","name":"Exports of commodity 4 (current US$)","source":{"id":"11","value":"Africa Development Indicators"},"sourceNote":"Exports of commodity 4 in current US dollars and fob basis. ","sourceOrganization":"World Bank country economists.","topics":[]},{"id":"TX.VAL.COM3.KD.WB","name":"Exports of commodity 3 (constant US$)","source":{"id":"11","value":"Africa Development Indicators"},"sourceNote":"Exports of commodity 3 in 1987 constant US dollars and fob basis. ","sourceOrganization":"World Bank country economists.","topics":[]},{"id":"TX.VAL.COM3.CD.WB","name":"Exports of commodity 3 (current US$)","source":{"id":"11","value":"Africa Development Indicators"},"sourceNote":"Exports of commodity 3 in current US dollars and fob basis. ","sourceOrganization":"World Bank country economists.","topics":[]},{"id":"TX.VAL.COM2.KD.WB","name":"Exports of commodity 2 (constant US$)","source":{"id":"11","value":"Africa Development Indicators"},"sourceNote":"Exports of commodity 2 in 1987 constant US dollars and fob basis. ","sourceOrganization":"World Bank country economists.","topics":[]},{"id":"TX.VAL.COM2.CD.WB","name":"Exports of commodity 2 (current US$)","source":{"id":"11","value":"Africa Development Indicators"},"sourceNote":"Exports of commodity 2 in current US dollars and fob basis. ","sourceOrganization":"World Bank country economists.","topics":[]},{"id":"TX.VAL.COM1.KD.WB","name":"Exports of commodity 1 (constant US$)","source":{"id":"11","value":"Africa Development Indicators"},"sourceNote":"Exports of commodity 1 in 1987 constant US dollars and fob basis. ","sourceOrganization":"World Bank country economists.","topics":[]},{"id":"TX.VAL.COM1.CD.WB","name":"Exports of commodity 1 (current US$)","source":{"id":"11","value":"Africa Development Indicators"},"sourceNote":"Exports of commodity 1 in current US dollars and fob basis. ","sourceOrganization":"World Bank country economists.","topics":[]},{"id":"TX.VAL.AGRI.ZS.UN","name":"Agricultural raw materials exports (% of merchandise exports)","source":{"id":"2","value":"World Development Indicators"},"sourceNote":"Agricultural raw materials comprise SITC section 2 (crude materials except fuels) excluding divisions 22, 27 (crude fertilizers and minerals excluding coal, petroleum, and precious stones), and 28 (metalliferous ores and scrap).","sourceOrganization":"World Bank staff estimates through the WITS platform from the Comtrade database maintained by the United Nations Statistics Division.","topics":[{"id":"1","value":"Agriculture & Rural Development  "},{"id":"12","value":"Private Sector"},{"id":"21","value":"Trade"}]},{"id":"TX.QTY.OCOM.XD.WB","name":"Export volume index, other primary commodities","source":{"id":"11","value":"Africa Development Indicators"},"sourceNote":"Export volume index of other primary commodities with 1987=100. ","sourceOrganization":"World Bank country economists.","topics":[]},{"id":"TX.QTY.NFSV.XD","name":"Export volume index, (nonfactor) services","source":{"id":"11","value":"Africa Development Indicators"},"sourceNote":"Exports of (non-factor) services. Data; Volume index with 1987=100. ","sourceOrganization":"World Bank  country economists.","topics":[]},{"id":"TX.QTY.MRCH.XD.WD","name":"Export volume index (2000 = 100)","source":{"id":"2","value":"World Development Indicators"},"sourceNote":"Export volume indexes are derived from UNCTAD's volume index series and are the ratio of the export value indexes to the corresponding unit value indexes. Unit value indexes are based on data reported by countries that demonstrate consistency under UNCTAD quality controls, supplemented by UNCTAD’s estimates using the previous year’s trade values at the Standard International Trade Classification three-digit level as weights. To improve data coverage, especially for the latest periods, UNCTAD constructs a set of average prices indexes at the three-digit product classification of the Standard International Trade Classification revision 3 using UNCTAD’s Commodity Price Statistics, interna­tional and national sources, and UNCTAD secretariat estimates and calculates unit value indexes at the country level using the current year’s trade values as weights. For economies for which UNCTAD does not publish data, the export volume indexes (lines 72) in the IMF's International Financial Statistics are used.","sourceOrganization":"United Nations Conference on Trade and Development, Handbook of Statistics and data files, and International Monetary Fund, International Financial Statistics.","topics":[{"id":"12","value":"Private Sector"},{"id":"21","value":"Trade"}]},{"id":"TX.QTY.MRCH.XD.WB","name":"Merchandise export volume index","source":{"id":"11","value":"Africa Development Indicators"},"sourceNote":"Merchandise exports volume index with 1987=100. ","sourceOrganization":"World Bank  country economists.","topics":[]},{"id":"TX.QTY.MANF.XD.WB","name":"Export volume index, manufactures","source":{"id":"11","value":"Africa Development Indicators"},"sourceNote":"Export volume index of manufactures with 1987=100.  ","sourceOrganization":"World Bank  country economists.","topics":[]},{"id":"TX.QTY.COM4.XD.WB","name":"Exports of commodity 4 (volume index)","source":{"id":"11","value":"Africa Development Indicators"},"sourceNote":"Export volume index of commodity 4 with 1987=100. ","sourceOrganization":"World Bank  country economists.","topics":[]},{"id":"TX.QTY.COM3.XD.WB","name":"Exports of commodity 3 (volume index)","source":{"id":"11","value":"Africa Development Indicators"},"sourceNote":"Export volume index of commodity 3 with 1987=100. ","sourceOrganization":"World Bank  country economists.","topics":[]},{"id":"TX.QTY.COM2.XD.WB","name":"Exports of commodity 2 (volume index)","source":{"id":"11","value":"Africa Development Indicators"},"sourceNote":"Export volume index of commodity 2 with 1987=100. ","sourceOrganization":"World Bank  country economists.","topics":[]},{"id":"TX.QTY.COM1.XD.WB","name":"Exports of commodity 1 (volume index)","source":{"id":"11","value":"Africa Development Indicators"},"sourceNote":"Export volume index of commodity 1 with 1987=100. ","sourceOrganization":"World Bank  country economists.","topics":[]},{"id":"TX.PRI.NFSV.XU","name":"Export price index, (nonfactor) services","source":{"id":"11","value":"Africa Development Indicators"},"sourceNote":"This item is a price index measuring changes in the aggregate price level of a country's non-factor services exports over time with 1987 price index=100.  ","sourceOrganization":"World Bank  country economists.","topics":[]},{"id":"TX.PRI.MRCH.XD.WB","name":"Merchandise export price index (1987 = 100)","source":{"id":"11","value":"Africa Development Indicators"},"sourceNote":"This item is a price index measuring changes in the aggregate price level of a country's merchandise exports f.o.b. over time. ","sourceOrganization":"World Bank country economists.","topics":[]},{"id":"TX.DVR.PROD.XQ","name":"Product export diversification index (0=less concentrated; 1=more concentrated)","source":{"id":"26","value":"Corporate Scorecard"},"sourceNote":"Product export diversification (Herfindahl) index is a flow-weighted concentration index normalized to a range between 0 and 1--one being more concentrated. The Harmonized Commodity Description and Coding System (HS) 6 digit product classification is used. Due to lack of some country's export data, \"mirror data\" is used (partner's import from that country).","sourceOrganization":"World Bank staff estimates using UN Comtrade data through the WITS platform.","topics":[]},{"id":"TX.DVR.MRKT.XQ","name":"Market export diversification index (0=less concentrated; 1=more concentrated)","source":{"id":"26","value":"Corporate Scorecard"},"sourceNote":"Market export diversification (Herfindahl) index is a flow-weighted concentration index normalized to a range between 0 and 1--one being more concentrated. The share in total export of 220 potential partners for each destination is used. Due to lack of some country's export data, \"mirror data\" is used (partner's import from that country).","sourceOrganization":"World Bank staff estimates using UN Comtrade data through the WITS platform.","topics":[]},{"id":"TX.DIV.IND.XQ","name":"Export product diversification index","source":{"id":"11","value":"Africa Development Indicators"},"sourceNote":"The diversification index signals whether the structure of exports by product of a given country or group of countries differ from the structure of product of the world.  Diversification index is computed by measuring absolute deviation of the country share from world structure.  Diversification index that ranges from 0 to 1 reveals the extent of the differences between the structure of trade of the country or country group and the world average. The index value closer to 1 indicates a bigger difference from the world average. It is constructed as the inverse of a Herfindahl index, using disaggregated exports at 4 digits (following the STIC3).  ","sourceOrganization":"UNCTAD Statistical Office, also reported in the UNCTAD Handbook of Statistics, various issues (http:\/\/unctadstat.unctad.org\/).","topics":[]},{"id":"TX.CONC.IND.XQ","name":"Export product concentration index","source":{"id":"11","value":"Africa Development Indicators"},"sourceNote":"This indicator reflects the Herfindahl-Hirschmann index measure of the degree of export concentration within a country.  The sectoral Hirschmann index is defined as the square root of the sum of the squared shares of exports of each industry in total exports for the region under study.  Takes a value between 0 and 1, with 1 indicating that only a single product is exported.  Higher values indicate that exports are concentrated in fewer sectors.  On the contrary, values closer to 0 reflect a more equal distribution of market shares among exporters. Note that this type of concentration indicator tends to be quite vulnerable to cyclical fluctuations in relative-prices, in a way that commodity price rises make commodity exporters look more concentrated.  ","sourceOrganization":"UNCTAD Statistical Office, also reported in the UNCTAD Handbook of Statistics, various issues (http:\/\/unctadstat.unctad.org\/).","topics":[]},{"id":"TX.CONC.DIV.NO","name":"Number of product (exports)","source":{"id":"11","value":"Africa Development Indicators"},"sourceNote":"Number of products (at SITC, Revision 3, 3-digit group level) exported by country or country grouping; this figure includes only those products that are greater than 100,000 dollars or more than 0.3 per cent of the country’s or country group’s total exports.  The maximum number of products is 261.","sourceOrganization":"UNCTAD Statistical Office, also reported in the UNCTAD Handbook of Statistics, various issues (http:\/\/unctadstat.unctad.org\/).","topics":[]},{"id":"TT.PRI.MRCH.XD.WD","name":"Net barter terms of trade index (2000 = 100)","source":{"id":"2","value":"World Development Indicators"},"sourceNote":"Net barter terms of trade index is calculated as the percentage ratio of the export unit value indexes to the import unit value indexes, measured relative to the base year 2000. Unit value indexes are based on data reported by countries that demonstrate consistency under UNCTAD quality controls, supplemented by UNCTAD's estimates using the previous year’s trade values at the Standard International Trade Classification three-digit level as weights. To improve data coverage, especially for the latest periods, UNCTAD constructs a set of average prices indexes at the three-digit product classification of the Standard International Trade Classification revision 3 using UNCTAD’s Commodity Price Statistics, interna­tional and national sources, and UNCTAD secretariat estimates and calculates unit value indexes at the country level using the current year's trade values as weights.","sourceOrganization":"United Nations Conference on Trade and Development, Handbook of Statistics and data files, and International Monetary Fund, International Financial Statistics.","topics":[{"id":"12","value":"Private Sector"},{"id":"21","value":"Trade"}]},{"id":"TT.PRI.MRCH.XD.WB","name":"Merchandise Terms of Trade (1987 = 100)","source":{"id":"11","value":"Africa Development Indicators"},"sourceNote":"Net barter (merchandise) terms of trade (1987 = 100) are the ratio of the export price index to the corresponding import price index measured relative to the base year of 1987. ","sourceOrganization":" World Bank country economists.","topics":[]},{"id":"TSP","name":"TSP, $\/mt, current$","source":{"id":"21","value":"Global Economic Monitor (GEM) Commodities"},"sourceNote":"TSP (triple superphosphate), up to September 2006 bulk, spot, f.o.b. US Gulf; from October 2006 onwards Tunisian, granular, f.o.b.","sourceOrganization":"Fertilizer Week; Fertilizer International; World Bank.","topics":[]},{"id":"TRAD.IMPT.OTHR","name":"Import: Commodities and transaction not elsewhere classified (province Level, in USD)","source":{"id":"45","value":"INDO-DAPOER"},"sourceNote":"","sourceOrganization":"BADAN PUSAT STATISTIK - Statistics Indonesia, Unpublished statistics on Sub-National Trade","topics":[]},{"id":"TRAD.IMPT.OLFTW","name":"Import: Animals and vegetable oil, fat and waxes (province Level, in USD)","source":{"id":"45","value":"INDO-DAPOER"},"sourceNote":"","sourceOrganization":"BADAN PUSAT STATISTIK - Statistics Indonesia, Unpublished statistics on Sub-National Trade","topics":[]},{"id":"TRAD.IMPT.MTRN","name":"Import: Machinery and transport equipment (province Level, in USD)","source":{"id":"45","value":"INDO-DAPOER"},"sourceNote":"","sourceOrganization":"BADAN PUSAT STATISTIK - Statistics Indonesia, Unpublished statistics on Sub-National Trade","topics":[]},{"id":"TRAD.IMPT.MANF.OTHR","name":"Import: Miscellaneous manufactures articles (province Level, in USD)","source":{"id":"45","value":"INDO-DAPOER"},"sourceNote":"","sourceOrganization":"BADAN PUSAT STATISTIK - Statistics Indonesia, Unpublished statistics on Sub-National Trade","topics":[]},{"id":"TRAD.IMPT.MANF","name":"Import: Manufactured goods, classified chiefly by material (province Level, in USD)","source":{"id":"45","value":"INDO-DAPOER"},"sourceNote":"","sourceOrganization":"BADAN PUSAT STATISTIK - Statistics Indonesia, Unpublished statistics on Sub-National Trade","topics":[]},{"id":"TRAD.IMPT.FUEL","name":"Import: Mineral fuels, lubricants and related materials (province Level, in USD)","source":{"id":"45","value":"INDO-DAPOER"},"sourceNote":"","sourceOrganization":"BADAN PUSAT STATISTIK - Statistics Indonesia, Unpublished statistics on Sub-National Trade","topics":[]},{"id":"TRAD.IMPT.FLVSK","name":"Import: Food and Live Animals (province Level, in USD)","source":{"id":"45","value":"INDO-DAPOER"},"sourceNote":"","sourceOrganization":"BADAN PUSAT STATISTIK - Statistics Indonesia, Unpublished statistics on Sub-National Trade","topics":[]},{"id":"TRAD.IMPT.CRUD","name":"Import: Crude materials, inedible, except fuels (province Level, in USD)","source":{"id":"45","value":"INDO-DAPOER"},"sourceNote":"","sourceOrganization":"BADAN PUSAT STATISTIK - Statistics Indonesia, Unpublished statistics on Sub-National Trade","topics":[]},{"id":"TRAD.IMPT.CHEM","name":"Import: Chemical and related products, nes (province Level, in USD)","source":{"id":"45","value":"INDO-DAPOER"},"sourceNote":"","sourceOrganization":"BADAN PUSAT STATISTIK - Statistics Indonesia, Unpublished statistics on Sub-National Trade","topics":[]},{"id":"TRAD.IMPT.BVTO","name":"Import: Beverages and tobacco (province Level, in USD)","source":{"id":"45","value":"INDO-DAPOER"},"sourceNote":"","sourceOrganization":"BADAN PUSAT STATISTIK - Statistics Indonesia, Unpublished statistics on Sub-National Trade","topics":[]},{"id":"TRAD.EXPT.OTHR","name":"Export: Commodities and transaction not elsewhere classified (province Level, in USD)","source":{"id":"45","value":"INDO-DAPOER"},"sourceNote":"","sourceOrganization":"BADAN PUSAT STATISTIK - Statistics Indonesia, Unpublished statistics on Sub-National Trade","topics":[]},{"id":"TRAD.EXPT.OLFTW","name":"Export: Animals and vegetable oil, fat and waxes (province Level, in USD)","source":{"id":"45","value":"INDO-DAPOER"},"sourceNote":"","sourceOrganization":"BADAN PUSAT STATISTIK - Statistics Indonesia, Unpublished statistics on Sub-National Trade","topics":[]},{"id":"TRAD.EXPT.MTRN","name":"Export: Machinery and transport equipment (province Level, in USD)","source":{"id":"45","value":"INDO-DAPOER"},"sourceNote":"","sourceOrganization":"BADAN PUSAT STATISTIK - Statistics Indonesia, Unpublished statistics on Sub-National Trade","topics":[{}]}]]