[{"page":111,"pages":324,"per_page":"50","total":16174},[{"id":"HH.DHS.NAR.1.Q5","name":"DHS: Net attendance rate. Primary. Quintile 5","source":{"id":"12","value":"Education Statistics"},"sourceNote":"Net attendance rate. Primary. Quintile 5 is the proportion of quintile 5 children of the official primary school age who are attending primary school. The primary school age is based on the parameters of the educational system: starting age and duration of primary school.","sourceOrganization":"Demographic and Health Surveys (DHS)","topics":[{"id":"4","value":"Education "}]},{"id":"HH.DHS.NAR.1.Q4","name":"DHS: Net attendance rate. Primary. Quintile 4","source":{"id":"12","value":"Education Statistics"},"sourceNote":"Net attendance rate. Primary. Quintile 4 is the proportion of quintile 4 children of the official primary school age who are attending primary school. The primary school age is based on the parameters of the educational system: starting age and duration of primary school.","sourceOrganization":"Demographic and Health Surveys (DHS)","topics":[{"id":"4","value":"Education "}]},{"id":"HH.DHS.NAR.1.Q3","name":"DHS: Net attendance rate. Primary. Quintile 3","source":{"id":"12","value":"Education Statistics"},"sourceNote":"Net attendance rate. Primary. Quintile 3 is the proportion of quintile 3 children of the official primary school age who are attending primary school. The primary school age is based on the parameters of the educational system: starting age and duration of primary school.","sourceOrganization":"Demographic and Health Surveys (DHS)","topics":[{"id":"4","value":"Education "}]},{"id":"HH.DHS.NAR.1.Q2","name":"DHS: Net attendance rate. Primary. Quintile 2","source":{"id":"12","value":"Education Statistics"},"sourceNote":"Net attendance rate. Primary. Quintile 2 is the proportion of quintile 2 children of the official primary school age who are attending primary school. The primary school age is based on the parameters of the educational system: starting age and duration of primary school.","sourceOrganization":"Demographic and Health Surveys (DHS)","topics":[{"id":"4","value":"Education "}]},{"id":"HH.DHS.NAR.1.Q1","name":"DHS: Net attendance rate. Primary. Quintile 1","source":{"id":"12","value":"Education Statistics"},"sourceNote":"Net attendance rate. Primary. Quintile 1 is the proportion of quintile 1 children of the official primary school age who are attending primary school. The primary school age is based on the parameters of the educational system: starting age and duration of primary school.","sourceOrganization":"Demographic and Health Surveys (DHS)","topics":[{"id":"4","value":"Education "}]},{"id":"HH.DHS.NAR.1.M","name":"DHS: Net attendance rate. Primary. Male","source":{"id":"12","value":"Education Statistics"},"sourceNote":"Net attendance rate. Primary. Male is the proportion of male children of the official primary school age who are attending primary school. The primary school age is based on the parameters of the educational system: starting age and duration of primary school.","sourceOrganization":"Demographic and Health Surveys (DHS)","topics":[{"id":"4","value":"Education "}]},{"id":"HH.DHS.NAR.1.F","name":"DHS: Net attendance rate. Primary. Female","source":{"id":"12","value":"Education Statistics"},"sourceNote":"Net attendance rate. Primary. Female is the proportion of female children of the official primary school age who are attending primary school. The primary school age is based on the parameters of the educational system: starting age and duration of primary school.","sourceOrganization":"Demographic and Health Surveys (DHS)","topics":[{"id":"4","value":"Education "}]},{"id":"HH.DHS.NAR.1","name":"DHS: Net attendance rate. Primary","source":{"id":"12","value":"Education Statistics"},"sourceNote":"Net attendance rate. Primary. Total is the proportion of children of the official primary school age who are attending primary school. The primary school age is based on the parameters of the educational system: starting age and duration of primary school.","sourceOrganization":"Demographic and Health Surveys (DHS)","topics":[{"id":"4","value":"Education "}]},{"id":"HH.DHS.GAR.456.U","name":"DHS: Gross attendance rate. Post Secondary. Urban","source":{"id":"12","value":"Education Statistics"},"sourceNote":"Gross attendance rate. Post Secondary. Urban is the number of urban post-secondary school pupils of any age, expressed as a percentage of the urban population of post-secondary school age. Post-secondary school age is defined as the age range from graduation from secondary school till the maximum age set as a parameter of the educational system.","sourceOrganization":"Demographic and Health Surveys (DHS)","topics":[{"id":"4","value":"Education "}]},{"id":"HH.DHS.GAR.456.R","name":"DHS: Gross attendance rate. Post Secondary. Rural","source":{"id":"12","value":"Education Statistics"},"sourceNote":"Gross attendance rate. Post Secondary. Rural is the number of rural post-secondary school pupils of any age, expressed as a percentage of the rural population of post-secondary school age. Post-secondary school age is defined as the age range from graduation from secondary school till the maximum age set as a parameter of the educational system.","sourceOrganization":"Demographic and Health Surveys (DHS)","topics":[{"id":"4","value":"Education "}]},{"id":"HH.DHS.GAR.456.Q5","name":"DHS: Gross attendance rate. Post Secondary. Quintile 5","source":{"id":"12","value":"Education Statistics"},"sourceNote":"Gross attendance rate. Post Secondary. Quintile 5 is the number of quintile 5 post-secondary school pupils of any age, expressed as a percentage of the quintile 5 population of post-secondary school age. Post-secondary school age is defined as the age range from graduation from secondary school till the maximum age set as a parameter of the educational system.","sourceOrganization":"Demographic and Health Surveys (DHS)","topics":[{"id":"4","value":"Education "}]},{"id":"HH.DHS.GAR.456.Q4","name":"DHS: Gross attendance rate. Post Secondary. Quintile 4","source":{"id":"12","value":"Education Statistics"},"sourceNote":"Gross attendance rate. Post Secondary. Quintile 4 is the number of quintile 4 post-secondary school pupils of any age, expressed as a percentage of the quintile 4 population of post-secondary school age. Post-secondary school age is defined as the age range from graduation from secondary school till the maximum age set as a parameter of the educational system.","sourceOrganization":"Demographic and Health Surveys (DHS)","topics":[{"id":"4","value":"Education "}]},{"id":"HH.DHS.GAR.456.Q3","name":"DHS: Gross attendance rate. Post Secondary. Quintile 3","source":{"id":"12","value":"Education Statistics"},"sourceNote":"Gross attendance rate. Post Secondary. Quintile 3 is the number of quintile 3 post-secondary school pupils of any age, expressed as a percentage of the quintile 3 population of post-secondary school age. Post-secondary school age is defined as the age range from graduation from secondary school till the maximum age set as a parameter of the educational system.","sourceOrganization":"Demographic and Health Surveys (DHS)","topics":[{"id":"4","value":"Education "}]},{"id":"HH.DHS.GAR.456.Q2","name":"DHS: Gross attendance rate. Post Secondary. Quintile 2","source":{"id":"12","value":"Education Statistics"},"sourceNote":"Gross attendance rate. Post Secondary. Quintile 2 is the number of quintile 2 post-secondary school pupils of any age, expressed as a percentage of the quintile 2 population of post-secondary school age. Post-secondary school age is defined as the age range from graduation from secondary school till the maximum age set as a parameter of the educational system.","sourceOrganization":"Demographic and Health Surveys (DHS)","topics":[{"id":"4","value":"Education "}]},{"id":"HH.DHS.GAR.456.Q1","name":"DHS: Gross attendance rate. Post Secondary. Quintile 1","source":{"id":"12","value":"Education Statistics"},"sourceNote":"Gross attendance rate. Post Secondary. Quintile 1 is the number of quintile 1 post-secondary school pupils of any age, expressed as a percentage of the quintile 1 population of post-secondary school age. Post-secondary school age is defined as the age range from graduation from secondary school till the maximum age set as a parameter of the educational system.","sourceOrganization":"Demographic and Health Surveys (DHS)","topics":[{"id":"4","value":"Education "}]},{"id":"HH.DHS.GAR.456.M","name":"DHS: Gross attendance rate. Post Secondary. Male","source":{"id":"12","value":"Education Statistics"},"sourceNote":"Gross attendance rate. Post Secondary. Male is the number of male post-secondary school pupils of any age, expressed as a percentage of the population of males of post-secondary school age. Post-secondary school age is defined as the age range from graduation from secondary school till the maximum age set as a parameter of the educational system.","sourceOrganization":"Demographic and Health Surveys (DHS)","topics":[{"id":"4","value":"Education "}]},{"id":"HH.DHS.GAR.456.F","name":"DHS: Gross attendance rate. Post Secondary. Female","source":{"id":"12","value":"Education Statistics"},"sourceNote":"Gross attendance rate. Post Secondary. Female is the number of female post-secondary school pupils of any age, expressed as a percentage of the population of females of post-secondary school age. Post-secondary school age is defined as the age range from graduation from secondary school till the maximum age set as a parameter of the educational system.","sourceOrganization":"Demographic and Health Surveys (DHS)","topics":[{"id":"4","value":"Education "}]},{"id":"HH.DHS.GAR.456","name":"DHS: Gross attendance rate. Post Secondary","source":{"id":"12","value":"Education Statistics"},"sourceNote":"Gross attendance rate. Post Secondary is the number of post-secondary school pupils of any age, expressed as a percentage of youth of post-secondary school age. Post-secondary school age is defined as the age range from graduation from secondary school till the maximum age set as a parameter of the educational system.","sourceOrganization":"Demographic and Health Surveys (DHS)","topics":[{"id":"4","value":"Education "}]},{"id":"gwp1.6","name":"Access to a mobile phone or internet at home, older adults (% age 35+)","source":{"id":"33","value":"G20 Basic Set of Financial Inclusion Indicators"},"sourceNote":"Denotes the percentage of adults with access to a mobile phone or internet at home","sourceOrganization":"Gallup World Poll","topics":[]},{"id":"gwp1.5","name":"Access to a mobile phone or internet at home, young adults (% ages 15-34)","source":{"id":"33","value":"G20 Basic Set of Financial Inclusion Indicators"},"sourceNote":"Denotes the percentage of adults with access to a mobile phone or internet at home","sourceOrganization":"Gallup World Poll","topics":[]},{"id":"gwp1.4","name":"Access to a mobile phone or internet at home, income, richest 60% (% age 15+)","source":{"id":"33","value":"G20 Basic Set of Financial Inclusion Indicators"},"sourceNote":"Denotes the percentage of adults with access to a mobile phone or internet at home","sourceOrganization":"Gallup World Poll","topics":[]},{"id":"gwp1.3","name":"Access to a mobile phone or internet at home, income, poorest 40% (% age 15+)","source":{"id":"33","value":"G20 Basic Set of Financial Inclusion Indicators"},"sourceNote":"Denotes the percentage of adults with access to a mobile phone or internet at home","sourceOrganization":"Gallup World Poll","topics":[]},{"id":"gwp1.2","name":"Access to a mobile phone or internet at home, male (% age 15+)","source":{"id":"33","value":"G20 Basic Set of Financial Inclusion Indicators"},"sourceNote":"Denotes the percentage of adults with access to a mobile phone or internet at home","sourceOrganization":"Gallup World Poll","topics":[]},{"id":"gwp1.1","name":"Access to a mobile phone or internet at home, female (% age 15+)","source":{"id":"33","value":"G20 Basic Set of Financial Inclusion Indicators"},"sourceNote":"Denotes the percentage of adults with access to a mobile phone or internet at home","sourceOrganization":"Gallup World Poll","topics":[]},{"id":"gwp1","name":"Access to a mobile phone or internet at home (% age 15+)","source":{"id":"33","value":"G20 Basic Set of Financial Inclusion Indicators"},"sourceNote":"Denotes the percentage of adults with access to a mobile phone or internet at home","sourceOrganization":"Gallup World Poll","topics":[]},{"id":"GV.VOIC.AC.SE","name":"Voice and Accountability (standard error)","source":{"id":"11","value":"Africa Development Indicators"},"sourceNote":"See definition GV.VOIC.AC.ES.  Inherent to all Governance Indicators is a margin of error, which might vary from country to country, normally attributable to two factors: (i) cross-country differences in the number of sources in which a country appears, and (ii) differences in the precision of the sources in which each country appears.  ","sourceOrganization":"World Bank Institute.","topics":[]},{"id":"GV.VOIC.AC.NO","name":"Voice and Accountability (number of surveys\/polls)","source":{"id":"11","value":"Africa Development Indicators"},"sourceNote":"See definition GV.VOIC.AC.ES.  This is the number of surveys\/polls used to derive the GV.VOIC.AC.ES.  ","sourceOrganization":"World Bank Institute.","topics":[]},{"id":"GV.VOIC.AC.ES","name":"Voice and Accountability (estimate)","source":{"id":"11","value":"Africa Development Indicators"},"sourceNote":"Voice and accountability measures the extent to which a country’s citizens are able to participate in selecting their government and to enjoy freedom of expression, freedom of association, and a free media.  Further documentation and research using the World Governance Indicators (WGI) is available at www.worldbank.org\/wbi\/governance.  ","sourceOrganization":"World Bank Institute.","topics":[]},{"id":"GV.TI.SCOR.IDX","name":"Corruption Perceptions Index (score)","source":{"id":"11","value":"Africa Development Indicators"},"sourceNote":"This information is from the http:\/\/www.transparency.org Transparency International web site.  More information may be available there.  CPI Score relates to perceptions of the degree of corruption as seen by business people and country analysts, and ranges between 0 (highly corrupt) and 10 (highly clean).  Data for 2012 Corruption Perceptions Index scores countries on a scale from 0 (highly corrupt) to 100 (very clean).  Confidence range provides a range of possible values of the CPI score. This reflects how a country's score may vary, depending on measurement precision. Nominally, with 5 percent probability the score is above this range and with another 5 percent it is below.","sourceOrganization":"Transparency International","topics":[]},{"id":"GV.TI.RANK.IDX","name":"Corruption Perceptions Index (rank)","source":{"id":"11","value":"Africa Development Indicators"},"sourceNote":"This is the ranking from the annual Transparency International corruption perceptions index, which ranks more than 150 countries in terms of perceived levels of corruption, as determined by expert assessments and opinion surveys.  For more information on this indicator, please visit http:\/\/www.transparency.org\/policy_research\/surveys_indices\/cpi the Transparency International page on the topic.  ","sourceOrganization":"World Bank Institute.","topics":[]},{"id":"GV.RULE.LW.SE","name":"Rule of Law (standard error)","source":{"id":"11","value":"Africa Development Indicators"},"sourceNote":"See definition GV.RULE.LW.ES.   Inherent to all Governance Indicators is a margin of error, which might vary from country to country, normally attributable to two factors: (i) cross-country differences in the number of sources in which a country appears, and (ii) differences in the precision of the sources in which each country appears.  ","sourceOrganization":"World Bank Institute.","topics":[]},{"id":"GV.RULE.LW.NO","name":"Rule of Law (number off surveys\/polls)","source":{"id":"11","value":"Africa Development Indicators"},"sourceNote":"See definition GV.RULE.LW.ES.  This is the number of surveys\/polls used to derive the GV.RULE.LW.ES.  ","sourceOrganization":"World Bank Institute.","topics":[]},{"id":"GV.RULE.LW.ES","name":"Rule of Law (estimate)","source":{"id":"11","value":"Africa Development Indicators"},"sourceNote":"Rule of law measures the extent to which agents have confidence in and abide by the rules of society, in particular the quality of contract enforcement, the police, and the courts, as well as the likelihood of crime and violence.  Further documentation and research using the World Governance Indicators (WGI) is available at www.worldbank.org\/wbi\/governance.  ","sourceOrganization":"World Bank Institute.","topics":[]},{"id":"GV.REGL.LA.SE","name":"Regulatory Quality (standard error)","source":{"id":"11","value":"Africa Development Indicators"},"sourceNote":"See definition GV.REGL.LA.ES.  Inherent to all Governance Indicators is a margin of error, which might vary from country to country, normally attributable to two factors: (i) cross-country differences in the number of sources in which a country appears, and (ii) differences in the precision of the sources in which each country appears.  ","sourceOrganization":"World Bank Institute.","topics":[]},{"id":"GV.REGL.LA.NO","name":"Regulatory Quality (number of surveys\/polls)","source":{"id":"11","value":"Africa Development Indicators"},"sourceNote":"See definition GV.REGL.LA.ES.  This is the number of surveys\/polls used to derive the GV.REGL.LA.ES.  ","sourceOrganization":"World Bank Institute.","topics":[]},{"id":"GV.REGL.LA.ES","name":"Regulatory Quality (estimate)","source":{"id":"11","value":"Africa Development Indicators"},"sourceNote":"Regulatory quality measures the ability of the government to formulate and implement sound policies and regulations that permit and promote private sector development.  Further documentation and research using the World Governance Indicators (WGI) is available at www.worldbank.org\/wbi\/governance.  ","sourceOrganization":"World Bank Institute.","topics":[]},{"id":"GV.POLI.ST.SE","name":"Political Stability\/No Violence (standard error)","source":{"id":"11","value":"Africa Development Indicators"},"sourceNote":"See definition GV.POLI.ST.SD.  Inherent to all Governance Indicators is a margin of error, which might vary from country to country, normally attributable to two factors: (i) cross-country differences in the number of sources in which a country appears, and (ii) differences in the precision of the sources in which each country appears.  ","sourceOrganization":"World Bank Institute.","topics":[]},{"id":"GV.POLI.ST.NO","name":"Political Stability\/No Violence (number of surveys\/polls)","source":{"id":"11","value":"Africa Development Indicators"},"sourceNote":"See definition GV.POL.ST.ES.  This is the number of surveys\/polls used to derive the GV.POL.ST.ES.  ","sourceOrganization":"World Bank Institute.","topics":[]},{"id":"GV.POLI.ST.ES","name":"Political Stability\/No Violence (estimate)","source":{"id":"11","value":"Africa Development Indicators"},"sourceNote":"Political stability and absence of violence measures the perceptions of the likelihood that the government will be destabilized or overthrown by unconstitutional or violent means, including domestic violence or terrorism.  Further documentation and research using the World Governance Indicators (WGI) is available at www.worldbank.org\/wbi\/governance.  ","sourceOrganization":"World Bank Institute.","topics":[]},{"id":"GV.GOVT.EF.SE","name":"Government Effectiveness (standard error)","source":{"id":"11","value":"Africa Development Indicators"},"sourceNote":"See definition GV.GOVT.EF.ES. Inherent to all Governance Indicators is a margin of error, which might vary from country to country, normally attributable to two factors: (i) cross-country differences in the number of sources in which a country appears, and (ii) differences in the precision of the sources in which each country appears.  ","sourceOrganization":"World Bank Institute.","topics":[]},{"id":"GV.GOVT.EF.NO","name":"Government Effectiveness (number of surveys\/polls)","source":{"id":"11","value":"Africa Development Indicators"},"sourceNote":"See definition GV.GOVT.EF.ES.  This is the number of surveys\/polls used to derive the GV.GOVT.EF.ES.  ","sourceOrganization":"World Bank Institute.","topics":[]},{"id":"GV.GOVT.EF.ES","name":"Government Effectiveness (estimate)","source":{"id":"11","value":"Africa Development Indicators"},"sourceNote":"Government effectiveness measures the quality of public services, the quality and degree of independence from political pressures of the civil service, the quality of policy formulation and implementation, and the credibility of the government’s commitment to such policies. Further documentation and research using the World Governance Indicators (WGI) is available at www.worldbank.org\/wbi\/governance.  ","sourceOrganization":"World Bank Institute.","topics":[]},{"id":"GV.CONT.CO.SE","name":"Control of Corruption (standard error)","source":{"id":"11","value":"Africa Development Indicators"},"sourceNote":"See definition GV.CONT.CO.ES.  Inherent to all Governance Indicators is a margin of error, which might vary from country to country, normally attributable to two factors: (i) cross-country differences in the number of sources in which a country appears, and (ii) differences in the precision of the sources in which each country appears.  ","sourceOrganization":"World Bank Institute.","topics":[]},{"id":"GV.CONT.CO.NO","name":"Control of Corruption (number of surveys\/polls)","source":{"id":"11","value":"Africa Development Indicators"},"sourceNote":"See definition GV.CONT.CO.ES.  This is the number of surveys\/polls used to derive the GV.CONT.CO.ES.  ","sourceOrganization":"World Bank Institute.","topics":[]},{"id":"GV.CONT.CO.ES","name":"Control of Corruption (estimate)","source":{"id":"11","value":"Africa Development Indicators"},"sourceNote":"Control of corruption measures the extent to which public power is exercised for private gain, including petty and grand forms of corruption, as well as “capture” of the state by elites and private interests.  Further documentation and research using the World Governance Indicators (WGI) is available at www.worldbank.org\/wbi\/governance.  ","sourceOrganization":"\"World Bank Institute.\u000d\"","topics":[]},{"id":"GRNUT_OIL","name":"Groundnut oil, $\/mt, current$","source":{"id":"21","value":"Global Economic Monitor (GEM) Commodities"},"sourceNote":"Groundnut oil (any origin), c.i.f. Rotterdam","sourceOrganization":"ISTA Mielke GmbH, Oil World; US Department of Agriculture; World Bank.","topics":[]},{"id":"GPSS.6","name":"Interoperability of ATM networks and interoperability of POS terminals (0-1)","source":{"id":"33","value":"G20 Basic Set of Financial Inclusion Indicators"},"sourceNote":"Denotes the extent of interoperability of ATM networks and interoperability of POS terminals. Takes the value 1 if most or all ATM networks (\/POS terminals) are interconnected and 0 if they are not interconnected.","sourceOrganization":"World Bank, Global Payments Systems Survey","topics":[]},{"id":"GPSS.5","name":"Debit cards per 1,000 adults","source":{"id":"33","value":"G20 Basic Set of Financial Inclusion Indicators"},"sourceNote":"Denotes the number of debit cards per 1,000 adults","sourceOrganization":"World Bank, Global Payments Systems Survey","topics":[]},{"id":"GPSS.4","name":"POS terminals per 100,000 adults","source":{"id":"33","value":"G20 Basic Set of Financial Inclusion Indicators"},"sourceNote":"Denotes the number of Point Of Sale (POS) terminals per 100,000 adults.","sourceOrganization":"World Bank, Global Payments Systems Survey","topics":[]},{"id":"GPSS.3","name":"Agents of payment service providers per 100,000 adults","source":{"id":"33","value":"G20 Basic Set of Financial Inclusion Indicators"},"sourceNote":"Denotes the number of agents of payment service providers per 100,000 adults. Includes: agents of banks and other deposit taking institutions, as well as specialized entities such as money transfer operators and e-money issuers","sourceOrganization":"World Bank, Global Payments Systems Survey","topics":[{}]}]]