[{"page":165,"pages":324,"per_page":"50","total":16174},[{"id":"per_lm_ac.cov_q2_rur","name":"Coverage in 2nd quintile (%) - Active Labor Market -rural","source":{"id":"29","value":"Global Social Protection"},"sourceNote":"Percentage of population participating in Social Protection and Labor programs (includes direct and indirect beneficiaries)","sourceOrganization":"ASPIRE","topics":[{"id":"10","value":"Social Protection & Labor"}]},{"id":"per_lm_ac.cov_q2_preT_tot","name":"Coverage in 2nd quintile (%) - Active Labor Market (preT)","source":{"id":"29","value":"Global Social Protection"},"sourceNote":"Percentage of population participating in Social Protection and Labor programs (includes direct and indirect beneficiaries)","sourceOrganization":"ASPIRE","topics":[{"id":"10","value":"Social Protection & Labor"}]},{"id":"per_lm_ac.cov_q1_urb","name":"Coverage in poorest quintile (%) - Active Labor Market -urban","source":{"id":"29","value":"Global Social Protection"},"sourceNote":"Percentage of population participating in Social Protection and Labor programs (includes direct and indirect beneficiaries)","sourceOrganization":"ASPIRE","topics":[{"id":"10","value":"Social Protection & Labor"}]},{"id":"per_lm_ac.cov_q1_tot","name":"Coverage in poorest quintile (%) - Active Labor Market","source":{"id":"29","value":"Global Social Protection"},"sourceNote":"Percentage of population participating in Social Protection and Labor programs (includes direct and indirect beneficiaries)","sourceOrganization":"ASPIRE","topics":[{"id":"10","value":"Social Protection & Labor"}]},{"id":"per_lm_ac.cov_q1_rur","name":"Coverage in poorest quintile (%) - Active Labor Market -rural","source":{"id":"29","value":"Global Social Protection"},"sourceNote":"Percentage of population participating in Social Protection and Labor programs (includes direct and indirect beneficiaries)","sourceOrganization":"ASPIRE","topics":[{"id":"10","value":"Social Protection & Labor"}]},{"id":"per_lm_ac.cov_q1_preT_tot","name":"Coverage in poorest quintile (%) - Active Labor Market (preT)","source":{"id":"29","value":"Global Social Protection"},"sourceNote":"Percentage of population participating in Social Protection and Labor programs (includes direct and indirect beneficiaries)","sourceOrganization":"ASPIRE","topics":[{"id":"10","value":"Social Protection & Labor"}]},{"id":"per_lm_ac.cov_pop_urb","name":"Coverage (%) - Active Labor Market -urban","source":{"id":"29","value":"Global Social Protection"},"sourceNote":"Percentage of population participating in Social Protection and Labor programs (includes direct and indirect beneficiaries)","sourceOrganization":"ASPIRE","topics":[{"id":"10","value":"Social Protection & Labor"}]},{"id":"per_lm_ac.cov_pop_tot","name":"Coverage (%) - Active Labor Market","source":{"id":"29","value":"Global Social Protection"},"sourceNote":"Percentage of population participating in Social Protection and Labor programs (includes direct and indirect beneficiaries)","sourceOrganization":"ASPIRE","topics":[{"id":"10","value":"Social Protection & Labor"}]},{"id":"per_lm_ac.cov_pop_rur","name":"Coverage (%) - Active Labor Market -rural","source":{"id":"29","value":"Global Social Protection"},"sourceNote":"Percentage of population participating in Social Protection and Labor programs (includes direct and indirect beneficiaries)","sourceOrganization":"ASPIRE","topics":[{"id":"10","value":"Social Protection & Labor"}]},{"id":"per_lm_ac.cov_pop_preT_tot","name":"Coverage (%) - Active Labor Market (preT)","source":{"id":"29","value":"Global Social Protection"},"sourceNote":"Percentage of population participating in Social Protection and Labor programs (includes direct and indirect beneficiaries)","sourceOrganization":"ASPIRE","topics":[{"id":"10","value":"Social Protection & Labor"}]},{"id":"per_lm_ac.cov_ep_tot","name":"Coverage in extreme poor (<$1.25 a day) (%) - Active Labor Market","source":{"id":"29","value":"Global Social Protection"},"sourceNote":"Percentage of population participating in Social Protection and Labor programs (includes direct and indirect beneficiaries)","sourceOrganization":"ASPIRE","topics":[{"id":"10","value":"Social Protection & Labor"}]},{"id":"per_lm_ac.cov_ep_preT_tot","name":"Coverage in extreme poor (<$1.25 a day) (%) - Active Labor Market  (preT)","source":{"id":"29","value":"Global Social Protection"},"sourceNote":"Percentage of population participating in Social Protection and Labor programs (includes direct and indirect beneficiaries)","sourceOrganization":"ASPIRE","topics":[{"id":"10","value":"Social Protection & Labor"}]},{"id":"per_lm_ac.cba_q1_urb","name":"Benefit-cost ratio -  Active Labor Market  - poorest quintile -urban","source":{"id":"29","value":"Global Social Protection"},"sourceNote":"Poverty gap reduction obtained for each $1 spent in SPL programs (%)","sourceOrganization":"ASPIRE","topics":[{"id":"10","value":"Social Protection & Labor"}]},{"id":"per_lm_ac.cba_q1_tot","name":"Benefit-cost ratio -  Active Labor Market  -poorest quintile","source":{"id":"29","value":"Global Social Protection"},"sourceNote":"Poverty gap reduction obtained for each $1 spent in SPL programs (%)","sourceOrganization":"ASPIRE","topics":[{"id":"10","value":"Social Protection & Labor"}]},{"id":"per_lm_ac.cba_q1_rur","name":"Benefit-cost ratio -  Active Labor Market  -poorest quintile -rural","source":{"id":"29","value":"Global Social Protection"},"sourceNote":"Poverty gap reduction obtained for each $1 spent in SPL programs (%)","sourceOrganization":"ASPIRE","topics":[{"id":"10","value":"Social Protection & Labor"}]},{"id":"per_lm_ac.cba_q1_preT_tot","name":"Benefit-cost ratio -  Active Labor Market  -poorest quintile (preT)","source":{"id":"29","value":"Global Social Protection"},"sourceNote":"Poverty gap reduction obtained for each $1 spent in SPL programs (%)","sourceOrganization":"ASPIRE","topics":[{"id":"10","value":"Social Protection & Labor"}]},{"id":"per_lm_ac.cba_ep_tot","name":"Benefit-cost ratio -  Active Labor Market  -extreme poor (<$1.25 a day)","source":{"id":"29","value":"Global Social Protection"},"sourceNote":"Poverty gap reduction obtained for each $1 spent in SPL programs (%)","sourceOrganization":"ASPIRE","topics":[{"id":"10","value":"Social Protection & Labor"}]},{"id":"per_lm_ac.cba_ep_preT_tot","name":"Benefit-cost ratio -  Active Labor Market  -extreme poor (<$1.25 a day) (preT)","source":{"id":"29","value":"Global Social Protection"},"sourceNote":"Poverty gap reduction obtained for each $1 spent in SPL programs (%)","sourceOrganization":"ASPIRE","topics":[{"id":"10","value":"Social Protection & Labor"}]},{"id":"per_lm_ac.bry_q5_urb","name":"Beneficiary incidence in richest quintile (%) - Active Labor Market -urban","source":{"id":"29","value":"Global Social Protection"},"sourceNote":"Percentage of program beneficiaries in a quintile relative to the total number of beneficiaries in the population","sourceOrganization":"ASPIRE","topics":[{"id":"10","value":"Social Protection & Labor"}]},{"id":"per_lm_ac.bry_q5_tot","name":"Beneficiary incidence in richest quintile (%) - Active Labor Market","source":{"id":"29","value":"Global Social Protection"},"sourceNote":"Percentage of program beneficiaries in a quintile relative to the total number of beneficiaries in the population","sourceOrganization":"ASPIRE","topics":[{"id":"10","value":"Social Protection & Labor"}]},{"id":"per_lm_ac.bry_q5_rur","name":"Beneficiary incidence in richest quintile (%) - Active Labor Market -rural","source":{"id":"29","value":"Global Social Protection"},"sourceNote":"Percentage of program beneficiaries in a quintile relative to the total number of beneficiaries in the population","sourceOrganization":"ASPIRE","topics":[{"id":"10","value":"Social Protection & Labor"}]},{"id":"per_lm_ac.bry_q5_preT_tot","name":"Beneficiary incidence in richest quintile (%) - Active Labor Market (preT)","source":{"id":"29","value":"Global Social Protection"},"sourceNote":"Percentage of program beneficiaries in a quintile relative to the total number of beneficiaries in the population","sourceOrganization":"ASPIRE","topics":[{"id":"10","value":"Social Protection & Labor"}]},{"id":"per_lm_ac.bry_q4_urb","name":"Beneficiary incidence in 4th quintile (%) - Active Labor Market -urban","source":{"id":"29","value":"Global Social Protection"},"sourceNote":"Percentage of program beneficiaries in a quintile relative to the total number of beneficiaries in the population","sourceOrganization":"ASPIRE","topics":[{"id":"10","value":"Social Protection & Labor"}]},{"id":"per_lm_ac.bry_q4_tot","name":"Beneficiary incidence in 4th quintile (%) - Active Labor Market","source":{"id":"29","value":"Global Social Protection"},"sourceNote":"Percentage of program beneficiaries in a quintile relative to the total number of beneficiaries in the population","sourceOrganization":"ASPIRE","topics":[{"id":"10","value":"Social Protection & Labor"}]},{"id":"per_lm_ac.bry_q4_rur","name":"Beneficiary incidence in 4th quintile (%) - Active Labor Market -rural","source":{"id":"29","value":"Global Social Protection"},"sourceNote":"Percentage of program beneficiaries in a quintile relative to the total number of beneficiaries in the population","sourceOrganization":"ASPIRE","topics":[{"id":"10","value":"Social Protection & Labor"}]},{"id":"per_lm_ac.bry_q4_preT_tot","name":"Beneficiary incidence in 4th quintile (%) - Active Labor Market (preT)","source":{"id":"29","value":"Global Social Protection"},"sourceNote":"Percentage of program beneficiaries in a quintile relative to the total number of beneficiaries in the population","sourceOrganization":"ASPIRE","topics":[{"id":"10","value":"Social Protection & Labor"}]},{"id":"per_lm_ac.bry_q3_urb","name":"Beneficiary incidence in 3rd quintile (%) - Active Labor Market -urban","source":{"id":"29","value":"Global Social Protection"},"sourceNote":"Percentage of program beneficiaries in a quintile relative to the total number of beneficiaries in the population","sourceOrganization":"ASPIRE","topics":[{"id":"10","value":"Social Protection & Labor"}]},{"id":"per_lm_ac.bry_q3_tot","name":"Beneficiary incidence in 3rd quintile (%) - Active Labor Market","source":{"id":"29","value":"Global Social Protection"},"sourceNote":"Percentage of program beneficiaries in a quintile relative to the total number of beneficiaries in the population","sourceOrganization":"ASPIRE","topics":[{"id":"10","value":"Social Protection & Labor"}]},{"id":"per_lm_ac.bry_q3_rur","name":"Beneficiary incidence in 3rd quintile (%) - Active Labor Market -rural","source":{"id":"29","value":"Global Social Protection"},"sourceNote":"Percentage of program beneficiaries in a quintile relative to the total number of beneficiaries in the population","sourceOrganization":"ASPIRE","topics":[{"id":"10","value":"Social Protection & Labor"}]},{"id":"per_lm_ac.bry_q3_preT_tot","name":"Beneficiary incidence in 3rd quintile (%) - Active Labor Market (preT)","source":{"id":"29","value":"Global Social Protection"},"sourceNote":"Percentage of program beneficiaries in a quintile relative to the total number of beneficiaries in the population","sourceOrganization":"ASPIRE","topics":[{"id":"10","value":"Social Protection & Labor"}]},{"id":"per_lm_ac.bry_q2_urb","name":"Beneficiary incidence in 2nd quintile (%) - Active Labor Market -urban","source":{"id":"29","value":"Global Social Protection"},"sourceNote":"Percentage of program beneficiaries in a quintile relative to the total number of beneficiaries in the population","sourceOrganization":"ASPIRE","topics":[{"id":"10","value":"Social Protection & Labor"}]},{"id":"per_lm_ac.bry_q2_tot","name":"Beneficiary incidence in 2nd quintile (%) - Active Labor Market","source":{"id":"29","value":"Global Social Protection"},"sourceNote":"Percentage of program beneficiaries in a quintile relative to the total number of beneficiaries in the population","sourceOrganization":"ASPIRE","topics":[{"id":"10","value":"Social Protection & Labor"}]},{"id":"per_lm_ac.bry_q2_rur","name":"Beneficiary incidence in 2nd quintile (%) - Active Labor Market -rural","source":{"id":"29","value":"Global Social Protection"},"sourceNote":"Percentage of program beneficiaries in a quintile relative to the total number of beneficiaries in the population","sourceOrganization":"ASPIRE","topics":[{"id":"10","value":"Social Protection & Labor"}]},{"id":"per_lm_ac.bry_q2_preT_tot","name":"Beneficiary incidence in 2nd quintile (%) - Active Labor Market (preT)","source":{"id":"29","value":"Global Social Protection"},"sourceNote":"Percentage of program beneficiaries in a quintile relative to the total number of beneficiaries in the population","sourceOrganization":"ASPIRE","topics":[{"id":"10","value":"Social Protection & Labor"}]},{"id":"per_lm_ac.bry_q1_urb","name":"Beneficiary incidence in poorest quintile (%) - Active Labor Market -urban","source":{"id":"29","value":"Global Social Protection"},"sourceNote":"Percentage of program beneficiaries in a quintile relative to the total number of beneficiaries in the population","sourceOrganization":"ASPIRE","topics":[{"id":"10","value":"Social Protection & Labor"}]},{"id":"per_lm_ac.bry_q1_tot","name":"Beneficiary incidence in poorest quintile (%) - Active Labor Market","source":{"id":"29","value":"Global Social Protection"},"sourceNote":"Percentage of program beneficiaries in a quintile relative to the total number of beneficiaries in the population","sourceOrganization":"ASPIRE","topics":[{"id":"10","value":"Social Protection & Labor"}]},{"id":"per_lm_ac.bry_q1_rur","name":"Beneficiary incidence in poorest quintile (%) - Active Labor Market -rural","source":{"id":"29","value":"Global Social Protection"},"sourceNote":"Percentage of program beneficiaries in a quintile relative to the total number of beneficiaries in the population","sourceOrganization":"ASPIRE","topics":[{"id":"10","value":"Social Protection & Labor"}]},{"id":"per_lm_ac.bry_q1_preT_tot","name":"Beneficiary incidence in poorest quintile (%) - Active Labor Market (preT)","source":{"id":"29","value":"Global Social Protection"},"sourceNote":"Percentage of program beneficiaries in a quintile relative to the total number of beneficiaries in the population","sourceOrganization":"ASPIRE","topics":[{"id":"10","value":"Social Protection & Labor"}]},{"id":"per_lm_ac.bry_ep_tot","name":"Beneficiary incidence in extreme poor (<$1.25 a day) (%) - Active Labor Market","source":{"id":"29","value":"Global Social Protection"},"sourceNote":"Percentage of program beneficiaries in a quintile relative to the total number of beneficiaries in the population","sourceOrganization":"ASPIRE","topics":[{"id":"10","value":"Social Protection & Labor"}]},{"id":"per_lm_ac.bry_ep_preT_tot","name":"Beneficiary incidence in extreme poor (<$1.25 a day) (%) - Active Labor Market  (preT)","source":{"id":"29","value":"Global Social Protection"},"sourceNote":"Percentage of program beneficiaries in a quintile relative to the total number of beneficiaries in the population","sourceOrganization":"ASPIRE","topics":[{"id":"10","value":"Social Protection & Labor"}]},{"id":"per_lm_ac.ben_q5_urb","name":"Benefits incidence in richest quintile (%) - Active Labor Market -urban","source":{"id":"29","value":"Global Social Protection"},"sourceNote":"Percentage of benefits going to the richestquintile  relative to the total benefits going to the population","sourceOrganization":"ASPIRE","topics":[{"id":"10","value":"Social Protection & Labor"}]},{"id":"per_lm_ac.ben_q5_tot","name":"Benefits incidence in richest quintile (%) - Active Labor Market","source":{"id":"29","value":"Global Social Protection"},"sourceNote":"Percentage of benefits going to the richestquintile  relative to the total benefits going to the population","sourceOrganization":"ASPIRE","topics":[{"id":"10","value":"Social Protection & Labor"}]},{"id":"per_lm_ac.ben_q5_rur","name":"Benefits incidence in richest quintile (%) - Active Labor Market -rural","source":{"id":"29","value":"Global Social Protection"},"sourceNote":"Percentage of benefits going to the richestquintile  relative to the total benefits going to the population","sourceOrganization":"ASPIRE","topics":[{"id":"10","value":"Social Protection & Labor"}]},{"id":"per_lm_ac.ben_q5_preT_tot","name":"Benefits incidence in richest quintile (%) - Active Labor Market (preT)","source":{"id":"29","value":"Global Social Protection"},"sourceNote":"Percentage of benefits going to the richestquintile  relative to the total benefits going to the population","sourceOrganization":"ASPIRE","topics":[{"id":"10","value":"Social Protection & Labor"}]},{"id":"per_lm_ac.ben_q4_urb","name":"Benefits incidence in 4th quintile (%) - Active Labor Market -urban","source":{"id":"29","value":"Global Social Protection"},"sourceNote":"Percentage of benefits going to the fourth quintile  relative to the total benefits going to the population","sourceOrganization":"ASPIRE","topics":[{"id":"10","value":"Social Protection & Labor"}]},{"id":"per_lm_ac.ben_q4_tot","name":"Benefits incidence in 4th quintile (%) - Active Labor Market","source":{"id":"29","value":"Global Social Protection"},"sourceNote":"Percentage of benefits going to the fourth quintile  relative to the total benefits going to the population","sourceOrganization":"ASPIRE","topics":[{"id":"10","value":"Social Protection & Labor"}]},{"id":"per_lm_ac.ben_q4_rur","name":"Benefits incidence in 4th quintile (%) - Active Labor Market -rural","source":{"id":"29","value":"Global Social Protection"},"sourceNote":"Percentage of benefits going to the fourth quintile  relative to the total benefits going to the population","sourceOrganization":"ASPIRE","topics":[{"id":"10","value":"Social Protection & Labor"}]},{"id":"per_lm_ac.ben_q4_preT_tot","name":"Benefits incidence in 4th quintile (%) - Active Labor Market (preT)","source":{"id":"29","value":"Global Social Protection"},"sourceNote":"Percentage of benefits going to the fourth quintile  relative to the total benefits going to the population","sourceOrganization":"ASPIRE","topics":[{"id":"10","value":"Social Protection & Labor"}]},{"id":"per_lm_ac.ben_q3_urb","name":"Benefits incidence in 3rd quintile (%) - Active Labor Market -urban","source":{"id":"29","value":"Global Social Protection"},"sourceNote":"Percentage of benefits going to the third quintile  relative to the total benefits going to the population","sourceOrganization":"ASPIRE","topics":[{"id":"10","value":"Social Protection & Labor"}]},{"id":"per_lm_ac.ben_q3_tot","name":"Benefits incidence in 3rd quintile (%) - Active Labor Market","source":{"id":"29","value":"Global Social Protection"},"sourceNote":"Percentage of benefits going to the third quintile  relative to the total benefits going to the population","sourceOrganization":"ASPIRE","topics":[{"id":"10","value":"Social Protection & Labor"}]}]]