[{"page":123,"pages":324,"per_page":"50","total":16174},[{"id":"IN.AGR.YLD.SUGRCANE","name":"Yield - Sugarcane (Kgs\/Hectare)","source":{"id":"41","value":"Country Partnership Strategy for India "},"sourceNote":"Yield of Sugarcane, measured in Kgs\/Hectare, is an estimate based on randomized sampling of survey areas and controlled crop cutting experiments. ","sourceOrganization":"http:\/\/eands.dacnet.nic.in\/Publication12-12-2012\/Agriculture_at_a_Glance%202012\/Pages85-136.pdf","topics":[]},{"id":"IN.AGR.YLD.RICE","name":"Yield - Rice (Kgs\/Hectare)","source":{"id":"41","value":"Country Partnership Strategy for India "},"sourceNote":"Yield of Rice, measured in Kgs\/Hectare, is an estimate based on randomized sampling of survey areas and controlled crop cutting experiments. ","sourceOrganization":"http:\/\/eands.dacnet.nic.in\/Publication12-12-2012\/Agriculture_at_a_Glance%202012\/Pages85-136.pdf","topics":[]},{"id":"IN.AGR.YLD.ALL","name":"Yield - All Foodgrains (Kgs\/Hectare)","source":{"id":"41","value":"Country Partnership Strategy for India "},"sourceNote":"Yield of Total Foodgrains (Rice, Wheat, etc.), measured in Kgs\/Hectare, is derived by aggregating the individual foodgrain production (Kgs) and total harvested areas (hectares), which are estimated using their Yield. ","sourceOrganization":"http:\/\/eands.dacnet.nic.in\/Publication12-12-2012\/Agriculture_at_a_Glance%202012\/Pages85-136.pdf","topics":[]},{"id":"IN.AGR.GR.IRRIG.AREA","name":"Gross Irrigated Area under all crops ('000 hectares)","source":{"id":"41","value":"Country Partnership Strategy for India "},"sourceNote":"Gross area under irrigation is the total area under crops, irrigated once and\/or more than once in a year. It is counted as many times as the number of times the areas are cropped and irrigated in a year.","sourceOrganization":"Source: Directorate of Economics and Statistics, Ministry of Agriculture\u000aHttp:\/\/mospi.nic.in\/mospi_new\/upload\/SYB2014\/CH-12-IRRIGATION\/Table 12.2.xls","topics":[]},{"id":"IMPCOV","name":"Foreign Reserves, Months Import Cover, Goods","source":{"id":"15","value":"Global Economic Monitor"},"sourceNote":"The stock of international reserves is expressed as the number of months of financing-coverage it represents for the given country's imports of merchandise goods.","sourceOrganization":"World Bank staff calculations based on Datastream data.","topics":[]},{"id":"IMETMIN_DV100","name":"Base Metals, 2000=100, current$","source":{"id":"21","value":"Global Economic Monitor (GEM) Commodities"},"sourceNote":"Base Metals index includes aluminum, copper, lead, nickle, tin and zinc, excludes iron ore.","sourceOrganization":"World Bank.","topics":[]},{"id":"IMETMIN","name":"Metals and minerals, 2000=100, current$","source":{"id":"21","value":"Global Economic Monitor (GEM) Commodities"},"sourceNote":"Metals and minerals index includes aluminum, copper, iron ore, lead, nickle, tin and zinc.","sourceOrganization":"World Bank.","topics":[]},{"id":"IGRAINS","name":"Agr: Food: Grains, 2000=100, current$","source":{"id":"21","value":"Global Economic Monitor (GEM) Commodities"},"sourceNote":"Grains index includes barley, maize, rice and wheat.","sourceOrganization":"World Bank.","topics":[]},{"id":"IFOOD","name":"Agr: Food, 2000=100, current$","source":{"id":"21","value":"Global Economic Monitor (GEM) Commodities"},"sourceNote":"Food index includes fats and oils, grains and other food items.","sourceOrganization":"World Bank.","topics":[]},{"id":"IFERTILIZERS","name":"Fertilizers, 2000=100, current$","source":{"id":"21","value":"Global Economic Monitor (GEM) Commodities"},"sourceNote":"Fertilizers index includes natural phosphate rock, phosphate, potassium and nitrogenous products.","sourceOrganization":"World Bank.","topics":[]},{"id":"IFATS_OILS","name":"Agr: Food: Fats and oils, 2000=100, current$","source":{"id":"21","value":"Global Economic Monitor (GEM) Commodities"},"sourceNote":"Fats and oils index includes coconut oil, groundnut oil, palm oil, soybeans, soybean oil and soybean meal.","sourceOrganization":"World Bank.","topics":[]},{"id":"IENERGY","name":"Energy, 2000=100, current$","source":{"id":"21","value":"Global Economic Monitor (GEM) Commodities"},"sourceNote":"Energy index, a Laspeyres Index with fixed weights based on 2002-2004 average developing countries export values, for coal, crude oil and natural gas.","sourceOrganization":"World Bank.","topics":[]},{"id":"IE.PPI.WATR.CD","name":"Investment in water and sanitation with private participation (current US$)","source":{"id":"2","value":"World Development Indicators"},"sourceNote":"Investment in water and sanitation projects with private participation covers infrastructure projects in water and sanitation that have reached financial closure and directly or indirectly serve the public. Movable assets, incinerators, standalone solid waste projects, and small projects are excluded. The types of projects included are operations and management contracts, operations and management contracts with major capital expenditure, greenfield projects (in which a private entity or a public-private joint venture builds and operates a new facility), and divestitures. Investment commitments are the sum of investments in facilities and investments in government assets. Investments in facilities are the resources the project company commits to invest during the contract period either in new facilities or in expansion and modernization of existing facilities. Investments in government assets are the resources the project company spends on acquiring government assets such as state-owned enterprises, rights to provide services in a specific area, or the use of specific radio spectrums. Data are in current U.S. dollars.","sourceOrganization":"World Bank, Private Participation in Infrastructure Project Database (http:\/\/ppi.worldbank.org).","topics":[{"id":"9","value":"Infrastructure "},{"id":"12","value":"Private Sector"}]},{"id":"IE.PPI.TRAN.CD","name":"Investment in transport with private participation (current US$)","source":{"id":"2","value":"World Development Indicators"},"sourceNote":"Investment in transport projects with private participation covers infrastructure projects in transport that have reached financial closure and directly or indirectly serve the public. Movable assets and small projects are excluded. The types of projects included are operations and management contracts, operations and management contracts with major capital expenditure, greenfield projects (in which a private entity or a public-private joint venture builds and operates a new facility), and divestitures. Investment commitments are the sum of investments in facilities and investments in government assets. Investments in facilities are the resources the project company commits to invest during the contract period either in new facilities or in expansion and modernization of existing facilities. Investments in government assets are the resources the project company spends on acquiring government assets such as state-owned enterprises, rights to provide services in a specific area, or the use of specific radio spectrums. Data are in current U.S. dollars.","sourceOrganization":"World Bank, Private Participation in Infrastructure Project Database (http:\/\/ppi.worldbank.org).","topics":[{"id":"9","value":"Infrastructure "},{"id":"12","value":"Private Sector"}]},{"id":"IE.PPI.TELE.CD","name":"Investment in telecoms with private participation (current US$)","source":{"id":"2","value":"World Development Indicators"},"sourceNote":"Investment in telecom projects with private participation covers infrastructure projects in telecommunications that have reached financial closure and directly or indirectly serve the public. Movable assets and small projects are excluded. The types of projects included are operations and management contracts, operations and management contracts with major capital expenditure, greenfield projects (in which a private entity or a public-private joint venture builds and operates a new facility), and divestitures. Investment commitments are the sum of investments in facilities and investments in government assets. Investments in facilities are the resources the project company commits to invest during the contract period either in new facilities or in expansion and modernization of existing facilities. Investments in government assets are the resources the project company spends on acquiring government assets such as state-owned enterprises, rights to provide services in a specific area, or the use of specific radio spectrums. Data are in current U.S. dollars.","sourceOrganization":"World Bank, Private Participation in Infrastructure Project Database (http:\/\/ppi.worldbank.org).","topics":[{"id":"9","value":"Infrastructure "},{"id":"12","value":"Private Sector"}]},{"id":"IE.PPI.ENGY.CD","name":"Investment in energy with private participation (current US$)","source":{"id":"2","value":"World Development Indicators"},"sourceNote":"Investment in energy projects with private participation covers infrastructure projects in energy (electricity and natural gas transmission and distribution) that have reached financial closure and directly or indirectly serve the public. Movable assets and small projects such as windmills are excluded. The types of projects included are operations and management contracts, operations and management contracts with major capital expenditure, greenfield projects (in which a private entity or a public-private joint venture builds and operates a new facility), and divestitures. Investment commitments are the sum of investments in facilities and investments in government assets. Investments in facilities are the resources the project company commits to invest during the contract period either in new facilities or in expansion and modernization of existing facilities. Investments in government assets are the resources the project company spends on acquiring government assets such as state-owned enterprises, rights to provide services in a specific area, or the use of specific radio spectrums. Data are in current U.S. dollars.","sourceOrganization":"World Bank, Private Participation in Infrastructure Project Database (http:\/\/ppi.worldbank.org).","topics":[{"id":"5","value":"Energy & Mining "},{"id":"9","value":"Infrastructure "},{"id":"12","value":"Private Sector"}]},{"id":"IE.ICT.TOTL.GD.ZS","name":"Information and communication technology expenditure (% of GDP)","source":{"id":"11","value":"Africa Development Indicators"},"sourceNote":"Information and communications technology expenditures include computer hardware (computers, storage devices, printers, and other peripherals); computer software (operating systems, programming tools, utilities, applications, and internal software development); computer services (information technology consulting, computer and network systems integration, Web hosting, data processing services, and other services); and communications services (voice and data communications services) and wired and wireless communications equipment.","sourceOrganization":"World Information Technology and Services Alliance, Digital Planet: The Global Information Economy, and Global Insight, Inc.","topics":[{"id":"9","value":"Infrastructure "}]},{"id":"IE.ICT.TOTL.CD","name":"Information and communication technology expenditure (current US$)","source":{"id":"11","value":"Africa Development Indicators"},"sourceNote":"Information and communications technology expenditures include computer hardware (computers, storage devices, printers, and other peripherals); computer software (operating systems, programming tools, utilities, applications, and internal software development); computer services (information technology consulting, computer and network systems integration, Web hosting, data processing services, and other services); and communications services (voice and data communications services) and wired and wireless communications equipment.","sourceOrganization":"World Information Technology and Services Alliance, Digital Planet: The Global Information Economy, and Global Insight, Inc.","topics":[{"id":"9","value":"Infrastructure "}]},{"id":"IE.ICT.PCAP.CD","name":"Information and communication technology expenditure per capita (current US$)","source":{"id":"11","value":"Africa Development Indicators"},"sourceNote":"Information and communications technology expenditures include computer hardware (computers, storage devices, printers, and other peripherals); computer software (operating systems, programming tools, utilities, applications, and internal software development); computer services (information technology consulting, computer and network systems integration, Web hosting, data processing services, and other services); and communications services (voice and data communications services) and wired and wireless communications equipment.","sourceOrganization":"World Information Technology and Services Alliance, Digital Planet: The Global Information Economy, and Global Insight, Inc.","topics":[{"id":"9","value":"Infrastructure "}]},{"id":"IDX.HDI","name":"Human Development Index","source":{"id":"45","value":"INDO-DAPOER"},"sourceNote":"","sourceOrganization":"BADAN PUSAT STATISTIK - Statistics Indonesia, National Social Economic Survey (SUSENAS)","topics":[]},{"id":"IC.WRH.PROC","name":"Procedures to build a warehouse (number)","source":{"id":"2","value":"World Development Indicators"},"sourceNote":"Number of procedures to build a warehouse is the number of interactions of a company's employees or managers with external parties, including government agency staff, public inspectors, notaries, land registry and cadastre staff, and technical experts apart from architects and engineers.","sourceOrganization":"World Bank, Doing Business project (http:\/\/www.doingbusiness.org\/).","topics":[{"id":"12","value":"Private Sector"}]},{"id":"IC.WRH.DURS","name":"Time required to build a warehouse (days)","source":{"id":"2","value":"World Development Indicators"},"sourceNote":"Time required to build a warehouse is the number of calendar days needed to complete the required procedures for building a warehouse. If a procedure can be speeded up at additional cost, the fastest procedure, independent of cost, is chosen.","sourceOrganization":"World Bank, Doing Business project (http:\/\/www.doingbusiness.org\/).","topics":[{"id":"12","value":"Private Sector"}]},{"id":"IC.WAT.GIFT.ZS","name":"Expected to give gifts to get a water connection (% of firms)","source":{"id":"11","value":"Africa Development Indicators"},"sourceNote":"Percentage of firms expected to give gifts or an informal payment to get a water connection.  ","sourceOrganization":"World Bank, Enterprise Surveys (http:\/\/www.enterprisesurveys.org\/).","topics":[]},{"id":"IC.WAT.DURS","name":"Delay in obtaining a water connections (days)","source":{"id":"11","value":"Africa Development Indicators"},"sourceNote":"Delay for firm in obtaining water connection is the average actual delay in days that firms experience when obtaining a water connection, measured from the day the establishment applied to the day it received the service or approval.  ","sourceOrganization":"World Bank, Enterprise Surveys (http:\/\/www.enterprisesurveys.org\/).","topics":[]},{"id":"IC.VALG.GIFT.ZS","name":"Value of gift expected to secure Government Contract (% of Contract)","source":{"id":"11","value":"Africa Development Indicators"},"sourceNote":"Percentage of contract value expected as a gift to secure government contract. Only firms that have confirmed that they have secured or attempted to secure a government contract in the last 12 months were required to answer this question.  ","sourceOrganization":"World Bank, Enterprise Surveys (http:\/\/www.enterprisesurveys.org\/).","topics":[]},{"id":"IC.VAL.COL.ZS","name":"Value of collateral needed for a loan (% of the loan amount)","source":{"id":"11","value":"Africa Development Indicators"},"sourceNote":"Value of collateral needed for a loan or line of credit as a percentage of the loan value or the value of the line of credit.","sourceOrganization":"World Bank, Enterprise Surveys (http:\/\/www.enterprisesurveys.org\/).","topics":[]},{"id":"IC.TRD.XQ","name":"Trading across borders (rank)","source":{"id":"11","value":"Africa Development Indicators"},"sourceNote":"This index ranks economies from 1 to 181, with first place being the best.  This gives an equal weigh to each of the topics in order for ranking (a) number of all documents required to export\/import goods, (b) time and (c) cost.  ","sourceOrganization":"World Bank, Doing Business project (http:\/\/www.doingbusiness.org\/).","topics":[]},{"id":"IC.TEL.GIFT.ZS","name":"Expected to give gifts to get a phone connection (% of firms)","source":{"id":"11","value":"Africa Development Indicators"},"sourceNote":"Percentage of firms expected to give gifts or an informal payment to get a phone connection.  ","sourceOrganization":"World Bank, Enterprise Surveys (http:\/\/www.enterprisesurveys.org\/).","topics":[]},{"id":"IC.TEL.DURS","name":"Delay in obtaining a mainline telephone connection (days)","source":{"id":"11","value":"Africa Development Indicators"},"sourceNote":"Delay for firm in obtaining a telephone connection is the average actual delay in days that firms experience when obtaining a telephone connection, measured from the day the establishment applied to the day it received the service or approval.  ","sourceOrganization":"World Bank, Enterprise Surveys (http:\/\/www.enterprisesurveys.org\/).","topics":[]},{"id":"IC.TAX.XQ","name":"Paying taxes (rank)","source":{"id":"11","value":"Africa Development Indicators"},"sourceNote":"This index ranks economies from 1 to 181, with first place being the best.  This  assesses (a) number of payments (b) time spent to prepare taxes (c) labour taxes (d) other taxes and (e) taxes on profits and gives each topic equal weight.  For more information, visit http:\/\/www.doingbusiness.org\/MethodologySurveys\/.  ","sourceOrganization":"World Bank, Doing Business project (http:\/\/www.doingbusiness.org\/).","topics":[]},{"id":"IC.TAX.TOTL.CP.ZS","name":"Total tax rate (% of commercial profits)","source":{"id":"2","value":"World Development Indicators"},"sourceNote":"Total tax rate measures the amount of taxes and mandatory contributions payable by businesses after accounting for allowable deductions and exemptions as a share of commercial profits. Taxes withheld (such as personal income tax) or collected and remitted to tax authorities (such as value added taxes, sales taxes or goods and service taxes) are excluded.","sourceOrganization":"World Bank, Doing Business project (http:\/\/www.doingbusiness.org\/).","topics":[{"id":"12","value":"Private Sector"},{"id":"13","value":"Public Sector "}]},{"id":"IC.TAX.PRFT.CP.ZS","name":"Profit tax (% of commercial profits)","source":{"id":"2","value":"World Development Indicators"},"sourceNote":"Profit tax is the amount of taxes on profits paid by the business.","sourceOrganization":"World Bank, Doing Business project (http:\/\/www.doingbusiness.org\/).","topics":[{"id":"12","value":"Private Sector"}]},{"id":"IC.TAX.PFT.ZS","name":"Paying taxes, profit tax (%)","source":{"id":"11","value":"Africa Development Indicators"},"sourceNote":"\"Total amount of taxes and mandatory contributions payable by the business.  \u000dFor more information, visit http:\/\/www.doingbusiness.org\/MethodologySurveys\/.  \"","sourceOrganization":"World Bank, Doing Business project (http:\/\/www.doingbusiness.org\/).","topics":[]},{"id":"IC.TAX.PAYM","name":"Tax payments (number)","source":{"id":"2","value":"World Development Indicators"},"sourceNote":"Tax payments by businesses are the total number of taxes paid by businesses, including electronic filing. The tax is counted as paid once a year even if payments are more frequent.","sourceOrganization":"World Bank, Doing Business project (http:\/\/www.doingbusiness.org\/).","topics":[{"id":"12","value":"Private Sector"},{"id":"13","value":"Public Sector "}]},{"id":"IC.TAX.OTHR.CP.ZS","name":"Other taxes payable by businesses (% of commercial profits)","source":{"id":"2","value":"World Development Indicators"},"sourceNote":"Other taxes payable by businesses include the amounts paid for property taxes, turnover taxes, and other small taxes such as municipal fees and vehicle and fuel taxes.","sourceOrganization":"World Bank, Doing Business project (http:\/\/www.doingbusiness.org\/).","topics":[{"id":"12","value":"Private Sector"}]},{"id":"IC.TAX.OTH.ZS","name":"Paying taxes, other taxes (%)","source":{"id":"11","value":"Africa Development Indicators"},"sourceNote":"Amount of taxes and mandatory contributions paid by the business that are not already included in the tax profits and labour taxes.  For more information, visit http:\/\/www.doingbusiness.org\/MethodologySurveys\/.  ","sourceOrganization":"World Bank, Doing Business project (http:\/\/www.doingbusiness.org\/).","topics":[]},{"id":"IC.TAX.METG","name":"Number of visits or required meetings with tax officials","source":{"id":"2","value":"World Development Indicators"},"sourceNote":"Number of visits or required meetings with tax officials is the number of visits or required meetings with tax officials during the year.","sourceOrganization":"World Bank, Enterprise Surveys (http:\/\/www.enterprisesurveys.org\/).","topics":[{"id":"12","value":"Private Sector"}]},{"id":"IC.TAX.LBR.ZS","name":"Paying taxes, labor tax and contributions (%)","source":{"id":"11","value":"Africa Development Indicators"},"sourceNote":"The total tax rate measures the amount of taxes and mandatory contributions payable by the business in the second year of operation, expressed as a share of commercial profits. Doing Business 2008 reports the total tax rate for fiscal 2006. The total amount of taxes is the sum of all the different taxes and contributions payable after accounting for deductions and exemptions. The taxes withheld (such as sales or value added tax or personal income tax) but not paid by the company are excluded. The taxes included can be divided into 5 categories: profit or corporate income tax, social contribu­tions and labor taxes paid by the employer (for which all mandatory contributions are included, even if paid to a private entity such as a requited pension fund), property taxes, turnover taxes and other small taxes (such as municipal fees and vehicle and fuel taxes).  For more information, visit http:\/\/www.doingbusiness.org\/MethodologySurveys\/.  ","sourceOrganization":"World Bank, Doing Business project (http:\/\/www.doingbusiness.org\/).","topics":[]},{"id":"IC.TAX.LABR.CP.ZS","name":"Labor tax and contributions (% of commercial profits)","source":{"id":"2","value":"World Development Indicators"},"sourceNote":"Labor tax and contributions is the amount of taxes and mandatory contributions on labor paid by the business.","sourceOrganization":"World Bank, Doing Business project (http:\/\/www.doingbusiness.org\/).","topics":[{"id":"12","value":"Private Sector"}]},{"id":"IC.TAX.GIFT.ZS","name":"Firms expected to give gifts in meetings with tax officials (% of firms)","source":{"id":"2","value":"World Development Indicators"},"sourceNote":"Firms expected to give gifts in meetings with tax officials is the percentage of firms that answered positively to the question \"was a gift or informal payment expected or requested during a meeting with tax officials?\"","sourceOrganization":"World Bank, Enterprise Surveys (http:\/\/www.enterprisesurveys.org\/).","topics":[{"id":"12","value":"Private Sector"}]},{"id":"IC.TAX.DURS","name":"Time to prepare and pay taxes (hours)","source":{"id":"2","value":"World Development Indicators"},"sourceNote":"Time to prepare and pay taxes is the time, in hours per year, it takes to prepare, file, and pay (or withhold) three major types of taxes: the corporate income tax, the value added or sales tax, and labor taxes, including payroll taxes and social security contributions.","sourceOrganization":"World Bank, Doing Business project (http:\/\/www.doingbusiness.org\/).","topics":[{"id":"12","value":"Private Sector"},{"id":"13","value":"Public Sector "}]},{"id":"IC.SALE.DOM.ZS","name":"Domestic Sales (% sales)","source":{"id":"11","value":"Africa Development Indicators"},"sourceNote":"Percentage of sales sold domestically.","sourceOrganization":"World Bank, Enterprise Surveys (http:\/\/www.enterprisesurveys.org\/).","topics":[]},{"id":"IC.RP.TIME","name":"Time required to register property (days)","source":{"id":"1","value":"Doing Business"},"sourceNote":"This indicator records the number of calendar days required for a business (buyer) to purchase a property from another business (seller) and register it legally so that the buyer can use the property as collateral or sell it to another business. Information is provided by local property lawyers, notaries, and property registries. \u000a Source: World Bank, Doing Business Project (http:\/\/www.doingbusiness.org\/ExploreTopics\/RegisteringProperty).","sourceOrganization":"World Bank, Doing Business Project (http:\/\/www.doingbusiness.org\/ExploreTopics\/RegisteringProperty\/).","topics":[]},{"id":"IC.RP.PROC","name":"Procedures required to register property (number)","source":{"id":"1","value":"Doing Business"},"sourceNote":"This indicator records the number of steps required for a business (buyer) to purchase a property from another business (seller) and register it legally so that the buyer can use the property as collateral or sell it to another business. Information is provided by local property lawyers, notaries, and property registries. \u000aSource: World Bank, Doing Business Project (http:\/\/www.doingbusiness.org\/ExploreTopics\/RegisteringProperty).","sourceOrganization":"World Bank, Doing Business Project (http:\/\/www.doingbusiness.org\/ExploreTopics\/RegisteringProperty\/).","topics":[]},{"id":"IC.RP.COST","name":"Cost to register property (% of property value)","source":{"id":"1","value":"Doing Business"},"sourceNote":"This indicator calculates the cost required for a business to register property expressed as a percentage of the property value, assuming a property value of 50 times income per capita. The cost includes fees, transfer taxes, stamp duties, and any other payment to the property registry, notaries, public agencies or lawyers. Information is provided by local property lawyers, notaries, and property registries. \u000aSource: World Bank, Doing Business Project (http:\/\/www.doingbusiness.org\/ExploreTopics\/RegisteringProperty).","sourceOrganization":"World Bank, Doing Business Project (http:\/\/www.doingbusiness.org\/ExploreTopics\/RegisteringProperty\/).","topics":[]},{"id":"IC.REG.XQ","name":"Starting a business (rank)","source":{"id":"11","value":"Africa Development Indicators"},"sourceNote":"This index averages the country's percentile rankings on: procedures, time, cost (% of income per capita) and minimum capital (% of income per capita)","sourceOrganization":"World Bank, Doing Business project (http:\/\/www.doingbusiness.org\/).","topics":[]},{"id":"IC.REG.PROC.MA","name":"Start-up procedures to register a business, male (number)","source":{"id":"2","value":"World Development Indicators"},"sourceNote":"Start-up procedures are those required to start a business, including interactions to obtain necessary permits and licenses and to complete all inscriptions, verifications, and notifications to start operations. Data are for businesses with specific characteristics of ownership, size, and type of production.","sourceOrganization":"World Bank, Doing Business project (http:\/\/www.doingbusiness.org\/).","topics":[{"id":"12","value":"Private Sector"}]},{"id":"IC.REG.PROC.FE","name":"Start-up procedures to register a business, female (number)","source":{"id":"2","value":"World Development Indicators"},"sourceNote":"Start-up procedures are those required to start a business, including interactions to obtain necessary permits and licenses and to complete all inscriptions, verifications, and notifications to start operations. Data are for businesses with specific characteristics of ownership, size, and type of production.","sourceOrganization":"World Bank, Doing Business project (http:\/\/www.doingbusiness.org\/).","topics":[{"id":"12","value":"Private Sector"}]},{"id":"IC.REG.PROC","name":"Start-up procedures to register a business (number)","source":{"id":"2","value":"World Development Indicators"},"sourceNote":"Start-up procedures are those required to start a business, including interactions to obtain necessary permits and licenses and to complete all inscriptions, verifications, and notifications to start operations. Data are for businesses with specific characteristics of ownership, size, and type of production.","sourceOrganization":"World Bank, Doing Business project (http:\/\/www.doingbusiness.org\/).","topics":[{"id":"12","value":"Private Sector"}]},{"id":"IC.REG.DURS.MA","name":"Time required to start a business, male (days)","source":{"id":"2","value":"World Development Indicators"},"sourceNote":"Time required to start a business is the number of calendar days needed to complete the procedures to legally operate a business. If a procedure can be speeded up at additional cost, the fastest procedure, independent of cost, is chosen.","sourceOrganization":"World Bank, Doing Business project (http:\/\/www.doingbusiness.org\/).","topics":[{"id":"12","value":"Private Sector"}]}]]