[{"page":82,"pages":324,"per_page":"50","total":16174},[{"id":"DT.INT.DLBN.CD.GG.AR.36.US","name":"Gross Ext. Debt Pmt, General Government, More than 3 to 6, Debt securities, Interest, USD","source":{"id":"22","value":"Quarterly External Debt Statistics\/SDDS (New)"},"sourceNote":"","sourceOrganization":"","topics":[]},{"id":"DT.INT.DLBN.CD.GG.AR.24P.US","name":"Gross Ext. Debt Pmt, General Government, More than 2yrs, Debt securities, Interest, USD","source":{"id":"22","value":"Quarterly External Debt Statistics\/SDDS (New)"},"sourceNote":"","sourceOrganization":"","topics":[]},{"id":"DT.INT.DLBN.CD.GG.AR.1824.US","name":"Gross Ext. Debt Pmt, General Government, More than 18 to 24, Debt securities, Interest, USD","source":{"id":"22","value":"Quarterly External Debt Statistics\/SDDS (New)"},"sourceNote":"","sourceOrganization":"","topics":[]},{"id":"DT.INT.DLBN.CD.GG.AR.1218.US","name":"Gross Ext. Debt Pmt, General Government, More than 12 to 18, Debt securities, Interest, USD","source":{"id":"22","value":"Quarterly External Debt Statistics\/SDDS (New)"},"sourceNote":"","sourceOrganization":"","topics":[]},{"id":"DT.INT.DLBN.CD.GG.AR.0912.US","name":"Gross Ext. Debt Pmt, General Government, More than 9 to 12, Debt securities, Interest, USD","source":{"id":"22","value":"Quarterly External Debt Statistics\/SDDS (New)"},"sourceNote":"","sourceOrganization":"","topics":[]},{"id":"DT.INT.DLBN.CD.GG.AR.03.US","name":"Gross Ext. Debt Pmt, General Government, More than 0 to 3, Debt securities, Interest, USD","source":{"id":"22","value":"Quarterly External Debt Statistics\/SDDS (New)"},"sourceNote":"","sourceOrganization":"","topics":[]},{"id":"DT.INT.DLBN.CD.CB.AR.IQ.US","name":"Gross Ext. Debt Pmt, Deposit-Taking Corp., exc. CB, Immediate, Debt securities, Interest, USD","source":{"id":"22","value":"Quarterly External Debt Statistics\/SDDS (New)"},"sourceNote":"","sourceOrganization":"","topics":[]},{"id":"DT.INT.DLBN.CD.CB.AR.69.US","name":"Gross Ext. Debt Pmt, Deposit-Taking Corp., exc. CB, More than 6 to 9, Debt securities, Interest, USD","source":{"id":"22","value":"Quarterly External Debt Statistics\/SDDS (New)"},"sourceNote":"","sourceOrganization":"","topics":[]},{"id":"DT.INT.DLBN.CD.CB.AR.36.US","name":"Gross Ext. Debt Pmt, Deposit-Taking Corp., exc. CB, More than 3 to 6, Debt securities, Interest, USD","source":{"id":"22","value":"Quarterly External Debt Statistics\/SDDS (New)"},"sourceNote":"","sourceOrganization":"","topics":[]},{"id":"DT.INT.DLBN.CD.CB.AR.24P.US","name":"Gross Ext. Debt Pmt, Deposit-Taking Corp., exc. CB, More than 2yrs, Debt securities, Interest, USD","source":{"id":"22","value":"Quarterly External Debt Statistics\/SDDS (New)"},"sourceNote":"","sourceOrganization":"","topics":[]},{"id":"DT.INT.DLBN.CD.CB.AR.1824.US","name":"Gross Ext. Debt Pmt, Deposit-Taking Corp., exc. CB, More than 18 to 24, Debt securities, Interest, USD","source":{"id":"22","value":"Quarterly External Debt Statistics\/SDDS (New)"},"sourceNote":"","sourceOrganization":"","topics":[]},{"id":"DT.INT.DLBN.CD.CB.AR.1218.US","name":"Gross Ext. Debt Pmt, Deposit-Taking Corp., exc. CB, More than 12 to 18, Debt securities, Interest, USD","source":{"id":"22","value":"Quarterly External Debt Statistics\/SDDS (New)"},"sourceNote":"","sourceOrganization":"","topics":[]},{"id":"DT.INT.DLBN.CD.CB.AR.0912.US","name":"Gross Ext. Debt Pmt, Deposit-Taking Corp., exc. CB, More than 9 to 12, Debt securities, Interest, USD","source":{"id":"22","value":"Quarterly External Debt Statistics\/SDDS (New)"},"sourceNote":"","sourceOrganization":"","topics":[]},{"id":"DT.INT.DLBN.CD.CB.AR.03.US","name":"Gross Ext. Debt Pmt, Deposit-Taking Corp., exc. CB, More than 0 to 3, Debt securities, Interest, USD","source":{"id":"22","value":"Quarterly External Debt Statistics\/SDDS (New)"},"sourceNote":"","sourceOrganization":"","topics":[]},{"id":"DT.INT.DIMF.CD","name":"IMF charges (INT, current US$)","source":{"id":"2","value":"World Development Indicators"},"sourceNote":"IMF charges cover interest payments with respect to all uses of IMF resources, excluding those resulting from drawings in the reserve tranche. Data are in current U.S. dollars.","sourceOrganization":"World Bank, International Debt Statistics.","topics":[{"id":"20","value":"External Debt"}]},{"id":"DT.INT.DILD.CD.IL.IQ.US","name":"Gross Ext. Debt Pmt, DI: Intercom Lending, Immediate, Debt liab. of DI ent. to dir. investors, Interest, USD","source":{"id":"22","value":"Quarterly External Debt Statistics\/SDDS (New)"},"sourceNote":"","sourceOrganization":"","topics":[]},{"id":"DT.INT.DILD.CD.IL.69.US","name":"Gross Ext. Debt Pmt, DI: Intercom Lending, More than 6 to 9, Debt liab. of DI ent. to dir. investors, Interest, USD","source":{"id":"22","value":"Quarterly External Debt Statistics\/SDDS (New)"},"sourceNote":"","sourceOrganization":"","topics":[]},{"id":"DT.INT.DILD.CD.IL.36.US","name":"Gross Ext. Debt Pmt, DI: Intercom Lending, More than 3 to 6, Debt liab. of DI ent. to dir. investors, Interest, USD","source":{"id":"22","value":"Quarterly External Debt Statistics\/SDDS (New)"},"sourceNote":"","sourceOrganization":"","topics":[]},{"id":"DT.INT.DILD.CD.IL.24P.US","name":"Gross Ext. Debt Pmt, DI: Intercom Lending, More than 2yrs, Debt liab. of DI ent. to dir. investors, Interest, USD","source":{"id":"22","value":"Quarterly External Debt Statistics\/SDDS (New)"},"sourceNote":"","sourceOrganization":"","topics":[]},{"id":"DT.INT.DILD.CD.IL.1824.US","name":"Gross Ext. Debt Pmt, DI: Intercom Lending, More than 18 to 24, Debt liab. of DI ent. to dir. investors, Interest, USD","source":{"id":"22","value":"Quarterly External Debt Statistics\/SDDS (New)"},"sourceNote":"","sourceOrganization":"","topics":[]},{"id":"DT.INT.DILD.CD.IL.1218.US","name":"Gross Ext. Debt Pmt, DI: Intercom Lending, More than 12 to 18, Debt liab. of DI ent. to dir. investors, Interest, USD","source":{"id":"22","value":"Quarterly External Debt Statistics\/SDDS (New)"},"sourceNote":"","sourceOrganization":"","topics":[]},{"id":"DT.INT.DILD.CD.IL.0912.US","name":"Gross Ext. Debt Pmt, DI: Intercom Lending, More than 9 to 12, Debt liab. of DI ent. to dir. investors, Interest, USD","source":{"id":"22","value":"Quarterly External Debt Statistics\/SDDS (New)"},"sourceNote":"","sourceOrganization":"","topics":[]},{"id":"DT.INT.DILD.CD.IL.03.US","name":"Gross Ext. Debt Pmt, DI: Intercom Lending, More than 0 to 3, Debt liab. of DI ent. to dir. investors, Interest, USD","source":{"id":"22","value":"Quarterly External Debt Statistics\/SDDS (New)"},"sourceNote":"","sourceOrganization":"","topics":[]},{"id":"DT.INT.DEFE.CD.IL.IQ.US","name":"Gross Ext. Debt Pmt, DI: Intercom Lending, Immediate, Debt liab. to fellow ent., Interest, USD","source":{"id":"22","value":"Quarterly External Debt Statistics\/SDDS (New)"},"sourceNote":"","sourceOrganization":"","topics":[]},{"id":"DT.INT.DEFE.CD.IL.69.US","name":"Gross Ext. Debt Pmt, DI: Intercom Lending, More than 6 to 9, Debt liab. to fellow ent., Interest, USD","source":{"id":"22","value":"Quarterly External Debt Statistics\/SDDS (New)"},"sourceNote":"","sourceOrganization":"","topics":[]},{"id":"DT.INT.DEFE.CD.IL.36.US","name":"Gross Ext. Debt Pmt, DI: Intercom Lending, More than 3 to 6, Debt liab. to fellow ent., Interest, USD","source":{"id":"22","value":"Quarterly External Debt Statistics\/SDDS (New)"},"sourceNote":"","sourceOrganization":"","topics":[]},{"id":"DT.INT.DEFE.CD.IL.24P.US","name":"Gross Ext. Debt Pmt, DI: Intercom Lending, More than 2yrs, Debt liab. to fellow ent., Interest, USD","source":{"id":"22","value":"Quarterly External Debt Statistics\/SDDS (New)"},"sourceNote":"","sourceOrganization":"","topics":[]},{"id":"DT.INT.DEFE.CD.IL.1824.US","name":"Gross Ext. Debt Pmt, DI: Intercom Lending, More than 18 to 24, Debt liab. to fellow ent., Interest, USD","source":{"id":"22","value":"Quarterly External Debt Statistics\/SDDS (New)"},"sourceNote":"","sourceOrganization":"","topics":[]},{"id":"DT.INT.DEFE.CD.IL.1218.US","name":"Gross Ext. Debt Pmt, DI: Intercom Lending, More than 12 to 18, Debt liab. to fellow ent., Interest, USD","source":{"id":"22","value":"Quarterly External Debt Statistics\/SDDS (New)"},"sourceNote":"","sourceOrganization":"","topics":[]},{"id":"DT.INT.DEFE.CD.IL.0912.US","name":"Gross Ext. Debt Pmt, DI: Intercom Lending, More than 9 to 12, Debt liab. to fellow ent., Interest, USD","source":{"id":"22","value":"Quarterly External Debt Statistics\/SDDS (New)"},"sourceNote":"","sourceOrganization":"","topics":[]},{"id":"DT.INT.DEFE.CD.IL.03.US","name":"Gross Ext. Debt Pmt, DI: Intercom Lending, More than 0 to 3, Debt liab. to fellow ent., Interest, USD","source":{"id":"22","value":"Quarterly External Debt Statistics\/SDDS (New)"},"sourceNote":"","sourceOrganization":"","topics":[]},{"id":"DT.INT.DECT.GN.ZS","name":"Interest payments on external debt (% of GNI)","source":{"id":"2","value":"World Development Indicators"},"sourceNote":"Total interest payments to gross national income.","sourceOrganization":"World Bank, International Debt Statistics.","topics":[{"id":"3","value":"Economy & Growth"},{"id":"20","value":"External Debt"}]},{"id":"DT.INT.DECT.EX.ZS","name":"Interest payments on external debt (% of exports of goods, services and primary income)","source":{"id":"2","value":"World Development Indicators"},"sourceNote":"Total interest payments to exports of goods and services.","sourceOrganization":"World Bank, International Debt Statistics.","topics":[{"id":"3","value":"Economy & Growth"},{"id":"20","value":"External Debt"}]},{"id":"DT.INT.DECT.CD.RM.US","name":"Gross Ext. Debt Pos., All Sectors, One year or less, All instruments, Interest, USD","source":{"id":"22","value":"Quarterly External Debt Statistics\/SDDS (New)"},"sourceNote":"","sourceOrganization":"","topics":[]},{"id":"DT.INT.DECT.CD.OS.RM.US","name":"Gross Ext. Debt Pos., Other Sectors, One year or less, All instruments, Interest, USD","source":{"id":"22","value":"Quarterly External Debt Statistics\/SDDS (New)"},"sourceNote":"","sourceOrganization":"","topics":[]},{"id":"DT.INT.DECT.CD.OS.IQ.US","name":"Ext. Debt Service Pmt, Other Sectors, Immediate, All instruments, Interest, USD","source":{"id":"22","value":"Quarterly External Debt Statistics\/SDDS (New)"},"sourceNote":"","sourceOrganization":"","topics":[]},{"id":"DT.INT.DECT.CD.OS.69.US","name":"Ext. Debt Service Pmt, Other Sectors, More than 6 to 9, All instruments, Interest, USD","source":{"id":"22","value":"Quarterly External Debt Statistics\/SDDS (New)"},"sourceNote":"","sourceOrganization":"","topics":[]},{"id":"DT.INT.DECT.CD.OS.36.US","name":"Ext. Debt Service Pmt, Other Sectors, More than 3 to 6, All instruments, Interest, USD","source":{"id":"22","value":"Quarterly External Debt Statistics\/SDDS (New)"},"sourceNote":"","sourceOrganization":"","topics":[]},{"id":"DT.INT.DECT.CD.OS.24P.US","name":"Ext. Debt Service Pmt, Other Sectors, More than 2yrs, All instruments, Interest, USD","source":{"id":"22","value":"Quarterly External Debt Statistics\/SDDS (New)"},"sourceNote":"","sourceOrganization":"","topics":[]},{"id":"DT.INT.DECT.CD.OS.1824.US","name":"Ext. Debt Service Pmt, Other Sectors, More than 18 to 24, All instruments, Interest, USD","source":{"id":"22","value":"Quarterly External Debt Statistics\/SDDS (New)"},"sourceNote":"","sourceOrganization":"","topics":[]},{"id":"DT.INT.DECT.CD.OS.1218.US","name":"Ext. Debt Service Pmt, Other Sectors, More than 12 to 18, All instruments, Interest, USD","source":{"id":"22","value":"Quarterly External Debt Statistics\/SDDS (New)"},"sourceNote":"","sourceOrganization":"","topics":[]},{"id":"DT.INT.DECT.CD.OS.0912.US","name":"Ext. Debt Service Pmt, Other Sectors, More than 9 to 12, All instruments, Interest, USD","source":{"id":"22","value":"Quarterly External Debt Statistics\/SDDS (New)"},"sourceNote":"","sourceOrganization":"","topics":[]},{"id":"DT.INT.DECT.CD.OS.03.US","name":"Ext. Debt Service Pmt, Other Sectors, More than 0 to 3, All instruments, Interest, USD","source":{"id":"22","value":"Quarterly External Debt Statistics\/SDDS (New)"},"sourceNote":"","sourceOrganization":"","topics":[]},{"id":"DT.INT.DECT.CD.MA.RM.US","name":"Gross Ext. Debt Pos., Central Bank, One year or less, All instruments, Interest, USD","source":{"id":"22","value":"Quarterly External Debt Statistics\/SDDS (New)"},"sourceNote":"","sourceOrganization":"","topics":[]},{"id":"DT.INT.DECT.CD.MA.IQ.US","name":"Ext. Debt Service Pmt, Central Bank, Immediate, All instruments, Interest, USD","source":{"id":"22","value":"Quarterly External Debt Statistics\/SDDS (New)"},"sourceNote":"","sourceOrganization":"","topics":[]},{"id":"DT.INT.DECT.CD.MA.69.US","name":"Ext. Debt Service Pmt, Central Bank, More than 6 to 9, All instruments, Interest, USD","source":{"id":"22","value":"Quarterly External Debt Statistics\/SDDS (New)"},"sourceNote":"","sourceOrganization":"","topics":[]},{"id":"DT.INT.DECT.CD.MA.36.US","name":"Ext. Debt Service Pmt, Central Bank, More than 3 to 6, All instruments, Interest, USD","source":{"id":"22","value":"Quarterly External Debt Statistics\/SDDS (New)"},"sourceNote":"","sourceOrganization":"","topics":[]},{"id":"DT.INT.DECT.CD.MA.24P.US","name":"Ext. Debt Service Pmt, Central Bank, More than 2yrs, All instruments, Interest, USD","source":{"id":"22","value":"Quarterly External Debt Statistics\/SDDS (New)"},"sourceNote":"","sourceOrganization":"","topics":[]},{"id":"DT.INT.DECT.CD.MA.1824.US","name":"Ext. Debt Service Pmt, Central Bank, More than 18 to 24, All instruments, Interest, USD","source":{"id":"22","value":"Quarterly External Debt Statistics\/SDDS (New)"},"sourceNote":"","sourceOrganization":"","topics":[]},{"id":"DT.INT.DECT.CD.MA.1218.US","name":"Ext. Debt Service Pmt, Central Bank, More than 12 to 18, All instruments, Interest, USD","source":{"id":"22","value":"Quarterly External Debt Statistics\/SDDS (New)"},"sourceNote":"","sourceOrganization":"","topics":[{}]}]]