[{"page":166,"pages":324,"per_page":"50","total":16174},[{"id":"per_lm_alllm.adq_q3_urb","name":"Adequacy of benefits in 3rd quintile (%) - All Labor Market -urban","source":{"id":"29","value":"Global Social Protection"},"sourceNote":"NULL","sourceOrganization":"The Atlas of Social Protection: Indicators of Resilience and Equity (ASPIRE)","topics":[{"id":"10","value":"Social Protection & Labor"}]},{"id":"per_lm_alllm.adq_q3_tot","name":"Adequacy of benefits in 3rd quintile (%) - All Labor Market ","source":{"id":"29","value":"Global Social Protection"},"sourceNote":"NULL","sourceOrganization":"The Atlas of Social Protection: Indicators of Resilience and Equity (ASPIRE)","topics":[{"id":"10","value":"Social Protection & Labor"}]},{"id":"per_lm_alllm.adq_q3_rur","name":"Adequacy of benefits in 3rd quintile (%) - All Labor Market -rural","source":{"id":"29","value":"Global Social Protection"},"sourceNote":"NULL","sourceOrganization":"The Atlas of Social Protection: Indicators of Resilience and Equity (ASPIRE)","topics":[{"id":"10","value":"Social Protection & Labor"}]},{"id":"per_lm_alllm.adq_q3_preT_tot","name":"Adequacy of benefits in 3rd quintile (%) - All Labor Market (preT)","source":{"id":"29","value":"Global Social Protection"},"sourceNote":"NULL","sourceOrganization":"The Atlas of Social Protection: Indicators of Resilience and Equity (ASPIRE)","topics":[{"id":"10","value":"Social Protection & Labor"}]},{"id":"per_lm_alllm.adq_q2_urb","name":"Adequacy of benefits in 2nd quintile (%) - All Labor Market -urban","source":{"id":"29","value":"Global Social Protection"},"sourceNote":"NULL","sourceOrganization":"The Atlas of Social Protection: Indicators of Resilience and Equity (ASPIRE)","topics":[{"id":"10","value":"Social Protection & Labor"}]},{"id":"per_lm_alllm.adq_q2_tot","name":"Adequacy of benefits in 2nd quintile (%) - All Labor Market ","source":{"id":"29","value":"Global Social Protection"},"sourceNote":"NULL","sourceOrganization":"The Atlas of Social Protection: Indicators of Resilience and Equity (ASPIRE)","topics":[{"id":"10","value":"Social Protection & Labor"}]},{"id":"per_lm_alllm.adq_q2_rur","name":"Adequacy of benefits in 2nd quintile (%) - All Labor Market -rural","source":{"id":"29","value":"Global Social Protection"},"sourceNote":"NULL","sourceOrganization":"The Atlas of Social Protection: Indicators of Resilience and Equity (ASPIRE)","topics":[{"id":"10","value":"Social Protection & Labor"}]},{"id":"per_lm_alllm.adq_q2_preT_tot","name":"Adequacy of benefits in 2nd quintile (%) - All Labor Market (preT)","source":{"id":"29","value":"Global Social Protection"},"sourceNote":"NULL","sourceOrganization":"The Atlas of Social Protection: Indicators of Resilience and Equity (ASPIRE)","topics":[{"id":"10","value":"Social Protection & Labor"}]},{"id":"per_lm_alllm.adq_q1_urb","name":"Adequacy of benefits in poorest quintile (%) - All Labor Market -urban","source":{"id":"29","value":"Global Social Protection"},"sourceNote":"NULL","sourceOrganization":"The Atlas of Social Protection: Indicators of Resilience and Equity (ASPIRE)","topics":[{"id":"10","value":"Social Protection & Labor"}]},{"id":"per_lm_alllm.adq_q1_tot","name":"Adequacy of benefits in poorest quintile (%) - All Labor Market ","source":{"id":"29","value":"Global Social Protection"},"sourceNote":"NULL","sourceOrganization":"The Atlas of Social Protection: Indicators of Resilience and Equity (ASPIRE)","topics":[{"id":"10","value":"Social Protection & Labor"}]},{"id":"per_lm_alllm.adq_q1_rur","name":"Adequacy of benefits in poorest quintile (%) - All Labor Market -rural","source":{"id":"29","value":"Global Social Protection"},"sourceNote":"NULL","sourceOrganization":"The Atlas of Social Protection: Indicators of Resilience and Equity (ASPIRE)","topics":[{"id":"10","value":"Social Protection & Labor"}]},{"id":"per_lm_alllm.adq_q1_preT_tot","name":"Adequacy of benefits in poorest quintile (%) - All Labor Market (preT)","source":{"id":"29","value":"Global Social Protection"},"sourceNote":"NULL","sourceOrganization":"The Atlas of Social Protection: Indicators of Resilience and Equity (ASPIRE)","topics":[{"id":"10","value":"Social Protection & Labor"}]},{"id":"per_lm_alllm.adq_pop_urb","name":"Adequacy of benefits (%) - All Labor Market -urban","source":{"id":"29","value":"Global Social Protection"},"sourceNote":"NULL","sourceOrganization":"The Atlas of Social Protection: Indicators of Resilience and Equity (ASPIRE)","topics":[{"id":"10","value":"Social Protection & Labor"}]},{"id":"per_lm_alllm.adq_pop_tot","name":"Adequacy of unemployment benefits and ALMP (% of total welfare of beneficiary households)","source":{"id":"2","value":"World Development Indicators"},"sourceNote":"Adequacy of unemployment benefits and active labor market programs (ALMP) is measured by the total transfer amount received by the population participating in unemployment benefits and active labor market programs as a share of their total welfare. Welfare is defined as the total income or total expenditure of beneficiary households. Unemployment benefits and active labor market programs include unemployment compensation, severance pay, and early retirement due to labor market reasons, labor market services (intermediation), training (vocational, life skills, and cash for training), job rotation and job sharing, employment incentives and wage subsidies, supported employment and rehabilitation, and employment measures for the disabled. Estimates include both direct and indirect beneficiaries.","sourceOrganization":"The Atlas of Social Protection: Indicators of Resilience and Equity (ASPIRE)","topics":[{"id":"10","value":"Social Protection & Labor"}]},{"id":"per_lm_alllm.adq_pop_rur","name":"Adequacy of benefits (%) - All Labor Market -rural","source":{"id":"29","value":"Global Social Protection"},"sourceNote":"NULL","sourceOrganization":"The Atlas of Social Protection: Indicators of Resilience and Equity (ASPIRE)","topics":[{"id":"10","value":"Social Protection & Labor"}]},{"id":"per_lm_alllm.adq_pop_preT_tot","name":"Adequacy of benefits (%) - All Labor Market (preT)","source":{"id":"29","value":"Global Social Protection"},"sourceNote":"NULL","sourceOrganization":"The Atlas of Social Protection: Indicators of Resilience and Equity (ASPIRE)","topics":[{"id":"10","value":"Social Protection & Labor"}]},{"id":"per_lm_alllm.adq_ep_tot","name":"Adequacy of benefits in extreme poor (<$1.25 a day) (%) - All Labor Market ","source":{"id":"29","value":"Global Social Protection"},"sourceNote":"NULL","sourceOrganization":"The Atlas of Social Protection: Indicators of Resilience and Equity (ASPIRE)","topics":[{"id":"10","value":"Social Protection & Labor"}]},{"id":"per_lm_alllm.adq_ep_preT_tot","name":"Adequacy of benefits in extreme poor (<$1.25 a day) (%) - All Labor Market  (preT)","source":{"id":"29","value":"Global Social Protection"},"sourceNote":"NULL","sourceOrganization":"The Atlas of Social Protection: Indicators of Resilience and Equity (ASPIRE)","topics":[{"id":"10","value":"Social Protection & Labor"}]},{"id":"per_lm_ac_p1_urb","name":"Poverty Gap reduction (%) -  Active Labor Market  - poorest quintile -urban","source":{"id":"29","value":"Global Social Protection"},"sourceNote":"Poverty gap reduction due to SPL programs as % of pre-transfer poverty gap","sourceOrganization":"ASPIRE","topics":[{"id":"10","value":"Social Protection & Labor"}]},{"id":"per_lm_ac_p1_tot","name":"Poverty Gap reduction (%) -  Active Labor Market  -poorest quintile","source":{"id":"29","value":"Global Social Protection"},"sourceNote":"Poverty gap reduction due to SPL programs as % of pre-transfer poverty gap","sourceOrganization":"ASPIRE","topics":[{"id":"10","value":"Social Protection & Labor"}]},{"id":"per_lm_ac_p1_rur","name":"Poverty Gap reduction (%) -  Active Labor Market  -poorest quintile -rural","source":{"id":"29","value":"Global Social Protection"},"sourceNote":"Poverty gap reduction due to SPL programs as % of pre-transfer poverty gap","sourceOrganization":"ASPIRE","topics":[{"id":"10","value":"Social Protection & Labor"}]},{"id":"per_lm_ac_p1_preT_tot","name":"Poverty Gap reduction (%) -  Active Labor Market  -poorest quintile (preT)","source":{"id":"29","value":"Global Social Protection"},"sourceNote":"Poverty gap reduction due to SPL programs as % of pre-transfer poverty gap","sourceOrganization":"ASPIRE","topics":[{"id":"10","value":"Social Protection & Labor"}]},{"id":"per_lm_ac_p1_ep_tot","name":"Poverty Gap reduction (%) -  Active Labor Market  -extreme poor (<$1.25 a day)","source":{"id":"29","value":"Global Social Protection"},"sourceNote":"Poverty gap reduction due to SPL programs as % of pre-transfer poverty gap","sourceOrganization":"ASPIRE","topics":[{"id":"10","value":"Social Protection & Labor"}]},{"id":"per_lm_ac_p1_ep_preT_tot","name":"Poverty Gap reduction (%) -  Active Labor Market  -extreme poor (<$1.25 a day) (preT)","source":{"id":"29","value":"Global Social Protection"},"sourceNote":"Poverty gap reduction due to SPL programs as % of pre-transfer poverty gap","sourceOrganization":"ASPIRE","topics":[{"id":"10","value":"Social Protection & Labor"}]},{"id":"per_lm_ac_p0_urb","name":"Poverty Headcount reduction (%) -  Active Labor Market  - poorest quintile -urban","source":{"id":"29","value":"Global Social Protection"},"sourceNote":"Poverty headcount reduction due to SPL programs as % of pre-transfer poverty headcount","sourceOrganization":"ASPIRE","topics":[{"id":"10","value":"Social Protection & Labor"}]},{"id":"per_lm_ac_p0_tot","name":"Poverty Headcount reduction (%) -  Active Labor Market  -poorest quintile","source":{"id":"29","value":"Global Social Protection"},"sourceNote":"Poverty headcount reduction due to SPL programs as % of pre-transfer poverty headcount","sourceOrganization":"ASPIRE","topics":[{"id":"10","value":"Social Protection & Labor"}]},{"id":"per_lm_ac_p0_rur","name":"Poverty Headcount reduction (%) -  Active Labor Market  -poorest quintile -rural","source":{"id":"29","value":"Global Social Protection"},"sourceNote":"Poverty headcount reduction due to SPL programs as % of pre-transfer poverty headcount","sourceOrganization":"ASPIRE","topics":[{"id":"10","value":"Social Protection & Labor"}]},{"id":"per_lm_ac_p0_preT_tot","name":"Poverty Headcount reduction (%) -  Active Labor Market  -poorest quintile (preT)","source":{"id":"29","value":"Global Social Protection"},"sourceNote":"Poverty headcount reduction due to SPL programs as % of pre-transfer poverty headcount","sourceOrganization":"ASPIRE","topics":[{"id":"10","value":"Social Protection & Labor"}]},{"id":"per_lm_ac_p0_ep_tot","name":"Poverty Headcount reduction (%) -  Active Labor Market  -extreme poor (<$1.25 a day)","source":{"id":"29","value":"Global Social Protection"},"sourceNote":"Poverty headcount reduction due to SPL programs as % of pre-transfer poverty headcount","sourceOrganization":"ASPIRE","topics":[{"id":"10","value":"Social Protection & Labor"}]},{"id":"per_lm_ac_p0_ep_preT_tot","name":"Poverty Headcount reduction (%) -  Active Labor Market  -extreme poor (<$1.25 a day) (preT)","source":{"id":"29","value":"Global Social Protection"},"sourceNote":"Poverty headcount reduction due to SPL programs as % of pre-transfer poverty headcount","sourceOrganization":"ASPIRE","topics":[{"id":"10","value":"Social Protection & Labor"}]},{"id":"per_lm_ac_gini_urb","name":"Gini inequality reduction (%) -  Active Labor Market  - poorest quintile -urban","source":{"id":"29","value":"Global Social Protection"},"sourceNote":"Gini inequality index reduction due to SPL programs as % of pre-transfer Gini index","sourceOrganization":"ASPIRE","topics":[{"id":"10","value":"Social Protection & Labor"}]},{"id":"per_lm_ac_gini_tot","name":"Gini inequality reduction (%) -  Active Labor Market  -poorest quintile","source":{"id":"29","value":"Global Social Protection"},"sourceNote":"Gini inequality index reduction due to SPL programs as % of pre-transfer Gini index","sourceOrganization":"ASPIRE","topics":[{"id":"10","value":"Social Protection & Labor"}]},{"id":"per_lm_ac_gini_rur","name":"Gini inequality reduction (%) -  Active Labor Market  -poorest quintile -rural","source":{"id":"29","value":"Global Social Protection"},"sourceNote":"Gini inequality index reduction due to SPL programs as % of pre-transfer Gini index","sourceOrganization":"ASPIRE","topics":[{"id":"10","value":"Social Protection & Labor"}]},{"id":"per_lm_ac_gini_preT_tot","name":"Gini inequality reduction (%) -  Active Labor Market  -poorest quintile (preT)","source":{"id":"29","value":"Global Social Protection"},"sourceNote":"Gini inequality index reduction due to SPL programs as % of pre-transfer Gini index","sourceOrganization":"ASPIRE","topics":[{"id":"10","value":"Social Protection & Labor"}]},{"id":"per_lm_ac_gini_ep_tot","name":"Gini inequality reduction (%) -  Active Labor Market  -extreme poor (<$1.25 a day)","source":{"id":"29","value":"Global Social Protection"},"sourceNote":"Gini inequality index reduction due to SPL programs as % of pre-transfer Gini index","sourceOrganization":"ASPIRE","topics":[{"id":"10","value":"Social Protection & Labor"}]},{"id":"per_lm_ac_gini_ep_preT_tot","name":"Gini inequality reduction (%) -  Active Labor Market  -extreme poor (<$1.25 a day) (preT)","source":{"id":"29","value":"Global Social Protection"},"sourceNote":"Gini inequality index reduction due to SPL programs as % of pre-transfer Gini index","sourceOrganization":"ASPIRE","topics":[{"id":"10","value":"Social Protection & Labor"}]},{"id":"per_lm_ac.cov_q5_urb","name":"Coverage in richest quintile (%) - Active Labor Market -urban","source":{"id":"29","value":"Global Social Protection"},"sourceNote":"Percentage of population participating in Social Protection and Labor programs (includes direct and indirect beneficiaries)","sourceOrganization":"ASPIRE","topics":[{"id":"10","value":"Social Protection & Labor"}]},{"id":"per_lm_ac.cov_q5_tot","name":"Coverage in richest quintile (%) - Active Labor Market","source":{"id":"29","value":"Global Social Protection"},"sourceNote":"Percentage of population participating in Social Protection and Labor programs (includes direct and indirect beneficiaries)","sourceOrganization":"ASPIRE","topics":[{"id":"10","value":"Social Protection & Labor"}]},{"id":"per_lm_ac.cov_q5_rur","name":"Coverage in richest quintile (%) - Active Labor Market -rural","source":{"id":"29","value":"Global Social Protection"},"sourceNote":"Percentage of population participating in Social Protection and Labor programs (includes direct and indirect beneficiaries)","sourceOrganization":"ASPIRE","topics":[{"id":"10","value":"Social Protection & Labor"}]},{"id":"per_lm_ac.cov_q5_preT_tot","name":"Coverage in richest quintile (%) - Active Labor Market (preT)","source":{"id":"29","value":"Global Social Protection"},"sourceNote":"Percentage of population participating in Social Protection and Labor programs (includes direct and indirect beneficiaries)","sourceOrganization":"ASPIRE","topics":[{"id":"10","value":"Social Protection & Labor"}]},{"id":"per_lm_ac.cov_q4_urb","name":"Coverage in 4th quintile (%) - Active Labor Market -urban","source":{"id":"29","value":"Global Social Protection"},"sourceNote":"Percentage of population participating in Social Protection and Labor programs (includes direct and indirect beneficiaries)","sourceOrganization":"ASPIRE","topics":[{"id":"10","value":"Social Protection & Labor"}]},{"id":"per_lm_ac.cov_q4_tot","name":"Coverage in 4th quintile (%) - Active Labor Market","source":{"id":"29","value":"Global Social Protection"},"sourceNote":"Percentage of population participating in Social Protection and Labor programs (includes direct and indirect beneficiaries)","sourceOrganization":"ASPIRE","topics":[{"id":"10","value":"Social Protection & Labor"}]},{"id":"per_lm_ac.cov_q4_rur","name":"Coverage in 4th quintile (%) - Active Labor Market -rural","source":{"id":"29","value":"Global Social Protection"},"sourceNote":"Percentage of population participating in Social Protection and Labor programs (includes direct and indirect beneficiaries)","sourceOrganization":"ASPIRE","topics":[{"id":"10","value":"Social Protection & Labor"}]},{"id":"per_lm_ac.cov_q4_preT_tot","name":"Coverage in 4th quintile (%) - Active Labor Market (preT)","source":{"id":"29","value":"Global Social Protection"},"sourceNote":"Percentage of population participating in Social Protection and Labor programs (includes direct and indirect beneficiaries)","sourceOrganization":"ASPIRE","topics":[{"id":"10","value":"Social Protection & Labor"}]},{"id":"per_lm_ac.cov_q3_urb","name":"Coverage in 3rd quintile (%) - Active Labor Market -urban","source":{"id":"29","value":"Global Social Protection"},"sourceNote":"Percentage of population participating in Social Protection and Labor programs (includes direct and indirect beneficiaries)","sourceOrganization":"ASPIRE","topics":[{"id":"10","value":"Social Protection & Labor"}]},{"id":"per_lm_ac.cov_q3_tot","name":"Coverage in 3rd quintile (%) - Active Labor Market","source":{"id":"29","value":"Global Social Protection"},"sourceNote":"Percentage of population participating in Social Protection and Labor programs (includes direct and indirect beneficiaries)","sourceOrganization":"ASPIRE","topics":[{"id":"10","value":"Social Protection & Labor"}]},{"id":"per_lm_ac.cov_q3_rur","name":"Coverage in 3rd quintile (%) - Active Labor Market -rural","source":{"id":"29","value":"Global Social Protection"},"sourceNote":"Percentage of population participating in Social Protection and Labor programs (includes direct and indirect beneficiaries)","sourceOrganization":"ASPIRE","topics":[{"id":"10","value":"Social Protection & Labor"}]},{"id":"per_lm_ac.cov_q3_preT_tot","name":"Coverage in 3rd quintile (%) - Active Labor Market (preT)","source":{"id":"29","value":"Global Social Protection"},"sourceNote":"Percentage of population participating in Social Protection and Labor programs (includes direct and indirect beneficiaries)","sourceOrganization":"ASPIRE","topics":[{"id":"10","value":"Social Protection & Labor"}]},{"id":"per_lm_ac.cov_q2_urb","name":"Coverage in 2nd quintile (%) - Active Labor Market -urban","source":{"id":"29","value":"Global Social Protection"},"sourceNote":"Percentage of population participating in Social Protection and Labor programs (includes direct and indirect beneficiaries)","sourceOrganization":"ASPIRE","topics":[{"id":"10","value":"Social Protection & Labor"}]},{"id":"per_lm_ac.cov_q2_tot","name":"Coverage in 2nd quintile (%) - Active Labor Market","source":{"id":"29","value":"Global Social Protection"},"sourceNote":"Percentage of population participating in Social Protection and Labor programs (includes direct and indirect beneficiaries)","sourceOrganization":"ASPIRE","topics":[{"id":"10","value":"Social Protection & Labor"}]}]]