[{"page":281,"pages":324,"per_page":"50","total":16174},[{"id":"SP.URB.TOTL.FE.ZS","name":"Urban population, female (% of total)","source":{"id":"14","value":"Gender Statistics"},"sourceNote":"Female urban population is the percentage of females who live in urban areas to total population.","sourceOrganization":"The United Nations Population Division's World Urbanization Prospects.","topics":[{"id":"17","value":"Gender"}]},{"id":"SP.URB.TOTL","name":"Urban population","source":{"id":"2","value":"World Development Indicators"},"sourceNote":"Urban population refers to people living in urban areas as defined by national statistical offices. It is calculated using World Bank population estimates and urban ratios from the United Nations World Urbanization Prospects. Aggregation of urban and rural population may not add up to total population because of different country coverages.","sourceOrganization":"World Bank Staff estimates based on United Nations, World Urbanization Prospects. ","topics":[{"id":"19","value":"Climate Change"},{"id":"16","value":"Urban Development "}]},{"id":"SP.URB.GROW","name":"Urban population growth (annual %)","source":{"id":"2","value":"World Development Indicators"},"sourceNote":"Urban population refers to people living in urban areas as defined by national statistical offices. It is calculated using World Bank population estimates and urban ratios from the United Nations World Urbanization Prospects.","sourceOrganization":"World Bank Staff estimates based on United Nations, World Urbanization Prospects. ","topics":[{"id":"19","value":"Climate Change"},{"id":"16","value":"Urban Development "}]},{"id":"SP.TER.TOTL.MA.IN","name":"Population of the official age for tertiary education, male (number)","source":{"id":"12","value":"Education Statistics"},"sourceNote":"Male population of the age-group theoretically corresponding to tertiary education as indicated by theoretical entrance age and duration.","sourceOrganization":"UNESCO Institute for Statistics","topics":[{"id":"4","value":"Education "}]},{"id":"SP.TER.TOTL.IN","name":"Population of the official age for tertiary education, both sexes (number)","source":{"id":"12","value":"Education Statistics"},"sourceNote":"Population of the age-group theoretically corresponding to tertiary education as indicated by theoretical entrance age and duration.","sourceOrganization":"UNESCO Institute for Statistics","topics":[{"id":"4","value":"Education "}]},{"id":"SP.TER.TOTL.FE.IN","name":"Population of the official age for tertiary education, female (number)","source":{"id":"12","value":"Education Statistics"},"sourceNote":"Female population of the age-group theoretically corresponding to tertiary education as indicated by theoretical entrance age and duration.","sourceOrganization":"UNESCO Institute for Statistics","topics":[{"id":"4","value":"Education "}]},{"id":"SP.SEC.UTOT.MA.IN","name":"Population of the official age for upper secondary education, male (number)","source":{"id":"12","value":"Education Statistics"},"sourceNote":"Male population of the age-group theoretically corresponding to upper secondary education as indicated by theoretical entrance age and duration.","sourceOrganization":"UNESCO Institute for Statistics","topics":[{"id":"4","value":"Education "}]},{"id":"SP.SEC.UTOT.IN","name":"Population of the official age for upper secondary education, both sexes (number)","source":{"id":"12","value":"Education Statistics"},"sourceNote":"Population of the age-group theoretically corresponding to upper secondary education as indicated by theoretical entrance age and duration.","sourceOrganization":"UNESCO Institute for Statistics","topics":[{"id":"4","value":"Education "}]},{"id":"SP.SEC.UTOT.FE.IN","name":"Population of the official age for upper secondary education, female (number)","source":{"id":"12","value":"Education Statistics"},"sourceNote":"Female population of the age-group theoretically corresponding to upper secondary education as indicated by theoretical entrance age and duration.","sourceOrganization":"UNESCO Institute for Statistics","topics":[{"id":"4","value":"Education "}]},{"id":"SP.SEC.TOTL.MA.IN","name":"Population of the official age for secondary education, male (number)","source":{"id":"12","value":"Education Statistics"},"sourceNote":"Male population of the age-group theoretically corresponding to secondary education as indicated by theoretical entrance age and duration.","sourceOrganization":"UNESCO Institute for Statistics","topics":[{"id":"4","value":"Education "}]},{"id":"SP.SEC.TOTL.IN","name":"Population of the official age for secondary education, both sexes (number)","source":{"id":"12","value":"Education Statistics"},"sourceNote":"Population of the age-group theoretically corresponding to secondary education as indicated by theoretical entrance age and duration.","sourceOrganization":"UNESCO Institute for Statistics","topics":[{"id":"4","value":"Education "}]},{"id":"SP.SEC.TOTL.FE.IN","name":"Population of the official age for secondary education, female (number)","source":{"id":"12","value":"Education Statistics"},"sourceNote":"Female population of the age-group theoretically corresponding to secondary education as indicated by theoretical entrance age and duration.","sourceOrganization":"UNESCO Institute for Statistics","topics":[{"id":"4","value":"Education "}]},{"id":"SP.SEC.LTOT.MA.IN","name":"Population of the official age for lower secondary education, male (number)","source":{"id":"12","value":"Education Statistics"},"sourceNote":"Male population of the age-group theoretically corresponding to lower secondary education as indicated by theoretical entrance age and duration.","sourceOrganization":"UNESCO Institute for Statistics","topics":[{"id":"4","value":"Education "}]},{"id":"SP.SEC.LTOT.IN","name":"Population of the official age for lower secondary education, both sexes (number)","source":{"id":"12","value":"Education Statistics"},"sourceNote":"Population of the age-group theoretically corresponding to lower secondary education as indicated by theoretical entrance age and duration.","sourceOrganization":"UNESCO Institute for Statistics","topics":[{"id":"4","value":"Education "}]},{"id":"SP.SEC.LTOT.FE.IN","name":"Population of the official age for lower secondary education, female (number)","source":{"id":"12","value":"Education Statistics"},"sourceNote":"Female population of the age-group theoretically corresponding to lower secondary education as indicated by theoretical entrance age and duration.","sourceOrganization":"UNESCO Institute for Statistics","topics":[{"id":"4","value":"Education "}]},{"id":"SP.RUR.TOTL.ZS","name":"Rural population (% of total population)","source":{"id":"2","value":"World Development Indicators"},"sourceNote":"Rural population refers to people living in rural areas as defined by national statistical offices. It is calculated as the difference between total population and urban population.","sourceOrganization":"World Bank Staff estimates based on United Nations, World Urbanization Prospects. ","topics":[{"id":"1","value":"Agriculture & Rural Development  "}]},{"id":"SP.RUR.TOTL.ZG","name":"Rural population growth (annual %)","source":{"id":"2","value":"World Development Indicators"},"sourceNote":"Rural population refers to people living in rural areas as defined by national statistical offices. It is calculated as the difference between total population and urban population.","sourceOrganization":"World Bank Staff estimates based on United Nations, World Urbanization Prospects. ","topics":[{"id":"1","value":"Agriculture & Rural Development  "}]},{"id":"SP.RUR.TOTL.MA.ZS","name":"Rural population, male (% of total)","source":{"id":"14","value":"Gender Statistics"},"sourceNote":"Male rural population is the percentage males who live in rural areas to total population.","sourceOrganization":"The United Nations Population Division's World Urbanization Prospects.","topics":[{"id":"17","value":"Gender"}]},{"id":"SP.RUR.TOTL.FE.ZS","name":"Rural population, female (% of total)","source":{"id":"14","value":"Gender Statistics"},"sourceNote":"Female rural population is the percentage of females who live in rural areas to total population.","sourceOrganization":"The United Nations Population Division's World Urbanization Prospects.","topics":[{"id":"17","value":"Gender"}]},{"id":"SP.RUR.TOTL","name":"Rural population","source":{"id":"2","value":"World Development Indicators"},"sourceNote":"Rural population refers to people living in rural areas as defined by national statistical offices. It is calculated as the difference between total population and urban population. Aggregation of urban and rural population may not add up to total population because of different country coverages.","sourceOrganization":"The data on urban population shares used to estimate rural population come from the United Nations, World Urbanization Prospects. Total population figures are World Bank estimates.","topics":[{"id":"1","value":"Agriculture & Rural Development  "}]},{"id":"SP.REG.DTHS.ZS","name":"Completeness of death registration with cause-of-death information (%)","source":{"id":"2","value":"World Development Indicators"},"sourceNote":"Completeness of death registration is the estimated percentage of deaths that are registered with their cause of death information in the vital registration system of a country.","sourceOrganization":"World Health Organization, Global Health Observatory Data Repository\/World Health Statistics (http:\/\/apps.who.int\/gho\/data\/node.main.1?lang=en).\u000d\u000a","topics":[{"id":"8","value":"Health "}]},{"id":"SP.REG.BRTH.ZS","name":"Completeness of birth registration (%)","source":{"id":"2","value":"World Development Indicators"},"sourceNote":"Completeness of birth registration is the percentage of children under age 5 whose births were registered at the time of the survey. The numerator of completeness of birth registration includes children whose birth certificate was seen by the interviewer or whose mother or caretaker says the birth has been registered.","sourceOrganization":"UNICEF's State of the World's Children based mostly on household surveys and ministry of health data.","topics":[{"id":"8","value":"Health "}]},{"id":"SP.REG.BRTH.UR.ZS","name":"Completeness of birth registration, urban (%)","source":{"id":"2","value":"World Development Indicators"},"sourceNote":"Completeness of birth registration is the percentage of children under age 5 whose births were registered at the time of the survey. The numerator of completeness of birth registration includes children whose birth certificate was seen by the interviewer or whose mother or caretaker says the birth has been registered.","sourceOrganization":"UNICEF's State of the World's Children based mostly on household surveys and ministry of health data.","topics":[{"id":"8","value":"Health "}]},{"id":"SP.REG.BRTH.RU.ZS","name":"Completeness of birth registration, rural (%)","source":{"id":"2","value":"World Development Indicators"},"sourceNote":"Completeness of birth registration is the percentage of children under age 5 whose births were registered at the time of the survey. The numerator of completeness of birth registration includes children whose birth certificate was seen by the interviewer or whose mother or caretaker says the birth has been registered.","sourceOrganization":"UNICEF's State of the World's Children based mostly on household surveys and ministry of health data.","topics":[{"id":"8","value":"Health "}]},{"id":"SP.PRM.TOTL.MA.IN","name":"Population of the official age for primary education, male (number)","source":{"id":"12","value":"Education Statistics"},"sourceNote":"Male population of the age-group theoretically corresponding to primary education as indicated by theoretical entrance age and duration.","sourceOrganization":"UNESCO Institute for Statistics","topics":[{"id":"4","value":"Education "}]},{"id":"SP.PRM.TOTL.IN","name":"Population of the official age for primary education, both sexes (number)","source":{"id":"12","value":"Education Statistics"},"sourceNote":"Population of the age-group theoretically corresponding to primary education as indicated by theoretical entrance age and duration.","sourceOrganization":"UNESCO Institute for Statistics","topics":[{"id":"4","value":"Education "}]},{"id":"SP.PRM.TOTL.FE.IN","name":"Population of the official age for primary education, female (number)","source":{"id":"12","value":"Education Statistics"},"sourceNote":"Female population of the age-group theoretically corresponding to primary education as indicated by theoretical entrance age and duration.","sourceOrganization":"UNESCO Institute for Statistics","topics":[{"id":"4","value":"Education "}]},{"id":"SP.PRM.GRAD.TO","name":"Population of the official age for the last grade of primary education, both sexes (number)","source":{"id":"12","value":"Education Statistics"},"sourceNote":"Population of the age-group theoretically corresponding to the last grade of primary school as indicated by theoretical entrance age and duration.","sourceOrganization":"UNESCO Institute for Statistics","topics":[{"id":"4","value":"Education "}]},{"id":"SP.PRM.GRAD.MA","name":"Population of the official age for the last grade of primary education, male (number)","source":{"id":"12","value":"Education Statistics"},"sourceNote":"Male population of the age-group theoretically corresponding to the last grade of primary school as indicated by theoretical entrance age and duration.","sourceOrganization":"UNESCO Institute for Statistics","topics":[{"id":"4","value":"Education "}]},{"id":"SP.PRM.GRAD.FE","name":"Population of the official age for the last grade of primary education, female (number)","source":{"id":"12","value":"Education Statistics"},"sourceNote":"Female population of the age-group theoretically corresponding to the last grade of primary school as indicated by theoretical entrance age and duration.","sourceOrganization":"UNESCO Institute for Statistics","topics":[{"id":"4","value":"Education "}]},{"id":"SP.PRE.TOTL.MA.IN","name":"Population of the official age for pre-primary education, male (number)","source":{"id":"12","value":"Education Statistics"},"sourceNote":"Male population of the age-group theoretically corresponding to pre-primary education as indicated by theoretical entrance age and duration.","sourceOrganization":"UNESCO Institute for Statistics","topics":[{"id":"4","value":"Education "}]},{"id":"SP.PRE.TOTL.IN","name":"Population of the official age for pre-primary education, both sexes (number)","source":{"id":"12","value":"Education Statistics"},"sourceNote":"Population of the age-group theoretically corresponding to pre-primary education as indicated by theoretical entrance age and duration.","sourceOrganization":"UNESCO Institute for Statistics","topics":[{"id":"4","value":"Education "}]},{"id":"SP.PRE.TOTL.FE.IN","name":"Population of the official age for pre-primary education, female (number)","source":{"id":"12","value":"Education Statistics"},"sourceNote":"Female population of the age-group theoretically corresponding to pre-primary education as indicated by theoretical entrance age and duration.","sourceOrganization":"UNESCO Institute for Statistics","topics":[{"id":"4","value":"Education "}]},{"id":"SP.POP.TOTL.ZS","name":"Population (% of total)","source":{"id":"50","value":"Subnational Population"},"sourceNote":"Population Percentage of total is the share of first level administrative division (Admin 1 level) de facto mid-year population to total population.","sourceOrganization":"1. Census reports and statistical databases from national statistical offices 2. Estimates from the Center for International Earth Science Information Network (CIESIN), The Earth Institute at Columbia University","topics":[]},{"id":"SP.POP.TOTL.MA.ZS","name":"Population, male (% of total)","source":{"id":"11","value":"Africa Development Indicators"},"sourceNote":"Male population is the percentage of the population that is male. Population is based on the de facto definition of population, which counts all residents regardless of legal status or citizenship--except for refugees not permanently settled in the country of asylum, who are generally considered part of the population of the country of origin.","sourceOrganization":"The United Nations Population Division's World Population Prospects.","topics":[]},{"id":"SP.POP.TOTL.MA.IN","name":"Population, male","source":{"id":"11","value":"Africa Development Indicators"},"sourceNote":"Male population is based on the de facto definition of population, which counts all male residents regardless of legal status or citizenship. Refugees not permanently settled in the country of asylum are generally considered to be part of the population of their country of origin.","sourceOrganization":"World Bank staff estimates using the World Bank's population and the United Nations Population Division's World Population Prospects. The World Bank's population estimates are from various sources including the United Nations Population Division's World P","topics":[]},{"id":"SP.POP.TOTL.FE.ZS","name":"Population, female (% of total)","source":{"id":"2","value":"World Development Indicators"},"sourceNote":"Female population is the percentage of the population that is female. Population is based on the de facto definition of population, which counts all residents regardless of legal status or citizenship.","sourceOrganization":"World Bank staff estimates based on age\/sex distributions of United Nations Population Division's World Population Prospects.","topics":[{"id":"8","value":"Health "}]},{"id":"SP.POP.TOTL.FE.IN","name":"Population, female","source":{"id":"11","value":"Africa Development Indicators"},"sourceNote":"Female population is based on the de facto definition of population, which counts all female residents regardless of legal status or citizenship.","sourceOrganization":"World Bank staff estimates using the World Bank's population and distributions of the United Nations Population Division's World Population Prospects. The World Bank's population estimates are from various sources including the United Nations Population Division's World Population Prospects; census reports and statistical publications from national statistical offices; Eurostat's Demographic Statistics; United Nations Statistical Division, Population and Vital Statistics Report (various years); U.S. Census Bureau: International Database; and Secretariat of the Pacific Community, Statistics and Demography Programme.","topics":[{"id":"17","value":"Gender"}]},{"id":"SP.POP.TOTL","name":"Population, total","source":{"id":"2","value":"World Development Indicators"},"sourceNote":"Total population is based on the de facto definition of population, which counts all residents regardless of legal status or citizenship. The values shown are midyear estimates.","sourceOrganization":"(1) United Nations Population Division. World Population Prospects, (2) Census reports and other statistical publications from national statistical offices, (3) Eurostat: Demographic Statistics, (4) United Nations Statistical Division. Population and Vital Statistics Report (various years), (5) U.S. Census Bureau: International Database, and (6) Secretariat of the Pacific Community: Statistics and Demography Programme.","topics":[{"id":"19","value":"Climate Change"},{"id":"8","value":"Health "}]},{"id":"SP.POP.TECH.RD.P6","name":"Technicians in R&D (per million people)","source":{"id":"2","value":"World Development Indicators"},"sourceNote":"Technicians in R&D and equivalent staff are people whose main tasks require technical knowledge and experience in engineering, physical and life sciences (technicians), or social sciences and humanities (equivalent staff). They participate in R&D by performing scientific and technical tasks involving the application of concepts and operational methods, normally under the supervision of researchers.","sourceOrganization":"United Nations Educational, Scientific, and Cultural Organization (UNESCO) Institute for Statistics.","topics":[{"id":"14","value":"Science & Technology "}]},{"id":"SP.POP.SCIE.RD.P6","name":"Researchers in R&D (per million people)","source":{"id":"2","value":"World Development Indicators"},"sourceNote":"Researchers in R&D are professionals engaged in the conception or creation of new knowledge, products, processes, methods, or systems and in the management of the projects concerned. Postgraduate PhD students (ISCED97 level 6) engaged in R&D are included.","sourceOrganization":"United Nations Educational, Scientific, and Cultural Organization (UNESCO) Institute for Statistics.","topics":[{"id":"14","value":"Science & Technology "}]},{"id":"SP.POP.GROW","name":"Population growth (annual %)","source":{"id":"2","value":"World Development Indicators"},"sourceNote":"Annual population growth rate for year t is the exponential rate of growth of midyear population from year t-1 to t, expressed as a percentage . Population is based on the de facto definition of population, which counts all residents regardless of legal status or citizenship.","sourceOrganization":"Derived from total population. Population source: (1) United Nations Population Division. World Population Prospects, (2) United Nations Statistical Division. Population and Vital Statistics Report (various years), (3) Census reports and other statistical","topics":[{"id":"19","value":"Climate Change"},{"id":"8","value":"Health "}]},{"id":"SP.POP.DPND.YG","name":"Age dependency ratio, young (% of working-age population)","source":{"id":"2","value":"World Development Indicators"},"sourceNote":"Age dependency ratio, young, is the ratio of younger dependents--people younger than 15--to the working-age population--those ages 15-64. Data are shown as the proportion of dependents per 100 working-age population.","sourceOrganization":"World Bank staff estimates based on age distributions of United Nations Population Division's World Population Prospects.","topics":[{"id":"8","value":"Health "}]},{"id":"SP.POP.DPND.OL","name":"Age dependency ratio, old (% of working-age population)","source":{"id":"2","value":"World Development Indicators"},"sourceNote":"Age dependency ratio, old, is the ratio of older dependents--people older than 64--to the working-age population--those ages 15-64. Data are shown as the proportion of dependents per 100 working-age population.","sourceOrganization":"World Bank staff estimates based on age distributions of United Nations Population Division's World Population Prospects.","topics":[{"id":"8","value":"Health "}]},{"id":"SP.POP.DPND","name":"Age dependency ratio (% of working-age population)","source":{"id":"2","value":"World Development Indicators"},"sourceNote":"Age dependency ratio is the ratio of dependents--people younger than 15 or older than 64--to the working-age population--those ages 15-64. Data are shown as the proportion of dependents per 100 working-age population.","sourceOrganization":"World Bank staff estimates based on age distributions of United Nations Population Division's World Population Prospects.","topics":[{"id":"8","value":"Health "}]},{"id":"SP.POP.DDAY.TO","name":"Number of people living on less than $1.25 a day (PPP)","source":{"id":"19","value":"Millennium Development Goals"},"sourceNote":"Number of people living on less than $1.25 a day (PPP) is the population living on less than $1.25 a day at 2005 international prices.","sourceOrganization":"World Bank, Development Research Group. Data are based on primary household survey data obtained from government statistical agencies and World Bank country departments. Data for high-income economies are from the Luxembourg Income Study database. For more information and methodology, please see PovcalNet (http:\/\/iresearch.worldbank.org\/PovcalNet\/index.htm).","topics":[{"id":"18","value":"Millenium development goals"}]},{"id":"SP.POP.BRTH.MF","name":"Sex ratio at birth (male births per female births)","source":{"id":"16","value":"Health Nutrition and Population Statistics"},"sourceNote":"Sex ratio at birth refers to male births per female births. The data are 5 year averages.","sourceOrganization":"United Nations Population Division, World Population Prospects.","topics":[{"id":"17","value":"Gender"}]},{"id":"SP.POP.AG25.TO.UN","name":"Population, age 25, total","source":{"id":"12","value":"Education Statistics"},"sourceNote":"Age population, total refers to total population at the specified age level, as estimated by the UNESCO Institute for Statistics.","sourceOrganization":"UNESCO Institute for Statistics.","topics":[{"id":"4","value":"Education "}]},{"id":"SP.POP.AG25.MA.UN","name":"Population, age 25, male","source":{"id":"12","value":"Education Statistics"},"sourceNote":"Population, age 25, male refers to the male population at the specified age.","sourceOrganization":"UNESCO Institute for Statistics","topics":[{"id":"4","value":"Education "}]},{"id":"SP.POP.AG25.MA.IN","name":"Age population, age 25, male, interpolated","source":{"id":"16","value":"Health Nutrition and Population Statistics"},"sourceNote":"Age population, male refers to male population at the specified age level, as estimated by World Bank staff.","sourceOrganization":"World Bank staff estimates from various sources including census reports, the United Nations Population Division's World Population Prospects, national statistical offices, household surveys conducted by national agencies, and Macro International.","topics":[{}]}]]