[{"page":275,"pages":324,"per_page":"50","total":16174},[{"id":"SP.POP.0713.FE.UN","name":"Population, ages 7-13, female","source":{"id":"12","value":"Education Statistics"},"sourceNote":"Population, ages 7-13, female is the total number of females age 7-13.","sourceOrganization":"UNESCO Institute for Statistics (Derived)","topics":[{"id":"4","value":"Education "}]},{"id":"SP.POP.0712.TO.UN","name":"Population, ages 7-12, total","source":{"id":"12","value":"Education Statistics"},"sourceNote":"Population, ages 7-12, total is the total population age 7-12.","sourceOrganization":"UNESCO Institute for Statistics (Derived)","topics":[{"id":"4","value":"Education "}]},{"id":"SP.POP.0712.MA.UN","name":"Population, ages 7-12, male","source":{"id":"12","value":"Education Statistics"},"sourceNote":"Population, ages 7-12, male is the total number of males age 7-12.","sourceOrganization":"UNESCO Institute for Statistics (Derived)","topics":[{"id":"4","value":"Education "}]},{"id":"SP.POP.0712.FE.UN","name":"Population, ages 7-12, female","source":{"id":"12","value":"Education Statistics"},"sourceNote":"Population, ages 7-12, female is the total number of females age 7-12.","sourceOrganization":"UNESCO Institute for Statistics (Derived)","topics":[{"id":"4","value":"Education "}]},{"id":"SP.POP.0711.TO.UN","name":"Population, ages 7-11, total","source":{"id":"12","value":"Education Statistics"},"sourceNote":"Population, ages 7-11, total is the total population age 7-11.","sourceOrganization":"UNESCO Institute for Statistics (Derived)","topics":[{"id":"4","value":"Education "}]},{"id":"SP.POP.0711.MA.UN","name":"Population, ages 7-11, male","source":{"id":"12","value":"Education Statistics"},"sourceNote":"Population, ages 7-11, male is the total number of males age 7-11.","sourceOrganization":"UNESCO Institute for Statistics (Derived)","topics":[{"id":"4","value":"Education "}]},{"id":"SP.POP.0711.FE.UN","name":"Population, ages 7-11, female","source":{"id":"12","value":"Education Statistics"},"sourceNote":"Population, ages 7-11, female is the total number of females age 7-11.","sourceOrganization":"UNESCO Institute for Statistics (Derived)","topics":[{"id":"4","value":"Education "}]},{"id":"SP.POP.0710.TO.UN","name":"Population, ages 7-10, total","source":{"id":"12","value":"Education Statistics"},"sourceNote":"Population, ages 7-10, total is the total population age 7-10.","sourceOrganization":"UNESCO Institute for Statistics (Derived)","topics":[{"id":"4","value":"Education "}]},{"id":"SP.POP.0710.MA.UN","name":"Population, ages 7-10, male","source":{"id":"12","value":"Education Statistics"},"sourceNote":"Population, ages 7-10, male is the total number of males age 7-10.","sourceOrganization":"UNESCO Institute for Statistics (Derived)","topics":[{"id":"4","value":"Education "}]},{"id":"SP.POP.0710.FE.UN","name":"Population, ages 7-10, female","source":{"id":"12","value":"Education Statistics"},"sourceNote":"Population, ages 7-10, female is the total number of females age 7-10.","sourceOrganization":"UNESCO Institute for Statistics (Derived)","topics":[{"id":"4","value":"Education "}]},{"id":"SP.POP.0709.TO.UN","name":"Population, ages 7-9, total","source":{"id":"12","value":"Education Statistics"},"sourceNote":"Population, ages 7-9, total is the total population age 7-9.","sourceOrganization":"UNESCO Institute for Statistics (Derived)","topics":[{"id":"4","value":"Education "}]},{"id":"SP.POP.0709.MA.UN","name":"Population, ages 7-9, male","source":{"id":"12","value":"Education Statistics"},"sourceNote":"Population, ages 7-9, male is the total number of males age 7-9.","sourceOrganization":"UNESCO Institute for Statistics (Derived)","topics":[{"id":"4","value":"Education "}]},{"id":"SP.POP.0709.FE.UN","name":"Population, ages 7-9, female","source":{"id":"12","value":"Education Statistics"},"sourceNote":"Population, ages 7-9, female is the total number of females age 7-9.","sourceOrganization":"UNESCO Institute for Statistics (Derived)","topics":[{"id":"4","value":"Education "}]},{"id":"SP.POP.0612.TO.UN","name":"Population, ages 6-12, total","source":{"id":"12","value":"Education Statistics"},"sourceNote":"Population, ages 6-12, total is the total population age 6-12.","sourceOrganization":"UNESCO Institute for Statistics (Derived)","topics":[{"id":"4","value":"Education "}]},{"id":"SP.POP.0612.MA.UN","name":"Population, ages 6-12, male","source":{"id":"12","value":"Education Statistics"},"sourceNote":"Population, ages 6-12, male is the total number of males age 6-12.","sourceOrganization":"UNESCO Institute for Statistics (Derived)","topics":[{"id":"4","value":"Education "}]},{"id":"SP.POP.0612.FE.UN","name":"Population, ages 6-12, female","source":{"id":"12","value":"Education Statistics"},"sourceNote":"Population, ages 6-12, female is the total number of females age 6-12.","sourceOrganization":"UNESCO Institute for Statistics (Derived)","topics":[{"id":"4","value":"Education "}]},{"id":"SP.POP.0611.TO.UN","name":"Population, ages 6-11, total","source":{"id":"12","value":"Education Statistics"},"sourceNote":"Population, ages 6-11, total is the total population age 6-11.","sourceOrganization":"UNESCO Institute for Statistics (Derived)","topics":[{"id":"4","value":"Education "}]},{"id":"SP.POP.0611.MA.UN","name":"Population, ages 6-11, male","source":{"id":"12","value":"Education Statistics"},"sourceNote":"Population, ages 6-11, male is the total number of males age 6-11.","sourceOrganization":"UNESCO Institute for Statistics (Derived)","topics":[{"id":"4","value":"Education "}]},{"id":"SP.POP.0611.FE.UN","name":"Population, ages 6-11, female","source":{"id":"12","value":"Education Statistics"},"sourceNote":"Population, ages 6-11, female is the total number of females age 6-11.","sourceOrganization":"UNESCO Institute for Statistics (Derived)","topics":[{"id":"4","value":"Education "}]},{"id":"SP.POP.0610.TO.UN","name":"Population, ages 6-10, total","source":{"id":"12","value":"Education Statistics"},"sourceNote":"Population, ages 6-10, total is the total population age 6-10.","sourceOrganization":"UNESCO Institute for Statistics (Derived)","topics":[{"id":"4","value":"Education "}]},{"id":"SP.POP.0610.MA.UN","name":"Population, ages 6-10, male","source":{"id":"12","value":"Education Statistics"},"sourceNote":"Population, ages 6-10, male is the total number of males age 6-10.","sourceOrganization":"UNESCO Institute for Statistics (Derived)","topics":[{"id":"4","value":"Education "}]},{"id":"SP.POP.0610.FE.UN","name":"Population, ages 6-10, female","source":{"id":"12","value":"Education Statistics"},"sourceNote":"Population, ages 6-10, female is the total number of females age 6-10.","sourceOrganization":"UNESCO Institute for Statistics (Derived)","topics":[{"id":"4","value":"Education "}]},{"id":"SP.POP.0609.TO.UN","name":"Population, ages 6-9, total","source":{"id":"12","value":"Education Statistics"},"sourceNote":"Population, ages 6-9, female is the total number of females age 6-9.","sourceOrganization":"UNESCO Institute for Statistics (Derived)","topics":[{"id":"4","value":"Education "}]},{"id":"SP.POP.0609.MA.UN","name":"Population, ages 6-9, male","source":{"id":"12","value":"Education Statistics"},"sourceNote":"Population, ages 6-9, total is the total population age 6-9.","sourceOrganization":"UNESCO Institute for Statistics (Derived)","topics":[{"id":"4","value":"Education "}]},{"id":"SP.POP.0609.FE.UN","name":"Population, ages 6-9, female","source":{"id":"12","value":"Education Statistics"},"sourceNote":"Population, ages 6-9, male is the total number of males age 6-9.","sourceOrganization":"UNESCO Institute for Statistics (Derived)","topics":[{"id":"4","value":"Education "}]},{"id":"SP.POP.0511.TO.UN","name":"Population, ages 5-11, total","source":{"id":"12","value":"Education Statistics"},"sourceNote":"Population, ages 5-11, total is the total population age 5-11.","sourceOrganization":"UNESCO Institute for Statistics (Derived)","topics":[{"id":"4","value":"Education "}]},{"id":"SP.POP.0511.MA.UN","name":"Population, ages 5-11, male","source":{"id":"12","value":"Education Statistics"},"sourceNote":"Population, ages 5-11, male is the total number of males age 5-11.","sourceOrganization":"UNESCO Institute for Statistics (Derived)","topics":[{"id":"4","value":"Education "}]},{"id":"SP.POP.0511.FE.UN","name":"Population, ages 5-11, female","source":{"id":"12","value":"Education Statistics"},"sourceNote":"Population, ages 5-11, female is the total number of females age 5-11.","sourceOrganization":"UNESCO Institute for Statistics (Derived)","topics":[{"id":"4","value":"Education "}]},{"id":"SP.POP.0510.TO.UN","name":"Population, ages 5-10, total","source":{"id":"12","value":"Education Statistics"},"sourceNote":"Population, ages 5-10, total is the total population age 5-10.","sourceOrganization":"UNESCO Institute for Statistics (Derived)","topics":[{"id":"4","value":"Education "}]},{"id":"SP.POP.0510.MA.UN","name":"Population, ages 5-10, male","source":{"id":"12","value":"Education Statistics"},"sourceNote":"Population, ages 5-10, male is the total number of males age 5-10.","sourceOrganization":"UNESCO Institute for Statistics (Derived)","topics":[{"id":"4","value":"Education "}]},{"id":"SP.POP.0510.FE.UN","name":"Population, ages 5-10, female","source":{"id":"12","value":"Education Statistics"},"sourceNote":"Population, ages 5-10, female is the total number of females age 5-10.","sourceOrganization":"UNESCO Institute for Statistics (Derived)","topics":[{"id":"4","value":"Education "}]},{"id":"SP.POP.0509.TO.UN","name":"Population, ages 5-9, total","source":{"id":"12","value":"Education Statistics"},"sourceNote":"Population, ages 5-9, total is the total population age 5-9.","sourceOrganization":"UNESCO Institute for Statistics (Derived)","topics":[{"id":"4","value":"Education "}]},{"id":"SP.POP.0509.MA.UN","name":"Population, ages 5-9, male","source":{"id":"12","value":"Education Statistics"},"sourceNote":"Population, ages 5-9, male is the total number of males age 5-9.","sourceOrganization":"UNESCO Institute for Statistics (Derived)","topics":[{"id":"4","value":"Education "}]},{"id":"SP.POP.0509.MA.5Y","name":"Population ages 5-9, male (% of male population)","source":{"id":"2","value":"World Development Indicators"},"sourceNote":"Male population between the ages 5 to 9 as a percentage of the total male population.","sourceOrganization":"World Bank staff estimates based on age\/sex distributions of United Nations Population Division's World Population Prospects.","topics":[{"id":"8","value":"Health "}]},{"id":"SP.POP.0509.MA","name":"Male population 05-09","source":{"id":"16","value":"Health Nutrition and Population Statistics"},"sourceNote":"Male population between the ages 5 to 9.","sourceOrganization":"World Bank staff estimates using the World Bank's total population and age distributions of the United Nations Population Division's World Population Prospects.","topics":[]},{"id":"SP.POP.0509.FE.UN","name":"Population, ages 5-9, female","source":{"id":"12","value":"Education Statistics"},"sourceNote":"Population, ages 5-9, female is the total number of females age 5-9.","sourceOrganization":"UNESCO Institute for Statistics (Derived)","topics":[{"id":"4","value":"Education "}]},{"id":"SP.POP.0509.FE.5Y","name":"Population ages 5-9, female (% of female population)","source":{"id":"2","value":"World Development Indicators"},"sourceNote":"Female population between the ages 5 to 9 as a percentage of the total female population.","sourceOrganization":"World Bank staff estimates based on age\/sex distributions of United Nations Population Division's World Population Prospects.","topics":[{"id":"8","value":"Health "}]},{"id":"SP.POP.0509.FE","name":"Female population 05-09","source":{"id":"16","value":"Health Nutrition and Population Statistics"},"sourceNote":"Female population between the ages 5 to 9.","sourceOrganization":"World Bank staff estimates using the World Bank's total population and age distributions of the United Nations Population Division's World Population Prospects.","topics":[]},{"id":"SP.POP.0406.TO.UN","name":"Population, ages 4-6, total","source":{"id":"12","value":"Education Statistics"},"sourceNote":"Population, ages 4-6, total is the total population age 4-6.","sourceOrganization":"UNESCO Institute for Statistics (Derived)","topics":[{"id":"4","value":"Education "}]},{"id":"SP.POP.0406.MA.UN","name":"Population, ages 4-6, male","source":{"id":"12","value":"Education Statistics"},"sourceNote":"Population, ages 4-6, male is the total number of males age 4-6.","sourceOrganization":"UNESCO Institute for Statistics (Derived)","topics":[{"id":"4","value":"Education "}]},{"id":"SP.POP.0406.FE.UN","name":"Population, ages 4-6, female","source":{"id":"12","value":"Education Statistics"},"sourceNote":"Population, ages 4-6, female is the total number of females age 4-6.","sourceOrganization":"UNESCO Institute for Statistics (Derived)","topics":[{"id":"4","value":"Education "}]},{"id":"SP.POP.0305.TO.UN","name":"Population, ages 3-5, total","source":{"id":"12","value":"Education Statistics"},"sourceNote":"Population, ages 3-5, total is the total population age 3-5.","sourceOrganization":"UNESCO Institute for Statistics (Derived)","topics":[{"id":"4","value":"Education "}]},{"id":"SP.POP.0305.MA.UN","name":"Population, ages 3-5, male","source":{"id":"12","value":"Education Statistics"},"sourceNote":"Population, ages 3-5, male is the total number of males age 3-5.","sourceOrganization":"UNESCO Institute for Statistics (Derived)","topics":[{"id":"4","value":"Education "}]},{"id":"SP.POP.0305.FE.UN","name":"Population, ages 3-5, female","source":{"id":"12","value":"Education Statistics"},"sourceNote":"Population, ages 3-5, female is the total number of females age 3-5.","sourceOrganization":"UNESCO Institute for Statistics (Derived)","topics":[{"id":"4","value":"Education "}]},{"id":"SP.POP.0024.TO.ZS","name":"Population 0-24 (% of total population)","source":{"id":"11","value":"Africa Development Indicators"},"sourceNote":"Population ages 0 to 24 is the percentage of the total population that is in the age group 0 to 24. ","sourceOrganization":"World Bank staff estimates from various sources including census reports, the United Nations Population Division's World Population Prospects, national statistical offices, household surveys conducted by national agencies, and Macro International.","topics":[]},{"id":"SP.POP.0014.TO.ZS","name":"Population ages 0-14 (% of total)","source":{"id":"2","value":"World Development Indicators"},"sourceNote":"Total population between the ages 15 to 64 as a percentage of the total population. Population is based on the de facto definition of population, which counts all residents regardless of legal status or citizenship.","sourceOrganization":"World Bank staff estimates based on age\/sex distributions of United Nations Population Division's World Population Prospects.","topics":[{"id":"4","value":"Education "},{"id":"8","value":"Health "}]},{"id":"SP.POP.0014.TO","name":"Population, ages 0-14, total","source":{"id":"11","value":"Africa Development Indicators"},"sourceNote":"Total population between the ages 0 to 14. Population is based on the de facto definition of population, which counts all residents regardless of legal status or citizenship--except for refugees not permanently settled in the country of asylum, who are generally considered part of the population of the country of origin.","sourceOrganization":"World Bank staff estimates using the World Bank's population and the United Nations Population Division's World Population Prospects. The World Bank's population estimates are from various sources including the United Nations Population Division's World P","topics":[{"id":"4","value":"Education "}]},{"id":"SP.POP.0014.MA.ZS","name":"Population ages 0-14, male (% of total)","source":{"id":"11","value":"Africa Development Indicators"},"sourceNote":"Male population between the ages 0 to 14 as a percentage of the total male population. Population is based on the de facto definition of population.","sourceOrganization":"The United Nations Population Division's World Population Prospects.","topics":[]},{"id":"SP.POP.0014.MA.IN","name":"Population, ages 0-14, male","source":{"id":"11","value":"Africa Development Indicators"},"sourceNote":"Male population between the ages 0 to 14. Population is based on the de facto definition of population, which counts all residents regardless of legal status or citizenship--except for refugees not permanently settled in the country of asylum, who are generally considered part of the population of the country of origin.","sourceOrganization":"World Bank staff estimates using the World Bank's population and the United Nations Population Division's World Population Prospects. The World Bank's population estimates are from various sources including the United Nations Population Division's World P","topics":[{"id":"4","value":"Education "}]},{"id":"SP.POP.0014.FE.ZS","name":"Population ages 0-14, female (% of total)","source":{"id":"11","value":"Africa Development Indicators"},"sourceNote":"Female population between the ages 0 to 14 as a percentage of the total female population. Population is based on the de facto definition of population.","sourceOrganization":"The United Nations Population Division's World Population Prospects.","topics":[{}]}]]