[{"page":46,"pages":324,"per_page":"50","total":16174},[{"id":"DP.DOD.DLTC.CR.BC","name":"296.Long-term, by original maturity (PSDCGGB, LT)","source":{"id":"20","value":"Quarterly Public Sector Debt"},"sourceNote":"","sourceOrganization":"","topics":[]},{"id":"DP.DOD.DLSD.CR.PS.CD","name":"182.Special Drawing Rights (SDRs) (PSDT) US$","source":{"id":"20","value":"Quarterly Public Sector Debt"},"sourceNote":"Member Country","sourceOrganization":"World Bank.","topics":[]},{"id":"DP.DOD.DLSD.CR.PS","name":"406.Special Drawing Rights (SDRs) (PSDT, LT)","source":{"id":"20","value":"Quarterly Public Sector Debt"},"sourceNote":"","sourceOrganization":"","topics":[]},{"id":"DP.DOD.DLSD.CR.NF.Z1","name":"566.Special Drawing Rights (SDRs) (PSDNFPC)(% of GDP)","source":{"id":"20","value":"Quarterly Public Sector Debt"},"sourceNote":"The source of non-seasonally adjusted Gross Domestic Product (GDP) data in national currency, at current prices, is the International Finance Statistics quarterly database of the IMF, annualized by the World Bank, unless otherwise specified","sourceOrganization":"","topics":[]},{"id":"DP.DOD.DLSD.CR.NF.CD","name":"118.Special Drawing Rights (SDRs) (PSDNFPC) US$","source":{"id":"20","value":"Quarterly Public Sector Debt"},"sourceNote":"Member Country","sourceOrganization":"World Bank.","topics":[]},{"id":"DP.DOD.DLSD.CR.NF","name":"342.Special Drawing Rights (SDRs) (PSDNFPC)","source":{"id":"20","value":"Quarterly Public Sector Debt"},"sourceNote":"","sourceOrganization":"","topics":[]},{"id":"DP.DOD.DLSD.CR.M1.PS.CD","name":"176.Special Drawing Rights (SDRs) (PSDT, LT, >1yr) US$","source":{"id":"20","value":"Quarterly Public Sector Debt"},"sourceNote":"Member Country","sourceOrganization":"World Bank.","topics":[]},{"id":"DP.DOD.DLSD.CR.M1.PS","name":"400.Special Drawing Rights (SDRs) (PSDT, LT, >1yr)","source":{"id":"20","value":"Quarterly Public Sector Debt"},"sourceNote":"","sourceOrganization":"","topics":[]},{"id":"DP.DOD.DLSD.CR.M1.NF.Z1","name":"560.Special Drawing Rights (SDRs) (PSDNFPC, LT, >1yr)(% of GDP)","source":{"id":"20","value":"Quarterly Public Sector Debt"},"sourceNote":"The source of non-seasonally adjusted Gross Domestic Product (GDP) data in national currency, at current prices, is the International Finance Statistics quarterly database of the IMF, annualized by the World Bank, unless otherwise specified","sourceOrganization":"","topics":[]},{"id":"DP.DOD.DLSD.CR.M1.NF.CD","name":"112.Special Drawing Rights (SDRs) (PSDNFPC, LT, >1yr) US$","source":{"id":"20","value":"Quarterly Public Sector Debt"},"sourceNote":"Member Country","sourceOrganization":"World Bank.","topics":[]},{"id":"DP.DOD.DLSD.CR.M1.NF","name":"336.Special Drawing Rights (SDRs) (PSDNFPC, LT, >1yr)","source":{"id":"20","value":"Quarterly Public Sector Debt"},"sourceNote":"","sourceOrganization":"","topics":[]},{"id":"DP.DOD.DLSD.CR.M1.GG.Z1","name":"464.Special Drawing Rights (SDRs) (PSDGG, LT, >1yr)(% of GDP)","source":{"id":"20","value":"Quarterly Public Sector Debt"},"sourceNote":"The source of non-seasonally adjusted Gross Domestic Product (GDP) data in national currency, at current prices, is the International Finance Statistics quarterly database of the IMF, annualized by the World Bank, unless otherwise specified","sourceOrganization":"","topics":[]},{"id":"DP.DOD.DLSD.CR.M1.GG.CD","name":"016.Special Drawing Rights (SDRs) (PSDGG, LT, >1yr) US$","source":{"id":"20","value":"Quarterly Public Sector Debt"},"sourceNote":"Member Country","sourceOrganization":"World Bank.","topics":[]},{"id":"DP.DOD.DLSD.CR.M1.GG","name":"240.Special Drawing Rights (SDRs) (PSDGG, LT, >1yr)","source":{"id":"20","value":"Quarterly Public Sector Debt"},"sourceNote":"","sourceOrganization":"","topics":[]},{"id":"DP.DOD.DLSD.CR.M1.FC.Z1","name":"592.Special Drawing Rights (SDRs) (PSDFPC, LT, >1yr)(% of GDP)","source":{"id":"20","value":"Quarterly Public Sector Debt"},"sourceNote":"The source of non-seasonally adjusted Gross Domestic Product (GDP) data in national currency, at current prices, is the International Finance Statistics quarterly database of the IMF, annualized by the World Bank, unless otherwise specified","sourceOrganization":"","topics":[]},{"id":"DP.DOD.DLSD.CR.M1.FC.CD","name":"144.Special Drawing Rights (SDRs) (PSDFPC, LT, >1yr) US$","source":{"id":"20","value":"Quarterly Public Sector Debt"},"sourceNote":"Member Country","sourceOrganization":"World Bank.","topics":[]},{"id":"DP.DOD.DLSD.CR.M1.FC","name":"368.Special Drawing Rights (SDRs) (PSDFPC, LT, >1yr)","source":{"id":"20","value":"Quarterly Public Sector Debt"},"sourceNote":"","sourceOrganization":"","topics":[]},{"id":"DP.DOD.DLSD.CR.M1.CG.Z1","name":"496.Special Drawing Rights (SDRs) (PSDCG, LT, >1yr)(% of GDP)","source":{"id":"20","value":"Quarterly Public Sector Debt"},"sourceNote":"The source of non-seasonally adjusted Gross Domestic Product (GDP) data in national currency, at current prices, is the International Finance Statistics quarterly database of the IMF, annualized by the World Bank, unless otherwise specified","sourceOrganization":"","topics":[]},{"id":"DP.DOD.DLSD.CR.M1.CG.CD","name":"048.Special Drawing Rights (SDRs) (PSDCG, LT, >1yr) US$","source":{"id":"20","value":"Quarterly Public Sector Debt"},"sourceNote":"Member Country","sourceOrganization":"World Bank.","topics":[]},{"id":"DP.DOD.DLSD.CR.M1.CG","name":"272.Special Drawing Rights (SDRs) (PSDCG, LT, >1yr)","source":{"id":"20","value":"Quarterly Public Sector Debt"},"sourceNote":"","sourceOrganization":"","topics":[]},{"id":"DP.DOD.DLSD.CR.M1.BC.Z1","name":"528.Special Drawing Rights (SDRs) (PSDCGGB, LT, >1yr)(% of GDP)","source":{"id":"20","value":"Quarterly Public Sector Debt"},"sourceNote":"The source of non-seasonally adjusted Gross Domestic Product (GDP) data in national currency, at current prices, is the International Finance Statistics quarterly database of the IMF, annualized by the World Bank, unless otherwise specified","sourceOrganization":"","topics":[]},{"id":"DP.DOD.DLSD.CR.M1.BC.CD","name":"080.Special Drawing Rights (SDRs) (PSDCGGB, LT, >1yr) US$","source":{"id":"20","value":"Quarterly Public Sector Debt"},"sourceNote":"Member Country","sourceOrganization":"World Bank.","topics":[]},{"id":"DP.DOD.DLSD.CR.M1.BC","name":"304.Special Drawing Rights (SDRs) (PSDCGGB, LT, >1yr)","source":{"id":"20","value":"Quarterly Public Sector Debt"},"sourceNote":"","sourceOrganization":"","topics":[]},{"id":"DP.DOD.DLSD.CR.GG.Z1","name":"470.Special Drawing Rights (SDRs) (PSDGG, LT)(% of GDP)","source":{"id":"20","value":"Quarterly Public Sector Debt"},"sourceNote":"The source of non-seasonally adjusted Gross Domestic Product (GDP) data in national currency, at current prices, is the International Finance Statistics quarterly database of the IMF, annualized by the World Bank, unless otherwise specified","sourceOrganization":"","topics":[]},{"id":"DP.DOD.DLSD.CR.GG.CD","name":"022.Special Drawing Rights (SDRs) (PSDGG) US$","source":{"id":"20","value":"Quarterly Public Sector Debt"},"sourceNote":"Member Country","sourceOrganization":"World Bank.","topics":[]},{"id":"DP.DOD.DLSD.CR.GG","name":"246.Special Drawing Rights (SDRs) (PSDGG, LT)","source":{"id":"20","value":"Quarterly Public Sector Debt"},"sourceNote":"","sourceOrganization":"","topics":[]},{"id":"DP.DOD.DLSD.CR.FC.Z1","name":"598.Special Drawing Rights (SDRs) (PSDFPC)(% of GDP)","source":{"id":"20","value":"Quarterly Public Sector Debt"},"sourceNote":"The source of non-seasonally adjusted Gross Domestic Product (GDP) data in national currency, at current prices, is the International Finance Statistics quarterly database of the IMF, annualized by the World Bank, unless otherwise specified","sourceOrganization":"","topics":[]},{"id":"DP.DOD.DLSD.CR.FC.CD","name":"150.Special Drawing Rights (SDRs) (PSDFPC) US$","source":{"id":"20","value":"Quarterly Public Sector Debt"},"sourceNote":"Member Country","sourceOrganization":"World Bank.","topics":[]},{"id":"DP.DOD.DLSD.CR.FC","name":"374.Special Drawing Rights (SDRs) (PSDFPC)","source":{"id":"20","value":"Quarterly Public Sector Debt"},"sourceNote":"","sourceOrganization":"","topics":[]},{"id":"DP.DOD.DLSD.CR.CG.Z1","name":"502.Special Drawing Rights (SDRs) (PSDCG)(% of GDP)","source":{"id":"20","value":"Quarterly Public Sector Debt"},"sourceNote":"The source of non-seasonally adjusted Gross Domestic Product (GDP) data in national currency, at current prices, is the International Finance Statistics quarterly database of the IMF, annualized by the World Bank, unless otherwise specified","sourceOrganization":"","topics":[]},{"id":"DP.DOD.DLSD.CR.CG.CD","name":"054.Special Drawing Rights (SDRs) (PSDCG) US$","source":{"id":"20","value":"Quarterly Public Sector Debt"},"sourceNote":"Member Country","sourceOrganization":"World Bank.","topics":[]},{"id":"DP.DOD.DLSD.CR.CG","name":"278.Special Drawing Rights (SDRs) (PSDCG)","source":{"id":"20","value":"Quarterly Public Sector Debt"},"sourceNote":"","sourceOrganization":"","topics":[]},{"id":"DP.DOD.DLSD.CR.BC.Z1","name":"534.Special Drawing Rights (SDRs) (PSDCGGB)(% of GDP)","source":{"id":"20","value":"Quarterly Public Sector Debt"},"sourceNote":"The source of non-seasonally adjusted Gross Domestic Product (GDP) data in national currency, at current prices, is the International Finance Statistics quarterly database of the IMF, annualized by the World Bank, unless otherwise specified","sourceOrganization":"","topics":[]},{"id":"DP.DOD.DLSD.CR.BC.CD","name":"086.Special Drawing Rights (SDRs) (PSDCGGB) US$","source":{"id":"20","value":"Quarterly Public Sector Debt"},"sourceNote":"Member Country","sourceOrganization":"World Bank.","topics":[]},{"id":"DP.DOD.DLSD.CR.BC","name":"310.Special Drawing Rights (SDRs) (PSDCGGB)","source":{"id":"20","value":"Quarterly Public Sector Debt"},"sourceNote":"","sourceOrganization":"","topics":[]},{"id":"DP.DOD.DLOA.CR.PS.CD","name":"187.Other accounts payable (PSDT) US$","source":{"id":"20","value":"Quarterly Public Sector Debt"},"sourceNote":"Member Country","sourceOrganization":"World Bank.","topics":[]},{"id":"DP.DOD.DLOA.CR.PS","name":"411.Other accounts payable \/8","source":{"id":"20","value":"Quarterly Public Sector Debt"},"sourceNote":"","sourceOrganization":"","topics":[]},{"id":"DP.DOD.DLOA.CR.NF.Z1","name":"571.Other accounts payable (PSDNFPC)(% of GDP)","source":{"id":"20","value":"Quarterly Public Sector Debt"},"sourceNote":"The source of non-seasonally adjusted Gross Domestic Product (GDP) data in national currency, at current prices, is the International Finance Statistics quarterly database of the IMF, annualized by the World Bank, unless otherwise specified","sourceOrganization":"","topics":[]},{"id":"DP.DOD.DLOA.CR.NF.CD","name":"123.Other accounts payable (PSDNFPC) US$","source":{"id":"20","value":"Quarterly Public Sector Debt"},"sourceNote":"Member Country","sourceOrganization":"World Bank.","topics":[]},{"id":"DP.DOD.DLOA.CR.NF","name":"347.Other accounts payable (PSDNFPC)","source":{"id":"20","value":"Quarterly Public Sector Debt"},"sourceNote":"","sourceOrganization":"","topics":[]},{"id":"DP.DOD.DLOA.CR.M1.PS.CD","name":"181.Other accounts payable (PSDT, LT, >1yr) US$","source":{"id":"20","value":"Quarterly Public Sector Debt"},"sourceNote":"Member Country","sourceOrganization":"World Bank.","topics":[]},{"id":"DP.DOD.DLOA.CR.M1.PS","name":"405.Other accounts payable (PSDT, LT, >1yr)","source":{"id":"20","value":"Quarterly Public Sector Debt"},"sourceNote":"","sourceOrganization":"","topics":[]},{"id":"DP.DOD.DLOA.CR.M1.NF.Z1","name":"565.Other accounts payable (PSDNFPC, LT, >1yr)(% of GDP)","source":{"id":"20","value":"Quarterly Public Sector Debt"},"sourceNote":"The source of non-seasonally adjusted Gross Domestic Product (GDP) data in national currency, at current prices, is the International Finance Statistics quarterly database of the IMF, annualized by the World Bank, unless otherwise specified","sourceOrganization":"","topics":[]},{"id":"DP.DOD.DLOA.CR.M1.NF.CD","name":"117.Other accounts payable (PSDNFPC, LT, >1yr) US$","source":{"id":"20","value":"Quarterly Public Sector Debt"},"sourceNote":"Member Country","sourceOrganization":"World Bank.","topics":[]},{"id":"DP.DOD.DLOA.CR.M1.NF","name":"341.Other accounts payable (PSDNFPC, LT, >1yr)","source":{"id":"20","value":"Quarterly Public Sector Debt"},"sourceNote":"","sourceOrganization":"","topics":[]},{"id":"DP.DOD.DLOA.CR.M1.GG.Z1","name":"469.Other accounts payable (PSDGG, LT, >1yr)(% of GDP)","source":{"id":"20","value":"Quarterly Public Sector Debt"},"sourceNote":"The source of non-seasonally adjusted Gross Domestic Product (GDP) data in national currency, at current prices, is the International Finance Statistics quarterly database of the IMF, annualized by the World Bank, unless otherwise specified","sourceOrganization":"","topics":[]},{"id":"DP.DOD.DLOA.CR.M1.GG.CD","name":"021.Other accounts payable (PSDGG, LT, >1yr) US$","source":{"id":"20","value":"Quarterly Public Sector Debt"},"sourceNote":"Member Country","sourceOrganization":"World Bank.","topics":[]},{"id":"DP.DOD.DLOA.CR.M1.GG","name":"245.Other accounts payable (PSDGG, LT, >1yr)","source":{"id":"20","value":"Quarterly Public Sector Debt"},"sourceNote":"","sourceOrganization":"","topics":[]},{"id":"DP.DOD.DLOA.CR.M1.FC.Z1","name":"597.Other accounts payable (PSDFPC, LT, >1yr)(% of GDP)","source":{"id":"20","value":"Quarterly Public Sector Debt"},"sourceNote":"The source of non-seasonally adjusted Gross Domestic Product (GDP) data in national currency, at current prices, is the International Finance Statistics quarterly database of the IMF, annualized by the World Bank, unless otherwise specified","sourceOrganization":"","topics":[]},{"id":"DP.DOD.DLOA.CR.M1.FC.CD","name":"149.Other accounts payable (PSDFPC, LT, >1yr) US$","source":{"id":"20","value":"Quarterly Public Sector Debt"},"sourceNote":"Member Country","sourceOrganization":"World Bank.","topics":[{}]}]]