[{"page":61,"pages":324,"per_page":"50","total":16174},[{"id":"DT.DOD.DIIL.CD.PR.US","name":"Gross Ext. Debt Pos., Publicly Guar. Private Sector Ext. Debt, All maturities, DI: Intercom Lending, USD","source":{"id":"22","value":"Quarterly External Debt Statistics\/SDDS (New)"},"sourceNote":"","sourceOrganization":"","topics":[]},{"id":"DT.DOD.DIIE.CD.PU.US","name":"Gross Ext. Debt Pos., Public Sector Ext. Debt, All maturities, Debt liab. of dir. investors to DI ent., USD","source":{"id":"22","value":"Quarterly External Debt Statistics\/SDDS (New)"},"sourceNote":"","sourceOrganization":"","topics":[]},{"id":"DT.DOD.DIIE.CD.PR.US","name":"Gross Ext. Debt Pos., Publicly Guar. Private Sector Ext. Debt, All maturities, Debt liab. of dir. investors to DI ent., USD","source":{"id":"22","value":"Quarterly External Debt Statistics\/SDDS (New)"},"sourceNote":"","sourceOrganization":"","topics":[]},{"id":"DT.DOD.DIIE.CD.IL.US","name":"Gross Ext. Debt Pos., DI: Intercom Lending, All maturities, Debt liab. of dir. investors to DI ent., USD","source":{"id":"22","value":"Quarterly External Debt Statistics\/SDDS (New)"},"sourceNote":"","sourceOrganization":"","topics":[]},{"id":"DT.DOD.DIIE.CD.IL.TR.US","name":"Gross Ext. Debt Pos., DI: Intercom Lending, All maturities, Debt liab. of dir. investors to DI ent., Transactions, USD","source":{"id":"22","value":"Quarterly External Debt Statistics\/SDDS (New)"},"sourceNote":"","sourceOrganization":"","topics":[]},{"id":"DT.DOD.DIIE.CD.IL.PX.US","name":"Gross Ext. Debt Pos., DI: Intercom Lending, All maturities, Debt liab. of dir. investors to DI ent., Other price chg, USD","source":{"id":"22","value":"Quarterly External Debt Statistics\/SDDS (New)"},"sourceNote":"","sourceOrganization":"","topics":[]},{"id":"DT.DOD.DIIE.CD.IL.OC.US","name":"Gross Ext. Debt Pos., DI: Intercom Lending, All maturities, Debt liab. of dir. investors to DI ent., Other chg in vol., USD","source":{"id":"22","value":"Quarterly External Debt Statistics\/SDDS (New)"},"sourceNote":"","sourceOrganization":"","topics":[]},{"id":"DT.DOD.DIIE.CD.IL.NE.US","name":"Net Ext. Debt Position, DI: Intercom Lending, All maturities, Debt of dir. investors to dir. investment ent., USD","source":{"id":"22","value":"Quarterly External Debt Statistics\/SDDS (New)"},"sourceNote":"","sourceOrganization":"","topics":[]},{"id":"DT.DOD.DIIE.CD.IL.GE.US","name":"Gross Ext. Debt Pos., DI: Intercom Lending, All maturities, Debt of dir. investors to dir. investment ent., Beginning pos., USD","source":{"id":"22","value":"Quarterly External Debt Statistics\/SDDS (New)"},"sourceNote":"","sourceOrganization":"","topics":[]},{"id":"DT.DOD.DIIE.CD.IL.EX.US","name":"Gross Ext. Debt Pos., DI: Intercom Lending, All maturities, Debt liab. of dir. investors to DI ent., Exchange rate chg, USD","source":{"id":"22","value":"Quarterly External Debt Statistics\/SDDS (New)"},"sourceNote":"","sourceOrganization":"","topics":[]},{"id":"DT.DOD.DIIE.CD.IL.EN.US","name":"Gross Ext. Debt Pos., DI: Intercom Lending, All maturities, Debt liab. of dir. investors to DI ent., end of period, USD","source":{"id":"22","value":"Quarterly External Debt Statistics\/SDDS (New)"},"sourceNote":"","sourceOrganization":"","topics":[]},{"id":"DT.DOD.DIIE.CD.IL.EA.US","name":"Ext. Assets in Debt Instruments, DI: Intercom Lending, All maturities, Debt of dir. investors to dir. investment ent., USD","source":{"id":"22","value":"Quarterly External Debt Statistics\/SDDS (New)"},"sourceNote":"","sourceOrganization":"","topics":[]},{"id":"DT.DOD.DIIE.CD.IL.BE.US","name":"Gross Ext. Debt Pos., DI: Intercom Lending, All maturities, Debt liab. of dir. investors to DI ent., Beginning of period, USD","source":{"id":"22","value":"Quarterly External Debt Statistics\/SDDS (New)"},"sourceNote":"","sourceOrganization":"","topics":[]},{"id":"DT.DOD.DIIE.CD.FC.IL.US.US","name":"Gross Ext. F. Curr Debt Pos., DI: Intercom Lending, All maturities, Debt liab. of dir. investors to DI ent., US dollar, USD","source":{"id":"22","value":"Quarterly External Debt Statistics\/SDDS (New)"},"sourceNote":"","sourceOrganization":"","topics":[]},{"id":"DT.DOD.DIIE.CD.FC.IL.TO.US","name":"Gross Ext. F. Curr Debt Pos., DI: Intercom Lending, All maturities, Debt liab. of dir. investors to DI ent., All curr., USD","source":{"id":"22","value":"Quarterly External Debt Statistics\/SDDS (New)"},"sourceNote":"","sourceOrganization":"","topics":[]},{"id":"DT.DOD.DIIE.CD.FC.IL.OT.US","name":"Gross Ext. F. Curr Debt Pos., DI: Intercom Lending, All maturities, Debt liab. of dir. investors to DI ent., Other curr., USD","source":{"id":"22","value":"Quarterly External Debt Statistics\/SDDS (New)"},"sourceNote":"","sourceOrganization":"","topics":[]},{"id":"DT.DOD.DIIE.CD.FC.IL.JY.US","name":"Gross Ext. F. Curr Debt Pos., DI: Intercom Lending, All maturities, Debt liab. of dir. investors to DI ent., Yen, USD","source":{"id":"22","value":"Quarterly External Debt Statistics\/SDDS (New)"},"sourceNote":"","sourceOrganization":"","topics":[]},{"id":"DT.DOD.DIIE.CD.FC.IL.EU.US","name":"Gross Ext. F. Curr Debt Pos., DI: Intercom Lending, All maturities, Debt liab. of dir. investors to DI ent., Euro, USD","source":{"id":"22","value":"Quarterly External Debt Statistics\/SDDS (New)"},"sourceNote":"","sourceOrganization":"","topics":[]},{"id":"DT.DOD.DIFE.CD.PU.US","name":"Gross Ext. Debt Pos., Public Sector Ext. Debt, All maturities, Debt liab. to fellow ent., USD","source":{"id":"22","value":"Quarterly External Debt Statistics\/SDDS (New)"},"sourceNote":"","sourceOrganization":"","topics":[]},{"id":"DT.DOD.DIFE.CD.PR.US","name":"Gross Ext. Debt Pos., Publicly Guar. Private Sector Ext. Debt, All maturities, Debt liab. to fellow ent., USD","source":{"id":"22","value":"Quarterly External Debt Statistics\/SDDS (New)"},"sourceNote":"","sourceOrganization":"","topics":[]},{"id":"DT.DOD.DIFE.CD.IL.US","name":"Gross Ext. Debt Pos., DI: Intercom Lending, All maturities, Debt liab. to fellow ent., USD","source":{"id":"22","value":"Quarterly External Debt Statistics\/SDDS (New)"},"sourceNote":"","sourceOrganization":"","topics":[]},{"id":"DT.DOD.DIFE.CD.IL.TR.US","name":"Gross Ext. Debt Pos., DI: Intercom Lending, All maturities, Debt liab. to fellow ent., Transactions, USD","source":{"id":"22","value":"Quarterly External Debt Statistics\/SDDS (New)"},"sourceNote":"","sourceOrganization":"","topics":[]},{"id":"DT.DOD.DIFE.CD.IL.PX.US","name":"Gross Ext. Debt Pos., DI: Intercom Lending, All maturities, Debt liab. to fellow ent., Other price chg, USD","source":{"id":"22","value":"Quarterly External Debt Statistics\/SDDS (New)"},"sourceNote":"","sourceOrganization":"","topics":[]},{"id":"DT.DOD.DIFE.CD.IL.OC.US","name":"Gross Ext. Debt Pos., DI: Intercom Lending, All maturities, Debt liab. to fellow ent., Other chg in vol., USD","source":{"id":"22","value":"Quarterly External Debt Statistics\/SDDS (New)"},"sourceNote":"","sourceOrganization":"","topics":[]},{"id":"DT.DOD.DIFE.CD.IL.NE.US","name":"Net Ext. Debt Position, DI: Intercom Lending, All maturities, Debt between fellow enterprises, USD","source":{"id":"22","value":"Quarterly External Debt Statistics\/SDDS (New)"},"sourceNote":"","sourceOrganization":"","topics":[]},{"id":"DT.DOD.DIFE.CD.IL.GE.US","name":"Gross Ext. Debt Pos., DI: Intercom Lending, All maturities, Debt between fellow enterprises, Beginning pos., USD","source":{"id":"22","value":"Quarterly External Debt Statistics\/SDDS (New)"},"sourceNote":"","sourceOrganization":"","topics":[]},{"id":"DT.DOD.DIFE.CD.IL.EX.US","name":"Gross Ext. Debt Pos., DI: Intercom Lending, All maturities, Debt liab. to fellow ent., Exchange rate chg, USD","source":{"id":"22","value":"Quarterly External Debt Statistics\/SDDS (New)"},"sourceNote":"","sourceOrganization":"","topics":[]},{"id":"DT.DOD.DIFE.CD.IL.EN.US","name":"Gross Ext. Debt Pos., DI: Intercom Lending, All maturities, Debt liab. to fellow ent., end of period, USD","source":{"id":"22","value":"Quarterly External Debt Statistics\/SDDS (New)"},"sourceNote":"","sourceOrganization":"","topics":[]},{"id":"DT.DOD.DIFE.CD.IL.EA.US","name":"Ext. Assets in Debt Instruments, DI: Intercom Lending, All maturities, Debt between fellow enterprises, USD","source":{"id":"22","value":"Quarterly External Debt Statistics\/SDDS (New)"},"sourceNote":"","sourceOrganization":"","topics":[]},{"id":"DT.DOD.DIFE.CD.IL.BE.US","name":"Gross Ext. Debt Pos., DI: Intercom Lending, All maturities, Debt liab. to fellow ent. , Beginning of period, USD","source":{"id":"22","value":"Quarterly External Debt Statistics\/SDDS (New)"},"sourceNote":"","sourceOrganization":"","topics":[]},{"id":"DT.DOD.DIFE.CD.FC.IL.US.US","name":"Gross Ext. F. Curr Debt Pos., DI: Intercom Lending, All maturities, Debt liabilities to fellow enterprises, US dollar, USD","source":{"id":"22","value":"Quarterly External Debt Statistics\/SDDS (New)"},"sourceNote":"","sourceOrganization":"","topics":[]},{"id":"DT.DOD.DIFE.CD.FC.IL.TO.US","name":"Gross Ext. F. Curr Debt Pos., DI: Intercom Lending, All maturities, Debt liab. to fellow ent., All curr., USD","source":{"id":"22","value":"Quarterly External Debt Statistics\/SDDS (New)"},"sourceNote":"","sourceOrganization":"","topics":[]},{"id":"DT.DOD.DIFE.CD.FC.IL.OT.US","name":"Gross Ext. F. Curr Debt Pos., DI: Intercom Lending, All maturities, Debt liabilities to fellow enterprises, Other curr., USD","source":{"id":"22","value":"Quarterly External Debt Statistics\/SDDS (New)"},"sourceNote":"","sourceOrganization":"","topics":[]},{"id":"DT.DOD.DIFE.CD.FC.IL.JY.US","name":"Gross Ext. F. Curr Debt Pos., DI: Intercom Lending, All maturities, Debt liabilities to fellow enterprises, Yen, USD","source":{"id":"22","value":"Quarterly External Debt Statistics\/SDDS (New)"},"sourceNote":"","sourceOrganization":"","topics":[]},{"id":"DT.DOD.DIFE.CD.FC.IL.EU.US","name":"Gross Ext. F. Curr Debt Pos., DI: Intercom Lending, All maturities, Debt liabilities to fellow enterprises, Euro, USD","source":{"id":"22","value":"Quarterly External Debt Statistics\/SDDS (New)"},"sourceNote":"","sourceOrganization":"","topics":[]},{"id":"DT.DOD.DIDI.CD.PU.US","name":"Gross Ext. Debt Pos., Public Sector Ext. Debt, All maturities, Debt liab. of DI ent. to dir. investors, USD","source":{"id":"22","value":"Quarterly External Debt Statistics\/SDDS (New)"},"sourceNote":"","sourceOrganization":"","topics":[]},{"id":"DT.DOD.DIDI.CD.PR.US","name":"Gross Ext. Debt Pos., Publicly Guar. Private Sector Ext. Debt, All maturities, Debt liab. of DI ent. to dir. investors, USD","source":{"id":"22","value":"Quarterly External Debt Statistics\/SDDS (New)"},"sourceNote":"","sourceOrganization":"","topics":[]},{"id":"DT.DOD.DIDI.CD.IL.US","name":"Gross Ext. Debt Pos., DI: Intercom Lending, All maturities, Debt liab. of DI ent. to dir. investors, USD","source":{"id":"22","value":"Quarterly External Debt Statistics\/SDDS (New)"},"sourceNote":"","sourceOrganization":"","topics":[]},{"id":"DT.DOD.DIDI.CD.IL.TR.US","name":"Gross Ext. Debt Pos., DI: Intercom Lending, All maturities, Debt liab. of DI ent. to dir. investors, Transactions, USD","source":{"id":"22","value":"Quarterly External Debt Statistics\/SDDS (New)"},"sourceNote":"","sourceOrganization":"","topics":[]},{"id":"DT.DOD.DIDI.CD.IL.PX.US","name":"Gross Ext. Debt Pos., DI: Intercom Lending, All maturities, Debt liab. of DI ent. to dir. investors, Other price chg, USD","source":{"id":"22","value":"Quarterly External Debt Statistics\/SDDS (New)"},"sourceNote":"","sourceOrganization":"","topics":[]},{"id":"DT.DOD.DIDI.CD.IL.OC.US","name":"Gross Ext. Debt Pos., DI: Intercom Lending, All maturities, Debt liab. of DI ent. to dir. investors, Other chg in vol., USD","source":{"id":"22","value":"Quarterly External Debt Statistics\/SDDS (New)"},"sourceNote":"","sourceOrganization":"","topics":[]},{"id":"DT.DOD.DIDI.CD.IL.NE.US","name":"Net Ext. Debt Position, DI: Intercom Lending, All maturities, Debt of dir. investment ent. to dir. investors, USD","source":{"id":"22","value":"Quarterly External Debt Statistics\/SDDS (New)"},"sourceNote":"","sourceOrganization":"","topics":[]},{"id":"DT.DOD.DIDI.CD.IL.GE.US","name":"Gross Ext. Debt Pos., DI: Intercom Lending, All maturities, Debt of dir. investment ent. to dir. investors, Beginning pos., USD","source":{"id":"22","value":"Quarterly External Debt Statistics\/SDDS (New)"},"sourceNote":"","sourceOrganization":"","topics":[]},{"id":"DT.DOD.DIDI.CD.IL.EX.US","name":"Gross Ext. Debt Pos., DI: Intercom Lending, All maturities, Debt liab. of DI ent. to dir. investors, Exchange rate chg, USD","source":{"id":"22","value":"Quarterly External Debt Statistics\/SDDS (New)"},"sourceNote":"","sourceOrganization":"","topics":[]},{"id":"DT.DOD.DIDI.CD.IL.EN.US","name":"Gross Ext. Debt Pos., DI: Intercom Lending, All maturities, Debt liab. of DI ent. to dir. investors, end of period, USD","source":{"id":"22","value":"Quarterly External Debt Statistics\/SDDS (New)"},"sourceNote":"","sourceOrganization":"","topics":[]},{"id":"DT.DOD.DIDI.CD.IL.EA.US","name":"Ext. Assets in Debt Instruments, DI: Intercom Lending, All maturities, Debt of dir. investment ent. to dir. investors, USD","source":{"id":"22","value":"Quarterly External Debt Statistics\/SDDS (New)"},"sourceNote":"","sourceOrganization":"","topics":[]},{"id":"DT.DOD.DIDI.CD.IL.BE.US","name":"Gross Ext. Debt Pos., DI: Intercom Lending, All maturities, Debt liab. of DI ent. to dir. investors, Beginning of period, USD","source":{"id":"22","value":"Quarterly External Debt Statistics\/SDDS (New)"},"sourceNote":"","sourceOrganization":"","topics":[]},{"id":"DT.DOD.DIDI.CD.FC.IL.US.US","name":"Gross Ext. F. Curr Debt Pos., DI: Intercom Lending, All maturities, Debt liab. of DI ent. to dir. investors, US dollar, USD","source":{"id":"22","value":"Quarterly External Debt Statistics\/SDDS (New)"},"sourceNote":"","sourceOrganization":"","topics":[]},{"id":"DT.DOD.DIDI.CD.FC.IL.TO.US","name":"Gross Ext. F. Curr Debt Pos., DI: Intercom Lending, All maturities, Debt liab. of DI ent. to dir. investors, All curr., USD","source":{"id":"22","value":"Quarterly External Debt Statistics\/SDDS (New)"},"sourceNote":"","sourceOrganization":"","topics":[]},{"id":"DT.DOD.DIDI.CD.FC.IL.OT.US","name":"Gross Ext. F. Curr Debt Pos., DI: Intercom Lending, All maturities, Debt liab. of DI ent. to dir. investors, Other curr., USD","source":{"id":"22","value":"Quarterly External Debt Statistics\/SDDS (New)"},"sourceNote":"","sourceOrganization":"","topics":[{}]}]]