[{"page":259,"pages":324,"per_page":"50","total":16174},[{"id":"SH.FPL.APRV.RS.Q5.ZS","name":"Attitudes of couples toward family planning (respondent approves) (% of married non-sterilized women): Q5 (highest)","source":{"id":"39","value":"Health Nutrition and Population Statistics by Wealth Quintile"},"sourceNote":"Attitudes of couples toward family planning: Percentage of currently married non-sterilized women with knowledge of contraceptive method who approve family planning and who have perception that their husbands approve family planning.","sourceOrganization":"Household Surveys (DHS, MICS)","topics":[{"id":"8","value":"Health "}]},{"id":"SH.FPL.APRV.RS.Q4.ZS","name":"Attitudes of couples toward family planning (respondent approves) (% of married non-sterilized women): Q4","source":{"id":"39","value":"Health Nutrition and Population Statistics by Wealth Quintile"},"sourceNote":"Attitudes of couples toward family planning: Percentage of currently married non-sterilized women with knowledge of contraceptive method who approve family planning and who have perception that their husbands approve family planning.","sourceOrganization":"Household Surveys (DHS, MICS)","topics":[{"id":"8","value":"Health "}]},{"id":"SH.FPL.APRV.RS.Q3.ZS","name":"Attitudes of couples toward family planning (respondent approves) (% of married non-sterilized women): Q3","source":{"id":"39","value":"Health Nutrition and Population Statistics by Wealth Quintile"},"sourceNote":"Attitudes of couples toward family planning: Percentage of currently married non-sterilized women with knowledge of contraceptive method who approve family planning and who have perception that their husbands approve family planning.","sourceOrganization":"Household Surveys (DHS, MICS)","topics":[{"id":"8","value":"Health "}]},{"id":"SH.FPL.APRV.RS.Q2.ZS","name":"Attitudes of couples toward family planning (respondent approves) (% of married non-sterilized women): Q2","source":{"id":"39","value":"Health Nutrition and Population Statistics by Wealth Quintile"},"sourceNote":"Attitudes of couples toward family planning: Percentage of currently married non-sterilized women with knowledge of contraceptive method who approve family planning and who have perception that their husbands approve family planning.","sourceOrganization":"Household Surveys (DHS, MICS)","topics":[{"id":"8","value":"Health "}]},{"id":"SH.FPL.APRV.RS.Q1.ZS","name":"Attitudes of couples toward family planning (respondent approves) (% of married non-sterilized women): Q1 (lowest)","source":{"id":"39","value":"Health Nutrition and Population Statistics by Wealth Quintile"},"sourceNote":"Attitudes of couples toward family planning: Percentage of currently married non-sterilized women with knowledge of contraceptive method who approve family planning and who have perception that their husbands approve family planning.","sourceOrganization":"Household Surveys (DHS, MICS)","topics":[{"id":"8","value":"Health "}]},{"id":"SH.FPL.APRV.HB.Q5.ZS","name":"Attitudes of couples toward family planning (husband approves) (% of married non-sterilized women): Q5 (highest)","source":{"id":"39","value":"Health Nutrition and Population Statistics by Wealth Quintile"},"sourceNote":"Attitudes of couples toward family planning: Percentage of currently married non-sterilized women with knowledge of contraceptive method who approve family planning and who have perception that their husbands approve family planning.","sourceOrganization":"Household Surveys (DHS, MICS)","topics":[{"id":"8","value":"Health "}]},{"id":"SH.FPL.APRV.HB.Q4.ZS","name":"Attitudes of couples toward family planning (husband approves) (% of married non-sterilized women): Q4","source":{"id":"39","value":"Health Nutrition and Population Statistics by Wealth Quintile"},"sourceNote":"Attitudes of couples toward family planning: Percentage of currently married non-sterilized women with knowledge of contraceptive method who approve family planning and who have perception that their husbands approve family planning.","sourceOrganization":"Household Surveys (DHS, MICS)","topics":[{"id":"8","value":"Health "}]},{"id":"SH.FPL.APRV.HB.Q3.ZS","name":"Attitudes of couples toward family planning (husband approves) (% of married non-sterilized women): Q3","source":{"id":"39","value":"Health Nutrition and Population Statistics by Wealth Quintile"},"sourceNote":"Attitudes of couples toward family planning: Percentage of currently married non-sterilized women with knowledge of contraceptive method who approve family planning and who have perception that their husbands approve family planning.","sourceOrganization":"Household Surveys (DHS, MICS)","topics":[{"id":"8","value":"Health "}]},{"id":"SH.FPL.APRV.HB.Q2.ZS","name":"Attitudes of couples toward family planning (husband approves) (% of married non-sterilized women): Q2","source":{"id":"39","value":"Health Nutrition and Population Statistics by Wealth Quintile"},"sourceNote":"Attitudes of couples toward family planning: Percentage of currently married non-sterilized women with knowledge of contraceptive method who approve family planning and who have perception that their husbands approve family planning.","sourceOrganization":"Household Surveys (DHS, MICS)","topics":[{"id":"8","value":"Health "}]},{"id":"SH.FPL.APRV.HB.Q1.ZS","name":"Attitudes of couples toward family planning (husband approves) (% of married non-sterilized women): Q1 (lowest)","source":{"id":"39","value":"Health Nutrition and Population Statistics by Wealth Quintile"},"sourceNote":"Attitudes of couples toward family planning: Percentage of currently married non-sterilized women with knowledge of contraceptive method who approve family planning and who have perception that their husbands approve family planning.","sourceOrganization":"Household Surveys (DHS, MICS)","topics":[{"id":"8","value":"Health "}]},{"id":"SH.FPL.ACPT.Q5.ZS","name":"Acceptability of media messages on family planning (% of women): Q5 (highest)","source":{"id":"39","value":"Health Nutrition and Population Statistics by Wealth Quintile"},"sourceNote":"Acceptability of media messages on family planning: Percentage of all women who believe that it is acceptable to have messages about family planning on the radio or television.","sourceOrganization":"Household Surveys (DHS, MICS)","topics":[{"id":"8","value":"Health "}]},{"id":"SH.FPL.ACPT.Q4.ZS","name":"Acceptability of media messages on family planning (% of women): Q4","source":{"id":"39","value":"Health Nutrition and Population Statistics by Wealth Quintile"},"sourceNote":"Acceptability of media messages on family planning: Percentage of all women who believe that it is acceptable to have messages about family planning on the radio or television.","sourceOrganization":"Household Surveys (DHS, MICS)","topics":[{"id":"8","value":"Health "}]},{"id":"SH.FPL.ACPT.Q3.ZS","name":"Acceptability of media messages on family planning (% of women): Q3","source":{"id":"39","value":"Health Nutrition and Population Statistics by Wealth Quintile"},"sourceNote":"Acceptability of media messages on family planning: Percentage of all women who believe that it is acceptable to have messages about family planning on the radio or television.","sourceOrganization":"Household Surveys (DHS, MICS)","topics":[{"id":"8","value":"Health "}]},{"id":"SH.FPL.ACPT.Q2.ZS","name":"Acceptability of media messages on family planning (% of women): Q2","source":{"id":"39","value":"Health Nutrition and Population Statistics by Wealth Quintile"},"sourceNote":"Acceptability of media messages on family planning: Percentage of all women who believe that it is acceptable to have messages about family planning on the radio or television.","sourceOrganization":"Household Surveys (DHS, MICS)","topics":[{"id":"8","value":"Health "}]},{"id":"SH.FPL.ACPT.Q1.ZS","name":"Acceptability of media messages on family planning (% of women): Q1 (lowest)","source":{"id":"39","value":"Health Nutrition and Population Statistics by Wealth Quintile"},"sourceNote":"Acceptability of media messages on family planning: Percentage of all women who believe that it is acceptable to have messages about family planning on the radio or television.","sourceOrganization":"Household Surveys (DHS, MICS)","topics":[{"id":"8","value":"Health "}]},{"id":"SH.DYN.NMRT","name":"Mortality rate, neonatal (per 1,000 live births)","source":{"id":"2","value":"World Development Indicators"},"sourceNote":"Neonatal mortality rate is the number of neonates dying before reaching 28 days of age, per 1,000 live births in a given year.","sourceOrganization":"Estimates developed by the UN Inter-agency Group for Child Mortality Estimation (UNICEF, WHO, World Bank, UN DESA Population Division) at www.childmortality.org.","topics":[{"id":"8","value":"Health "}]},{"id":"SH.DYN.NCOM.ZS","name":"Mortality from CVD, cancer, diabetes or CRD between exact ages 30 and 70 (%)","source":{"id":"2","value":"World Development Indicators"},"sourceNote":"Mortality from CVD, cancer, diabetes or CRD is the percent of 30-year-old-people who would die before their 70th birthday from any of cardiovascular disease, cancer, diabetes,  or chronic respiratory disease, assuming that s\/he would experience current mortality rates at every age and s\/he would not die from any other cause of death (e.g., injuries or HIV\/AIDS).","sourceOrganization":"World Health Organization, Global Health Observatory Data Repository (http:\/\/apps.who.int\/ghodata\/).","topics":[{"id":"8","value":"Health "}]},{"id":"SH.DYN.MORT.Q5","name":"Under-5 mortality rate (per 1,000 live births): Q5 (highest)","source":{"id":"39","value":"Health Nutrition and Population Statistics by Wealth Quintile"},"sourceNote":"Under-5 mortality rate: Number of deaths to children under age five years per 1000 live births, based on experience during the reference period before the survey. The reference period is ten years preceding the survey for DHS surveys, and the reference period varies for MICS surveys (often three to five years preceding the survey).","sourceOrganization":"Household Surveys (DHS, MICS)","topics":[{"id":"8","value":"Health "}]},{"id":"SH.DYN.MORT.Q4","name":"Under-5 mortality rate (per 1,000 live births): Q4","source":{"id":"39","value":"Health Nutrition and Population Statistics by Wealth Quintile"},"sourceNote":"Under-5 mortality rate: Number of deaths to children under age five years per 1000 live births, based on experience during the reference period before the survey. The reference period is ten years preceding the survey for DHS surveys, and the reference period varies for MICS surveys (often three to five years preceding the survey).","sourceOrganization":"Household Surveys (DHS, MICS)","topics":[{"id":"8","value":"Health "}]},{"id":"SH.DYN.MORT.Q3","name":"Under-5 mortality rate (per 1,000 live births): Q3","source":{"id":"39","value":"Health Nutrition and Population Statistics by Wealth Quintile"},"sourceNote":"Under-5 mortality rate: Number of deaths to children under age five years per 1000 live births, based on experience during the reference period before the survey. The reference period is ten years preceding the survey for DHS surveys, and the reference period varies for MICS surveys (often three to five years preceding the survey).","sourceOrganization":"Household Surveys (DHS, MICS)","topics":[{"id":"8","value":"Health "}]},{"id":"SH.DYN.MORT.Q2","name":"Under-5 mortality rate (per 1,000 live births): Q2","source":{"id":"39","value":"Health Nutrition and Population Statistics by Wealth Quintile"},"sourceNote":"Under-5 mortality rate: Number of deaths to children under age five years per 1000 live births, based on experience during the reference period before the survey. The reference period is ten years preceding the survey for DHS surveys, and the reference period varies for MICS surveys (often three to five years preceding the survey).","sourceOrganization":"Household Surveys (DHS, MICS)","topics":[{"id":"8","value":"Health "}]},{"id":"SH.DYN.MORT.Q1","name":"Under-5 mortality rate (per 1,000 live births): Q1 (lowest)","source":{"id":"39","value":"Health Nutrition and Population Statistics by Wealth Quintile"},"sourceNote":"Under-5 mortality rate: Number of deaths to children under age five years per 1000 live births, based on experience during the reference period before the survey. The reference period is ten years preceding the survey for DHS surveys, and the reference period varies for MICS surveys (often three to five years preceding the survey).","sourceOrganization":"Household Surveys (DHS, MICS)","topics":[{"id":"8","value":"Health "}]},{"id":"SH.DYN.MORT.MA","name":"Mortality rate, under-5, male (per 1,000 live births)","source":{"id":"2","value":"World Development Indicators"},"sourceNote":"Under-five mortality rate, male is the probability per 1,000 that a newborn male baby will die before reaching age five, if subject to male age-specific mortality rates of the specified year.","sourceOrganization":"Estimates developed by the UN Inter-agency Group for Child Mortality Estimation (UNICEF, WHO, World Bank, UN DESA Population Division) at www.childmortality.org.","topics":[{"id":"8","value":"Health "}]},{"id":"SH.DYN.MORT.FE","name":"Mortality rate, under-5, female (per 1,000 live births)","source":{"id":"2","value":"World Development Indicators"},"sourceNote":"Under-five mortality rate, female is the probability per 1,000 that a newborn female baby will die before reaching age five, if subject to female age-specific mortality rates of the specified year.","sourceOrganization":"Estimates developed by the UN Inter-agency Group for Child Mortality Estimation (UNICEF, WHO, World Bank, UN DESA Population Division) at www.childmortality.org.","topics":[{"id":"8","value":"Health "}]},{"id":"SH.DYN.MORT","name":"Mortality rate, under-5 (per 1,000 live births)","source":{"id":"2","value":"World Development Indicators"},"sourceNote":"Under-five mortality rate is the probability per 1,000 that a newborn baby will die before reaching age five, if subject to age-specific mortality rates of the specified year.","sourceOrganization":"Estimates Developed by the UN Inter-agency Group for Child Mortality Estimation (UNICEF, WHO, World Bank, UN DESA Population Division) at www.childmortality.org. Projected data are from the United Nations Population Division's World Population Prospects; and may in some cases not be consistent with data before the current year.","topics":[{"id":"8","value":"Health "},{"id":"2","value":"Aid Effectiveness "},{"id":"19","value":"Climate Change"}]},{"id":"SH.DYN.CHLD.MA","name":"Mortality rate, male child (per 1,000 male children age one)","source":{"id":"11","value":"Africa Development Indicators"},"sourceNote":"Child mortality rate is the probability of dying between the exact ages of one and five, if subject to current age-specific mortality rates. The probability is expressed as a rate per 1,000.","sourceOrganization":"Demographic and Health Surveys by ICF International, Multiple Indicators Cluster Surveys by UNICEF, Reproductive Health Surveys by U.S. Center for Disease Control, and Family Health Surveys by Pan Arab Project for Family Health. See footnotes for a source.","topics":[{"id":"17","value":"Gender"},{"id":"8","value":"Health "}]},{"id":"SH.DYN.CHLD.FE","name":"Mortality rate, female child (per 1,000 female children age one)","source":{"id":"11","value":"Africa Development Indicators"},"sourceNote":"Child mortality rate is the probability of dying between the exact ages of one and five, if subject to current age-specific mortality rates. The probability is expressed as a rate per 1,000.","sourceOrganization":"Demographic and Health Surveys by ICF International, Multiple Indicators Cluster Surveys by UNICEF, Reproductive Health Surveys by U.S. Center for Disease Control, and Family Health Surveys by Pan Arab Project for Family Health. See footnotes for a source.","topics":[{"id":"8","value":"Health "},{"id":"17","value":"Gender"}]},{"id":"SH.DYN.AIDS.ZS","name":"Prevalence of HIV, total (% of population ages 15-49)","source":{"id":"2","value":"World Development Indicators"},"sourceNote":"Prevalence of HIV refers to the percentage of people ages 15-49 who are infected with HIV.","sourceOrganization":"UNAIDS estimates.","topics":[{"id":"8","value":"Health "},{"id":"2","value":"Aid Effectiveness "}]},{"id":"SH.DYN.AIDS.LW.ZS","name":"HIV prevalence rate, adult 15-49 years (%; low estimate)","source":{"id":"11","value":"Africa Development Indicators"},"sourceNote":"Prevalence of HIV refers to the percentage of people ages 15-49 who are infected with HIV based on a low estimate.  ","sourceOrganization":"UNAIDS and the WHO's Report on the Global AIDS Epidemic.","topics":[]},{"id":"SH.DYN.AIDS.HG.ZS","name":"HIV prevalence rate, adult 15-49 years (%; high estimate)","source":{"id":"11","value":"Africa Development Indicators"},"sourceNote":"Prevalence of HIV refers to the percentage of people ages 15-49 who are infected with HIV based on a high estimate. ","sourceOrganization":"UNAIDS and the WHO's Report on the Global AIDS Epidemic.","topics":[]},{"id":"SH.DYN.AIDS.FE.ZS","name":"Women's share of population ages 15+ living with HIV (%)","source":{"id":"2","value":"World Development Indicators"},"sourceNote":"Prevalence of HIV is the percentage of people who are infected with HIV. Female rate is as a percentage of the total population ages 15+ who are living with HIV.","sourceOrganization":"UNAIDS estimates.","topics":[{"id":"8","value":"Health "},{"id":"17","value":"Gender"}]},{"id":"SH.DYN.AIDS.DH","name":"AIDS estimated deaths (UNAIDS estimates)","source":{"id":"16","value":"Health Nutrition and Population Statistics"},"sourceNote":"AIDS deaths are the estimated number of adults and children who died due to AIDS-related causes.","sourceOrganization":"UNAIDS estimates.","topics":[]},{"id":"SH.DYN.AIDS","name":"Adults (ages 15+) living with HIV","source":{"id":"16","value":"Health Nutrition and Population Statistics"},"sourceNote":"Adults living with HIV refers to the number of people ages 15-49 who are infected with HIV.","sourceOrganization":"UNAIDS estimates.","topics":[]},{"id":"SH.DTH.NMRT","name":"Number of neonatal deaths","source":{"id":"2","value":"World Development Indicators"},"sourceNote":"Number of neonates dying before reaching 28 days of age.","sourceOrganization":"Estimates developed by the UN Inter-agency Group for Child Mortality Estimation (UNICEF, WHO, World Bank, UN DESA Population Division) at www.childmortality.org.","topics":[{"id":"8","value":"Health "}]},{"id":"SH.DTH.NCOM.ZS","name":"Cause of death, by non-communicable diseases (% of total)","source":{"id":"2","value":"World Development Indicators"},"sourceNote":"Cause of death refers to the share of all deaths for all ages by underlying causes. Non-communicable diseases include cancer, diabetes mellitus, cardiovascular diseases, digestive diseases, skin diseases, musculoskeletal diseases, and congenital anomalies.","sourceOrganization":"Derived based on the data from WHO's World Health Statistics.","topics":[{"id":"8","value":"Health "}]},{"id":"SH.DTH.NCOM.3559.MA.ZS","name":"Cause of death, by non-communicable diseases, ages 35-59, male (% relevant age)","source":{"id":"14","value":"Gender Statistics"},"sourceNote":"Cause of death refers to the share of all deaths for the relevant age by underlying causes. Non-communicable diseases include cancer, diabetes mellitus, cardiovascular diseases, digestive diseases, skin diseases, musculoskeletal diseases, and congenital anomalies.","sourceOrganization":"Derived based on the data from WHO's World Health Statistics.","topics":[{"id":"17","value":"Gender"}]},{"id":"SH.DTH.NCOM.3559.FE.ZS","name":"Cause of death, by non-communicable diseases, ages 35-59, female (% relevant age)","source":{"id":"14","value":"Gender Statistics"},"sourceNote":"Cause of death refers to the share of all deaths for the relevant age by underlying causes. Non-communicable diseases include cancer, diabetes mellitus, cardiovascular diseases, digestive diseases, skin diseases, musculoskeletal diseases, and congenital anomalies.","sourceOrganization":"Derived based on the data from WHO's World Health Statistics.","topics":[{"id":"17","value":"Gender"}]},{"id":"SH.DTH.NCOM.1534.MA.ZS","name":"Cause of death, by non-communicable diseases, ages 15-34, male (% relevant age)","source":{"id":"14","value":"Gender Statistics"},"sourceNote":"Cause of death refers to the share of all deaths for the relevant age by underlying causes. Non-communicable diseases include cancer, diabetes mellitus, cardiovascular diseases, digestive diseases, skin diseases, musculoskeletal diseases, and congenital anomalies.","sourceOrganization":"Derived based on the data from WHO's World Health Statistics.","topics":[{"id":"17","value":"Gender"}]},{"id":"SH.DTH.NCOM.1534.FE.ZS","name":"Cause of death, by non-communicable diseases, ages 15-34, female (% relevant age)","source":{"id":"14","value":"Gender Statistics"},"sourceNote":"Cause of death refers to the share of all deaths for the relevant age by underlying causes. Non-communicable diseases include cancer, diabetes mellitus, cardiovascular diseases, digestive diseases, skin diseases, musculoskeletal diseases, and congenital anomalies.","sourceOrganization":"Derived based on the data from WHO's World Health Statistics.","topics":[{"id":"17","value":"Gender"}]},{"id":"SH.DTH.MORT","name":"Number of under-five deaths","source":{"id":"2","value":"World Development Indicators"},"sourceNote":"Number of children dying before reaching age five.","sourceOrganization":"Estimates developed by the UN Inter-agency Group for Child Mortality Estimation (UNICEF, WHO, World Bank, UN DESA Population Division) at www.childmortality.org.","topics":[{"id":"8","value":"Health "}]},{"id":"SH.DTH.INJR.ZS","name":"Cause of death, by injury (% of total)","source":{"id":"2","value":"World Development Indicators"},"sourceNote":"Cause of death refers to the share of all deaths for all ages by underlying causes. Injuries include unintentional and intentional injuries.","sourceOrganization":"Derived based on the data from WHO's World Health Statistics.","topics":[{"id":"8","value":"Health "}]},{"id":"SH.DTH.INJR.3559.MA.ZS","name":"Cause of death, by injury, ages 35-59, male (% relevant age)","source":{"id":"14","value":"Gender Statistics"},"sourceNote":"Cause of death refers to the share of all deaths for the relevant age by underlying causes. Injuries include unintentional and intentional injuries.","sourceOrganization":"Derived based on the data from WHO's World Health Statistics.","topics":[{"id":"17","value":"Gender"}]},{"id":"SH.DTH.INJR.3559.FE.ZS","name":"Cause of death, by injury, ages 35-59, female (% relevant age)","source":{"id":"14","value":"Gender Statistics"},"sourceNote":"Cause of death refers to the share of all deaths for the relevant age by underlying causes. Injuries include unintentional and intentional injuries.","sourceOrganization":"Derived based on the data from WHO's World Health Statistics.","topics":[{"id":"17","value":"Gender"}]},{"id":"SH.DTH.INJR.1534.MA.ZS","name":"Cause of death, by injury, ages 15-34, male (% relevant age)","source":{"id":"14","value":"Gender Statistics"},"sourceNote":"Cause of death refers to the share of all deaths for the relevant age by underlying causes. Injuries include unintentional and intentional injuries.","sourceOrganization":"Derived based on the data from WHO's World Health Statistics.","topics":[{"id":"17","value":"Gender"}]},{"id":"SH.DTH.INJR.1534.FE.ZS","name":"Cause of death, by injury, ages 15-34, female (% relevant age)","source":{"id":"14","value":"Gender Statistics"},"sourceNote":"Cause of death refers to the share of all deaths for the relevant age by underlying causes. Injuries include unintentional and intentional injuries.","sourceOrganization":"Derived based on the data from WHO's World Health Statistics.","topics":[{"id":"17","value":"Gender"}]},{"id":"SH.DTH.IMRT","name":"Number of infant deaths","source":{"id":"2","value":"World Development Indicators"},"sourceNote":"Number of infants dying before reaching one year of age.","sourceOrganization":"Estimates developed by the UN Inter-agency Group for Child Mortality Estimation (UNICEF, WHO, World Bank, UN DESA Population Division) at www.childmortality.org.","topics":[{"id":"8","value":"Health "}]},{"id":"SH.DTH.COMM.ZS","name":"Cause of death, by communicable diseases and maternal, prenatal and nutrition conditions (% of total)","source":{"id":"2","value":"World Development Indicators"},"sourceNote":"Cause of death refers to the share of all deaths for all ages by underlying causes. Communicable diseases and maternal, prenatal and nutrition conditions include infectious and parasitic diseases, respiratory infections, and nutritional deficiencies such as underweight and stunting.","sourceOrganization":"Derived based on the data from WHO's World Health Statistics.","topics":[{"id":"8","value":"Health "}]},{"id":"SH.DTH.COMM.3559.MA.ZS","name":"Cause of death, by communicable diseases and maternal, prenatal and nutrition conditions, ages 35-59, male (% relevant age)","source":{"id":"14","value":"Gender Statistics"},"sourceNote":"Cause of death refers to the share of all deaths for the relevant age by underlying causes. Communicable diseases and maternal, prenatal and nutrition conditions include infectious and parasitic diseases, respiratory infections, and nutritional deficiencies such as underweight and stunting.","sourceOrganization":"Derived based on the data from WHO's World Health Statistics.","topics":[{"id":"17","value":"Gender"}]},{"id":"SH.DTH.COMM.3559.FE.ZS","name":"Cause of death, by communicable diseases and maternal, prenatal and nutrition conditions, ages 35-59, female (% relevant age)","source":{"id":"14","value":"Gender Statistics"},"sourceNote":"Cause of death refers to the share of all deaths for the relevant age by underlying causes. Communicable diseases and maternal, prenatal and nutrition conditions include infectious and parasitic diseases, respiratory infections, and nutritional deficiencies such as underweight and stunting.","sourceOrganization":"Derived based on the data from WHO's World Health Statistics.","topics":[{"id":"17","value":"Gender"}]},{"id":"SH.DTH.COMM.1534.MA.ZS","name":"Cause of death, by communicable diseases and maternal, prenatal and nutrition conditions, ages 15-34, male (% relevant age)","source":{"id":"14","value":"Gender Statistics"},"sourceNote":"Cause of death refers to the share of all deaths for the relevant age by underlying causes. Communicable diseases and maternal, prenatal and nutrition conditions include infectious and parasitic diseases, respiratory infections, and nutritional deficiencies such as underweight and stunting.","sourceOrganization":"Derived based on the data from WHO's World Health Statistics.","topics":[{"id":"17","value":"Gender"}]}]]