[{"page":39,"pages":324,"per_page":"50","total":16174},[{"id":"DP.DOD.DECN.CR.FC","name":"382.Gross Financial Public Corporations Debt, Domestic currency","source":{"id":"20","value":"Quarterly Public Sector Debt"},"sourceNote":"","sourceOrganization":"","topics":[]},{"id":"DP.DOD.DECN.CR.CG.Z1","name":"510.Central Govt. Public Sector Debt, Domestic currency(% of GDP)","source":{"id":"20","value":"Quarterly Public Sector Debt"},"sourceNote":"The source of non-seasonally adjusted Gross Domestic Product (GDP) data in national currency, at current prices, is the International Finance Statistics quarterly database of the IMF, annualized by the World Bank, unless otherwise specified","sourceOrganization":"","topics":[]},{"id":"DP.DOD.DECN.CR.CG.CD","name":"062.Central Govt. Public Sector Debt, Domestic currency US$","source":{"id":"20","value":"Quarterly Public Sector Debt"},"sourceNote":"Member Country","sourceOrganization":"World Bank.","topics":[]},{"id":"DP.DOD.DECN.CR.CG","name":"286.Central Govt. Public Sector Debt, Domestic currency","source":{"id":"20","value":"Quarterly Public Sector Debt"},"sourceNote":"","sourceOrganization":"","topics":[]},{"id":"DP.DOD.DECN.CR.BC.Z1","name":"542.Gross Budg. Central Govt. Public Sector Debt, Domestic currency(% of GDP)","source":{"id":"20","value":"Quarterly Public Sector Debt"},"sourceNote":"The source of non-seasonally adjusted Gross Domestic Product (GDP) data in national currency, at current prices, is the International Finance Statistics quarterly database of the IMF, annualized by the World Bank, unless otherwise specified","sourceOrganization":"","topics":[]},{"id":"DP.DOD.DECN.CR.BC.CD","name":"094.Gross Budg. Central Govt. Public Sector Debt, Domestic currency US$","source":{"id":"20","value":"Quarterly Public Sector Debt"},"sourceNote":"Member Country","sourceOrganization":"World Bank.","topics":[]},{"id":"DP.DOD.DECN.CR.BC","name":"318.Gross Budg. Central Govt. Public Sector Debt, Domestic currency","source":{"id":"20","value":"Quarterly Public Sector Debt"},"sourceNote":"","sourceOrganization":"","topics":[]},{"id":"DP.DOD.DECF.CR.PS.CD","name":"191.Gross Public Sector Debt, Foreign currency  US$","source":{"id":"20","value":"Quarterly Public Sector Debt"},"sourceNote":"Member Country","sourceOrganization":"World Bank.","topics":[]},{"id":"DP.DOD.DECF.CR.PS","name":"415.Gross Public Sector Debt, Foreign currency","source":{"id":"20","value":"Quarterly Public Sector Debt"},"sourceNote":"","sourceOrganization":"","topics":[]},{"id":"DP.DOD.DECF.CR.NF.Z1","name":"575.Gross Nonfinancial Public Corporations Debt, Foreign currency(% of GDP)","source":{"id":"20","value":"Quarterly Public Sector Debt"},"sourceNote":"The source of non-seasonally adjusted Gross Domestic Product (GDP) data in national currency, at current prices, is the International Finance Statistics quarterly database of the IMF, annualized by the World Bank, unless otherwise specified","sourceOrganization":"","topics":[]},{"id":"DP.DOD.DECF.CR.NF.CD","name":"127.Gross Nonfinancial Public Corporations Debt, Foreign currency  US$","source":{"id":"20","value":"Quarterly Public Sector Debt"},"sourceNote":"Member Country","sourceOrganization":"World Bank.","topics":[]},{"id":"DP.DOD.DECF.CR.NF","name":"351.Gross Nonfinancial Public Corporations Debt, Foreign currency","source":{"id":"20","value":"Quarterly Public Sector Debt"},"sourceNote":"","sourceOrganization":"","topics":[]},{"id":"DP.DOD.DECF.CR.GG.Z1","name":"479.General Govt. Public Sector Debt, Foreign currency(% of GDP)","source":{"id":"20","value":"Quarterly Public Sector Debt"},"sourceNote":"The source of non-seasonally adjusted Gross Domestic Product (GDP) data in national currency, at current prices, is the International Finance Statistics quarterly database of the IMF, annualized by the World Bank, unless otherwise specified","sourceOrganization":"","topics":[]},{"id":"DP.DOD.DECF.CR.GG.CD","name":"031.General Govt. Public Sector Debt, Foreign currency US$","source":{"id":"20","value":"Quarterly Public Sector Debt"},"sourceNote":"Member Country","sourceOrganization":"World Bank.","topics":[]},{"id":"DP.DOD.DECF.CR.GG","name":"255.General Govt. Public Sector Debt, Foreign currency","source":{"id":"20","value":"Quarterly Public Sector Debt"},"sourceNote":"","sourceOrganization":"","topics":[]},{"id":"DP.DOD.DECF.CR.FC.Z1","name":"607.Gross Financial Public Corporations Debt, Foreign currency(% of GDP)","source":{"id":"20","value":"Quarterly Public Sector Debt"},"sourceNote":"The source of non-seasonally adjusted Gross Domestic Product (GDP) data in national currency, at current prices, is the International Finance Statistics quarterly database of the IMF, annualized by the World Bank, unless otherwise specified","sourceOrganization":"","topics":[]},{"id":"DP.DOD.DECF.CR.FC.CD","name":"159.Gross Financial Public Corporations Debt, Foreign currency  US$","source":{"id":"20","value":"Quarterly Public Sector Debt"},"sourceNote":"Member Country","sourceOrganization":"World Bank.","topics":[]},{"id":"DP.DOD.DECF.CR.FC","name":"383.Gross Financial Public Corporations Debt, Foreign currency","source":{"id":"20","value":"Quarterly Public Sector Debt"},"sourceNote":"","sourceOrganization":"","topics":[]},{"id":"DP.DOD.DECF.CR.CG.Z1","name":"511.Central Govt. Public Sector Debt, Foreign currency(% of GDP)","source":{"id":"20","value":"Quarterly Public Sector Debt"},"sourceNote":"The source of non-seasonally adjusted Gross Domestic Product (GDP) data in national currency, at current prices, is the International Finance Statistics quarterly database of the IMF, annualized by the World Bank, unless otherwise specified","sourceOrganization":"","topics":[]},{"id":"DP.DOD.DECF.CR.CG.CD","name":"063.Central Govt. Public Sector Debt, Foreign currency US$","source":{"id":"20","value":"Quarterly Public Sector Debt"},"sourceNote":"Member Country","sourceOrganization":"World Bank.","topics":[]},{"id":"DP.DOD.DECF.CR.CG","name":"287.Central Govt. Public Sector Debt, Foreign currency","source":{"id":"20","value":"Quarterly Public Sector Debt"},"sourceNote":"","sourceOrganization":"","topics":[]},{"id":"DP.DOD.DECF.CR.BC.Z1","name":"543.Gross Budg. Central Govt. Public Sector Debt, Foreign currency(% of GDP)","source":{"id":"20","value":"Quarterly Public Sector Debt"},"sourceNote":"The source of non-seasonally adjusted Gross Domestic Product (GDP) data in national currency, at current prices, is the International Finance Statistics quarterly database of the IMF, annualized by the World Bank, unless otherwise specified","sourceOrganization":"","topics":[]},{"id":"DP.DOD.DECF.CR.BC.CD","name":"095.Gross Budg. Central Govt. Public Sector Debt, Foreign currency US$","source":{"id":"20","value":"Quarterly Public Sector Debt"},"sourceNote":"Member Country","sourceOrganization":"World Bank.","topics":[]},{"id":"DP.DOD.DECF.CR.BC","name":"319.Gross Budg. Central Govt. Public Sector Debt, Foreign currency","source":{"id":"20","value":"Quarterly Public Sector Debt"},"sourceNote":"","sourceOrganization":"","topics":[]},{"id":"DP.DOD.DECD.CR.PS.CD","name":"188.Gross Public Sector Debt, Domestic creditors  US$","source":{"id":"20","value":"Quarterly Public Sector Debt"},"sourceNote":"Member Country","sourceOrganization":"World Bank.","topics":[]},{"id":"DP.DOD.DECD.CR.PS","name":"412.Gross Public Sector Debt, Domestic creditors","source":{"id":"20","value":"Quarterly Public Sector Debt"},"sourceNote":"","sourceOrganization":"","topics":[]},{"id":"DP.DOD.DECD.CR.NF.Z1","name":"572.Gross Nonfinancial Public Corporations Debt, Domestic creditors(% of GDP)","source":{"id":"20","value":"Quarterly Public Sector Debt"},"sourceNote":"The source of non-seasonally adjusted Gross Domestic Product (GDP) data in national currency, at current prices, is the International Finance Statistics quarterly database of the IMF, annualized by the World Bank, unless otherwise specified","sourceOrganization":"","topics":[]},{"id":"DP.DOD.DECD.CR.NF.CD","name":"124.Gross Nonfinancial Public Corporations Debt, Domestic creditors  US$","source":{"id":"20","value":"Quarterly Public Sector Debt"},"sourceNote":"Member Country","sourceOrganization":"World Bank.","topics":[]},{"id":"DP.DOD.DECD.CR.NF","name":"348.Gross Nonfinancial Public Corporations Debt, Domestic creditors","source":{"id":"20","value":"Quarterly Public Sector Debt"},"sourceNote":"","sourceOrganization":"","topics":[]},{"id":"DP.DOD.DECD.CR.GG.Z1","name":"476.General Govt. Public Sector Debt, Domestic creditors(% of GDP)","source":{"id":"20","value":"Quarterly Public Sector Debt"},"sourceNote":"The source of non-seasonally adjusted Gross Domestic Product (GDP) data in national currency, at current prices, is the International Finance Statistics quarterly database of the IMF, annualized by the World Bank, unless otherwise specified","sourceOrganization":"","topics":[]},{"id":"DP.DOD.DECD.CR.GG.CD","name":"028.General Govt. Public Sector Debt, Domestic creditors US$","source":{"id":"20","value":"Quarterly Public Sector Debt"},"sourceNote":"Member Country","sourceOrganization":"World Bank.","topics":[]},{"id":"DP.DOD.DECD.CR.GG","name":"252.General Govt. Public Sector Debt, Domestic creditors","source":{"id":"20","value":"Quarterly Public Sector Debt"},"sourceNote":"","sourceOrganization":"","topics":[]},{"id":"DP.DOD.DECD.CR.FC.Z1","name":"604.Gross Financial Public Corporations Debt, Domestic creditors(% of GDP)","source":{"id":"20","value":"Quarterly Public Sector Debt"},"sourceNote":"The source of non-seasonally adjusted Gross Domestic Product (GDP) data in national currency, at current prices, is the International Finance Statistics quarterly database of the IMF, annualized by the World Bank, unless otherwise specified","sourceOrganization":"","topics":[]},{"id":"DP.DOD.DECD.CR.FC.CD","name":"156.Gross Financial Public Corporations Debt, Domestic creditors  US$","source":{"id":"20","value":"Quarterly Public Sector Debt"},"sourceNote":"Member Country","sourceOrganization":"World Bank.","topics":[]},{"id":"DP.DOD.DECD.CR.FC","name":"380.Gross Financial Public Corporations Debt, Domestic creditors","source":{"id":"20","value":"Quarterly Public Sector Debt"},"sourceNote":"","sourceOrganization":"","topics":[]},{"id":"DP.DOD.DECD.CR.CG.Z1","name":"508.Central Govt. Public Sector Debt, Domestic creditors(% of GDP)","source":{"id":"20","value":"Quarterly Public Sector Debt"},"sourceNote":"The source of non-seasonally adjusted Gross Domestic Product (GDP) data in national currency, at current prices, is the International Finance Statistics quarterly database of the IMF, annualized by the World Bank, unless otherwise specified","sourceOrganization":"","topics":[]},{"id":"DP.DOD.DECD.CR.CG.CD","name":"060.Central Govt. Public Sector Debt, Domestic creditors US$","source":{"id":"20","value":"Quarterly Public Sector Debt"},"sourceNote":"Member Country","sourceOrganization":"World Bank.","topics":[]},{"id":"DP.DOD.DECD.CR.CG","name":"284.Central Govt. Public Sector Debt, Domestic creditors","source":{"id":"20","value":"Quarterly Public Sector Debt"},"sourceNote":"","sourceOrganization":"","topics":[]},{"id":"DP.DOD.DECD.CR.BC.Z1","name":"540.Gross Budg. Central Govt. Public Sector Debt, Domestic creditors(% of GDP)","source":{"id":"20","value":"Quarterly Public Sector Debt"},"sourceNote":"The source of non-seasonally adjusted Gross Domestic Product (GDP) data in national currency, at current prices, is the International Finance Statistics quarterly database of the IMF, annualized by the World Bank, unless otherwise specified","sourceOrganization":"","topics":[]},{"id":"DP.DOD.DECD.CR.BC.CD","name":"092.Gross Budg. Central Govt. Public Sector Debt, Domestic creditors US$","source":{"id":"20","value":"Quarterly Public Sector Debt"},"sourceNote":"Member Country","sourceOrganization":"World Bank.","topics":[]},{"id":"DP.DOD.DECD.CR.BC","name":"316.Gross Budg. Central Govt. Public Sector Debt, Domestic creditors","source":{"id":"20","value":"Quarterly Public Sector Debt"},"sourceNote":"","sourceOrganization":"","topics":[]},{"id":"DMGSRMRCHSAXD","name":"Imports Merchandise, Customs, Price, US$, seas. adj.","source":{"id":"15","value":"Global Economic Monitor"},"sourceNote":"The price index of Merchandise (goods) imports, cost, insurance and freight basis (c.i.f.), in constant US$ millions, seasonally adjusted. The base year is 2005.","sourceOrganization":"World Bank staff calculations based on Datastream and IMF International Finance Statistics data.","topics":[]},{"id":"DMGSRMRCHSAKD","name":"Imports Merchandise, Customs, constant US$, millions, seas. adj.","source":{"id":"15","value":"Global Economic Monitor"},"sourceNote":"Merchandise (goods) exports, cost, insurance and freight basis (c.i.f.), in constant US$ millions, seasonally adjusted. The base year is 2005.","sourceOrganization":"World Bank staff calculations based on Datastream and IMF International Finance Statistics data.","topics":[]},{"id":"DMGSRMRCHSACD","name":"Imports Merchandise, Customs, current US$, millions, seas. adj.","source":{"id":"15","value":"Global Economic Monitor"},"sourceNote":"Merchandise (goods) imports, cost, insurance and freight basis (c.i.f.), in current US$ millions, seasonally adjusted.","sourceOrganization":"World Bank staff calculations based on Datastream and IMF International Finance Statistics data.","topics":[]},{"id":"DMGSRMRCHNSXD","name":"Imports Merchandise, Customs, Price, US$","source":{"id":"15","value":"Global Economic Monitor"},"sourceNote":"The price index of Merchandise (goods) imports, cost, insurance and freight basis (c.i.f.), in constant US$ millions, not seasonally adjusted. The base year is 2005.","sourceOrganization":"World Bank staff calculations based on Datastream and IMF International Finance Statistics data.","topics":[]},{"id":"DMGSRMRCHNSKD","name":"Imports Merchandise, Customs, constant US$, millions","source":{"id":"15","value":"Global Economic Monitor"},"sourceNote":"Merchandise (goods) imports, cost, insurance and freight basis (c.i.f.), in constant US$ millions, not seasonally adjusted. The base year is 2005.","sourceOrganization":"World Bank staff calculations based on Datastream and IMF International Finance Statistics data.","topics":[]},{"id":"DMGSRMRCHNSCD","name":"Imports Merchandise, Customs, current US$, millions","source":{"id":"15","value":"Global Economic Monitor"},"sourceNote":"Merchandise (goods) imports, cost, insurance and freight basis (c.i.f.), in current US$ millions, not seasonally adjusted.","sourceOrganization":"World Bank staff calculations based on Datastream and IMF International Finance Statistics data.","topics":[]},{"id":"DC.ODA.UNTD.ZS","name":"Bilateral ODA commitments that is untied (% of bilateral ODA commitments)","source":{"id":"19","value":"Millennium Development Goals"},"sourceNote":"Bilateral official development assistance (ODA) commitments are firm obligations, expressed in writing and backed by the necessary funds, undertaken by official bilateral donors to provide specified assistance to a recipient country or a multilateral organization. Bilateral commitments are recorded in the full amount of expected transfer, irrespective of the time required for completing disbursements. Untied bilateral official development assistance is assistance from country to country for which the associated goods and services may be fully and freely procured in substantially all countries.","sourceOrganization":"Development Assistance Committee of the Organisation for Economic Co-operation and Development, Geographical Distribution of Financial Flows to Developing Countries, Development Co-operation Report, and International Development Statistics database. Data are available online at: www.oecd.org\/dac\/stats\/idsonline.","topics":[{"id":"18","value":"Millenium development goals"}]},{"id":"DC.ODA.TOTL.KD","name":"Net ODA provided, total (constant 2013 US$)","source":{"id":"19","value":"Millennium Development Goals"},"sourceNote":"Net Official development assistance (ODA) comprises grants or loans to developing countries and territories on the OECD\/DAC list of aid recipients that are undertaken by the official sector with promotion of economic development and welfare as the main objective and at concessional financial terms. Data are in constant 2009 U.S. dollars.","sourceOrganization":"Development Assistance Committee of the Organisation for Economic Co-operation and Development, Geographical Distribution of Financial Flows to Developing Countries, Development Co-operation Report, and International Development Statistics database. Data are available online at: www.oecd.org\/dac\/stats\/idsonline.","topics":[{"id":"18","value":"Millenium development goals"}]},{"id":"DC.ODA.TOTL.GN.ZS","name":"Net ODA provided, total (% of GNI)","source":{"id":"19","value":"Millennium Development Goals"},"sourceNote":"Net Official development assistance (ODA) comprises grants or loans to developing countries and territories on the OECD\/DAC list of aid recipients that are undertaken by the official sector with promotion of economic development and welfare as the main objective and at concessional financial terms. It is shown as a share of donors' GNI.","sourceOrganization":"Development Assistance Committee of the Organisation for Economic Co-operation and Development, Geographical Distribution of Financial Flows to Developing Countries, Development Co-operation Report, and International Development Statistics database. Data are available online at: www.oecd.org\/dac\/stats\/idsonline.","topics":[{"id":"18","value":"Millenium development goals"}]}]]