[{"page":314,"pages":324,"per_page":"50","total":16174},[{"id":"WP14887_a.2","name":"Account, male (% age 15+) [w2]","source":{"id":"28","value":"Global Findex ( Global Financial Inclusion database)"},"sourceNote":"Denotes the percentage of respondents who report having an account (by themselves or together with someone else) at a bank or another type of financial institution; having a debit card in their own name; receiving wages, government transfers, or payments for agricultural products into an account at a financial institution or through a mobile phone in the past 12 months; paying utility bills or school fees from an account at a financial institution in the past 12 months; receiving wages or government transfers into a card in the past 12 months; or personally using a mobile phone to pay bills or to send or receive money through a GSM Association (GSMA) Mobile Money for the Unbanked (MMU) service in the past 12 months (male, % age 15+). [w2: data are available for wave 2].","sourceOrganization":"Demirguc-Kunt et al., 2015","topics":[{"id":"7","value":"Financial Sector "}]},{"id":"WP14887_a.10","name":"Account, rural (% age 15+) [w2]","source":{"id":"28","value":"Global Findex ( Global Financial Inclusion database)"},"sourceNote":"Denotes the percentage of respondents who report having an account (by themselves or together with someone else) at a bank or another type of financial institution; having a debit card in their own name; receiving wages, government transfers, or payments for agricultural products into an account at a financial institution or through a mobile phone in the past 12 months; paying utility bills or school fees from an account at a financial institution in the past 12 months; receiving wages or government transfers into a card in the past 12 months; or personally using a mobile phone to pay bills or to send or receive money through a GSM Association (GSMA) Mobile Money for the Unbanked (MMU) service in the past 12 months (rural, % age 15+). [w2: data are available for wave 2].","sourceOrganization":"Demirguc-Kunt et al., 2015","topics":[{"id":"7","value":"Financial Sector "}]},{"id":"WP14887_a.1","name":"Account (% age 15+) [w2]","source":{"id":"28","value":"Global Findex ( Global Financial Inclusion database)"},"sourceNote":"Denotes the percentage of respondents who report having an account (by themselves or together with someone else) at a bank or another type of financial institution; having a debit card in their own name; receiving wages, government transfers, or payments for agricultural products into an account or through a mobile phone at a financial institution in the past 12 months; paying utility bills or school fees from an account at a financial institution in the past 12 months; receiving wages or government transfers into a card in the past 12 months; or personally using a mobile phone to pay bills or to send or receive money through a GSM Association (GSMA) Mobile Money for the Unbanked (MMU) service in the past 12 months (% age 15+). [w2: data are available for wave 2].","sourceOrganization":"Demirguc-Kunt et al., 2015","topics":[{"id":"7","value":"Financial Sector "}]},{"id":"WP14887_7.9","name":"Account at a financial institution, income, richest 60% (% ages 15+) [w2]","source":{"id":"28","value":"Global Findex ( Global Financial Inclusion database)"},"sourceNote":"Denotes the percentage of respondents who report having an account (by themselves or together with someone else) at a bank or another type of financial institution; having a debit card in their own name; receiving wages, government transfers, or payments for agricultural products into an account at a financial institution in the past 12 months; paying utility bills or school fees from an account at a financial institution in the past 12 months; or receiving wages or government transfers into a card in the past 12 months (income, richest 60%, % age 15+). [w2: data are available for wave 2].","sourceOrganization":"Demirguc-Kunt et al., 2015","topics":[{"id":"7","value":"Financial Sector "}]},{"id":"WP14887_7.8","name":"Account at a financial institution, income, poorest 40% (% ages 15+) [w2]","source":{"id":"28","value":"Global Findex ( Global Financial Inclusion database)"},"sourceNote":"Denotes the percentage of respondents who report having an account (by themselves or together with someone else) at a bank or another type of financial institution; having a debit card in their own name; receiving wages, government transfers, or payments for agricultural products into an account at a financial institution in the past 12 months; paying utility bills or school fees from an account at a financial institution in the past 12 months; or receiving wages or government transfers into a card in the past 12 months (income, poorest 40%, % age 15+). [w2: data are available for wave 2].","sourceOrganization":"Demirguc-Kunt et al., 2015","topics":[{"id":"7","value":"Financial Sector "}]},{"id":"WP14887_7.7","name":"Account at a financial institution, secondary education or more (% ages 15+) [w2]","source":{"id":"28","value":"Global Findex ( Global Financial Inclusion database)"},"sourceNote":"Denotes the percentage of respondents who report having an account (by themselves or together with someone else) at a bank or another type of financial institution; having a debit card in their own name; receiving wages, government transfers, or payments for agricultural products into an account at a financial institution in the past 12 months; paying utility bills or school fees from an account at a financial institution in the past 12 months; or receiving wages or government transfers into a card in the past 12 months (secondary education or more, % age 15+). [w2: data are available for wave 2].","sourceOrganization":"Demirguc-Kunt et al., 2015","topics":[{"id":"7","value":"Financial Sector "}]},{"id":"WP14887_7.6","name":"Account at a financial institution, primary education or less (% ages 15+) [w2]","source":{"id":"28","value":"Global Findex ( Global Financial Inclusion database)"},"sourceNote":"Denotes the percentage of respondents who report having an account (by themselves or together with someone else) at a bank or another type of financial institution; having a debit card in their own name; receiving wages, government transfers, or payments for agricultural products into an account at a financial institution in the past 12 months; paying utility bills or school fees from an account at a financial institution in the past 12 months; or receiving wages or government transfers into a card in the past 12 months (primary education or less, % age 15+). [w2: data are available for wave 2].","sourceOrganization":"Demirguc-Kunt et al., 2015","topics":[{"id":"7","value":"Financial Sector "}]},{"id":"WP14887_7.5","name":"Account at a financial institution, older adults (% ages 25+) [w2]","source":{"id":"28","value":"Global Findex ( Global Financial Inclusion database)"},"sourceNote":"Denotes the percentage of respondents who report having an account (by themselves or together with someone else) at a bank or another type of financial institution; having a debit card in their own name; receiving wages, government transfers, or payments for agricultural products into an account at a financial institution in the past 12 months; paying utility bills or school fees from an account at a financial institution in the past 12 months; or receiving wages or government transfers into a card in the past 12 months (% age 25+). [w2: data are available for wave 2].","sourceOrganization":"Demirguc-Kunt et al., 2015","topics":[{"id":"7","value":"Financial Sector "}]},{"id":"WP14887_7.4","name":"Account at a financial institution, young adults (% ages 15-24) [w2]","source":{"id":"28","value":"Global Findex ( Global Financial Inclusion database)"},"sourceNote":"Denotes the percentage of respondents who report having an account (by themselves or together with someone else) at a bank or another type of financial institution; having a debit card in their own name; receiving wages, government transfers, or payments for agricultural products into an account at a financial institution in the past 12 months; paying utility bills or school fees from an account at a financial institution in the past 12 months; or receiving wages or government transfers into a card in the past 12 months (% ages 15-24). [w2: data are available for wave 2].","sourceOrganization":"Demirguc-Kunt et al., 2015","topics":[{"id":"7","value":"Financial Sector "}]},{"id":"WP14887_7.3","name":"Account at a financial institution, female (% age 15+) [w2]","source":{"id":"28","value":"Global Findex ( Global Financial Inclusion database)"},"sourceNote":"Denotes the percentage of respondents who report having an account (by themselves or together with someone else) at a bank or another type of financial institution; having a debit card in their own name; receiving wages, government transfers, or payments for agricultural products into an account at a financial institution in the past 12 months; paying utility bills or school fees from an account at a financial institution in the past 12 months; or receiving wages or government transfers into a card in the past 12 months (female, % age 15+). [w2: data are available for wave 2].","sourceOrganization":"Demirguc-Kunt et al., 2015","topics":[{"id":"7","value":"Financial Sector "}]},{"id":"WP14887_7.2","name":"Account at a financial institution, male (% age 15+) [w2]","source":{"id":"28","value":"Global Findex ( Global Financial Inclusion database)"},"sourceNote":"Denotes the percentage of respondents who report having an account (by themselves or together with someone else) at a bank or another type of financial institution; having a debit card in their own name; receiving wages, government transfers, or payments for agricultural products into an account at a financial institution in the past 12 months; paying utility bills or school fees from an account at a financial institution in the past 12 months; or receiving wages or government transfers into a card in the past 12 months (male, % age 15+). [w2: data are available for wave 2].","sourceOrganization":"Demirguc-Kunt et al., 2015","topics":[{"id":"7","value":"Financial Sector "}]},{"id":"WP14887_7.10","name":"Account at a financial institution, rural (% age 15+) [w2]","source":{"id":"28","value":"Global Findex ( Global Financial Inclusion database)"},"sourceNote":"Denotes the percentage of respondents who report having an account (by themselves or together with someone else) at a bank or another type of financial institution; having a debit card in their own name; receiving wages, government transfers, or payments for agricultural products into an account at a financial institution in the past 12 months; paying utility bills or school fees from an account at a financial institution in the past 12 months; or receiving wages or government transfers into a card in the past 12 months (rural, % age 15+). [w2: data are available for wave 2].","sourceOrganization":"Demirguc-Kunt et al., 2015","topics":[{"id":"7","value":"Financial Sector "}]},{"id":"WP14887_7.1","name":"Account at a financial institution (% age 15+) [w2]","source":{"id":"28","value":"Global Findex ( Global Financial Inclusion database)"},"sourceNote":"Denotes the percentage of respondents who report having an account (by themselves or together with someone else) at a bank or another type of financial institution; having a debit card in their own name; receiving wages, government transfers, or payments for agricultural products into an account at a financial institution in the past 12 months; paying utility bills or school fees from an account at a financial institution in the past 12 months; or receiving wages or government transfers into a card in the past 12 months (% age 15+). [w2: data are available for wave 2].","sourceOrganization":"Demirguc-Kunt et al., 2015","topics":[{"id":"7","value":"Financial Sector "}]},{"id":"WP11674.9","name":"Mobile phone used to receive money, income, richest 60% (% ages 15+) [w1]","source":{"id":"28","value":"Global Findex ( Global Financial Inclusion database)"},"sourceNote":"Denotes the percentage of respondents who report using a mobile phone to receive money in the past 12 months (income, richest 60%, % age 15+). [w1: data are available for wave 1].","sourceOrganization":"Demirguc-Kunt and Klapper, 2012","topics":[{"id":"7","value":"Financial Sector "}]},{"id":"WP11674.8","name":"Mobile phone used to receive money, income, poorest 40% (% ages 15+) [w1]","source":{"id":"28","value":"Global Findex ( Global Financial Inclusion database)"},"sourceNote":"Denotes the percentage of respondents who report using a mobile phone to receive money in the past 12 months (income, poorest 40%, % age 15+). [w1: data are available for wave 1].","sourceOrganization":"Demirguc-Kunt and Klapper, 2012","topics":[{"id":"7","value":"Financial Sector "}]},{"id":"WP11674.7","name":"Mobile phone used to receive money, secondary education or more (% ages 15+) [w1]","source":{"id":"28","value":"Global Findex ( Global Financial Inclusion database)"},"sourceNote":"Denotes the percentage of respondents who report using a mobile phone to receive money in the past 12 months (secondary education or more, % age 15+). [w1: data are available for wave 1].","sourceOrganization":"Demirguc-Kunt and Klapper, 2012","topics":[{"id":"7","value":"Financial Sector "}]},{"id":"WP11674.6","name":"Mobile phone used to receive money, primary education or less (% ages 15+) [w1]","source":{"id":"28","value":"Global Findex ( Global Financial Inclusion database)"},"sourceNote":"Denotes the percentage of respondents who report using a mobile phone to receive money in the past 12 months (primary education or less, % age 15+). [w1: data are available for wave 1].","sourceOrganization":"Demirguc-Kunt and Klapper, 2012","topics":[{"id":"7","value":"Financial Sector "}]},{"id":"WP11674.5","name":"Mobile phone used to receive money, older adults (% ages 25+) [w1]","source":{"id":"28","value":"Global Findex ( Global Financial Inclusion database)"},"sourceNote":"Denotes the percentage of respondents who report using a mobile phone to receive money in the past 12 months (% age 25+). [w1: data are available for wave 1].","sourceOrganization":"Demirguc-Kunt and Klapper, 2012","topics":[{"id":"7","value":"Financial Sector "}]},{"id":"WP11674.4","name":"Mobile phone used to receive money, young adults (% ages 15-24) [w1]","source":{"id":"28","value":"Global Findex ( Global Financial Inclusion database)"},"sourceNote":"Denotes the percentage of respondents who report using a mobile phone to receive money in the past 12 months (% ages 15-24). [w1: data are available for wave 1].","sourceOrganization":"Demirguc-Kunt and Klapper, 2012","topics":[{"id":"7","value":"Financial Sector "}]},{"id":"WP11674.3","name":"Mobile phone used to receive money, female (% age 15+) [w1]","source":{"id":"28","value":"Global Findex ( Global Financial Inclusion database)"},"sourceNote":"Denotes the percentage of respondents who report using a mobile phone to receive money in the past 12 months (female, % age 15+). [w1: data are available for wave 1].","sourceOrganization":"Demirguc-Kunt and Klapper, 2012","topics":[{"id":"7","value":"Financial Sector "}]},{"id":"WP11674.2","name":"Mobile phone used to receive money, male (% age 15+) [w1]","source":{"id":"28","value":"Global Findex ( Global Financial Inclusion database)"},"sourceNote":"Denotes the percentage of respondents who report using a mobile phone to receive money in the past 12 months (male, % age 15+). [w1: data are available for wave 1].","sourceOrganization":"Demirguc-Kunt and Klapper, 2012","topics":[{"id":"7","value":"Financial Sector "}]},{"id":"WP11674.10","name":"Mobile phone used to receive money, rural (% age 15+) [w1]","source":{"id":"28","value":"Global Findex ( Global Financial Inclusion database)"},"sourceNote":"Denotes the percentage of respondents who report using a mobile phone to receive money in the past 12 months (rural, % age 15+ ). [w1: data are available for wave 1].","sourceOrganization":"Demirguc-Kunt and Klapper, 2012","topics":[{"id":"7","value":"Financial Sector "}]},{"id":"WP11674.1","name":"Mobile phone used to receive money (% age 15+) [w1]","source":{"id":"28","value":"Global Findex ( Global Financial Inclusion database)"},"sourceNote":"Denotes the percentage of respondents who report using a mobile phone to receive money in the past 12 months (% age 15+). [w1: data are available for wave 1].","sourceOrganization":"Demirguc-Kunt and Klapper, 2012","topics":[{"id":"7","value":"Financial Sector "}]},{"id":"WP11673.9","name":"Mobile phone used to send money, income, richest 60% (% ages 15+) [w1]","source":{"id":"28","value":"Global Findex ( Global Financial Inclusion database)"},"sourceNote":"Denotes the percentage of respondents who report using a mobile phone to send money in the past 12 months (income, richest 60%, % age 15+). [w1: data are available for wave 1].","sourceOrganization":"Demirguc-Kunt and Klapper, 2012","topics":[{"id":"7","value":"Financial Sector "}]},{"id":"WP11673.8","name":"Mobile phone used to send money, income, poorest 40% (% ages 15+) [w1]","source":{"id":"28","value":"Global Findex ( Global Financial Inclusion database)"},"sourceNote":"Denotes the percentage of respondents who report using a mobile phone to send money in the past 12 months (income, poorest 40%, % age 15+). [w1: data are available for wave 1].","sourceOrganization":"Demirguc-Kunt and Klapper, 2012","topics":[{"id":"7","value":"Financial Sector "}]},{"id":"WP11673.7","name":"Mobile phone used to send money, secondary education or more (% ages 15+) [w1]","source":{"id":"28","value":"Global Findex ( Global Financial Inclusion database)"},"sourceNote":"Denotes the percentage of respondents who report using a mobile phone to send money in the past 12 months (secondary education or more, % age 15+). [w1: data are available for wave 1].","sourceOrganization":"Demirguc-Kunt and Klapper, 2012","topics":[{"id":"7","value":"Financial Sector "}]},{"id":"WP11673.6","name":"Mobile phone used to send money, primary education or less (% ages 15+) [w1]","source":{"id":"28","value":"Global Findex ( Global Financial Inclusion database)"},"sourceNote":"Denotes the percentage of respondents who report using a mobile phone to send money in the past 12 months (primary education or less, % age 15+). [w1: data are available for wave 1].","sourceOrganization":"Demirguc-Kunt and Klapper, 2012","topics":[{"id":"7","value":"Financial Sector "}]},{"id":"WP11673.5","name":"Mobile phone used to send money, older adults (% ages 25+) [w1]","source":{"id":"28","value":"Global Findex ( Global Financial Inclusion database)"},"sourceNote":"Denotes the percentage of respondents who report using a mobile phone to send money in the past 12 months (% age 25+). [w1: data are available for wave 1].","sourceOrganization":"Demirguc-Kunt and Klapper, 2012","topics":[{"id":"7","value":"Financial Sector "}]},{"id":"WP11673.4","name":"Mobile phone used to send money, young adults (% ages 15-24) [w1]","source":{"id":"28","value":"Global Findex ( Global Financial Inclusion database)"},"sourceNote":"Denotes the percentage of respondents who report using a mobile phone to send money in the past 12 months (% ages 15-24). [w1: data are available for wave 1].","sourceOrganization":"Demirguc-Kunt and Klapper, 2012","topics":[{"id":"7","value":"Financial Sector "}]},{"id":"WP11673.3","name":"Mobile phone used to send money, female (% age 15+) [w1]","source":{"id":"28","value":"Global Findex ( Global Financial Inclusion database)"},"sourceNote":"Denotes the percentage of respondents who report using a mobile phone to send money in the past 12 months (female, % age 15+). [w1: data are available for wave 1].","sourceOrganization":"Demirguc-Kunt and Klapper, 2012","topics":[{"id":"7","value":"Financial Sector "}]},{"id":"WP11673.2","name":"Mobile phone used to send money, male (% age 15+) [w1]","source":{"id":"28","value":"Global Findex ( Global Financial Inclusion database)"},"sourceNote":"Denotes the percentage of respondents who report using a mobile phone to send money in the past 12 months (male, % age 15+). [w1: data are available for wave 1].","sourceOrganization":"Demirguc-Kunt and Klapper, 2012","topics":[{"id":"7","value":"Financial Sector "}]},{"id":"WP11673.10","name":"Mobile phone used to send money, rural (% age 15+) [w1]","source":{"id":"28","value":"Global Findex ( Global Financial Inclusion database)"},"sourceNote":"Denotes the percentage of respondents who report using a mobile phone to send money in the past 12 months (rural, % age 15+ ). [w1: data are available for wave 1].","sourceOrganization":"Demirguc-Kunt and Klapper, 2012","topics":[{"id":"7","value":"Financial Sector "}]},{"id":"WP11673.1","name":"Mobile phone used to send money (% age 15+) [w1]","source":{"id":"28","value":"Global Findex ( Global Financial Inclusion database)"},"sourceNote":"Denotes the percentage of respondents who report using a mobile phone to send money in the past 12 months (% age 15+). [w1: data are available for wave 1].","sourceOrganization":"Demirguc-Kunt and Klapper, 2012","topics":[{"id":"7","value":"Financial Sector "}]},{"id":"WP11672.9","name":"Mobile phone used to pay bills, income, richest 60% (% ages 15+) [w1]","source":{"id":"28","value":"Global Findex ( Global Financial Inclusion database)"},"sourceNote":"Denotes the percentage of respondents who report using a mobile phone to pay bills in the past 12 months (income, richest 60%, % age 15+). [w1: data are available for wave 1].","sourceOrganization":"Demirguc-Kunt and Klapper, 2012","topics":[{"id":"7","value":"Financial Sector "}]},{"id":"WP11672.8","name":"Mobile phone used to pay bills, income, poorest 40% (% ages 15+) [w1]","source":{"id":"28","value":"Global Findex ( Global Financial Inclusion database)"},"sourceNote":"Denotes the percentage of respondents who report using a mobile phone to pay bills in the past 12 months (income, poorest 40%, % age 15+). [w1: data are available for wave 1].","sourceOrganization":"Demirguc-Kunt and Klapper, 2012","topics":[{"id":"7","value":"Financial Sector "}]},{"id":"WP11672.7","name":"Mobile phone used to pay bills, secondary education or more (% ages 15+) [w1]","source":{"id":"28","value":"Global Findex ( Global Financial Inclusion database)"},"sourceNote":"Denotes the percentage of respondents who report using a mobile phone to pay bills in the past 12 months (secondary education or more, % age 15+). [w1: data are available for wave 1].","sourceOrganization":"Demirguc-Kunt and Klapper, 2012","topics":[{"id":"7","value":"Financial Sector "}]},{"id":"WP11672.6","name":"Mobile phone used to pay bills, primary education or less (% ages 15+) [w1]","source":{"id":"28","value":"Global Findex ( Global Financial Inclusion database)"},"sourceNote":"Denotes the percentage of respondents who report using a mobile phone to pay bills in the past 12 months (primary education or less, % age 15+). [w1: data are available for wave 1].","sourceOrganization":"Demirguc-Kunt and Klapper, 2012","topics":[{"id":"7","value":"Financial Sector "}]},{"id":"WP11672.5","name":"Mobile phone used to pay bills, older adults (% ages 25+) [w1]","source":{"id":"28","value":"Global Findex ( Global Financial Inclusion database)"},"sourceNote":"Denotes the percentage of respondents who report using a mobile phone to pay bills in the past 12 months (% age 25+). [w1: data are available for wave 1].","sourceOrganization":"Demirguc-Kunt and Klapper, 2012","topics":[{"id":"7","value":"Financial Sector "}]},{"id":"WP11672.4","name":"Mobile phone used to pay bills, young adults (% ages 15-24) [w1]","source":{"id":"28","value":"Global Findex ( Global Financial Inclusion database)"},"sourceNote":"Denotes the percentage of respondents who report using a mobile phone to pay bills in the past 12 months (% ages 15-24). [w1: data are available for wave 1].","sourceOrganization":"Demirguc-Kunt and Klapper, 2012","topics":[{"id":"7","value":"Financial Sector "}]},{"id":"WP11672.3","name":"Mobile phone used to pay bills, female (% age 15+) [w1]","source":{"id":"28","value":"Global Findex ( Global Financial Inclusion database)"},"sourceNote":"Denotes the percentage of respondents who report using a mobile phone to pay bills in the past 12 months (female, % age 15+). [w1: data are available for wave 1].","sourceOrganization":"Demirguc-Kunt and Klapper, 2012","topics":[{"id":"7","value":"Financial Sector "}]},{"id":"WP11672.2","name":"Mobile phone used to pay bills, male (% age 15+) [w1]","source":{"id":"28","value":"Global Findex ( Global Financial Inclusion database)"},"sourceNote":"Denotes the percentage of respondents who report using a mobile phone to pay bills in the past 12 months (male, % age 15+). [w1: data are available for wave 1].","sourceOrganization":"Demirguc-Kunt and Klapper, 2012","topics":[{"id":"7","value":"Financial Sector "}]},{"id":"WP11672.10","name":"Mobile phone used to pay bills, rural (% age 15+) [w1]","source":{"id":"28","value":"Global Findex ( Global Financial Inclusion database)"},"sourceNote":"Denotes the percentage of respondents who report using a mobile phone to pay bills in the past 12 months (rural, % age 15+ ). [w1: data are available for wave 1].","sourceOrganization":"Demirguc-Kunt and Klapper, 2012","topics":[{"id":"7","value":"Financial Sector "}]},{"id":"WP11672.1","name":"Mobile phone used to pay bills (% age 15+) [w1]","source":{"id":"28","value":"Global Findex ( Global Financial Inclusion database)"},"sourceNote":"Denotes the percentage of respondents who report using a mobile phone to pay bills in the past 12 months (% age 15+). [w1: data are available for wave 1].","sourceOrganization":"Demirguc-Kunt and Klapper, 2012","topics":[{"id":"7","value":"Financial Sector "}]},{"id":"WP11671.9","name":"Outstanding loan for funerals or weddings, income, richest 60% (% ages 15+) [w1]","source":{"id":"28","value":"Global Findex ( Global Financial Inclusion database)"},"sourceNote":"Denotes the percentage of respondents who report having an outstanding loan for a funeral or wedding (income, richest 60%, % age 15+). [w1: data are available for wave 1].","sourceOrganization":"Demirguc-Kunt and Klapper, 2012","topics":[{"id":"7","value":"Financial Sector "}]},{"id":"WP11671.8","name":"Outstanding loan for funerals or weddings, income, poorest 40% (% ages 15+) [w1]","source":{"id":"28","value":"Global Findex ( Global Financial Inclusion database)"},"sourceNote":"Denotes the percentage of respondents who report having an outstanding loan for a funeral or wedding (income, poorest 40%, % age 15+). [w1: data are available for wave 1].","sourceOrganization":"Demirguc-Kunt and Klapper, 2012","topics":[{"id":"7","value":"Financial Sector "}]},{"id":"WP11671.7","name":"Outstanding loan for funerals or weddings, secondary education or more (% ages 15+) [w1]","source":{"id":"28","value":"Global Findex ( Global Financial Inclusion database)"},"sourceNote":"Denotes the percentage of respondents who report having an outstanding loan for a funeral or wedding (secondary education or more, % age 15+). [w1: data are available for wave 1].","sourceOrganization":"Demirguc-Kunt and Klapper, 2012","topics":[{"id":"7","value":"Financial Sector "}]},{"id":"WP11671.6","name":"Outstanding loan for funerals or weddings, primary education or less (% ages 15+) [w1]","source":{"id":"28","value":"Global Findex ( Global Financial Inclusion database)"},"sourceNote":"Denotes the percentage of respondents who report having an outstanding loan for a funeral or wedding (primary education or less, % age 15+). [w1: data are available for wave 1].","sourceOrganization":"Demirguc-Kunt and Klapper, 2012","topics":[{"id":"7","value":"Financial Sector "}]},{"id":"WP11671.5","name":"Outstanding loan for funerals or weddings, older adults (% ages 25+) [w1]","source":{"id":"28","value":"Global Findex ( Global Financial Inclusion database)"},"sourceNote":"Denotes the percentage of respondents who report having an outstanding loan for a funeral or wedding (% age 25+). [w1: data are available for wave 1].","sourceOrganization":"Demirguc-Kunt and Klapper, 2012","topics":[{"id":"7","value":"Financial Sector "}]},{"id":"WP11671.4","name":"Outstanding loan for funerals or weddings, young adults (% ages 15-24) [w1]","source":{"id":"28","value":"Global Findex ( Global Financial Inclusion database)"},"sourceNote":"Denotes the percentage of respondents who report having an outstanding loan for a funeral or wedding (% ages 15-24). [w1: data are available for wave 1].","sourceOrganization":"Demirguc-Kunt and Klapper, 2012","topics":[{"id":"7","value":"Financial Sector "}]},{"id":"WP11671.3","name":"Outstanding loan for funerals or weddings, female (% age 15+) [w1]","source":{"id":"28","value":"Global Findex ( Global Financial Inclusion database)"},"sourceNote":"Denotes the percentage of respondents who report having an outstanding loan for a funeral or wedding (female, % age 15+). [w1: data are available for wave 1].","sourceOrganization":"Demirguc-Kunt and Klapper, 2012","topics":[{"id":"7","value":"Financial Sector "}]}]]