[{"page":73,"pages":324,"per_page":"50","total":16174},[{"id":"DT.DOD.DSTT.CD.GG.AR.EN.US","name":"Gross Ext. Debt Pos., General Government, Short-term, Trade credit and advances, end of period, USD","source":{"id":"22","value":"Quarterly External Debt Statistics\/SDDS (New)"},"sourceNote":"","sourceOrganization":"","topics":[]},{"id":"DT.DOD.DSTT.CD.GG.AR.EA.US","name":"Ext. Assets in Debt Instruments, General Government, Short-term, Trade credit and advances, USD","source":{"id":"22","value":"Quarterly External Debt Statistics\/SDDS (New)"},"sourceNote":"","sourceOrganization":"","topics":[]},{"id":"DT.DOD.DSTT.CD.GG.AR.BE.US","name":"Gross Ext. Debt Pos., General Government, Short-term, Trade credit and advances, Beginning of period, USD","source":{"id":"22","value":"Quarterly External Debt Statistics\/SDDS (New)"},"sourceNote":"","sourceOrganization":"","topics":[]},{"id":"DT.DOD.DSTT.CD.CB.AR.US","name":"Gross Ext. Debt Pos., Deposit-Taking Corp., exc. CB, Short-term, Trade credit and advances, USD","source":{"id":"22","value":"Quarterly External Debt Statistics\/SDDS (New)"},"sourceNote":"","sourceOrganization":"","topics":[]},{"id":"DT.DOD.DSTT.CD.CB.AR.TR.US","name":"Gross Ext. Debt Pos., Deposit-Taking Corp., exc. CB, Short-term, Trade credit and advances, Transactions, USD","source":{"id":"22","value":"Quarterly External Debt Statistics\/SDDS (New)"},"sourceNote":"","sourceOrganization":"","topics":[]},{"id":"DT.DOD.DSTT.CD.CB.AR.PX.US","name":"Gross Ext. Debt Pos., Deposit-Taking Corp., exc. CB, Short-term, Trade credit and advances, Other price chg, USD","source":{"id":"22","value":"Quarterly External Debt Statistics\/SDDS (New)"},"sourceNote":"","sourceOrganization":"","topics":[]},{"id":"DT.DOD.DSTT.CD.CB.AR.OC.US","name":"Gross Ext. Debt Pos., Deposit-Taking Corp., exc. CB, Short-term, Trade credit and advances, Other chg in vol., USD","source":{"id":"22","value":"Quarterly External Debt Statistics\/SDDS (New)"},"sourceNote":"","sourceOrganization":"","topics":[]},{"id":"DT.DOD.DSTT.CD.CB.AR.NE.US","name":"Net Ext. Debt Position, Deposit-Taking Corp., exc. CB, Short-term, Trade credit and advances, USD","source":{"id":"22","value":"Quarterly External Debt Statistics\/SDDS (New)"},"sourceNote":"","sourceOrganization":"","topics":[]},{"id":"DT.DOD.DSTT.CD.CB.AR.GE.US","name":"Gross Ext. Debt Pos., Deposit-Taking Corp., exc. CB, Short-term, Trade credit and advances, Beginning pos., USD","source":{"id":"22","value":"Quarterly External Debt Statistics\/SDDS (New)"},"sourceNote":"","sourceOrganization":"","topics":[]},{"id":"DT.DOD.DSTT.CD.CB.AR.EX.US","name":"Gross Ext. Debt Pos., Deposit-Taking Corp., exc. CB, Short-term, Trade credit and advances, Exchange rate chg, USD","source":{"id":"22","value":"Quarterly External Debt Statistics\/SDDS (New)"},"sourceNote":"","sourceOrganization":"","topics":[]},{"id":"DT.DOD.DSTT.CD.CB.AR.EN.US","name":"Gross Ext. Debt Pos., Deposit-Taking Corp., exc. CB, Short-term, Trade credit and advances, end of period, USD","source":{"id":"22","value":"Quarterly External Debt Statistics\/SDDS (New)"},"sourceNote":"","sourceOrganization":"","topics":[]},{"id":"DT.DOD.DSTT.CD.CB.AR.EA.US","name":"Ext. Assets in Debt Instruments, Deposit-Taking Corp., exc. CB, Short-term, Trade credit and advances, USD","source":{"id":"22","value":"Quarterly External Debt Statistics\/SDDS (New)"},"sourceNote":"","sourceOrganization":"","topics":[]},{"id":"DT.DOD.DSTT.CD.CB.AR.BE.US","name":"Gross Ext. Debt Pos., Deposit-Taking Corp., exc. CB, Short-term, Trade credit and advances, Beginning of period, USD","source":{"id":"22","value":"Quarterly External Debt Statistics\/SDDS (New)"},"sourceNote":"","sourceOrganization":"","topics":[]},{"id":"DT.DOD.DSTO.CD.OF.US","name":"Gross Ext. Debt Pos., Other financial corporations, Short-term, Other debt liabilities, USD","source":{"id":"22","value":"Quarterly External Debt Statistics\/SDDS (New)"},"sourceNote":"","sourceOrganization":"","topics":[]},{"id":"DT.DOD.DSTO.CD.NC.US","name":"Gross Ext. Debt Pos., Nonfinancial corporations, Short-term, Other debt liabilities, USD","source":{"id":"22","value":"Quarterly External Debt Statistics\/SDDS (New)"},"sourceNote":"","sourceOrganization":"","topics":[]},{"id":"DT.DOD.DSTO.CD.HN.US","name":"Gross Ext. Debt Pos., HH and nonprofit institu. (NPISHs), Short-term, Other debt liabilities, USD","source":{"id":"22","value":"Quarterly External Debt Statistics\/SDDS (New)"},"sourceNote":"","sourceOrganization":"","topics":[]},{"id":"DT.DOD.DSTM.CD.OT.AR.US","name":"Gross Ext. Debt Pos., Other Sectors, Short-term, Debt securities, USD","source":{"id":"22","value":"Quarterly External Debt Statistics\/SDDS (New)"},"sourceNote":"","sourceOrganization":"","topics":[]},{"id":"DT.DOD.DSTM.CD.OT.AR.TR.US","name":"Gross Ext. Debt Pos., Other Sectors, Short-term, Debt securities, Transactions, USD","source":{"id":"22","value":"Quarterly External Debt Statistics\/SDDS (New)"},"sourceNote":"","sourceOrganization":"","topics":[]},{"id":"DT.DOD.DSTM.CD.OT.AR.PX.US","name":"Gross Ext. Debt Pos., Other Sectors, Short-term, Debt securities, Other price chg, USD","source":{"id":"22","value":"Quarterly External Debt Statistics\/SDDS (New)"},"sourceNote":"","sourceOrganization":"","topics":[]},{"id":"DT.DOD.DSTM.CD.OT.AR.OC.US","name":"Gross Ext. Debt Pos., Other Sectors, Short-term, Debt securities, Other chg in vol., USD","source":{"id":"22","value":"Quarterly External Debt Statistics\/SDDS (New)"},"sourceNote":"","sourceOrganization":"","topics":[]},{"id":"DT.DOD.DSTM.CD.OT.AR.NE.US","name":"Net Ext. Debt Position, Other Sectors, Short-term, Debt securities, USD","source":{"id":"22","value":"Quarterly External Debt Statistics\/SDDS (New)"},"sourceNote":"","sourceOrganization":"","topics":[]},{"id":"DT.DOD.DSTM.CD.OT.AR.GE.US","name":"Gross Ext. Debt Pos., Other Sectors, Short-term, Debt securities, Beginning pos., USD","source":{"id":"22","value":"Quarterly External Debt Statistics\/SDDS (New)"},"sourceNote":"","sourceOrganization":"","topics":[]},{"id":"DT.DOD.DSTM.CD.OT.AR.EX.US","name":"Gross Ext. Debt Pos., Other Sectors, Short-term, Debt securities, Exchange rate chg, USD","source":{"id":"22","value":"Quarterly External Debt Statistics\/SDDS (New)"},"sourceNote":"","sourceOrganization":"","topics":[]},{"id":"DT.DOD.DSTM.CD.OT.AR.EN.US","name":"Gross Ext. Debt Pos., Other Sectors, Short-term, Debt securities, end of period, USD","source":{"id":"22","value":"Quarterly External Debt Statistics\/SDDS (New)"},"sourceNote":"","sourceOrganization":"","topics":[]},{"id":"DT.DOD.DSTM.CD.OT.AR.EA.US","name":"Ext. Assets in Debt Instruments, Other Sectors, Short-term, Debt securities, USD","source":{"id":"22","value":"Quarterly External Debt Statistics\/SDDS (New)"},"sourceNote":"","sourceOrganization":"","topics":[]},{"id":"DT.DOD.DSTM.CD.OT.AR.BE.US","name":"Gross Ext. Debt Pos., Other Sectors, Short-term, Debt securities, Beginning of period, USD","source":{"id":"22","value":"Quarterly External Debt Statistics\/SDDS (New)"},"sourceNote":"","sourceOrganization":"","topics":[]},{"id":"DT.DOD.DSTM.CD.OF.US","name":"Gross Ext. Debt Pos., Other financial corporations, Short-term, Debt securities, USD","source":{"id":"22","value":"Quarterly External Debt Statistics\/SDDS (New)"},"sourceNote":"","sourceOrganization":"","topics":[]},{"id":"DT.DOD.DSTM.CD.NC.US","name":"Gross Ext. Debt Pos., Nonfinancial corporations, Short-term, Debt securities, USD","source":{"id":"22","value":"Quarterly External Debt Statistics\/SDDS (New)"},"sourceNote":"","sourceOrganization":"","topics":[]},{"id":"DT.DOD.DSTM.CD.MA.AR.US","name":"Gross Ext. Debt Pos., Central Bank, Short-term, Debt securities, USD","source":{"id":"22","value":"Quarterly External Debt Statistics\/SDDS (New)"},"sourceNote":"","sourceOrganization":"","topics":[]},{"id":"DT.DOD.DSTM.CD.MA.AR.TR.US","name":"Gross Ext. Debt Pos., Central Bank, Short-term, Debt securities, Transactions, USD","source":{"id":"22","value":"Quarterly External Debt Statistics\/SDDS (New)"},"sourceNote":"","sourceOrganization":"","topics":[]},{"id":"DT.DOD.DSTM.CD.MA.AR.PX.US","name":"Gross Ext. Debt Pos., Central Bank, Short-term, Debt securities, Other price chg, USD","source":{"id":"22","value":"Quarterly External Debt Statistics\/SDDS (New)"},"sourceNote":"","sourceOrganization":"","topics":[]},{"id":"DT.DOD.DSTM.CD.MA.AR.OC.US","name":"Gross Ext. Debt Pos., Central Bank, Short-term, Debt securities, Other chg in vol., USD","source":{"id":"22","value":"Quarterly External Debt Statistics\/SDDS (New)"},"sourceNote":"","sourceOrganization":"","topics":[]},{"id":"DT.DOD.DSTM.CD.MA.AR.NE.US","name":"Net Ext. Debt Position, Central Bank, Short-term, Debt securities, USD","source":{"id":"22","value":"Quarterly External Debt Statistics\/SDDS (New)"},"sourceNote":"","sourceOrganization":"","topics":[]},{"id":"DT.DOD.DSTM.CD.MA.AR.GE.US","name":"Gross Ext. Debt Pos., Central Bank, Short-term, Debt securities, Beginning pos., USD","source":{"id":"22","value":"Quarterly External Debt Statistics\/SDDS (New)"},"sourceNote":"","sourceOrganization":"","topics":[]},{"id":"DT.DOD.DSTM.CD.MA.AR.EX.US","name":"Gross Ext. Debt Pos., Central Bank, Short-term, Debt securities, Exchange rate chg, USD","source":{"id":"22","value":"Quarterly External Debt Statistics\/SDDS (New)"},"sourceNote":"","sourceOrganization":"","topics":[]},{"id":"DT.DOD.DSTM.CD.MA.AR.EN.US","name":"Gross Ext. Debt Pos., Central Bank, Short-term, Debt securities, end of period, USD","source":{"id":"22","value":"Quarterly External Debt Statistics\/SDDS (New)"},"sourceNote":"","sourceOrganization":"","topics":[]},{"id":"DT.DOD.DSTM.CD.MA.AR.EA.US","name":"Ext. Assets in Debt Instruments, Central Bank, Short-term, Debt securities, USD","source":{"id":"22","value":"Quarterly External Debt Statistics\/SDDS (New)"},"sourceNote":"","sourceOrganization":"","topics":[]},{"id":"DT.DOD.DSTM.CD.MA.AR.BE.US","name":"Gross Ext. Debt Pos., Central Bank, Short-term, Debt securities, Beginning of period, USD","source":{"id":"22","value":"Quarterly External Debt Statistics\/SDDS (New)"},"sourceNote":"","sourceOrganization":"","topics":[]},{"id":"DT.DOD.DSTM.CD.HN.US","name":"Gross Ext. Debt Pos., HH and nonprofit institu. (NPISHs), Short-term, Debt securities, USD","source":{"id":"22","value":"Quarterly External Debt Statistics\/SDDS (New)"},"sourceNote":"","sourceOrganization":"","topics":[]},{"id":"DT.DOD.DSTM.CD.GG.AR.US","name":"Gross Ext. Debt Pos., General Government, Short-term, Debt securities, USD","source":{"id":"22","value":"Quarterly External Debt Statistics\/SDDS (New)"},"sourceNote":"","sourceOrganization":"","topics":[]},{"id":"DT.DOD.DSTM.CD.GG.AR.TR.US","name":"Gross Ext. Debt Pos., General Government, Short-term, Debt securities, Transactions, USD","source":{"id":"22","value":"Quarterly External Debt Statistics\/SDDS (New)"},"sourceNote":"","sourceOrganization":"","topics":[]},{"id":"DT.DOD.DSTM.CD.GG.AR.PX.US","name":"Gross Ext. Debt Pos., General Government, Short-term, Debt securities, Other price chg, USD","source":{"id":"22","value":"Quarterly External Debt Statistics\/SDDS (New)"},"sourceNote":"","sourceOrganization":"","topics":[]},{"id":"DT.DOD.DSTM.CD.GG.AR.OC.US","name":"Gross Ext. Debt Pos., General Government, Short-term, Debt securities, Other chg in vol., USD","source":{"id":"22","value":"Quarterly External Debt Statistics\/SDDS (New)"},"sourceNote":"","sourceOrganization":"","topics":[]},{"id":"DT.DOD.DSTM.CD.GG.AR.NE.US","name":"Net Ext. Debt Position, General Government, Short-term, Debt securities, USD","source":{"id":"22","value":"Quarterly External Debt Statistics\/SDDS (New)"},"sourceNote":"","sourceOrganization":"","topics":[]},{"id":"DT.DOD.DSTM.CD.GG.AR.GE.US","name":"Gross Ext. Debt Pos., General Government, Short-term, Debt securities, Beginning pos., USD","source":{"id":"22","value":"Quarterly External Debt Statistics\/SDDS (New)"},"sourceNote":"","sourceOrganization":"","topics":[]},{"id":"DT.DOD.DSTM.CD.GG.AR.EX.US","name":"Gross Ext. Debt Pos., General Government, Short-term, Debt securities, Exchange rate chg, USD","source":{"id":"22","value":"Quarterly External Debt Statistics\/SDDS (New)"},"sourceNote":"","sourceOrganization":"","topics":[]},{"id":"DT.DOD.DSTM.CD.GG.AR.EN.US","name":"Gross Ext. Debt Pos., General Government, Short-term, Debt securities, end of period, USD","source":{"id":"22","value":"Quarterly External Debt Statistics\/SDDS (New)"},"sourceNote":"","sourceOrganization":"","topics":[]},{"id":"DT.DOD.DSTM.CD.GG.AR.EA.US","name":"Ext. Assets in Debt Instruments, General Government, Short-term, Debt securities, USD","source":{"id":"22","value":"Quarterly External Debt Statistics\/SDDS (New)"},"sourceNote":"","sourceOrganization":"","topics":[]},{"id":"DT.DOD.DSTM.CD.GG.AR.BE.US","name":"Gross Ext. Debt Pos., General Government, Short-term, Debt securities, Beginning of period, USD","source":{"id":"22","value":"Quarterly External Debt Statistics\/SDDS (New)"},"sourceNote":"","sourceOrganization":"","topics":[]},{"id":"DT.DOD.DSTM.CD.CB.AR.US","name":"Gross Ext. Debt Pos., Deposit-Taking Corp., exc. CB, Short-term, Debt securities, USD","source":{"id":"22","value":"Quarterly External Debt Statistics\/SDDS (New)"},"sourceNote":"","sourceOrganization":"","topics":[{}]}]]