[{"page":289,"pages":324,"per_page":"50","total":16174},[{"id":"UIS.E.2.GPV.G1.T","name":"Enrolment in Grade 1 of lower secondary general education, both sexes (number)","source":{"id":"12","value":"Education Statistics"},"sourceNote":"Total number of students enrolled in Grade 1 of lower secondary general education. General education is designed to develop learners’ general knowledge, skills and competencies and literacy and numeracy skills, often to prepare students for more advanced educational programmes at the same or higher ISCED levels and to lay the foundation for lifelong learning. General educational programmes are typically school- or college-based. General education includes educational programmes that are designed to prepare students for entry into vocational education, but that do not prepare for employment in a particular occupation or trade or class of occupations or trades, nor lead directly to a labour market relevant qualification.","sourceOrganization":"UNESCO Institute for Statistics","topics":[{"id":"4","value":"Education "}]},{"id":"UIS.E.2.GPV.G1.F","name":"Enrolment in Grade 1 of lower secondary general education, female (number)","source":{"id":"12","value":"Education Statistics"},"sourceNote":"Total number of female students enrolled in Grade 1 of lower secondary general education. General education is designed to develop learners’ general knowledge, skills and competencies and literacy and numeracy skills, often to prepare students for more advanced educational programmes at the same or higher ISCED levels and to lay the foundation for lifelong learning. General educational programmes are typically school- or college-based. General education includes educational programmes that are designed to prepare students for entry into vocational education, but that do not prepare for employment in a particular occupation or trade or class of occupations or trades, nor lead directly to a labour market relevant qualification.","sourceOrganization":"UNESCO Institute for Statistics","topics":[{"id":"4","value":"Education "}]},{"id":"UIS.E.2.GPV.F","name":"Enrolment in lower secondary general, female (number)","source":{"id":"12","value":"Education Statistics"},"sourceNote":"Total number of female students enrolled in general programmes at public and private lower secondary education institutions regardless of age.","sourceOrganization":"UNESCO Institute for Statistics","topics":[{"id":"4","value":"Education "}]},{"id":"UIS.E.2.GPV","name":"Enrolment in lower secondary general, both sexes (number)","source":{"id":"12","value":"Education Statistics"},"sourceNote":"Total number of students enrolled in general programmes at public and private lower secondary education institutions regardless of age.","sourceOrganization":"UNESCO Institute for Statistics","topics":[{"id":"4","value":"Education "}]},{"id":"UIS.E.2.F","name":"Enrolment in lower secondary education, female (number)","source":{"id":"12","value":"Education Statistics"},"sourceNote":"Total number of female students enrolled in public and private lower secondary education institutions regardless of age.","sourceOrganization":"UNESCO Institute for Statistics","topics":[{"id":"4","value":"Education "}]},{"id":"UIS.E.2","name":"Enrolment in lower secondary education, both sexes (number)","source":{"id":"12","value":"Education Statistics"},"sourceNote":"Total number of students enrolled in public and private lower secondary education institutions regardless of age.","sourceOrganization":"UNESCO Institute for Statistics","topics":[{"id":"4","value":"Education "}]},{"id":"UIS.E.1.Pu.F","name":"Enrolment in primary education, public institutions, female (number)","source":{"id":"12","value":"Education Statistics"},"sourceNote":"Total number of females enrolled in public primary education institutions regardless of age. Public education Institutions are controlled and managed directly by a public education authority or agency of the country where it is located or by a government agency directly or by a governing body (council, committee etc.), most of whose members are either appointed by a public authority of the country where it is located or elected by public franchise.","sourceOrganization":"UNESCO Institute for Statistics","topics":[{"id":"4","value":"Education "}]},{"id":"UIS.E.1.Pu","name":"Enrolment in primary education, public institutions, both sexes (number)","source":{"id":"12","value":"Education Statistics"},"sourceNote":"Total number of individuals enrolled in public primary education institutions regardless of age. Public education Institutions are controlled and managed directly by a public education authority or agency of the country where it is located or by a government agency directly or by a governing body (council, committee etc.), most of whose members are either appointed by a public authority of the country where it is located or elected by public franchise.","sourceOrganization":"UNESCO Institute for Statistics","topics":[{"id":"4","value":"Education "}]},{"id":"UIS.E.1.PR.F","name":"Enrolment in primary education, private institutions, female (number)","source":{"id":"12","value":"Education Statistics"},"sourceNote":"Total number of females enrolled in private primary education institutions regardless of age. A private education institution is an institution that is controlled and managed by a non-governmental organization (e.g. a church, a trade union or a business enterprise, foreign or international agency), or its governing board consists mostly of members who have not been selected by a public agency.","sourceOrganization":"UNESCO Institute for Statistics","topics":[]},{"id":"UIS.E.1.PR","name":"Enrolment in primary education, private institutions, both sexes (number)","source":{"id":"12","value":"Education Statistics"},"sourceNote":"Total number of individuals enrolled in private primary education institutions regardless of age. A private education institution is an institution that is controlled and managed by a non-governmental organization (e.g. a church, a trade union or a business enterprise, foreign or international agency), or its governing board consists mostly of members who have not been selected by a public agency.","sourceOrganization":"UNESCO Institute for Statistics","topics":[{"id":"4","value":"Education "}]},{"id":"UIS.E.1.Guk.F","name":"Enrolment in primary education, Grade unspecified, female (number)","source":{"id":"12","value":"Education Statistics"},"sourceNote":"Total number of female students enrolled in unspecified grades of primary education.","sourceOrganization":"UNESCO Institute for Statistics","topics":[{"id":"4","value":"Education "}]},{"id":"UIS.E.1.Guk","name":"Enrolment in primary education, Grade unspecified, both sexes (number)","source":{"id":"12","value":"Education Statistics"},"sourceNote":"Total number of students enrolled in unspecified grades of primary education.","sourceOrganization":"UNESCO Institute for Statistics","topics":[{"id":"4","value":"Education "}]},{"id":"UIS.E.1.G7.F","name":"Enrolment in Grade 7 of primary education, female (number)","source":{"id":"12","value":"Education Statistics"},"sourceNote":"Total number of female students enrolled in Grade 7 of primary education regardless of age.","sourceOrganization":"UNESCO Institute for Statistics","topics":[{"id":"4","value":"Education "}]},{"id":"UIS.E.1.G7","name":"Enrolment in Grade 7 of primary education, both sexes (number)","source":{"id":"12","value":"Education Statistics"},"sourceNote":"Total number of students enrolled in Grade 7 of primary education regardless of age.","sourceOrganization":"UNESCO Institute for Statistics","topics":[{"id":"4","value":"Education "}]},{"id":"UIS.E.1.G6.F","name":"Enrolment in Grade 6 of primary education, female (number)","source":{"id":"12","value":"Education Statistics"},"sourceNote":"Total number of female students enrolled in Grade 6 of primary education regardless of age.","sourceOrganization":"UNESCO Institute for Statistics","topics":[{"id":"4","value":"Education "}]},{"id":"UIS.E.1.G6","name":"Enrolment in Grade 6 of primary education, both sexes (number)","source":{"id":"12","value":"Education Statistics"},"sourceNote":"Total number of students enrolled in Grade 6 of primary education regardless of age.","sourceOrganization":"UNESCO Institute for Statistics","topics":[{"id":"4","value":"Education "}]},{"id":"UIS.E.1.G5.F","name":"Enrolment in Grade 5 of primary education, female (number)","source":{"id":"12","value":"Education Statistics"},"sourceNote":"Total number of female students enrolled in Grade 5 of primary education regardless of age.","sourceOrganization":"UNESCO Institute for Statistics","topics":[{"id":"4","value":"Education "}]},{"id":"UIS.E.1.G5","name":"Enrolment in Grade 5 of primary education, both sexes (number)","source":{"id":"12","value":"Education Statistics"},"sourceNote":"Total number of students enrolled in Grade 5 of primary education regardless of age.","sourceOrganization":"UNESCO Institute for Statistics","topics":[{"id":"4","value":"Education "}]},{"id":"UIS.E.1.G4.F","name":"Enrolment in Grade 4 of primary education, female (number)","source":{"id":"12","value":"Education Statistics"},"sourceNote":"Total number of female students enrolled in Grade 4 of primary education regardless of age.","sourceOrganization":"UNESCO Institute for Statistics","topics":[{"id":"4","value":"Education "}]},{"id":"UIS.E.1.G4","name":"Enrolment in Grade 4 of primary education, both sexes (number)","source":{"id":"12","value":"Education Statistics"},"sourceNote":"Total number of students enrolled in Grade 4 of primary education regardless of age.","sourceOrganization":"UNESCO Institute for Statistics","topics":[{"id":"4","value":"Education "}]},{"id":"UIS.E.1.G3.F","name":"Enrolment in Grade 3 of primary education, female (number)","source":{"id":"12","value":"Education Statistics"},"sourceNote":"Total number of female students enrolled in Grade 3 of primary education regardless of age.","sourceOrganization":"UNESCO Institute for Statistics","topics":[{"id":"4","value":"Education "}]},{"id":"UIS.E.1.G3","name":"Enrolment in Grade 3 of primary education, both sexes (number)","source":{"id":"12","value":"Education Statistics"},"sourceNote":"Total number of students enrolled in Grade 3 of primary education regardless of age.","sourceOrganization":"UNESCO Institute for Statistics","topics":[{"id":"4","value":"Education "}]},{"id":"UIS.E.1.G2.F","name":"Enrolment in Grade 2 of primary education, female (number)","source":{"id":"12","value":"Education Statistics"},"sourceNote":"Total number of female students enrolled in Grade 2 of primary education regardless of age.","sourceOrganization":"UNESCO Institute for Statistics","topics":[{"id":"4","value":"Education "}]},{"id":"UIS.E.1.G2","name":"Enrolment in Grade 2 of primary education, both sexes (number)","source":{"id":"12","value":"Education Statistics"},"sourceNote":"Total number of students enrolled in Grade 2 of primary education regardless of age.","sourceOrganization":"UNESCO Institute for Statistics","topics":[{"id":"4","value":"Education "}]},{"id":"UIS.E.1.G1.F","name":"Enrolment in Grade 1 of primary education, female (number)","source":{"id":"12","value":"Education Statistics"},"sourceNote":"Total number of female students enrolled in Grade 1 of primary education regardless of age.","sourceOrganization":"UNESCO Institute for Statistics","topics":[{"id":"4","value":"Education "}]},{"id":"UIS.E.1.G1","name":"Enrolment in Grade 1 of primary education, both sexes (number)","source":{"id":"12","value":"Education Statistics"},"sourceNote":"Total number of students enrolled in Grade 1 of primary education regardless of age.","sourceOrganization":"UNESCO Institute for Statistics","topics":[{"id":"4","value":"Education "}]},{"id":"UIS.E.0.Pu.F","name":"Enrolment in pre-primary education, public institutions, female (number)","source":{"id":"12","value":"Education Statistics"},"sourceNote":"Total number of females enrolled in public pre-primary education institutions regardless of age. Public education Institutions are controlled and managed directly by a public education authority or agency of the country where it is located or by a government agency directly or by a governing body (council, committee etc.), most of whose members are either appointed by a public authority of the country where it is located or elected by public franchise.","sourceOrganization":"UNESCO Institute for Statistics","topics":[{"id":"4","value":"Education "}]},{"id":"UIS.E.0.Pu","name":"Enrolment in pre-primary education, public institutions, both sexes (number)","source":{"id":"12","value":"Education Statistics"},"sourceNote":"Total number of individuals enrolled in public pre-primary education institutions regardless of age. Public education Institutions are controlled and managed directly by a public education authority or agency of the country where it is located or by a government agency directly or by a governing body (council, committee etc.), most of whose members are either appointed by a public authority of the country where it is located or elected by public franchise.","sourceOrganization":"UNESCO Institute for Statistics","topics":[{"id":"4","value":"Education "}]},{"id":"UIS.E.0.PR.F","name":"Enrolment in pre-primary education, private institutions, female (number)","source":{"id":"12","value":"Education Statistics"},"sourceNote":"Total number of females enrolled in private pre-primary education institutions regardless of age. A private education institution is an institution that is controlled and managed by a non-governmental organization (e.g. a church, a trade union or a business enterprise, foreign or international agency), or its governing board consists mostly of members who have not been selected by a public agency.","sourceOrganization":"UNESCO Institute for Statistics","topics":[]},{"id":"UIS.E.0.PR","name":"Enrolment in pre-primary education, private institutions, both sexes (number)","source":{"id":"12","value":"Education Statistics"},"sourceNote":"Total number of individuals enrolled in private pre-primary education institutions regardless of age. A private education institution is an institution that is controlled and managed by a non-governmental organization (e.g. a church, a trade union or a business enterprise, foreign or international agency), or its governing board consists mostly of members who have not been selected by a public agency.","sourceOrganization":"UNESCO Institute for Statistics","topics":[{"id":"4","value":"Education "}]},{"id":"UIS.DR.2.GPV.T","name":"Cumulative drop-out rate to the last grade of lower secondary general education, both sexes (%)","source":{"id":"12","value":"Education Statistics"},"sourceNote":"Proportion of pupils from a cohort enrolled in a given grade at a given school year who are no longer enrolled in the following school year. Cumulative dropout rate in lower secondary general education is calculated by subtracting the survival rate from 100 at a given grade.","sourceOrganization":"UNESCO Institute for Statistics","topics":[]},{"id":"UIS.DR.2.GPV.M","name":"Cumulative drop-out rate to the last grade of lower secondary general education, male (%)","source":{"id":"12","value":"Education Statistics"},"sourceNote":"Proportion of male pupils from a cohort enrolled in a given grade at a given school year who are no longer enrolled in the following school year. Cumulative dropout rate in lower secondary general education is calculated by subtracting the survival rate from 100 at a given grade.","sourceOrganization":"UNESCO Institute for Statistics","topics":[]},{"id":"UIS.DR.2.GPV.G5.T","name":"Drop-out rate from Grade 5 of lower secondary general education, both sexes (%)","source":{"id":"12","value":"Education Statistics"},"sourceNote":"Proportion of pupils from a cohort enrolled in a given grade at a given school year who are no longer enrolled in the following school year. Dropout rate by grade is calculated by subtracting the sum of promotion rate and repetition rate from 100.","sourceOrganization":"UNESCO Institute for Statistics","topics":[]},{"id":"UIS.DR.2.GPV.G5.M","name":"Drop-out rate from Grade 5 of lower secondary general education, male (%)","source":{"id":"12","value":"Education Statistics"},"sourceNote":"Proportion of male pupils from a cohort enrolled in a given grade at a given school year who are no longer enrolled in the following school year. Dropout rate by grade is calculated by subtracting the sum of promotion rate and repetition rate from 100.","sourceOrganization":"UNESCO Institute for Statistics","topics":[]},{"id":"UIS.DR.2.GPV.G5.F","name":"Drop-out rate from Grade 5 of lower secondary general education, female (%)","source":{"id":"12","value":"Education Statistics"},"sourceNote":"Proportion of female pupils from a cohort enrolled in a given grade at a given school year who are no longer enrolled in the following school year. Dropout rate by grade is calculated by subtracting the sum of promotion rate and repetition rate from 100.","sourceOrganization":"UNESCO Institute for Statistics","topics":[]},{"id":"UIS.DR.2.GPV.G4.T","name":"Drop-out rate from Grade 4 of lower secondary general education, both sexes (%)","source":{"id":"12","value":"Education Statistics"},"sourceNote":"Proportion of pupils from a cohort enrolled in a given grade at a given school year who are no longer enrolled in the following school year. Dropout rate by grade is calculated by subtracting the sum of promotion rate and repetition rate from 100.","sourceOrganization":"UNESCO Institute for Statistics","topics":[]},{"id":"UIS.DR.2.GPV.G4.M","name":"Drop-out rate from Grade 4 of lower secondary general education, male (%)","source":{"id":"12","value":"Education Statistics"},"sourceNote":"Proportion of male pupils from a cohort enrolled in a given grade at a given school year who are no longer enrolled in the following school year. Dropout rate by grade is calculated by subtracting the sum of promotion rate and repetition rate from 100.","sourceOrganization":"UNESCO Institute for Statistics","topics":[]},{"id":"UIS.DR.2.GPV.G4.F","name":"Drop-out rate from Grade 4 of lower secondary general education, female (%)","source":{"id":"12","value":"Education Statistics"},"sourceNote":"Proportion of female pupils from a cohort enrolled in a given grade at a given school year who are no longer enrolled in the following school year. Dropout rate by grade is calculated by subtracting the sum of promotion rate and repetition rate from 100.","sourceOrganization":"UNESCO Institute for Statistics","topics":[]},{"id":"UIS.DR.2.GPV.G3.T","name":"Drop-out rate from Grade 3 of lower secondary general education, both sexes (%)","source":{"id":"12","value":"Education Statistics"},"sourceNote":"Proportion of pupils from a cohort enrolled in a given grade at a given school year who are no longer enrolled in the following school year. Dropout rate by grade is calculated by subtracting the sum of promotion rate and repetition rate from 100.","sourceOrganization":"UNESCO Institute for Statistics","topics":[]},{"id":"UIS.DR.2.GPV.G3.M","name":"Drop-out rate from Grade 3 of lower secondary general education, male (%)","source":{"id":"12","value":"Education Statistics"},"sourceNote":"Proportion of male pupils from a cohort enrolled in a given grade at a given school year who are no longer enrolled in the following school year. Dropout rate by grade is calculated by subtracting the sum of promotion rate and repetition rate from 100.","sourceOrganization":"UNESCO Institute for Statistics","topics":[]},{"id":"UIS.DR.2.GPV.G3.F","name":"Drop-out rate from Grade 3 of lower secondary general education, female (%)","source":{"id":"12","value":"Education Statistics"},"sourceNote":"Proportion of female pupils from a cohort enrolled in a given grade at a given school year who are no longer enrolled in the following school year. Dropout rate by grade is calculated by subtracting the sum of promotion rate and repetition rate from 100.","sourceOrganization":"UNESCO Institute for Statistics","topics":[]},{"id":"UIS.DR.2.GPV.G2.T","name":"Drop-out rate from Grade 2 of lower secondary general education, both sexes (%)","source":{"id":"12","value":"Education Statistics"},"sourceNote":"Proportion of pupils from a cohort enrolled in a given grade at a given school year who are no longer enrolled in the following school year. Dropout rate by grade is calculated by subtracting the sum of promotion rate and repetition rate from 100.","sourceOrganization":"UNESCO Institute for Statistics","topics":[]},{"id":"UIS.DR.2.GPV.G2.M","name":"Drop-out rate from Grade 2 of lower secondary general education, male (%)","source":{"id":"12","value":"Education Statistics"},"sourceNote":"Proportion of male pupils from a cohort enrolled in a given grade at a given school year who are no longer enrolled in the following school year. Dropout rate by grade is calculated by subtracting the sum of promotion rate and repetition rate from 100.","sourceOrganization":"UNESCO Institute for Statistics","topics":[]},{"id":"UIS.DR.2.GPV.G2.F","name":"Drop-out rate from Grade 2 of lower secondary general education, female (%)","source":{"id":"12","value":"Education Statistics"},"sourceNote":"Proportion of female pupils from a cohort enrolled in a given grade at a given school year who are no longer enrolled in the following school year. Dropout rate by grade is calculated by subtracting the sum of promotion rate and repetition rate from 100.","sourceOrganization":"UNESCO Institute for Statistics","topics":[]},{"id":"UIS.DR.2.GPV.G1.T","name":"Drop-out rate from Grade 1 of lower secondary general education, both sexes (%)","source":{"id":"12","value":"Education Statistics"},"sourceNote":"Proportion of pupils from a cohort enrolled in a given grade at a given school year who are no longer enrolled in the following school year. Dropout rate by grade is calculated by subtracting the sum of promotion rate and repetition rate from 100.","sourceOrganization":"UNESCO Institute for Statistics","topics":[]},{"id":"UIS.DR.2.GPV.G1.M","name":"Drop-out rate from Grade 1 of lower secondary general education, male (%)","source":{"id":"12","value":"Education Statistics"},"sourceNote":"Proportion of male pupils from a cohort enrolled in a given grade at a given school year who are no longer enrolled in the following school year. Dropout rate by grade is calculated by subtracting the sum of promotion rate and repetition rate from 100.","sourceOrganization":"UNESCO Institute for Statistics","topics":[]},{"id":"UIS.DR.2.GPV.G1.F","name":"Drop-out rate from Grade 1 of lower secondary general education, female (%)","source":{"id":"12","value":"Education Statistics"},"sourceNote":"Proportion of female pupils from a cohort enrolled in a given grade at a given school year who are no longer enrolled in the following school year. Dropout rate by grade is calculated by subtracting the sum of promotion rate and repetition rate from 100.","sourceOrganization":"UNESCO Institute for Statistics","topics":[]},{"id":"UIS.DR.2.GPV.F","name":"Cumulative drop-out rate to the last grade of lower secondary general education, female (%)","source":{"id":"12","value":"Education Statistics"},"sourceNote":"Proportion of female pupils from a cohort enrolled in a given grade at a given school year who are no longer enrolled in the following school year. Cumulative dropout rate in lower secondary general education is calculated by subtracting the survival rate from 100 at a given grade.","sourceOrganization":"UNESCO Institute for Statistics","topics":[]},{"id":"UIS.DR.1.G6.M","name":"Drop-out rate from Grade 6 of primary education, male (%)","source":{"id":"12","value":"Education Statistics"},"sourceNote":"Proportion of male pupils from a cohort enrolled in a given grade at a given school year who are no longer enrolled in the following school year. Dropout rate by grade is calculated by subtracting the sum of promotion rate and repetition rate from 100.","sourceOrganization":"UNESCO Institute for Statistics","topics":[{"id":"4","value":"Education "}]},{"id":"UIS.DR.1.G6.F","name":"Drop-out rate from Grade 6 of primary education, female (%)","source":{"id":"12","value":"Education Statistics"},"sourceNote":"Proportion of female pupils from a cohort enrolled in a given grade at a given school year who are no longer enrolled in the following school year. Dropout rate by grade is calculated by subtracting the sum of promotion rate and repetition rate from 100.","sourceOrganization":"UNESCO Institute for Statistics","topics":[{"id":"4","value":"Education "}]}]]