[{"page":191,"pages":324,"per_page":"50","total":16174},[{"id":"per_sa_cc.avt_q2_urb","name":"Average per capita transfer held by 2nd quintile - Conditional Cash Transfers -urban","source":{"id":"29","value":"Global Social Protection"},"sourceNote":"","sourceOrganization":"The Atlas of Social Protection: Indicators of Resilience and Equity (ASPIRE)","topics":[]},{"id":"per_sa_cc.avt_q2_tot","name":"Average per capita transfer held by 2nd quintile - Conditional Cash Transfers  ","source":{"id":"29","value":"Global Social Protection"},"sourceNote":"","sourceOrganization":"The Atlas of Social Protection: Indicators of Resilience and Equity (ASPIRE)","topics":[]},{"id":"per_sa_cc.avt_q2_rur","name":"Average per capita transfer held by 2nd quintile - Conditional Cash Transfers -rural","source":{"id":"29","value":"Global Social Protection"},"sourceNote":"","sourceOrganization":"The Atlas of Social Protection: Indicators of Resilience and Equity (ASPIRE)","topics":[]},{"id":"per_sa_cc.avt_q2_preT_tot","name":"Average per capita transfer held by 2nd quintile - Conditional Cash Transfers (preT)","source":{"id":"29","value":"Global Social Protection"},"sourceNote":"","sourceOrganization":"The Atlas of Social Protection: Indicators of Resilience and Equity (ASPIRE)","topics":[]},{"id":"per_sa_cc.avt_q1_urb","name":"Average per capita transfer held by poorest quintile - Conditional Cash Transfers -urban","source":{"id":"29","value":"Global Social Protection"},"sourceNote":"","sourceOrganization":"The Atlas of Social Protection: Indicators of Resilience and Equity (ASPIRE)","topics":[]},{"id":"per_sa_cc.avt_q1_tot","name":"Average per capita transfer held by poorest quintile - Conditional Cash Transfers  ","source":{"id":"29","value":"Global Social Protection"},"sourceNote":"","sourceOrganization":"The Atlas of Social Protection: Indicators of Resilience and Equity (ASPIRE)","topics":[]},{"id":"per_sa_cc.avt_q1_rur","name":"Average per capita transfer held by poorest quintile - Conditional Cash Transfers -rural","source":{"id":"29","value":"Global Social Protection"},"sourceNote":"","sourceOrganization":"The Atlas of Social Protection: Indicators of Resilience and Equity (ASPIRE)","topics":[]},{"id":"per_sa_cc.avt_q1_preT_tot","name":"Average per capita transfer held by poorest quintile - Conditional Cash Transfers (preT)","source":{"id":"29","value":"Global Social Protection"},"sourceNote":"","sourceOrganization":"The Atlas of Social Protection: Indicators of Resilience and Equity (ASPIRE)","topics":[]},{"id":"per_sa_cc.avt_pop_urb","name":"Average per capita transfer - Conditional Cash Transfers -urban","source":{"id":"29","value":"Global Social Protection"},"sourceNote":"","sourceOrganization":"The Atlas of Social Protection: Indicators of Resilience and Equity (ASPIRE)","topics":[]},{"id":"per_sa_cc.avt_pop_tot","name":"Average per capita transfer - Conditional Cash Transfers  ","source":{"id":"29","value":"Global Social Protection"},"sourceNote":"","sourceOrganization":"The Atlas of Social Protection: Indicators of Resilience and Equity (ASPIRE)","topics":[]},{"id":"per_sa_cc.avt_pop_rur","name":"Average per capita transfer - Conditional Cash Transfers -rural","source":{"id":"29","value":"Global Social Protection"},"sourceNote":"","sourceOrganization":"The Atlas of Social Protection: Indicators of Resilience and Equity (ASPIRE)","topics":[]},{"id":"per_sa_cc.avt_pop_preT_tot","name":"Average per capita transfer - Conditional Cash Transfers (preT)","source":{"id":"29","value":"Global Social Protection"},"sourceNote":"","sourceOrganization":"The Atlas of Social Protection: Indicators of Resilience and Equity (ASPIRE)","topics":[]},{"id":"per_sa_cc.avt_ep_tot","name":"Average per capita transfer held by extreme poor (<$1.25 a day) - Conditional Cash Transfers  ","source":{"id":"29","value":"Global Social Protection"},"sourceNote":"","sourceOrganization":"The Atlas of Social Protection: Indicators of Resilience and Equity (ASPIRE)","topics":[]},{"id":"per_sa_cc.avt_ep_preT_tot","name":"Average per capita transfer held by extreme poor (<$1.25 a day) - Conditional Cash Transfers (preT)","source":{"id":"29","value":"Global Social Protection"},"sourceNote":"","sourceOrganization":"The Atlas of Social Protection: Indicators of Resilience and Equity (ASPIRE)","topics":[]},{"id":"per_sa_cc.adq_q5_urb","name":"Adequacy of benefits in richest quintile (%) - Conditional Cash Transfers -urban","source":{"id":"29","value":"Global Social Protection"},"sourceNote":"","sourceOrganization":"The Atlas of Social Protection: Indicators of Resilience and Equity (ASPIRE)","topics":[]},{"id":"per_sa_cc.adq_q5_tot","name":"Adequacy of benefits in richest quintile (%) - Conditional Cash Transfers  ","source":{"id":"29","value":"Global Social Protection"},"sourceNote":"","sourceOrganization":"The Atlas of Social Protection: Indicators of Resilience and Equity (ASPIRE)","topics":[]},{"id":"per_sa_cc.adq_q5_rur","name":"Adequacy of benefits in richest quintile (%) - Conditional Cash Transfers -rural","source":{"id":"29","value":"Global Social Protection"},"sourceNote":"","sourceOrganization":"The Atlas of Social Protection: Indicators of Resilience and Equity (ASPIRE)","topics":[]},{"id":"per_sa_cc.adq_q5_preT_tot","name":"Adequacy of benefits in richest quintile (%) - Conditional Cash Transfers (preT)","source":{"id":"29","value":"Global Social Protection"},"sourceNote":"","sourceOrganization":"The Atlas of Social Protection: Indicators of Resilience and Equity (ASPIRE)","topics":[]},{"id":"per_sa_cc.adq_q4_urb","name":"Adequacy of benefits in 4th quintile (%) - Conditional Cash Transfers -urban","source":{"id":"29","value":"Global Social Protection"},"sourceNote":"","sourceOrganization":"The Atlas of Social Protection: Indicators of Resilience and Equity (ASPIRE)","topics":[]},{"id":"per_sa_cc.adq_q4_tot","name":"Adequacy of benefits in 4th quintile (%) - Conditional Cash Transfers  ","source":{"id":"29","value":"Global Social Protection"},"sourceNote":"","sourceOrganization":"The Atlas of Social Protection: Indicators of Resilience and Equity (ASPIRE)","topics":[]},{"id":"per_sa_cc.adq_q4_rur","name":"Adequacy of benefits in 4th quintile (%) - Conditional Cash Transfers -rural","source":{"id":"29","value":"Global Social Protection"},"sourceNote":"","sourceOrganization":"The Atlas of Social Protection: Indicators of Resilience and Equity (ASPIRE)","topics":[]},{"id":"per_sa_cc.adq_q4_preT_tot","name":"Adequacy of benefits in 4th quintile (%) - Conditional Cash Transfers (preT)","source":{"id":"29","value":"Global Social Protection"},"sourceNote":"","sourceOrganization":"The Atlas of Social Protection: Indicators of Resilience and Equity (ASPIRE)","topics":[]},{"id":"per_sa_cc.adq_q3_urb","name":"Adequacy of benefits in 3rd quintile (%) - Conditional Cash Transfers -urban","source":{"id":"29","value":"Global Social Protection"},"sourceNote":"","sourceOrganization":"The Atlas of Social Protection: Indicators of Resilience and Equity (ASPIRE)","topics":[]},{"id":"per_sa_cc.adq_q3_tot","name":"Adequacy of benefits in 3rd quintile (%) - Conditional Cash Transfers  ","source":{"id":"29","value":"Global Social Protection"},"sourceNote":"","sourceOrganization":"The Atlas of Social Protection: Indicators of Resilience and Equity (ASPIRE)","topics":[]},{"id":"per_sa_cc.adq_q3_rur","name":"Adequacy of benefits in 3rd quintile (%) - Conditional Cash Transfers -rural","source":{"id":"29","value":"Global Social Protection"},"sourceNote":"","sourceOrganization":"The Atlas of Social Protection: Indicators of Resilience and Equity (ASPIRE)","topics":[]},{"id":"per_sa_cc.adq_q3_preT_tot","name":"Adequacy of benefits in 3rd quintile (%) - Conditional Cash Transfers (preT)","source":{"id":"29","value":"Global Social Protection"},"sourceNote":"","sourceOrganization":"The Atlas of Social Protection: Indicators of Resilience and Equity (ASPIRE)","topics":[]},{"id":"per_sa_cc.adq_q2_urb","name":"Adequacy of benefits in 2nd quintile (%) - Conditional Cash Transfers -urban","source":{"id":"29","value":"Global Social Protection"},"sourceNote":"","sourceOrganization":"The Atlas of Social Protection: Indicators of Resilience and Equity (ASPIRE)","topics":[]},{"id":"per_sa_cc.adq_q2_tot","name":"Adequacy of benefits in 2nd quintile (%) - Conditional Cash Transfers  ","source":{"id":"29","value":"Global Social Protection"},"sourceNote":"","sourceOrganization":"The Atlas of Social Protection: Indicators of Resilience and Equity (ASPIRE)","topics":[]},{"id":"per_sa_cc.adq_q2_rur","name":"Adequacy of benefits in 2nd quintile (%) - Conditional Cash Transfers -rural","source":{"id":"29","value":"Global Social Protection"},"sourceNote":"","sourceOrganization":"The Atlas of Social Protection: Indicators of Resilience and Equity (ASPIRE)","topics":[]},{"id":"per_sa_cc.adq_q2_preT_tot","name":"Adequacy of benefits in 2nd quintile (%) - Conditional Cash Transfers (preT)","source":{"id":"29","value":"Global Social Protection"},"sourceNote":"","sourceOrganization":"The Atlas of Social Protection: Indicators of Resilience and Equity (ASPIRE)","topics":[]},{"id":"per_sa_cc.adq_q1_urb","name":"Adequacy of benefits in poorest quintile (%) - Conditional Cash Transfers -urban","source":{"id":"29","value":"Global Social Protection"},"sourceNote":"","sourceOrganization":"The Atlas of Social Protection: Indicators of Resilience and Equity (ASPIRE)","topics":[]},{"id":"per_sa_cc.adq_q1_tot","name":"Adequacy of benefits in poorest quintile (%) - Conditional Cash Transfers  ","source":{"id":"29","value":"Global Social Protection"},"sourceNote":"","sourceOrganization":"The Atlas of Social Protection: Indicators of Resilience and Equity (ASPIRE)","topics":[]},{"id":"per_sa_cc.adq_q1_rur","name":"Adequacy of benefits in poorest quintile (%) - Conditional Cash Transfers -rural","source":{"id":"29","value":"Global Social Protection"},"sourceNote":"","sourceOrganization":"The Atlas of Social Protection: Indicators of Resilience and Equity (ASPIRE)","topics":[]},{"id":"per_sa_cc.adq_q1_preT_tot","name":"Adequacy of benefits in poorest quintile (%) - Conditional Cash Transfers (preT)","source":{"id":"29","value":"Global Social Protection"},"sourceNote":"","sourceOrganization":"The Atlas of Social Protection: Indicators of Resilience and Equity (ASPIRE)","topics":[]},{"id":"per_sa_cc.adq_pop_urb","name":"Adequacy of benefits (%) - Conditional Cash Transfers -urban","source":{"id":"29","value":"Global Social Protection"},"sourceNote":"","sourceOrganization":"The Atlas of Social Protection: Indicators of Resilience and Equity (ASPIRE)","topics":[]},{"id":"per_sa_cc.adq_pop_tot","name":"Adequacy of benefits (%) - Conditional Cash Transfers  ","source":{"id":"29","value":"Global Social Protection"},"sourceNote":"","sourceOrganization":"The Atlas of Social Protection: Indicators of Resilience and Equity (ASPIRE)","topics":[]},{"id":"per_sa_cc.adq_pop_rur","name":"Adequacy of benefits (%) - Conditional Cash Transfers -rural","source":{"id":"29","value":"Global Social Protection"},"sourceNote":"","sourceOrganization":"The Atlas of Social Protection: Indicators of Resilience and Equity (ASPIRE)","topics":[]},{"id":"per_sa_cc.adq_pop_preT_tot","name":"Adequacy of benefits (%) - Conditional Cash Transfers (preT)","source":{"id":"29","value":"Global Social Protection"},"sourceNote":"","sourceOrganization":"The Atlas of Social Protection: Indicators of Resilience and Equity (ASPIRE)","topics":[]},{"id":"per_sa_cc.adq_ep_tot","name":"Adequacy of benefits in extreme poor (<$1.25 a day) (%) - Conditional Cash Transfers  ","source":{"id":"29","value":"Global Social Protection"},"sourceNote":"","sourceOrganization":"The Atlas of Social Protection: Indicators of Resilience and Equity (ASPIRE)","topics":[]},{"id":"per_sa_cc.adq_ep_preT_tot","name":"Adequacy of benefits in extreme poor (<$1.25 a day) (%) - Conditional Cash Transfers (preT)","source":{"id":"29","value":"Global Social Protection"},"sourceNote":"","sourceOrganization":"The Atlas of Social Protection: Indicators of Resilience and Equity (ASPIRE)","topics":[]},{"id":"per_sa_allsa_p1_urb","name":"Poverty Gap reduction (%) -  All Social Assistance - poorest quintile -urban","source":{"id":"29","value":"Global Social Protection"},"sourceNote":"NULL","sourceOrganization":"The Atlas of Social Protection: Indicators of Resilience and Equity (ASPIRE)","topics":[{"id":"10","value":"Social Protection & Labor"}]},{"id":"per_sa_allsa_p1_tot","name":"Poverty Gap reduction (%) -  All Social Assistance -poorest quintile","source":{"id":"29","value":"Global Social Protection"},"sourceNote":"NULL","sourceOrganization":"The Atlas of Social Protection: Indicators of Resilience and Equity (ASPIRE)","topics":[{"id":"10","value":"Social Protection & Labor"}]},{"id":"per_sa_allsa_p1_rur","name":"Poverty Gap reduction (%) -  All Social Assistance -poorest quintile -rural","source":{"id":"29","value":"Global Social Protection"},"sourceNote":"NULL","sourceOrganization":"The Atlas of Social Protection: Indicators of Resilience and Equity (ASPIRE)","topics":[{"id":"10","value":"Social Protection & Labor"}]},{"id":"per_sa_allsa_p1_preT_tot","name":"Poverty Gap reduction (%) -  All Social Assistance -poorest quintile (preT)","source":{"id":"29","value":"Global Social Protection"},"sourceNote":"NULL","sourceOrganization":"The Atlas of Social Protection: Indicators of Resilience and Equity (ASPIRE)","topics":[{"id":"10","value":"Social Protection & Labor"}]},{"id":"per_sa_allsa_p1_ep_tot","name":"Poverty Gap reduction (%) -  All Social Assistance -extreme poor (<$1.25 a day)","source":{"id":"29","value":"Global Social Protection"},"sourceNote":"NULL","sourceOrganization":"The Atlas of Social Protection: Indicators of Resilience and Equity (ASPIRE)","topics":[{"id":"10","value":"Social Protection & Labor"}]},{"id":"per_sa_allsa_p1_ep_preT_tot","name":"Poverty Gap reduction (%) -  All Social Assistance -extreme poor (<$1.25 a day) (preT)","source":{"id":"29","value":"Global Social Protection"},"sourceNote":"NULL","sourceOrganization":"The Atlas of Social Protection: Indicators of Resilience and Equity (ASPIRE)","topics":[{"id":"10","value":"Social Protection & Labor"}]},{"id":"per_sa_allsa_p0_urb","name":"Poverty Headcount reduction (%) -  All Social Assistance - poorest quintile -urban","source":{"id":"29","value":"Global Social Protection"},"sourceNote":"NULL","sourceOrganization":"The Atlas of Social Protection: Indicators of Resilience and Equity (ASPIRE)","topics":[{"id":"10","value":"Social Protection & Labor"}]},{"id":"per_sa_allsa_p0_tot","name":"Poverty Headcount reduction (%) -  All Social Assistance -poorest quintile","source":{"id":"29","value":"Global Social Protection"},"sourceNote":"NULL","sourceOrganization":"The Atlas of Social Protection: Indicators of Resilience and Equity (ASPIRE)","topics":[{"id":"10","value":"Social Protection & Labor"}]},{"id":"per_sa_allsa_p0_rur","name":"Poverty Headcount reduction (%) -  All Social Assistance -poorest quintile -rural","source":{"id":"29","value":"Global Social Protection"},"sourceNote":"NULL","sourceOrganization":"The Atlas of Social Protection: Indicators of Resilience and Equity (ASPIRE)","topics":[{"id":"10","value":"Social Protection & Labor"}]},{"id":"per_sa_allsa_p0_preT_tot","name":"Poverty Headcount reduction (%) -  All Social Assistance -poorest quintile (preT)","source":{"id":"29","value":"Global Social Protection"},"sourceNote":"NULL","sourceOrganization":"The Atlas of Social Protection: Indicators of Resilience and Equity (ASPIRE)","topics":[{"id":"10","value":"Social Protection & Labor"}]}]]