[{"page":80,"pages":324,"per_page":"50","total":16174},[{"id":"DT.INT.DECT.CD.07.09.MO.US","name":"Ext. Debt Service Pmt, Public and Publicly Guar. Private Sector Ext. Debt, 6 to 9 mo., All instruments, Interest, USD","source":{"id":"23","value":"Quarterly External Debt Statistics\/GDDS (New)"},"sourceNote":"","sourceOrganization":"","topics":[]},{"id":"DT.INT.DECT.CD.05.YR.US","name":"Ext. Debt Service Pmt, Public and Publicly Guar. Private Sector Ext. Debt, 5yrs, All instruments, Interest, USD","source":{"id":"23","value":"Quarterly External Debt Statistics\/GDDS (New)"},"sourceNote":"","sourceOrganization":"","topics":[]},{"id":"DT.INT.DECT.CD.05.10.YR.US","name":"Ext. Debt Service Pmt, Public and Publicly Guar. Private Sector Ext. Debt, 5 to 10 yrs, All instruments, Interest, USD","source":{"id":"23","value":"Quarterly External Debt Statistics\/GDDS (New)"},"sourceNote":"","sourceOrganization":"","topics":[]},{"id":"DT.INT.DECT.CD.04.YR.US","name":"Ext. Debt Service Pmt, Public and Publicly Guar. Private Sector Ext. Debt, 4yrs, All instruments, Interest, USD","source":{"id":"23","value":"Quarterly External Debt Statistics\/GDDS (New)"},"sourceNote":"","sourceOrganization":"","topics":[]},{"id":"DT.INT.DECT.CD.04.06.MO.US","name":"Ext. Debt Service Pmt, Public and Publicly Guar. Private Sector Ext. Debt, 3 to 6 mo., All instruments, Interest, USD","source":{"id":"23","value":"Quarterly External Debt Statistics\/GDDS (New)"},"sourceNote":"","sourceOrganization":"","topics":[]},{"id":"DT.INT.DECT.CD.03.YR.US","name":"Ext. Debt Service Pmt, Public and Publicly Guar. Private Sector Ext. Debt, 3yrs, All instruments, Interest, USD","source":{"id":"23","value":"Quarterly External Debt Statistics\/GDDS (New)"},"sourceNote":"","sourceOrganization":"","topics":[]},{"id":"DT.INT.DECT.CD.03.US","name":"Ext. Debt Service Pmt, All Sectors, More than 0 to 3, All instruments, Interest, USD","source":{"id":"22","value":"Quarterly External Debt Statistics\/SDDS (New)"},"sourceNote":"","sourceOrganization":"","topics":[]},{"id":"DT.INT.DECT.CD.00.03.MO.US","name":"Ext. Debt Service Pmt, Public and Publicly Guar. Private Sector Ext. Debt, 0 to 3 mo., All instruments, Interest, USD","source":{"id":"23","value":"Quarterly External Debt Statistics\/GDDS (New)"},"sourceNote":"","sourceOrganization":"","topics":[]},{"id":"DT.INT.DECT.CD","name":"Interest payments on external debt, total (INT, current US$)","source":{"id":"2","value":"World Development Indicators"},"sourceNote":"Interest payments are actual amounts of interest paid by the borrower in currency, goods, or services in the year specified. This item includes interest paid on long-term debt, IMF charges, and interest paid on short-term debt. Long-term external debt is defined as debt that has an original or extended maturity of more than one year and that is owed to nonresidents by residents of an economy and repayable in currency, goods, or services. Short-term external debt is defined as debt that has an original maturity of one year or less. Available data permit no distinction between public and private nonguaranteed short-term debt. Data are in current U.S. dollars.","sourceOrganization":"World Bank, International Debt Statistics.","topics":[{"id":"20","value":"External Debt"}]},{"id":"DT.INT.DEAE.CD.IL.IQ.US","name":"Gross Ext. Debt Pmt, DI: Intercom Lending, Immediate, Debt liab. of dir. investors to DI ent., Interest, USD","source":{"id":"22","value":"Quarterly External Debt Statistics\/SDDS (New)"},"sourceNote":"","sourceOrganization":"","topics":[]},{"id":"DT.INT.DEAE.CD.IL.69.US","name":"Gross Ext. Debt Pmt, DI: Intercom Lending, More than 6 to 9, Debt liab. of dir. investors to DI ent., Interest, USD","source":{"id":"22","value":"Quarterly External Debt Statistics\/SDDS (New)"},"sourceNote":"","sourceOrganization":"","topics":[]},{"id":"DT.INT.DEAE.CD.IL.36.US","name":"Gross Ext. Debt Pmt, DI: Intercom Lending, More than 3 to 6, Debt liab. of dir. investors to DI ent., Interest, USD","source":{"id":"22","value":"Quarterly External Debt Statistics\/SDDS (New)"},"sourceNote":"","sourceOrganization":"","topics":[]},{"id":"DT.INT.DEAE.CD.IL.24P.US","name":"Gross Ext. Debt Pmt, DI: Intercom Lending, More than 2yrs, Debt liab. of dir. investors to DI ent., Interest, USD","source":{"id":"22","value":"Quarterly External Debt Statistics\/SDDS (New)"},"sourceNote":"","sourceOrganization":"","topics":[]},{"id":"DT.INT.DEAE.CD.IL.1824.US","name":"Gross Ext. Debt Pmt, DI: Intercom Lending, More than 18 to 24, Debt liab. of dir. investors to DI ent., Interest, USD","source":{"id":"22","value":"Quarterly External Debt Statistics\/SDDS (New)"},"sourceNote":"","sourceOrganization":"","topics":[]},{"id":"DT.INT.DEAE.CD.IL.1218.US","name":"Gross Ext. Debt Pmt, DI: Intercom Lending, More than 12 to 18, Debt liab. of dir. investors to DI ent., Interest, USD","source":{"id":"22","value":"Quarterly External Debt Statistics\/SDDS (New)"},"sourceNote":"","sourceOrganization":"","topics":[]},{"id":"DT.INT.DEAE.CD.IL.0912.US","name":"Gross Ext. Debt Pmt, DI: Intercom Lending, More than 9 to 12, Debt liab. of dir. investors to DI ent., Interest, USD","source":{"id":"22","value":"Quarterly External Debt Statistics\/SDDS (New)"},"sourceNote":"","sourceOrganization":"","topics":[]},{"id":"DT.INT.DEAE.CD.IL.03.US","name":"Gross Ext. Debt Pmt, DI: Intercom Lending, More than 0 to 3, Debt liab. of dir. investors to DI ent., Interest, USD","source":{"id":"22","value":"Quarterly External Debt Statistics\/SDDS (New)"},"sourceNote":"","sourceOrganization":"","topics":[]},{"id":"DT.INT.BLTC.CD","name":"PPG, bilateral concessional (INT, current US$)","source":{"id":"2","value":"World Development Indicators"},"sourceNote":"Bilateral debt includes loans from governments and their agencies (including central banks), loans from autonomous bodies, and direct loans from official export credit agencies. Concessional debt is defined as loans with an original grant element of 25 percent or more. The grant element of a loan is the grant equivalent expressed as a percentage of the amount committed. It is used as a measure of the overall cost of borrowing. The grant equivalent of a loan is its commitment (present) value, less the discounted present value of its contractual debt service; conventionally, future service payments are discounted at 10 percent. Interest payments are actual amounts of interest paid by the borrower in currency, goods, or services in the year specified. Data are in current U.S. dollars.","sourceOrganization":"World Bank, International Debt Statistics.","topics":[{"id":"20","value":"External Debt"}]},{"id":"DT.INT.BLAT.CD","name":"PPG, bilateral (INT, current US$)","source":{"id":"2","value":"World Development Indicators"},"sourceNote":"Bilateral debt includes loans from governments and their agencies (including central banks), loans from autonomous bodies, and direct loans from official export credit agencies. Interest payments are actual amounts of interest paid by the borrower in currency, goods, or services in the year specified. Data are in current U.S. dollars.","sourceOrganization":"World Bank, International Debt Statistics.","topics":[{"id":"20","value":"External Debt"}]},{"id":"DT.INR.PRVT","name":"Average interest on new external debt commitments, private (%)","source":{"id":"2","value":"World Development Indicators"},"sourceNote":"Interest represents the average interest rate on all new public and publicly guaranteed loans contracted during the year. To obtain the average, the interest rates for all public and publicly guaranteed loans have been weighted by the amounts of the loans. Debt from private creditors include bonds that are either publicly issued or privately placed; commercial bank loans from private banks and other private financial institutions; and other private credits from manufacturers, exporters, and other suppliers of goods, and bank credits covered by a guarantee of an export credit agency.","sourceOrganization":"World Bank, International Debt Statistics.","topics":[{"id":"20","value":"External Debt"}]},{"id":"DT.INR.OFFT","name":"Average interest on new external debt commitments, official (%)","source":{"id":"2","value":"World Development Indicators"},"sourceNote":"Interest represents the average interest rate on all new public and publicly guaranteed loans contracted during the year. To obtain the average, the interest rates for all public and publicly guaranteed loans have been weighted by the amounts of the loans. Debt from official creditors includes loans from international organizations (multilateral loans) and loans from governments (bilateral loans). Loans from international organization include loans and credits from the World Bank, regional development banks, and other multilateral and intergovernmental agencies. Excluded are loans from funds administered by an international organization on behalf of a single donor government; these are classified as loans from governments. Government loans include loans from governments and their agencies (including central banks), loans from autonomous bodies, and direct loans from official export credit agencies.","sourceOrganization":"World Bank, International Debt Statistics.","topics":[{"id":"20","value":"External Debt"}]},{"id":"DT.INR.DPPG","name":"Average interest on new external debt commitments (%)","source":{"id":"2","value":"World Development Indicators"},"sourceNote":"Interest represents the average interest rate on all new public and publicly guaranteed loans contracted during the year. To obtain the average, the interest rates for all public and publicly guaranteed loans have been weighted by the amounts of the loans. Public debt is an external obligation of a public debtor, including the national government, a political subdivision (or an agency of either), and autonomous public bodies. Publicly guaranteed debt is an external obligation of a private debtor that is guaranteed for repayment by a public entity.","sourceOrganization":"World Bank, International Debt Statistics.","topics":[{"id":"20","value":"External Debt"}]},{"id":"DT.INR.DECT.IQ.SA.00.US","name":"Ext. Debt Service Pmt, Interest receipts on SDR holdings, Immediately, All instruments, USD","source":{"id":"23","value":"Quarterly External Debt Statistics\/GDDS (New)"},"sourceNote":"","sourceOrganization":"","topics":[]},{"id":"DT.INR.DECT.CD.SA.IQ.US","name":"Ext. Debt Service Pmt, Interest receipts on SDR holdings, Immediate, USD","source":{"id":"22","value":"Quarterly External Debt Statistics\/SDDS (New)"},"sourceNote":"","sourceOrganization":"","topics":[]},{"id":"DT.INR.DECT.CD.SA.AR.IQ.US","name":"Gross Ext. Debt Pmt, Interest receipts on SDR holdings, Immediate, USD","source":{"id":"22","value":"Quarterly External Debt Statistics\/SDDS (New)"},"sourceNote":"","sourceOrganization":"","topics":[]},{"id":"DT.INR.DECT.CD.SA.AR.69.US","name":"Gross Ext. Debt Pmt, Interest receipts on SDR holdings, More than 6 to 9, USD","source":{"id":"22","value":"Quarterly External Debt Statistics\/SDDS (New)"},"sourceNote":"","sourceOrganization":"","topics":[]},{"id":"DT.INR.DECT.CD.SA.AR.36.US","name":"Gross Ext. Debt Pmt, Interest receipts on SDR holdings, More than 3 to 6, USD","source":{"id":"22","value":"Quarterly External Debt Statistics\/SDDS (New)"},"sourceNote":"","sourceOrganization":"","topics":[]},{"id":"DT.INR.DECT.CD.SA.AR.1824.US","name":"Gross Ext. Debt Pmt, Interest receipts on SDR holdings, More than 18 to 24, USD","source":{"id":"22","value":"Quarterly External Debt Statistics\/SDDS (New)"},"sourceNote":"","sourceOrganization":"","topics":[]},{"id":"DT.INR.DECT.CD.SA.AR.1218.US","name":"Gross Ext. Debt Pmt, Interest receipts on SDR holdings, More than 12 to 18, USD","source":{"id":"22","value":"Quarterly External Debt Statistics\/SDDS (New)"},"sourceNote":"","sourceOrganization":"","topics":[]},{"id":"DT.INR.DECT.CD.SA.AR.0912.US","name":"Gross Ext. Debt Pmt, Interest receipts on SDR holdings, More than 9 to 12, USD","source":{"id":"22","value":"Quarterly External Debt Statistics\/SDDS (New)"},"sourceNote":"","sourceOrganization":"","topics":[]},{"id":"DT.INR.DECT.CD.SA.AR.03.US","name":"Gross Ext. Debt Pmt, Interest receipts on SDR holdings, More than 0 to 3, USD","source":{"id":"22","value":"Quarterly External Debt Statistics\/SDDS (New)"},"sourceNote":"","sourceOrganization":"","topics":[]},{"id":"DT.INR.DECT.CD.SA.69.US","name":"Ext. Debt Service Pmt, Interest receipts on SDR holdings, More than 6 to 9, USD","source":{"id":"22","value":"Quarterly External Debt Statistics\/SDDS (New)"},"sourceNote":"","sourceOrganization":"","topics":[]},{"id":"DT.INR.DECT.CD.SA.36.US","name":"Ext. Debt Service Pmt, Interest receipts on SDR holdings, More than 3 to 6, USD","source":{"id":"22","value":"Quarterly External Debt Statistics\/SDDS (New)"},"sourceNote":"","sourceOrganization":"","topics":[]},{"id":"DT.INR.DECT.CD.SA.1824.US","name":"Ext. Debt Service Pmt, Interest receipts on SDR holdings, More than 18 to 24, USD","source":{"id":"22","value":"Quarterly External Debt Statistics\/SDDS (New)"},"sourceNote":"","sourceOrganization":"","topics":[]},{"id":"DT.INR.DECT.CD.SA.1218.US","name":"Ext. Debt Service Pmt, Interest receipts on SDR holdings, More than 12 to 18, USD","source":{"id":"22","value":"Quarterly External Debt Statistics\/SDDS (New)"},"sourceNote":"","sourceOrganization":"","topics":[]},{"id":"DT.INR.DECT.CD.SA.0912.US","name":"Ext. Debt Service Pmt, Interest receipts on SDR holdings, More than 9 to 12, USD","source":{"id":"22","value":"Quarterly External Debt Statistics\/SDDS (New)"},"sourceNote":"","sourceOrganization":"","topics":[]},{"id":"DT.INR.DECT.CD.SA.03.US","name":"Ext. Debt Service Pmt, Interest receipts on SDR holdings, More than 0 to 3, USD","source":{"id":"22","value":"Quarterly External Debt Statistics\/SDDS (New)"},"sourceNote":"","sourceOrganization":"","topics":[]},{"id":"DT.INR.DECT.19.24.MO.SA.US","name":"Ext. Debt Service Pmt, Interest receipts on SDR holdings, 18 to 24 mo., All instruments, USD","source":{"id":"23","value":"Quarterly External Debt Statistics\/GDDS (New)"},"sourceNote":"","sourceOrganization":"","topics":[]},{"id":"DT.INR.DECT.13.18.MO.SA.US","name":"Ext. Debt Service Pmt, Interest receipts on SDR holdings, 12 to 18 mo., All instruments, USD","source":{"id":"23","value":"Quarterly External Debt Statistics\/GDDS (New)"},"sourceNote":"","sourceOrganization":"","topics":[]},{"id":"DT.INR.DECT.10.15.YR.SA.US","name":"Ext. Debt Service Pmt, Interest receipts on SDR holdings, 10 to 15 yrs, All instruments, USD","source":{"id":"23","value":"Quarterly External Debt Statistics\/GDDS (New)"},"sourceNote":"","sourceOrganization":"","topics":[]},{"id":"DT.INR.DECT.10.12.MO.SA.US","name":"Ext. Debt Service Pmt, Interest receipts on SDR holdings, 9 to 12 mo., All instruments, USD","source":{"id":"23","value":"Quarterly External Debt Statistics\/GDDS (New)"},"sourceNote":"","sourceOrganization":"","topics":[]},{"id":"DT.INR.DECT.07.09.MO.SA.US","name":"Ext. Debt Service Pmt, Interest receipts on SDR holdings, 6 to 9 mo., All instruments, USD","source":{"id":"23","value":"Quarterly External Debt Statistics\/GDDS (New)"},"sourceNote":"","sourceOrganization":"","topics":[]},{"id":"DT.INR.DECT.05.YR.SA.US","name":"Ext. Debt Service Pmt, Interest receipts on SDR holdings, 5yrs, All instruments, USD","source":{"id":"23","value":"Quarterly External Debt Statistics\/GDDS (New)"},"sourceNote":"","sourceOrganization":"","topics":[]},{"id":"DT.INR.DECT.05.10.YR.SA.US","name":"Ext. Debt Service Pmt, Interest receipts on SDR holdings, 5 to 10 yrs, All instruments, USD","source":{"id":"23","value":"Quarterly External Debt Statistics\/GDDS (New)"},"sourceNote":"","sourceOrganization":"","topics":[]},{"id":"DT.INR.DECT.04.YR.SA.US","name":"Ext. Debt Service Pmt, Interest receipts on SDR holdings, 4yrs, All instruments, USD","source":{"id":"23","value":"Quarterly External Debt Statistics\/GDDS (New)"},"sourceNote":"","sourceOrganization":"","topics":[]},{"id":"DT.INR.DECT.04.06.MO.SA.US","name":"Ext. Debt Service Pmt, Interest receipts on SDR holdings, 3 to 6 mo., All instruments, USD","source":{"id":"23","value":"Quarterly External Debt Statistics\/GDDS (New)"},"sourceNote":"","sourceOrganization":"","topics":[]},{"id":"DT.INR.DECT.03.YR.SA.US","name":"Ext. Debt Service Pmt, Interest receipts on SDR holdings, 3yrs, All instruments, USD","source":{"id":"23","value":"Quarterly External Debt Statistics\/GDDS (New)"},"sourceNote":"","sourceOrganization":"","topics":[]},{"id":"DT.INR.DECT.00.03.MO.SA.US","name":"Ext. Debt Service Pmt, Interest receipts on SDR holdings, 0 to 3 mo., All instruments, USD","source":{"id":"23","value":"Quarterly External Debt Statistics\/GDDS (New)"},"sourceNote":"","sourceOrganization":"","topics":[]},{"id":"DT.INP.DECT.IQ.SA.00.US","name":"Ext. Debt Service Pmt, Interest payments on SDR allocations, Immediately, All instruments, USD","source":{"id":"23","value":"Quarterly External Debt Statistics\/GDDS (New)"},"sourceNote":"","sourceOrganization":"","topics":[]},{"id":"DT.INP.DECT.CD.SA.IQ.US","name":"Ext. Debt Service Pmt, Interest payments on SDR allocations, Immediate, USD","source":{"id":"22","value":"Quarterly External Debt Statistics\/SDDS (New)"},"sourceNote":"","sourceOrganization":"","topics":[{}]}]]