[{"page":130,"pages":324,"per_page":"50","total":16174},[{"id":"KSAWNWD_MYS","name":"Sawnwood, Malaysia, $\/cum, constant 2000$","source":{"id":"21","value":"Global Economic Monitor (GEM) Commodities"},"sourceNote":"","sourceOrganization":"World Bank.","topics":[]},{"id":"KSAWNWD_CMR","name":"Sawnwood, Cameroon, $\/cum, constant 2000$","source":{"id":"21","value":"Global Economic Monitor (GEM) Commodities"},"sourceNote":"","sourceOrganization":"World Bank.","topics":[]},{"id":"KRUBBER1_TSR20","name":"Rubber, TSR20, cents\/kg, constant 2000$","source":{"id":"21","value":"Global Economic Monitor (GEM) Commodities"},"sourceNote":"","sourceOrganization":"","topics":[]},{"id":"KRUBBER1_MYSG","name":"Rubber, Singapore, cents\/kg, constant 2000$","source":{"id":"21","value":"Global Economic Monitor (GEM) Commodities"},"sourceNote":"","sourceOrganization":"World Bank.","topics":[]},{"id":"KRICE_A1","name":"Rice, Thai, A1.Special, $\/mt, constant 2000$","source":{"id":"21","value":"Global Economic Monitor (GEM) Commodities"},"sourceNote":"","sourceOrganization":"World Bank.","topics":[]},{"id":"KRICE_25","name":"Rice, Thailand, 25%, $\/mt, constant 2000$","source":{"id":"21","value":"Global Economic Monitor (GEM) Commodities"},"sourceNote":"","sourceOrganization":"World Bank.","topics":[]},{"id":"KRICE_05_VNM","name":"Rice, Vietnamese, 5%, $\/mt, constant 2000$","source":{"id":"21","value":"Global Economic Monitor (GEM) Commodities"},"sourceNote":"","sourceOrganization":"","topics":[]},{"id":"KRICE_05","name":"Rice, Thailand, 5%, $\/mt, constant 2000$","source":{"id":"21","value":"Global Economic Monitor (GEM) Commodities"},"sourceNote":"","sourceOrganization":"World Bank.","topics":[]},{"id":"KPOTASH","name":"Potassium Chloride, $\/mt, constant 2000$","source":{"id":"21","value":"Global Economic Monitor (GEM) Commodities"},"sourceNote":"","sourceOrganization":"World Bank.","topics":[]},{"id":"KPLYWOOD","name":"Plywood, cents\/sheets, constant 2000$","source":{"id":"21","value":"Global Economic Monitor (GEM) Commodities"},"sourceNote":"","sourceOrganization":"World Bank.","topics":[]},{"id":"KPLMKRNL_OIL","name":"Palmkernal oil, $\/mt, constant 2000$","source":{"id":"21","value":"Global Economic Monitor (GEM) Commodities"},"sourceNote":"","sourceOrganization":"World Bank.","topics":[]},{"id":"KPLATINUM","name":"Platinum, $\/toz, real 2010l$","source":{"id":"21","value":"Global Economic Monitor (GEM) Commodities"},"sourceNote":"","sourceOrganization":"","topics":[]},{"id":"KPHOSROCK","name":"Phosphate rock, $\/mt, constant 2000$","source":{"id":"21","value":"Global Economic Monitor (GEM) Commodities"},"sourceNote":"","sourceOrganization":"World Bank.","topics":[]},{"id":"KPALM_OIL","name":"Palm oil, $\/mt, constant 2000$","source":{"id":"21","value":"Global Economic Monitor (GEM) Commodities"},"sourceNote":"","sourceOrganization":"World Bank.","topics":[]},{"id":"KORANGE","name":"Oranges, $\/mt, constant 2000$","source":{"id":"21","value":"Global Economic Monitor (GEM) Commodities"},"sourceNote":"","sourceOrganization":"World Bank.","topics":[]},{"id":"KNICKEL","name":"Nickel, $\/mt, constant 2000$","source":{"id":"21","value":"Global Economic Monitor (GEM) Commodities"},"sourceNote":"","sourceOrganization":"World Bank.","topics":[]},{"id":"KNGAS_US","name":"Natural gas, US, $\/mmbtu, constant 2000$","source":{"id":"21","value":"Global Economic Monitor (GEM) Commodities"},"sourceNote":"","sourceOrganization":"World Bank.","topics":[]},{"id":"KNGAS_JP","name":"Natural gas LNG, $\/mmbtu, constant 2000$","source":{"id":"21","value":"Global Economic Monitor (GEM) Commodities"},"sourceNote":"","sourceOrganization":"World Bank.","topics":[]},{"id":"KNGAS_EUR","name":"Natural gas, Europe, $\/mmbtu, constant 2000$","source":{"id":"21","value":"Global Economic Monitor (GEM) Commodities"},"sourceNote":"","sourceOrganization":"World Bank.","topics":[]},{"id":"KMAIZE","name":"Maize, $\/mt, constant 2000$","source":{"id":"21","value":"Global Economic Monitor (GEM) Commodities"},"sourceNote":"","sourceOrganization":"World Bank.","topics":[]},{"id":"KLOGS_MYS","name":"Logs, Malaysia, $\/cum, constant 2000$","source":{"id":"21","value":"Global Economic Monitor (GEM) Commodities"},"sourceNote":"","sourceOrganization":"World Bank.","topics":[]},{"id":"KLOGS_CMR","name":"Logs, Cameroon, $\/cum, constant 2000$","source":{"id":"21","value":"Global Economic Monitor (GEM) Commodities"},"sourceNote":"","sourceOrganization":"World Bank.","topics":[]},{"id":"KLEAD","name":"Lead, cents\/kg, constant 2000$","source":{"id":"21","value":"Global Economic Monitor (GEM) Commodities"},"sourceNote":"","sourceOrganization":"World Bank.","topics":[]},{"id":"KLAMB","name":"Meat, sheep, cents\/kg, constant 2000$","source":{"id":"21","value":"Global Economic Monitor (GEM) Commodities"},"sourceNote":"","sourceOrganization":"World Bank.","topics":[]},{"id":"KITIMBER","name":"Agr: Raw:1 Timber, 2000=100, constant 2000$","source":{"id":"21","value":"Global Economic Monitor (GEM) Commodities"},"sourceNote":"","sourceOrganization":"World Bank.","topics":[]},{"id":"KIRON_ORE_SPOT","name":"Iron ore, $\/dmt, constant 2000$","source":{"id":"21","value":"Global Economic Monitor (GEM) Commodities"},"sourceNote":"","sourceOrganization":"","topics":[]},{"id":"KIRON_ORE","name":"Iron ore, cents\/dmtu, constant 2000$","source":{"id":"21","value":"Global Economic Monitor (GEM) Commodities"},"sourceNote":"","sourceOrganization":"World Bank.","topics":[]},{"id":"KIRAW_MATERIAL","name":"Agr: Raw materials, 2000=100, constant 2000$","source":{"id":"21","value":"Global Economic Monitor (GEM) Commodities"},"sourceNote":"","sourceOrganization":"World Bank.","topics":[]},{"id":"KIPRECIOUSMET","name":"Precious Metals, 2010=100, real 2010$","source":{"id":"21","value":"Global Economic Monitor (GEM) Commodities"},"sourceNote":"","sourceOrganization":"","topics":[]},{"id":"KIOTHERRAWMAT","name":"Agr: Raw:2 Other raw materials, 2000=100, constant 2000$","source":{"id":"21","value":"Global Economic Monitor (GEM) Commodities"},"sourceNote":"","sourceOrganization":"World Bank.","topics":[]},{"id":"KIOTHERFOOD","name":"Agr: Food: Other food, 2000=100, constant 2000$","source":{"id":"21","value":"Global Economic Monitor (GEM) Commodities"},"sourceNote":"","sourceOrganization":"World Bank.","topics":[]},{"id":"KINONFUEL","name":"Non-energy commodities, 2000=100, constant 2000$","source":{"id":"21","value":"Global Economic Monitor (GEM) Commodities"},"sourceNote":"","sourceOrganization":"World Bank.","topics":[]},{"id":"KINATGAS","name":"Natural gas, 2010=100, real 2010$","source":{"id":"21","value":"Global Economic Monitor (GEM) Commodities"},"sourceNote":"","sourceOrganization":"","topics":[]},{"id":"KIMETMIN_DV100","name":"Base Metals, 2000=100, constant 2000$","source":{"id":"21","value":"Global Economic Monitor (GEM) Commodities"},"sourceNote":"","sourceOrganization":"World Bank.","topics":[]},{"id":"KIMETMIN","name":"Metals and minerals, 2000=100, constant 2000$","source":{"id":"21","value":"Global Economic Monitor (GEM) Commodities"},"sourceNote":"","sourceOrganization":"World Bank.","topics":[]},{"id":"KIGRAINS","name":"Agr: Food: Grains, 2000=100, constant 2000$","source":{"id":"21","value":"Global Economic Monitor (GEM) Commodities"},"sourceNote":"","sourceOrganization":"World Bank.","topics":[]},{"id":"KIFOOD","name":"Agr: Food, 2000=100, constant 2000$","source":{"id":"21","value":"Global Economic Monitor (GEM) Commodities"},"sourceNote":"","sourceOrganization":"World Bank.","topics":[]},{"id":"KIFERTILIZERS","name":"Fertilizers, 2000=100, constant 2000$","source":{"id":"21","value":"Global Economic Monitor (GEM) Commodities"},"sourceNote":"","sourceOrganization":"World Bank.","topics":[]},{"id":"KIFATS_OILS","name":"Agr: Food: Fats and oils, 2000=100, constant 2000$","source":{"id":"21","value":"Global Economic Monitor (GEM) Commodities"},"sourceNote":"","sourceOrganization":"World Bank.","topics":[]},{"id":"KIENERGY","name":"Energy, 2000=100, constant 2000$","source":{"id":"21","value":"Global Economic Monitor (GEM) Commodities"},"sourceNote":"","sourceOrganization":"World Bank.","topics":[]},{"id":"KIBEVERAGES","name":"Agr: Beverages, 2000=100, constant 2000$","source":{"id":"21","value":"Global Economic Monitor (GEM) Commodities"},"sourceNote":"","sourceOrganization":"World Bank.","topics":[]},{"id":"KIAGRICULTURE","name":"Agriculture, 2000=100, constant 2000$","source":{"id":"21","value":"Global Economic Monitor (GEM) Commodities"},"sourceNote":"","sourceOrganization":"World Bank.","topics":[]},{"id":"KGRNUT_OIL","name":"Groundnut oil, $\/mt, constant 2000$","source":{"id":"21","value":"Global Economic Monitor (GEM) Commodities"},"sourceNote":"","sourceOrganization":"World Bank.","topics":[]},{"id":"KGOLD","name":"Gold, $\/toz, constant 2000$","source":{"id":"21","value":"Global Economic Monitor (GEM) Commodities"},"sourceNote":"","sourceOrganization":"World Bank.","topics":[]},{"id":"KFZINC","name":"Zinc, real, $\/mt","source":{"id":"55","value":"Commodity Prices- History and Projections, updated quarterly"},"sourceNote":"","sourceOrganization":"","topics":[]},{"id":"KFWHEAT_US_HRW","name":"Wheat, US HRW, real, $\/mt","source":{"id":"55","value":"Commodity Prices- History and Projections, updated quarterly"},"sourceNote":"","sourceOrganization":"","topics":[]},{"id":"KFUREA_EE_BULK","name":"Urea, real, $\/mt","source":{"id":"55","value":"Commodity Prices- History and Projections, updated quarterly"},"sourceNote":"","sourceOrganization":"","topics":[]},{"id":"KFTSP","name":"TSP, real, $\/mt","source":{"id":"55","value":"Commodity Prices- History and Projections, updated quarterly"},"sourceNote":"","sourceOrganization":"","topics":[]},{"id":"KFTOBAC_US","name":"Tobacco, US import u.v., real, $\/mt","source":{"id":"55","value":"Commodity Prices- History and Projections, updated quarterly"},"sourceNote":"","sourceOrganization":"","topics":[]},{"id":"KFTIN","name":"Tin, real, $\/mt","source":{"id":"55","value":"Commodity Prices- History and Projections, updated quarterly"},"sourceNote":"","sourceOrganization":"","topics":[{}]}]]