[{"page":202,"pages":324,"per_page":"50","total":16174},[{"id":"per_sa_ik.adq_pop_urb","name":"Adequacy of benefits (%) - In-Kind -urban","source":{"id":"29","value":"Global Social Protection"},"sourceNote":"NULL","sourceOrganization":"The Atlas of Social Protection: Indicators of Resilience and Equity (ASPIRE)","topics":[{"id":"10","value":"Social Protection & Labor"}]},{"id":"per_sa_ik.adq_pop_tot","name":"Adequacy of benefits (%) - In-Kind  ","source":{"id":"29","value":"Global Social Protection"},"sourceNote":"NULL","sourceOrganization":"The Atlas of Social Protection: Indicators of Resilience and Equity (ASPIRE)","topics":[{"id":"10","value":"Social Protection & Labor"}]},{"id":"per_sa_ik.adq_pop_rur","name":"Adequacy of benefits (%) - In-Kind -rural","source":{"id":"29","value":"Global Social Protection"},"sourceNote":"NULL","sourceOrganization":"The Atlas of Social Protection: Indicators of Resilience and Equity (ASPIRE)","topics":[{"id":"10","value":"Social Protection & Labor"}]},{"id":"per_sa_ik.adq_pop_preT_tot","name":"Adequacy of benefits (%) - In-Kind (preT)","source":{"id":"29","value":"Global Social Protection"},"sourceNote":"NULL","sourceOrganization":"The Atlas of Social Protection: Indicators of Resilience and Equity (ASPIRE)","topics":[{"id":"10","value":"Social Protection & Labor"}]},{"id":"per_sa_ik.adq_ep_tot","name":"Adequacy of benefits in extreme poor (<$1.25 a day) (%) - In-Kind  ","source":{"id":"29","value":"Global Social Protection"},"sourceNote":"NULL","sourceOrganization":"The Atlas of Social Protection: Indicators of Resilience and Equity (ASPIRE)","topics":[{"id":"10","value":"Social Protection & Labor"}]},{"id":"per_sa_ik.adq_ep_preT_tot","name":"Adequacy of benefits in extreme poor (<$1.25 a day) (%) - In-Kind (preT)","source":{"id":"29","value":"Global Social Protection"},"sourceNote":"NULL","sourceOrganization":"The Atlas of Social Protection: Indicators of Resilience and Equity (ASPIRE)","topics":[{"id":"10","value":"Social Protection & Labor"}]},{"id":"per_sa_fw_p1_urb","name":"Poverty Gap reduction (%) -  Subsidies - poorest quintile -urban","source":{"id":"29","value":"Global Social Protection"},"sourceNote":"","sourceOrganization":"The Atlas of Social Protection: Indicators of Resilience and Equity (ASPIRE)","topics":[]},{"id":"per_sa_fw_p1_tot","name":"Poverty Gap reduction (%) -  Subsidies -poorest quintile","source":{"id":"29","value":"Global Social Protection"},"sourceNote":"","sourceOrganization":"The Atlas of Social Protection: Indicators of Resilience and Equity (ASPIRE)","topics":[]},{"id":"per_sa_fw_p1_rur","name":"Poverty Gap reduction (%) -  Subsidies -poorest quintile -rural","source":{"id":"29","value":"Global Social Protection"},"sourceNote":"","sourceOrganization":"The Atlas of Social Protection: Indicators of Resilience and Equity (ASPIRE)","topics":[]},{"id":"per_sa_fw_p1_preT_tot","name":"Poverty Gap reduction (%) -  Subsidies -poorest quintile (preT)","source":{"id":"29","value":"Global Social Protection"},"sourceNote":"","sourceOrganization":"The Atlas of Social Protection: Indicators of Resilience and Equity (ASPIRE)","topics":[]},{"id":"per_sa_fw_p1_ep_tot","name":"Poverty Gap reduction (%) -  Subsidies -extreme poor (<$1.25 a day)","source":{"id":"29","value":"Global Social Protection"},"sourceNote":"","sourceOrganization":"The Atlas of Social Protection: Indicators of Resilience and Equity (ASPIRE)","topics":[]},{"id":"per_sa_fw_p1_ep_preT_tot","name":"Poverty Gap reduction (%) -  Subsidies -extreme poor (<$1.25 a day) (preT)","source":{"id":"29","value":"Global Social Protection"},"sourceNote":"","sourceOrganization":"The Atlas of Social Protection: Indicators of Resilience and Equity (ASPIRE)","topics":[]},{"id":"per_sa_fw_p0_urb","name":"Poverty Headcount reduction (%) -  Subsidies - poorest quintile -urban","source":{"id":"29","value":"Global Social Protection"},"sourceNote":"","sourceOrganization":"The Atlas of Social Protection: Indicators of Resilience and Equity (ASPIRE)","topics":[]},{"id":"per_sa_fw_p0_tot","name":"Poverty Headcount reduction (%) -  Subsidies -poorest quintile","source":{"id":"29","value":"Global Social Protection"},"sourceNote":"","sourceOrganization":"The Atlas of Social Protection: Indicators of Resilience and Equity (ASPIRE)","topics":[]},{"id":"per_sa_fw_p0_rur","name":"Poverty Headcount reduction (%) -  Subsidies -poorest quintile -rural","source":{"id":"29","value":"Global Social Protection"},"sourceNote":"","sourceOrganization":"The Atlas of Social Protection: Indicators of Resilience and Equity (ASPIRE)","topics":[]},{"id":"per_sa_fw_p0_preT_tot","name":"Poverty Headcount reduction (%) -  Subsidies -poorest quintile (preT)","source":{"id":"29","value":"Global Social Protection"},"sourceNote":"","sourceOrganization":"The Atlas of Social Protection: Indicators of Resilience and Equity (ASPIRE)","topics":[]},{"id":"per_sa_fw_p0_ep_tot","name":"Poverty Headcount reduction (%) -  Subsidies -extreme poor (<$1.25 a day)","source":{"id":"29","value":"Global Social Protection"},"sourceNote":"","sourceOrganization":"The Atlas of Social Protection: Indicators of Resilience and Equity (ASPIRE)","topics":[]},{"id":"per_sa_fw_p0_ep_preT_tot","name":"Poverty Headcount reduction (%) -  Subsidies -extreme poor (<$1.25 a day) (preT)","source":{"id":"29","value":"Global Social Protection"},"sourceNote":"","sourceOrganization":"The Atlas of Social Protection: Indicators of Resilience and Equity (ASPIRE)","topics":[]},{"id":"per_sa_fw_gini_urb","name":"Gini inequality reduction (%) -  Subsidies - poorest quintile -urban","source":{"id":"29","value":"Global Social Protection"},"sourceNote":"","sourceOrganization":"The Atlas of Social Protection: Indicators of Resilience and Equity (ASPIRE)","topics":[]},{"id":"per_sa_fw_gini_tot","name":"Gini inequality reduction (%) -  Subsidies -poorest quintile","source":{"id":"29","value":"Global Social Protection"},"sourceNote":"","sourceOrganization":"The Atlas of Social Protection: Indicators of Resilience and Equity (ASPIRE)","topics":[]},{"id":"per_sa_fw_gini_rur","name":"Gini inequality reduction (%) -  Subsidies -poorest quintile -rural","source":{"id":"29","value":"Global Social Protection"},"sourceNote":"","sourceOrganization":"The Atlas of Social Protection: Indicators of Resilience and Equity (ASPIRE)","topics":[]},{"id":"per_sa_fw_gini_preT_tot","name":"Gini inequality reduction (%) -  Subsidies -poorest quintile (preT)","source":{"id":"29","value":"Global Social Protection"},"sourceNote":"","sourceOrganization":"The Atlas of Social Protection: Indicators of Resilience and Equity (ASPIRE)","topics":[]},{"id":"per_sa_fw_gini_ep_tot","name":"Gini inequality reduction (%) -  Subsidies -extreme poor (<$1.25 a day)","source":{"id":"29","value":"Global Social Protection"},"sourceNote":"","sourceOrganization":"The Atlas of Social Protection: Indicators of Resilience and Equity (ASPIRE)","topics":[]},{"id":"per_sa_fw_gini_ep_preT_tot","name":"Gini inequality reduction (%) -  Subsidies -extreme poor (<$1.25 a day) (preT)","source":{"id":"29","value":"Global Social Protection"},"sourceNote":"","sourceOrganization":"The Atlas of Social Protection: Indicators of Resilience and Equity (ASPIRE)","topics":[]},{"id":"per_sa_fw.cov_q5_urb","name":"Coverage in richest quintile (%) - Subsidies -urban","source":{"id":"29","value":"Global Social Protection"},"sourceNote":"","sourceOrganization":"The Atlas of Social Protection: Indicators of Resilience and Equity (ASPIRE)","topics":[]},{"id":"per_sa_fw.cov_q5_tot","name":"Coverage in richest quintile (%) - Subsidies  ","source":{"id":"29","value":"Global Social Protection"},"sourceNote":"","sourceOrganization":"The Atlas of Social Protection: Indicators of Resilience and Equity (ASPIRE)","topics":[]},{"id":"per_sa_fw.cov_q5_rur","name":"Coverage in richest quintile (%) - Subsidies -rural","source":{"id":"29","value":"Global Social Protection"},"sourceNote":"","sourceOrganization":"The Atlas of Social Protection: Indicators of Resilience and Equity (ASPIRE)","topics":[]},{"id":"per_sa_fw.cov_q5_preT_tot","name":"Coverage in richest quintile (%) - Subsidies (preT)","source":{"id":"29","value":"Global Social Protection"},"sourceNote":"","sourceOrganization":"The Atlas of Social Protection: Indicators of Resilience and Equity (ASPIRE)","topics":[]},{"id":"per_sa_fw.cov_q4_urb","name":"Coverage in 4th quintile (%) - Subsidies -urban","source":{"id":"29","value":"Global Social Protection"},"sourceNote":"","sourceOrganization":"The Atlas of Social Protection: Indicators of Resilience and Equity (ASPIRE)","topics":[]},{"id":"per_sa_fw.cov_q4_tot","name":"Coverage in 4th quintile (%) - Subsidies  ","source":{"id":"29","value":"Global Social Protection"},"sourceNote":"","sourceOrganization":"The Atlas of Social Protection: Indicators of Resilience and Equity (ASPIRE)","topics":[]},{"id":"per_sa_fw.cov_q4_rur","name":"Coverage in 4th quintile (%) - Subsidies -rural","source":{"id":"29","value":"Global Social Protection"},"sourceNote":"","sourceOrganization":"The Atlas of Social Protection: Indicators of Resilience and Equity (ASPIRE)","topics":[]},{"id":"per_sa_fw.cov_q4_preT_tot","name":"Coverage in 4th quintile (%) - Subsidies (preT)","source":{"id":"29","value":"Global Social Protection"},"sourceNote":"","sourceOrganization":"The Atlas of Social Protection: Indicators of Resilience and Equity (ASPIRE)","topics":[]},{"id":"per_sa_fw.cov_q3_urb","name":"Coverage in 3rd quintile (%) - Subsidies -urban","source":{"id":"29","value":"Global Social Protection"},"sourceNote":"","sourceOrganization":"The Atlas of Social Protection: Indicators of Resilience and Equity (ASPIRE)","topics":[]},{"id":"per_sa_fw.cov_q3_tot","name":"Coverage in 3rd quintile (%) - Subsidies  ","source":{"id":"29","value":"Global Social Protection"},"sourceNote":"","sourceOrganization":"The Atlas of Social Protection: Indicators of Resilience and Equity (ASPIRE)","topics":[]},{"id":"per_sa_fw.cov_q3_rur","name":"Coverage in 3rd quintile (%) - Subsidies -rural","source":{"id":"29","value":"Global Social Protection"},"sourceNote":"","sourceOrganization":"The Atlas of Social Protection: Indicators of Resilience and Equity (ASPIRE)","topics":[]},{"id":"per_sa_fw.cov_q3_preT_tot","name":"Coverage in 3rd quintile (%) - Subsidies (preT)","source":{"id":"29","value":"Global Social Protection"},"sourceNote":"","sourceOrganization":"The Atlas of Social Protection: Indicators of Resilience and Equity (ASPIRE)","topics":[]},{"id":"per_sa_fw.cov_q2_urb","name":"Coverage in 2nd quintile (%) - Subsidies -urban","source":{"id":"29","value":"Global Social Protection"},"sourceNote":"","sourceOrganization":"The Atlas of Social Protection: Indicators of Resilience and Equity (ASPIRE)","topics":[]},{"id":"per_sa_fw.cov_q2_tot","name":"Coverage in 2nd quintile (%) - Subsidies  ","source":{"id":"29","value":"Global Social Protection"},"sourceNote":"","sourceOrganization":"The Atlas of Social Protection: Indicators of Resilience and Equity (ASPIRE)","topics":[]},{"id":"per_sa_fw.cov_q2_rur","name":"Coverage in 2nd quintile (%) - Subsidies -rural","source":{"id":"29","value":"Global Social Protection"},"sourceNote":"","sourceOrganization":"The Atlas of Social Protection: Indicators of Resilience and Equity (ASPIRE)","topics":[]},{"id":"per_sa_fw.cov_q2_preT_tot","name":"Coverage in 2nd quintile (%) - Subsidies (preT)","source":{"id":"29","value":"Global Social Protection"},"sourceNote":"","sourceOrganization":"The Atlas of Social Protection: Indicators of Resilience and Equity (ASPIRE)","topics":[]},{"id":"per_sa_fw.cov_q1_urb","name":"Coverage in poorest quintile (%) - Subsidies -urban","source":{"id":"29","value":"Global Social Protection"},"sourceNote":"","sourceOrganization":"The Atlas of Social Protection: Indicators of Resilience and Equity (ASPIRE)","topics":[]},{"id":"per_sa_fw.cov_q1_tot","name":"Coverage in poorest quintile (%) - Subsidies  ","source":{"id":"29","value":"Global Social Protection"},"sourceNote":"","sourceOrganization":"The Atlas of Social Protection: Indicators of Resilience and Equity (ASPIRE)","topics":[]},{"id":"per_sa_fw.cov_q1_rur","name":"Coverage in poorest quintile (%) - Subsidies -rural","source":{"id":"29","value":"Global Social Protection"},"sourceNote":"","sourceOrganization":"The Atlas of Social Protection: Indicators of Resilience and Equity (ASPIRE)","topics":[]},{"id":"per_sa_fw.cov_q1_preT_tot","name":"Coverage in poorest quintile (%) - Subsidies (preT)","source":{"id":"29","value":"Global Social Protection"},"sourceNote":"","sourceOrganization":"The Atlas of Social Protection: Indicators of Resilience and Equity (ASPIRE)","topics":[]},{"id":"per_sa_fw.cov_pop_urb","name":"Coverage (%) - Subsidies -urban","source":{"id":"29","value":"Global Social Protection"},"sourceNote":"","sourceOrganization":"The Atlas of Social Protection: Indicators of Resilience and Equity (ASPIRE)","topics":[]},{"id":"per_sa_fw.cov_pop_tot","name":"Coverage (%) - Subsidies  ","source":{"id":"29","value":"Global Social Protection"},"sourceNote":"","sourceOrganization":"The Atlas of Social Protection: Indicators of Resilience and Equity (ASPIRE)","topics":[]},{"id":"per_sa_fw.cov_pop_rur","name":"Coverage (%) - Subsidies -rural","source":{"id":"29","value":"Global Social Protection"},"sourceNote":"","sourceOrganization":"The Atlas of Social Protection: Indicators of Resilience and Equity (ASPIRE)","topics":[]},{"id":"per_sa_fw.cov_pop_preT_tot","name":"Coverage (%) - Subsidies (preT)","source":{"id":"29","value":"Global Social Protection"},"sourceNote":"","sourceOrganization":"The Atlas of Social Protection: Indicators of Resilience and Equity (ASPIRE)","topics":[]},{"id":"per_sa_fw.cov_ep_tot","name":"Coverage in extreme poor (<$1.25 a day) (%) - Subsidies  ","source":{"id":"29","value":"Global Social Protection"},"sourceNote":"","sourceOrganization":"The Atlas of Social Protection: Indicators of Resilience and Equity (ASPIRE)","topics":[]},{"id":"per_sa_fw.cov_ep_preT_tot","name":"Coverage in extreme poor (<$1.25 a day) (%) - Subsidies (preT)","source":{"id":"29","value":"Global Social Protection"},"sourceNote":"","sourceOrganization":"The Atlas of Social Protection: Indicators of Resilience and Equity (ASPIRE)","topics":[{}]}]]