[{"page":51,"pages":324,"per_page":"50","total":16174},[{"id":"DT.AMT.DEFE.CD.IL.36.US","name":"Gross Ext. Debt Pmt, DI: Intercom Lending, More than 3 to 6, Debt liab. to fellow ent., Principal, USD","source":{"id":"22","value":"Quarterly External Debt Statistics\/SDDS (New)"},"sourceNote":"","sourceOrganization":"","topics":[]},{"id":"DT.AMT.DEFE.CD.IL.24P.US","name":"Gross Ext. Debt Pmt, DI: Intercom Lending, More than 2yrs, Debt liab. to fellow ent., Principal, USD","source":{"id":"22","value":"Quarterly External Debt Statistics\/SDDS (New)"},"sourceNote":"","sourceOrganization":"","topics":[]},{"id":"DT.AMT.DEFE.CD.IL.1824.US","name":"Gross Ext. Debt Pmt, DI: Intercom Lending, More than 18 to 24, Debt liab. to fellow ent., Principal, USD","source":{"id":"22","value":"Quarterly External Debt Statistics\/SDDS (New)"},"sourceNote":"","sourceOrganization":"","topics":[]},{"id":"DT.AMT.DEFE.CD.IL.1218.US","name":"Gross Ext. Debt Pmt, DI: Intercom Lending, More than 12 to 18, Debt liab. to fellow ent., Principal, USD","source":{"id":"22","value":"Quarterly External Debt Statistics\/SDDS (New)"},"sourceNote":"","sourceOrganization":"","topics":[]},{"id":"DT.AMT.DEFE.CD.IL.0912.US","name":"Gross Ext. Debt Pmt, DI: Intercom Lending, More than 9 to 12, Debt liab. to fellow ent., Principal, USD","source":{"id":"22","value":"Quarterly External Debt Statistics\/SDDS (New)"},"sourceNote":"","sourceOrganization":"","topics":[]},{"id":"DT.AMT.DEFE.CD.IL.03.US","name":"Gross Ext. Debt Pmt, DI: Intercom Lending, More than 0 to 3, Debt liab. to fellow ent., Principal, USD","source":{"id":"22","value":"Quarterly External Debt Statistics\/SDDS (New)"},"sourceNote":"","sourceOrganization":"","topics":[]},{"id":"DT.AMT.DECT.CD.RM.US","name":"Gross Ext. Debt Pos., All Sectors, One year or less, All instruments, Principal, USD","source":{"id":"22","value":"Quarterly External Debt Statistics\/SDDS (New)"},"sourceNote":"","sourceOrganization":"","topics":[]},{"id":"DT.AMT.DECT.CD.OS.RM.US","name":"Gross Ext. Debt Pos., Other Sectors, One year or less, All instruments, Principal, USD","source":{"id":"22","value":"Quarterly External Debt Statistics\/SDDS (New)"},"sourceNote":"","sourceOrganization":"","topics":[]},{"id":"DT.AMT.DECT.CD.OS.IQ.US","name":"Ext. Debt Service Pmt, Other Sectors, Immediate, All instruments, Principal, USD","source":{"id":"22","value":"Quarterly External Debt Statistics\/SDDS (New)"},"sourceNote":"","sourceOrganization":"","topics":[]},{"id":"DT.AMT.DECT.CD.OS.69.US","name":"Ext. Debt Service Pmt, Other Sectors, More than 6 to 9, All instruments, Principal, USD","source":{"id":"22","value":"Quarterly External Debt Statistics\/SDDS (New)"},"sourceNote":"","sourceOrganization":"","topics":[]},{"id":"DT.AMT.DECT.CD.OS.36.US","name":"Ext. Debt Service Pmt, Other Sectors, More than 3 to 6, All instruments, Principal, USD","source":{"id":"22","value":"Quarterly External Debt Statistics\/SDDS (New)"},"sourceNote":"","sourceOrganization":"","topics":[]},{"id":"DT.AMT.DECT.CD.OS.24P.US","name":"Ext. Debt Service Pmt, Other Sectors, More than 2yrs, All instruments, Principal, USD","source":{"id":"22","value":"Quarterly External Debt Statistics\/SDDS (New)"},"sourceNote":"","sourceOrganization":"","topics":[]},{"id":"DT.AMT.DECT.CD.OS.1824.US","name":"Ext. Debt Service Pmt, Other Sectors, More than 18 to 24, All instruments, Principal, USD","source":{"id":"22","value":"Quarterly External Debt Statistics\/SDDS (New)"},"sourceNote":"","sourceOrganization":"","topics":[]},{"id":"DT.AMT.DECT.CD.OS.1218.US","name":"Ext. Debt Service Pmt, Other Sectors, More than 12 to 18, All instruments, Principal, USD","source":{"id":"22","value":"Quarterly External Debt Statistics\/SDDS (New)"},"sourceNote":"","sourceOrganization":"","topics":[]},{"id":"DT.AMT.DECT.CD.OS.0912.US","name":"Ext. Debt Service Pmt, Other Sectors, More than 9 to 12, All instruments, Principal, USD","source":{"id":"22","value":"Quarterly External Debt Statistics\/SDDS (New)"},"sourceNote":"","sourceOrganization":"","topics":[]},{"id":"DT.AMT.DECT.CD.OS.03.US","name":"Ext. Debt Service Pmt, Other Sectors, More than 0 to 3, All instruments, Principal, USD","source":{"id":"22","value":"Quarterly External Debt Statistics\/SDDS (New)"},"sourceNote":"","sourceOrganization":"","topics":[]},{"id":"DT.AMT.DECT.CD.MA.RM.US","name":"Gross Ext. Debt Pos., Central Bank, One year or less, All instruments, Principal, USD","source":{"id":"22","value":"Quarterly External Debt Statistics\/SDDS (New)"},"sourceNote":"","sourceOrganization":"","topics":[]},{"id":"DT.AMT.DECT.CD.MA.IQ.US","name":"Ext. Debt Service Pmt, Central Bank, Immediate, All instruments, Principal, USD","source":{"id":"22","value":"Quarterly External Debt Statistics\/SDDS (New)"},"sourceNote":"","sourceOrganization":"","topics":[]},{"id":"DT.AMT.DECT.CD.MA.69.US","name":"Ext. Debt Service Pmt, Central Bank, More than 6 to 9, All instruments, Principal, USD","source":{"id":"22","value":"Quarterly External Debt Statistics\/SDDS (New)"},"sourceNote":"","sourceOrganization":"","topics":[]},{"id":"DT.AMT.DECT.CD.MA.36.US","name":"Ext. Debt Service Pmt, Central Bank, More than 3 to 6, All instruments, Principal, USD","source":{"id":"22","value":"Quarterly External Debt Statistics\/SDDS (New)"},"sourceNote":"","sourceOrganization":"","topics":[]},{"id":"DT.AMT.DECT.CD.MA.24P.US","name":"Ext. Debt Service Pmt, Central Bank, More than 2yrs, All instruments, Principal, USD","source":{"id":"22","value":"Quarterly External Debt Statistics\/SDDS (New)"},"sourceNote":"","sourceOrganization":"","topics":[]},{"id":"DT.AMT.DECT.CD.MA.1824.US","name":"Ext. Debt Service Pmt, Central Bank, More than 18 to 24, All instruments, Principal, USD","source":{"id":"22","value":"Quarterly External Debt Statistics\/SDDS (New)"},"sourceNote":"","sourceOrganization":"","topics":[]},{"id":"DT.AMT.DECT.CD.MA.1218.US","name":"Ext. Debt Service Pmt, Central Bank, More than 12 to 18, All instruments, Principal, USD","source":{"id":"22","value":"Quarterly External Debt Statistics\/SDDS (New)"},"sourceNote":"","sourceOrganization":"","topics":[]},{"id":"DT.AMT.DECT.CD.MA.0912.US","name":"Ext. Debt Service Pmt, Central Bank, More than 9 to 12, All instruments, Principal, USD","source":{"id":"22","value":"Quarterly External Debt Statistics\/SDDS (New)"},"sourceNote":"","sourceOrganization":"","topics":[]},{"id":"DT.AMT.DECT.CD.MA.03.US","name":"Ext. Debt Service Pmt, Central Bank, More than 0 to 3, All instruments, Principal, USD","source":{"id":"22","value":"Quarterly External Debt Statistics\/SDDS (New)"},"sourceNote":"","sourceOrganization":"","topics":[]},{"id":"DT.AMT.DECT.CD.IQ.US","name":"Ext. Debt Service Pmt, All Sectors, Immediate, All instruments, Principal, USD","source":{"id":"22","value":"Quarterly External Debt Statistics\/SDDS (New)"},"sourceNote":"","sourceOrganization":"","topics":[]},{"id":"DT.AMT.DECT.CD.IQ.00.US","name":"Ext. Debt Service Pmt, Public and Publicly Guar. Private Sector Ext. Debt, Immediately, All instruments, Principal, USD","source":{"id":"23","value":"Quarterly External Debt Statistics\/GDDS (New)"},"sourceNote":"","sourceOrganization":"","topics":[]},{"id":"DT.AMT.DECT.CD.IL.RM.US","name":"Gross Ext. Debt Pos., DI: Intercom Lending, One year or less, All instruments, Principal, USD","source":{"id":"22","value":"Quarterly External Debt Statistics\/SDDS (New)"},"sourceNote":"","sourceOrganization":"","topics":[]},{"id":"DT.AMT.DECT.CD.IL.IQ.US","name":"Ext. Debt Service Pmt, DI: Intercom Lending, Immediate, All instruments, Principal, USD","source":{"id":"22","value":"Quarterly External Debt Statistics\/SDDS (New)"},"sourceNote":"","sourceOrganization":"","topics":[]},{"id":"DT.AMT.DECT.CD.IL.69.US","name":"Ext. Debt Service Pmt, DI: Intercom Lending, More than 6 to 9, All instruments, Principal, USD","source":{"id":"22","value":"Quarterly External Debt Statistics\/SDDS (New)"},"sourceNote":"","sourceOrganization":"","topics":[]},{"id":"DT.AMT.DECT.CD.IL.36.US","name":"Ext. Debt Service Pmt, DI: Intercom Lending, More than 3 to 6, All instruments, Principal, USD","source":{"id":"22","value":"Quarterly External Debt Statistics\/SDDS (New)"},"sourceNote":"","sourceOrganization":"","topics":[]},{"id":"DT.AMT.DECT.CD.IL.24P.US","name":"Ext. Debt Service Pmt, DI: Intercom Lending, More than 2yrs, All instruments, Principal, USD","source":{"id":"22","value":"Quarterly External Debt Statistics\/SDDS (New)"},"sourceNote":"","sourceOrganization":"","topics":[]},{"id":"DT.AMT.DECT.CD.IL.1824.US","name":"Ext. Debt Service Pmt, DI: Intercom Lending, More than 18 to 24, All instruments, Principal, USD","source":{"id":"22","value":"Quarterly External Debt Statistics\/SDDS (New)"},"sourceNote":"","sourceOrganization":"","topics":[]},{"id":"DT.AMT.DECT.CD.IL.1218.US","name":"Ext. Debt Service Pmt, DI: Intercom Lending, More than 12 to 18, All instruments, Principal, USD","source":{"id":"22","value":"Quarterly External Debt Statistics\/SDDS (New)"},"sourceNote":"","sourceOrganization":"","topics":[]},{"id":"DT.AMT.DECT.CD.IL.0912.US","name":"Ext. Debt Service Pmt, DI: Intercom Lending, More than 9 to 12, All instruments, Principal, USD","source":{"id":"22","value":"Quarterly External Debt Statistics\/SDDS (New)"},"sourceNote":"","sourceOrganization":"","topics":[]},{"id":"DT.AMT.DECT.CD.IL.03.US","name":"Ext. Debt Service Pmt, DI: Intercom Lending, More than 0 to 3, All instruments, Principal, USD","source":{"id":"22","value":"Quarterly External Debt Statistics\/SDDS (New)"},"sourceNote":"","sourceOrganization":"","topics":[]},{"id":"DT.AMT.DECT.CD.GG.RM.US","name":"Gross Ext. Debt Pos., General Government, One year or less, All instruments, Principal, USD","source":{"id":"22","value":"Quarterly External Debt Statistics\/SDDS (New)"},"sourceNote":"","sourceOrganization":"","topics":[]},{"id":"DT.AMT.DECT.CD.GG.IQ.US","name":"Ext. Debt Service Pmt, General Government, Immediate, All instruments, Principal, USD","source":{"id":"22","value":"Quarterly External Debt Statistics\/SDDS (New)"},"sourceNote":"","sourceOrganization":"","topics":[]},{"id":"DT.AMT.DECT.CD.GG.69.US","name":"Ext. Debt Service Pmt, General Government, More than 6 to 9, All instruments, Principal, USD","source":{"id":"22","value":"Quarterly External Debt Statistics\/SDDS (New)"},"sourceNote":"","sourceOrganization":"","topics":[]},{"id":"DT.AMT.DECT.CD.GG.36.US","name":"Ext. Debt Service Pmt, General Government, More than 3 to 6, All instruments, Principal, USD","source":{"id":"22","value":"Quarterly External Debt Statistics\/SDDS (New)"},"sourceNote":"","sourceOrganization":"","topics":[]},{"id":"DT.AMT.DECT.CD.GG.24P.US","name":"Ext. Debt Service Pmt, General Government, More than 2yrs, All instruments, Principal, USD","source":{"id":"22","value":"Quarterly External Debt Statistics\/SDDS (New)"},"sourceNote":"","sourceOrganization":"","topics":[]},{"id":"DT.AMT.DECT.CD.GG.1824.US","name":"Ext. Debt Service Pmt, General Government, More than 18 to 24, All instruments, Principal, USD","source":{"id":"22","value":"Quarterly External Debt Statistics\/SDDS (New)"},"sourceNote":"","sourceOrganization":"","topics":[]},{"id":"DT.AMT.DECT.CD.GG.1218.US","name":"Ext. Debt Service Pmt, General Government, More than 12 to 18, All instruments, Principal, USD","source":{"id":"22","value":"Quarterly External Debt Statistics\/SDDS (New)"},"sourceNote":"","sourceOrganization":"","topics":[]},{"id":"DT.AMT.DECT.CD.GG.0912.US","name":"Ext. Debt Service Pmt, General Government, More than 9 to 12, All instruments, Principal, USD","source":{"id":"22","value":"Quarterly External Debt Statistics\/SDDS (New)"},"sourceNote":"","sourceOrganization":"","topics":[]},{"id":"DT.AMT.DECT.CD.GG.03.US","name":"Ext. Debt Service Pmt, General Government, More than 0 to 3, All instruments, Principal, USD","source":{"id":"22","value":"Quarterly External Debt Statistics\/SDDS (New)"},"sourceNote":"","sourceOrganization":"","topics":[]},{"id":"DT.AMT.DECT.CD.CB.RM.US","name":"Gross Ext. Debt Pos., Deposit-Taking Corp., exc. CB, One year or less, All instruments, Principal, USD","source":{"id":"22","value":"Quarterly External Debt Statistics\/SDDS (New)"},"sourceNote":"","sourceOrganization":"","topics":[]},{"id":"DT.AMT.DECT.CD.CB.IQ.US","name":"Ext. Debt Service Pmt, Deposit-Taking Corp., exc. CB, Immediate, All instruments, Principal, USD","source":{"id":"22","value":"Quarterly External Debt Statistics\/SDDS (New)"},"sourceNote":"","sourceOrganization":"","topics":[]},{"id":"DT.AMT.DECT.CD.CB.69.US","name":"Ext. Debt Service Pmt, Deposit-Taking Corp., exc. CB, More than 6 to 9, All instruments, Principal, USD","source":{"id":"22","value":"Quarterly External Debt Statistics\/SDDS (New)"},"sourceNote":"","sourceOrganization":"","topics":[]},{"id":"DT.AMT.DECT.CD.CB.36.US","name":"Ext. Debt Service Pmt, Deposit-Taking Corp., exc. CB, More than 3 to 6, All instruments, Principal, USD","source":{"id":"22","value":"Quarterly External Debt Statistics\/SDDS (New)"},"sourceNote":"","sourceOrganization":"","topics":[]},{"id":"DT.AMT.DECT.CD.CB.24P.US","name":"Ext. Debt Service Pmt, Deposit-Taking Corp., exc. CB, More than 2yrs, All instruments, Principal, USD","source":{"id":"22","value":"Quarterly External Debt Statistics\/SDDS (New)"},"sourceNote":"","sourceOrganization":"","topics":[{}]}]]