[{"page":83,"pages":324,"per_page":"50","total":16174},[{"id":"DT.INT.DLCD.CD.OT.AR.IQ.US","name":"Gross Ext. Debt Pmt, Other Sectors, Immediate, Currency and deposits, Interest, USD","source":{"id":"22","value":"Quarterly External Debt Statistics\/SDDS (New)"},"sourceNote":"","sourceOrganization":"","topics":[]},{"id":"DT.INT.DLCD.CD.OT.AR.69.US","name":"Gross Ext. Debt Pmt, Other Sectors, More than 6 to 9, Currency and deposits, Interest, USD","source":{"id":"22","value":"Quarterly External Debt Statistics\/SDDS (New)"},"sourceNote":"","sourceOrganization":"","topics":[]},{"id":"DT.INT.DLCD.CD.OT.AR.36.US","name":"Gross Ext. Debt Pmt, Other Sectors, More than 3 to 6, Currency and deposits, Interest, USD","source":{"id":"22","value":"Quarterly External Debt Statistics\/SDDS (New)"},"sourceNote":"","sourceOrganization":"","topics":[]},{"id":"DT.INT.DLCD.CD.OT.AR.24P.US","name":"Gross Ext. Debt Pmt, Other Sectors, More than 2yrs, Currency and deposits, Interest, USD","source":{"id":"22","value":"Quarterly External Debt Statistics\/SDDS (New)"},"sourceNote":"","sourceOrganization":"","topics":[]},{"id":"DT.INT.DLCD.CD.OT.AR.1824.US","name":"Gross Ext. Debt Pmt, Other Sectors, More than 18 to 24, Currency and deposits, Interest, USD","source":{"id":"22","value":"Quarterly External Debt Statistics\/SDDS (New)"},"sourceNote":"","sourceOrganization":"","topics":[]},{"id":"DT.INT.DLCD.CD.OT.AR.1218.US","name":"Gross Ext. Debt Pmt, Other Sectors, More than 12 to 18, Currency and deposits, Interest, USD","source":{"id":"22","value":"Quarterly External Debt Statistics\/SDDS (New)"},"sourceNote":"","sourceOrganization":"","topics":[]},{"id":"DT.INT.DLCD.CD.OT.AR.0912.US","name":"Gross Ext. Debt Pmt, Other Sectors, More than 9 to 12, Currency and deposits, Interest, USD","source":{"id":"22","value":"Quarterly External Debt Statistics\/SDDS (New)"},"sourceNote":"","sourceOrganization":"","topics":[]},{"id":"DT.INT.DLCD.CD.OT.AR.03.US","name":"Gross Ext. Debt Pmt, Other Sectors, More than 0 to 3, Currency and deposits, Interest, USD","source":{"id":"22","value":"Quarterly External Debt Statistics\/SDDS (New)"},"sourceNote":"","sourceOrganization":"","topics":[]},{"id":"DT.INT.DLCD.CD.MA.AR.IQ.US","name":"Gross Ext. Debt Pmt, Central Bank, Immediate, Currency and deposits, Interest, USD","source":{"id":"22","value":"Quarterly External Debt Statistics\/SDDS (New)"},"sourceNote":"","sourceOrganization":"","topics":[]},{"id":"DT.INT.DLCD.CD.MA.AR.69.US","name":"Gross Ext. Debt Pmt, Central Bank, More than 6 to 9, Currency and deposits, Interest, USD","source":{"id":"22","value":"Quarterly External Debt Statistics\/SDDS (New)"},"sourceNote":"","sourceOrganization":"","topics":[]},{"id":"DT.INT.DLCD.CD.MA.AR.36.US","name":"Gross Ext. Debt Pmt, Central Bank, More than 3 to 6, Currency and deposits, Interest, USD","source":{"id":"22","value":"Quarterly External Debt Statistics\/SDDS (New)"},"sourceNote":"","sourceOrganization":"","topics":[]},{"id":"DT.INT.DLCD.CD.MA.AR.24P.US","name":"Gross Ext. Debt Pmt, Central Bank, More than 2yrs, Currency and deposits, Interest, USD","source":{"id":"22","value":"Quarterly External Debt Statistics\/SDDS (New)"},"sourceNote":"","sourceOrganization":"","topics":[]},{"id":"DT.INT.DLCD.CD.MA.AR.1824.US","name":"Gross Ext. Debt Pmt, Central Bank, More than 18 to 24, Currency and deposits, Interest, USD","source":{"id":"22","value":"Quarterly External Debt Statistics\/SDDS (New)"},"sourceNote":"","sourceOrganization":"","topics":[]},{"id":"DT.INT.DLCD.CD.MA.AR.1218.US","name":"Gross Ext. Debt Pmt, Central Bank, More than 12 to 18, Currency and deposits, Interest, USD","source":{"id":"22","value":"Quarterly External Debt Statistics\/SDDS (New)"},"sourceNote":"","sourceOrganization":"","topics":[]},{"id":"DT.INT.DLCD.CD.MA.AR.0912.US","name":"Gross Ext. Debt Pmt, Central Bank, More than 9 to 12, Currency and deposits, Interest, USD","source":{"id":"22","value":"Quarterly External Debt Statistics\/SDDS (New)"},"sourceNote":"","sourceOrganization":"","topics":[]},{"id":"DT.INT.DLCD.CD.MA.AR.03.US","name":"Gross Ext. Debt Pmt, Central Bank, More than 0 to 3, Currency and deposits, Interest, USD","source":{"id":"22","value":"Quarterly External Debt Statistics\/SDDS (New)"},"sourceNote":"","sourceOrganization":"","topics":[]},{"id":"DT.INT.DLCD.CD.GG.AR.IQ.US","name":"Gross Ext. Debt Pmt, General Government, Immediate, Currency and deposits, Interest, USD","source":{"id":"22","value":"Quarterly External Debt Statistics\/SDDS (New)"},"sourceNote":"","sourceOrganization":"","topics":[]},{"id":"DT.INT.DLCD.CD.GG.AR.69.US","name":"Gross Ext. Debt Pmt, General Government, More than 6 to 9, Currency and deposits, Interest, USD","source":{"id":"22","value":"Quarterly External Debt Statistics\/SDDS (New)"},"sourceNote":"","sourceOrganization":"","topics":[]},{"id":"DT.INT.DLCD.CD.GG.AR.36.US","name":"Gross Ext. Debt Pmt, General Government, More than 3 to 6, Currency and deposits, Interest, USD","source":{"id":"22","value":"Quarterly External Debt Statistics\/SDDS (New)"},"sourceNote":"","sourceOrganization":"","topics":[]},{"id":"DT.INT.DLCD.CD.GG.AR.24P.US","name":"Gross Ext. Debt Pmt, General Government, More than 2yrs, Currency and deposits, Interest, USD","source":{"id":"22","value":"Quarterly External Debt Statistics\/SDDS (New)"},"sourceNote":"","sourceOrganization":"","topics":[]},{"id":"DT.INT.DLCD.CD.GG.AR.1824.US","name":"Gross Ext. Debt Pmt, General Government, More than 18 to 24, Currency and deposits, Interest, USD","source":{"id":"22","value":"Quarterly External Debt Statistics\/SDDS (New)"},"sourceNote":"","sourceOrganization":"","topics":[]},{"id":"DT.INT.DLCD.CD.GG.AR.1218.US","name":"Gross Ext. Debt Pmt, General Government, More than 12 to 18, Currency and deposits, Interest, USD","source":{"id":"22","value":"Quarterly External Debt Statistics\/SDDS (New)"},"sourceNote":"","sourceOrganization":"","topics":[]},{"id":"DT.INT.DLCD.CD.GG.AR.0912.US","name":"Gross Ext. Debt Pmt, General Government, More than 9 to 12, Currency and deposits, Interest, USD","source":{"id":"22","value":"Quarterly External Debt Statistics\/SDDS (New)"},"sourceNote":"","sourceOrganization":"","topics":[]},{"id":"DT.INT.DLCD.CD.GG.AR.03.US","name":"Gross Ext. Debt Pmt, General Government, More than 0 to 3, Currency and deposits, Interest, USD","source":{"id":"22","value":"Quarterly External Debt Statistics\/SDDS (New)"},"sourceNote":"","sourceOrganization":"","topics":[]},{"id":"DT.INT.DLCD.CD.CB.AR.IQ.US","name":"Gross Ext. Debt Pmt, Deposit-Taking Corp., exc. CB, Immediate, Currency and deposits, Interest, USD","source":{"id":"22","value":"Quarterly External Debt Statistics\/SDDS (New)"},"sourceNote":"","sourceOrganization":"","topics":[]},{"id":"DT.INT.DLCD.CD.CB.AR.69.US","name":"Gross Ext. Debt Pmt, Deposit-Taking Corp., exc. CB, More than 6 to 9, Currency and deposits, Interest, USD","source":{"id":"22","value":"Quarterly External Debt Statistics\/SDDS (New)"},"sourceNote":"","sourceOrganization":"","topics":[]},{"id":"DT.INT.DLCD.CD.CB.AR.36.US","name":"Gross Ext. Debt Pmt, Deposit-Taking Corp., exc. CB, More than 3 to 6, Currency and deposits, Interest, USD","source":{"id":"22","value":"Quarterly External Debt Statistics\/SDDS (New)"},"sourceNote":"","sourceOrganization":"","topics":[]},{"id":"DT.INT.DLCD.CD.CB.AR.24P.US","name":"Gross Ext. Debt Pmt, Deposit-Taking Corp., exc. CB, More than 2yrs, Currency and deposits, Interest, USD","source":{"id":"22","value":"Quarterly External Debt Statistics\/SDDS (New)"},"sourceNote":"","sourceOrganization":"","topics":[]},{"id":"DT.INT.DLCD.CD.CB.AR.1824.US","name":"Gross Ext. Debt Pmt, Deposit-Taking Corp., exc. CB, More than 18 to 24, Currency and deposits, Interest, USD","source":{"id":"22","value":"Quarterly External Debt Statistics\/SDDS (New)"},"sourceNote":"","sourceOrganization":"","topics":[]},{"id":"DT.INT.DLCD.CD.CB.AR.1218.US","name":"Gross Ext. Debt Pmt, Deposit-Taking Corp., exc. CB, More than 12 to 18, Currency and deposits, Interest, USD","source":{"id":"22","value":"Quarterly External Debt Statistics\/SDDS (New)"},"sourceNote":"","sourceOrganization":"","topics":[]},{"id":"DT.INT.DLCD.CD.CB.AR.0912.US","name":"Gross Ext. Debt Pmt, Deposit-Taking Corp., exc. CB, More than 9 to 12, Currency and deposits, Interest, USD","source":{"id":"22","value":"Quarterly External Debt Statistics\/SDDS (New)"},"sourceNote":"","sourceOrganization":"","topics":[]},{"id":"DT.INT.DLCD.CD.CB.AR.03.US","name":"Gross Ext. Debt Pmt, Deposit-Taking Corp., exc. CB, More than 0 to 3, Currency and deposits, Interest, USD","source":{"id":"22","value":"Quarterly External Debt Statistics\/SDDS (New)"},"sourceNote":"","sourceOrganization":"","topics":[]},{"id":"DT.INT.DLBN.CD.OT.AR.IQ.US","name":"Gross Ext. Debt Pmt, Other Sectors, Immediate, Debt securities, Interest, USD","source":{"id":"22","value":"Quarterly External Debt Statistics\/SDDS (New)"},"sourceNote":"","sourceOrganization":"","topics":[]},{"id":"DT.INT.DLBN.CD.OT.AR.69.US","name":"Gross Ext. Debt Pmt, Other Sectors, More than 6 to 9, Debt securities, Interest, USD","source":{"id":"22","value":"Quarterly External Debt Statistics\/SDDS (New)"},"sourceNote":"","sourceOrganization":"","topics":[]},{"id":"DT.INT.DLBN.CD.OT.AR.36.US","name":"Gross Ext. Debt Pmt, Other Sectors, More than 3 to 6, Debt securities, Interest, USD","source":{"id":"22","value":"Quarterly External Debt Statistics\/SDDS (New)"},"sourceNote":"","sourceOrganization":"","topics":[]},{"id":"DT.INT.DLBN.CD.OT.AR.24P.US","name":"Gross Ext. Debt Pmt, Other Sectors, More than 2yrs, Debt securities, Interest, USD","source":{"id":"22","value":"Quarterly External Debt Statistics\/SDDS (New)"},"sourceNote":"","sourceOrganization":"","topics":[]},{"id":"DT.INT.DLBN.CD.OT.AR.1824.US","name":"Gross Ext. Debt Pmt, Other Sectors, More than 18 to 24, Debt securities, Interest, USD","source":{"id":"22","value":"Quarterly External Debt Statistics\/SDDS (New)"},"sourceNote":"","sourceOrganization":"","topics":[]},{"id":"DT.INT.DLBN.CD.OT.AR.1218.US","name":"Gross Ext. Debt Pmt, Other Sectors, More than 12 to 18, Debt securities, Interest, USD","source":{"id":"22","value":"Quarterly External Debt Statistics\/SDDS (New)"},"sourceNote":"","sourceOrganization":"","topics":[]},{"id":"DT.INT.DLBN.CD.OT.AR.0912.US","name":"Gross Ext. Debt Pmt, Other Sectors, More than 9 to 12, Debt securities, Interest, USD","source":{"id":"22","value":"Quarterly External Debt Statistics\/SDDS (New)"},"sourceNote":"","sourceOrganization":"","topics":[]},{"id":"DT.INT.DLBN.CD.OT.AR.03.US","name":"Gross Ext. Debt Pmt, Other Sectors, More than 0 to 3, Debt securities, Interest, USD","source":{"id":"22","value":"Quarterly External Debt Statistics\/SDDS (New)"},"sourceNote":"","sourceOrganization":"","topics":[]},{"id":"DT.INT.DLBN.CD.MA.AR.IQ.US","name":"Gross Ext. Debt Pmt, Central Bank, Immediate, Debt securities, Interest, USD","source":{"id":"22","value":"Quarterly External Debt Statistics\/SDDS (New)"},"sourceNote":"","sourceOrganization":"","topics":[]},{"id":"DT.INT.DLBN.CD.MA.AR.69.US","name":"Gross Ext. Debt Pmt, Central Bank, More than 6 to 9, Debt securities, Interest, USD","source":{"id":"22","value":"Quarterly External Debt Statistics\/SDDS (New)"},"sourceNote":"","sourceOrganization":"","topics":[]},{"id":"DT.INT.DLBN.CD.MA.AR.36.US","name":"Gross Ext. Debt Pmt, Central Bank, More than 3 to 6, Debt securities, Interest, USD","source":{"id":"22","value":"Quarterly External Debt Statistics\/SDDS (New)"},"sourceNote":"","sourceOrganization":"","topics":[]},{"id":"DT.INT.DLBN.CD.MA.AR.24P.US","name":"Gross Ext. Debt Pmt, Central Bank, More than 2yrs, Debt securities, Interest, USD","source":{"id":"22","value":"Quarterly External Debt Statistics\/SDDS (New)"},"sourceNote":"","sourceOrganization":"","topics":[]},{"id":"DT.INT.DLBN.CD.MA.AR.1824.US","name":"Gross Ext. Debt Pmt, Central Bank, More than 18 to 24, Debt securities, Interest, USD","source":{"id":"22","value":"Quarterly External Debt Statistics\/SDDS (New)"},"sourceNote":"","sourceOrganization":"","topics":[]},{"id":"DT.INT.DLBN.CD.MA.AR.1218.US","name":"Gross Ext. Debt Pmt, Central Bank, More than 12 to 18, Debt securities, Interest, USD","source":{"id":"22","value":"Quarterly External Debt Statistics\/SDDS (New)"},"sourceNote":"","sourceOrganization":"","topics":[]},{"id":"DT.INT.DLBN.CD.MA.AR.0912.US","name":"Gross Ext. Debt Pmt, Central Bank, More than 9 to 12, Debt securities, Interest, USD","source":{"id":"22","value":"Quarterly External Debt Statistics\/SDDS (New)"},"sourceNote":"","sourceOrganization":"","topics":[]},{"id":"DT.INT.DLBN.CD.MA.AR.03.US","name":"Gross Ext. Debt Pmt, Central Bank, More than 0 to 3, Debt securities, Interest, USD","source":{"id":"22","value":"Quarterly External Debt Statistics\/SDDS (New)"},"sourceNote":"","sourceOrganization":"","topics":[]},{"id":"DT.INT.DLBN.CD.GG.AR.IQ.US","name":"Gross Ext. Debt Pmt, General Government, Immediate, Debt securities, Interest, USD","source":{"id":"22","value":"Quarterly External Debt Statistics\/SDDS (New)"},"sourceNote":"","sourceOrganization":"","topics":[]},{"id":"DT.INT.DLBN.CD.GG.AR.69.US","name":"Gross Ext. Debt Pmt, General Government, More than 6 to 9, Debt securities, Interest, USD","source":{"id":"22","value":"Quarterly External Debt Statistics\/SDDS (New)"},"sourceNote":"","sourceOrganization":"","topics":[{}]}]]