[{"page":280,"pages":324,"per_page":"50","total":16174},[{"id":"SP.POP.AG25.FE.UN","name":"Population, age 25, female","source":{"id":"12","value":"Education Statistics"},"sourceNote":"Age population, female refers to female population at the specified age level, as estimated by the UNESCO Institute for Statistics.","sourceOrganization":"UNESCO Institute for Statistics.","topics":[{"id":"4","value":"Education "}]},{"id":"SP.POP.AG25.FE.IN","name":"Age population, age 25, female, interpolated","source":{"id":"16","value":"Health Nutrition and Population Statistics"},"sourceNote":"Age population, female refers to female population at the specified age level, as estimated by World Bank staff.","sourceOrganization":"World Bank staff estimates from various sources including census reports, the United Nations Population Division's World Population Prospects, national statistical offices, household surveys conducted by national agencies, and Macro International.","topics":[]},{"id":"SP.POP.AG24.TO.UN","name":"Population, age 24, total","source":{"id":"12","value":"Education Statistics"},"sourceNote":"Age population, total refers to total population at the specified age level, as estimated by the UNESCO Institute for Statistics.","sourceOrganization":"UNESCO Institute for Statistics.","topics":[{"id":"4","value":"Education "}]},{"id":"SP.POP.AG24.MA.UN","name":"Population, age 24, male","source":{"id":"12","value":"Education Statistics"},"sourceNote":"Population, age 24, male refers to the male population at the specified age.","sourceOrganization":"UNESCO Institute for Statistics","topics":[{"id":"4","value":"Education "}]},{"id":"SP.POP.AG24.MA.IN","name":"Age population, age 24, male, interpolated","source":{"id":"16","value":"Health Nutrition and Population Statistics"},"sourceNote":"Age population, male refers to male population at the specified age level, as estimated by World Bank staff.","sourceOrganization":"World Bank staff estimates from various sources including census reports, the United Nations Population Division's World Population Prospects, national statistical offices, household surveys conducted by national agencies, and Macro International.","topics":[]},{"id":"SP.POP.AG24.FE.UN","name":"Population, age 24, female","source":{"id":"12","value":"Education Statistics"},"sourceNote":"Age population, female refers to female population at the specified age level, as estimated by the UNESCO Institute for Statistics.","sourceOrganization":"UNESCO Institute for Statistics.","topics":[{"id":"4","value":"Education "}]},{"id":"SP.POP.AG24.FE.IN","name":"Age population, age 24, female, interpolated","source":{"id":"16","value":"Health Nutrition and Population Statistics"},"sourceNote":"Age population, female refers to female population at the specified age level, as estimated by World Bank staff.","sourceOrganization":"World Bank staff estimates from various sources including census reports, the United Nations Population Division's World Population Prospects, national statistical offices, household surveys conducted by national agencies, and Macro International.","topics":[]},{"id":"SP.POP.AG23.TO.UN","name":"Population, age 23, total","source":{"id":"12","value":"Education Statistics"},"sourceNote":"Age population, total refers to total population at the specified age level, as estimated by the UNESCO Institute for Statistics.","sourceOrganization":"UNESCO Institute for Statistics.","topics":[{"id":"4","value":"Education "}]},{"id":"SP.POP.AG23.MA.UN","name":"Population, age 23, male","source":{"id":"12","value":"Education Statistics"},"sourceNote":"Population, age 23, male refers to the male population at the specified age.","sourceOrganization":"UNESCO Institute for Statistics","topics":[{"id":"4","value":"Education "}]},{"id":"SP.POP.AG23.MA.IN","name":"Age population, age 23, male, interpolated","source":{"id":"16","value":"Health Nutrition and Population Statistics"},"sourceNote":"Age population, male refers to male population at the specified age level, as estimated by World Bank staff.","sourceOrganization":"World Bank staff estimates from various sources including census reports, the United Nations Population Division's World Population Prospects, national statistical offices, household surveys conducted by national agencies, and Macro International.","topics":[]},{"id":"SP.POP.AG23.FE.UN","name":"Population, age 23, female","source":{"id":"12","value":"Education Statistics"},"sourceNote":"Age population, female refers to female population at the specified age level, as estimated by the UNESCO Institute for Statistics.","sourceOrganization":"UNESCO Institute for Statistics.","topics":[{"id":"4","value":"Education "}]},{"id":"SP.POP.AG23.FE.IN","name":"Age population, age 23, female, interpolated","source":{"id":"16","value":"Health Nutrition and Population Statistics"},"sourceNote":"Age population, female refers to female population at the specified age level, as estimated by World Bank staff.","sourceOrganization":"World Bank staff estimates from various sources including census reports, the United Nations Population Division's World Population Prospects, national statistical offices, household surveys conducted by national agencies, and Macro International.","topics":[]},{"id":"SP.POP.AG22.TO.UN","name":"Population, age 22, total","source":{"id":"12","value":"Education Statistics"},"sourceNote":"Age population, total refers to total population at the specified age level, as estimated by the UNESCO Institute for Statistics.","sourceOrganization":"UNESCO Institute for Statistics.","topics":[{"id":"4","value":"Education "}]},{"id":"SP.POP.AG22.MA.UN","name":"Population, age 22, male","source":{"id":"12","value":"Education Statistics"},"sourceNote":"Population, age 22, male refers to the male population at the specified age.","sourceOrganization":"UNESCO Institute for Statistics","topics":[{"id":"4","value":"Education "}]},{"id":"SP.POP.AG22.MA.IN","name":"Age population, age 22, male, interpolated","source":{"id":"16","value":"Health Nutrition and Population Statistics"},"sourceNote":"Age population, male refers to male population at the specified age level, as estimated by World Bank staff.","sourceOrganization":"World Bank staff estimates from various sources including census reports, the United Nations Population Division's World Population Prospects, national statistical offices, household surveys conducted by national agencies, and Macro International.","topics":[]},{"id":"SP.POP.AG22.FE.UN","name":"Population, age 22, female","source":{"id":"12","value":"Education Statistics"},"sourceNote":"Age population, female refers to female population at the specified age level, as estimated by the UNESCO Institute for Statistics.","sourceOrganization":"UNESCO Institute for Statistics.","topics":[{"id":"4","value":"Education "}]},{"id":"SP.POP.AG22.FE.IN","name":"Age population, age 22, female, interpolated","source":{"id":"16","value":"Health Nutrition and Population Statistics"},"sourceNote":"Age population, female refers to female population at the specified age level, as estimated by World Bank staff.","sourceOrganization":"World Bank staff estimates from various sources including census reports, the United Nations Population Division's World Population Prospects, national statistical offices, household surveys conducted by national agencies, and Macro International.","topics":[]},{"id":"SP.POP.AG21.TO.UN","name":"Population, age 21, total","source":{"id":"12","value":"Education Statistics"},"sourceNote":"Age population, total refers to total population at the specified age level, as estimated by the UNESCO Institute for Statistics.","sourceOrganization":"UNESCO Institute for Statistics.","topics":[{"id":"4","value":"Education "}]},{"id":"SP.POP.AG21.MA.UN","name":"Population, age 21, male","source":{"id":"12","value":"Education Statistics"},"sourceNote":"Population, age 21, male refers to the male population at the specified age.","sourceOrganization":"UNESCO Institute for Statistics","topics":[{"id":"4","value":"Education "}]},{"id":"SP.POP.AG21.MA.IN","name":"Age population, age 21, male, interpolated","source":{"id":"16","value":"Health Nutrition and Population Statistics"},"sourceNote":"Age population, male refers to male population at the specified age level, as estimated by World Bank staff.","sourceOrganization":"World Bank staff estimates from various sources including census reports, the United Nations Population Division's World Population Prospects, national statistical offices, household surveys conducted by national agencies, and Macro International.","topics":[]},{"id":"SP.POP.AG21.FE.UN","name":"Population, age 21, female","source":{"id":"12","value":"Education Statistics"},"sourceNote":"Age population, female refers to female population at the specified age level, as estimated by the UNESCO Institute for Statistics.","sourceOrganization":"UNESCO Institute for Statistics.","topics":[{"id":"4","value":"Education "}]},{"id":"SP.POP.AG21.FE.IN","name":"Age population, age 21, female, interpolated","source":{"id":"16","value":"Health Nutrition and Population Statistics"},"sourceNote":"Age population, female refers to female population at the specified age level, as estimated by World Bank staff.","sourceOrganization":"World Bank staff estimates from various sources including census reports, the United Nations Population Division's World Population Prospects, national statistical offices, household surveys conducted by national agencies, and Macro International.","topics":[]},{"id":"SP.POP.AG20.TO.UN","name":"Population, age 20, total","source":{"id":"12","value":"Education Statistics"},"sourceNote":"Age population, total refers to total population at the specified age level, as estimated by the UNESCO Institute for Statistics.","sourceOrganization":"UNESCO Institute for Statistics.","topics":[{"id":"4","value":"Education "}]},{"id":"SP.POP.AG20.MA.UN","name":"Population, age 20, male","source":{"id":"12","value":"Education Statistics"},"sourceNote":"Population, age 20, male refers to the male population at the specified age.","sourceOrganization":"UNESCO Institute for Statistics","topics":[{"id":"4","value":"Education "}]},{"id":"SP.POP.AG20.MA.IN","name":"Age population, age 20, male, interpolated","source":{"id":"16","value":"Health Nutrition and Population Statistics"},"sourceNote":"Age population, male refers to male population at the specified age level, as estimated by World Bank staff.","sourceOrganization":"World Bank staff estimates from various sources including census reports, the United Nations Population Division's World Population Prospects, national statistical offices, household surveys conducted by national agencies, and Macro International.","topics":[]},{"id":"SP.POP.AG20.FE.UN","name":"Population, age 20, female","source":{"id":"12","value":"Education Statistics"},"sourceNote":"Age population, female refers to female population at the specified age level, as estimated by the UNESCO Institute for Statistics.","sourceOrganization":"UNESCO Institute for Statistics.","topics":[{"id":"4","value":"Education "}]},{"id":"SP.POP.AG20.FE.IN","name":"Age population, age 20, female, interpolated","source":{"id":"16","value":"Health Nutrition and Population Statistics"},"sourceNote":"Age population, female refers to female population at the specified age level, as estimated by World Bank staff.","sourceOrganization":"World Bank staff estimates from various sources including census reports, the United Nations Population Division's World Population Prospects, national statistical offices, household surveys conducted by national agencies, and Macro International.","topics":[]},{"id":"SP.POP.AG19.TO.UN","name":"Population, age 19, total","source":{"id":"12","value":"Education Statistics"},"sourceNote":"Age population, total refers to total population at the specified age level, as estimated by the UNESCO Institute for Statistics.","sourceOrganization":"UNESCO Institute for Statistics.","topics":[{"id":"4","value":"Education "}]},{"id":"SP.POP.AG19.MA.UN","name":"Population, age 19, male","source":{"id":"12","value":"Education Statistics"},"sourceNote":"Population, age 19, male refers to the male population at the specified age.","sourceOrganization":"UNESCO Institute for Statistics","topics":[{"id":"4","value":"Education "}]},{"id":"SP.POP.AG19.MA.IN","name":"Age population, age 19, male, interpolated","source":{"id":"16","value":"Health Nutrition and Population Statistics"},"sourceNote":"Age population, male refers to male population at the specified age level, as estimated by World Bank staff.","sourceOrganization":"World Bank staff estimates from various sources including census reports, the United Nations Population Division's World Population Prospects, national statistical offices, household surveys conducted by national agencies, and Macro International.","topics":[]},{"id":"SP.POP.AG19.FE.UN","name":"Population, age 19, female","source":{"id":"12","value":"Education Statistics"},"sourceNote":"Age population, female refers to female population at the specified age level, as estimated by the UNESCO Institute for Statistics.","sourceOrganization":"UNESCO Institute for Statistics.","topics":[{"id":"4","value":"Education "}]},{"id":"SP.POP.AG19.FE.IN","name":"Age population, age 19, female, interpolated","source":{"id":"16","value":"Health Nutrition and Population Statistics"},"sourceNote":"Age population, female refers to female population at the specified age level, as estimated by World Bank staff.","sourceOrganization":"World Bank staff estimates from various sources including census reports, the United Nations Population Division's World Population Prospects, national statistical offices, household surveys conducted by national agencies, and Macro International.","topics":[]},{"id":"SP.POP.AG18.TO.UN","name":"Population, age 18, total","source":{"id":"12","value":"Education Statistics"},"sourceNote":"Age population, total refers to total population at the specified age level, as estimated by the UNESCO Institute for Statistics.","sourceOrganization":"UNESCO Institute for Statistics.","topics":[{"id":"4","value":"Education "}]},{"id":"SP.POP.AG18.MA.UN","name":"Population, age 18, male","source":{"id":"12","value":"Education Statistics"},"sourceNote":"Population, age 18, male refers to the male population at the specified age.","sourceOrganization":"UNESCO Institute for Statistics","topics":[{"id":"4","value":"Education "}]},{"id":"SP.POP.AG18.MA.IN","name":"Age population, age 18, male, interpolated","source":{"id":"16","value":"Health Nutrition and Population Statistics"},"sourceNote":"Age population, male refers to male population at the specified age level, as estimated by World Bank staff.","sourceOrganization":"World Bank staff estimates from various sources including census reports, the United Nations Population Division's World Population Prospects, national statistical offices, household surveys conducted by national agencies, and Macro International.","topics":[]},{"id":"SP.POP.AG18.FE.UN","name":"Population, age 18, female","source":{"id":"12","value":"Education Statistics"},"sourceNote":"Age population, female refers to female population at the specified age level, as estimated by the UNESCO Institute for Statistics.","sourceOrganization":"UNESCO Institute for Statistics.","topics":[{"id":"4","value":"Education "}]},{"id":"SP.POP.AG18.FE.IN","name":"Age population, age 18, female, interpolated","source":{"id":"16","value":"Health Nutrition and Population Statistics"},"sourceNote":"Age population, female refers to female population at the specified age level, as estimated by World Bank staff.","sourceOrganization":"World Bank staff estimates from various sources including census reports, the United Nations Population Division's World Population Prospects, national statistical offices, household surveys conducted by national agencies, and Macro International.","topics":[]},{"id":"SP.POP.AG17.TO.UN","name":"Population, age 17, total","source":{"id":"12","value":"Education Statistics"},"sourceNote":"Age population, total refers to total population at the specified age level, as estimated by the UNESCO Institute for Statistics.","sourceOrganization":"UNESCO Institute for Statistics.","topics":[{"id":"4","value":"Education "}]},{"id":"SP.POP.AG17.MA.UN","name":"Population, age 17, male","source":{"id":"12","value":"Education Statistics"},"sourceNote":"Population, age 17, male refers to the male population at the specified age.","sourceOrganization":"UNESCO Institute for Statistics","topics":[{"id":"4","value":"Education "}]},{"id":"SP.POP.AG17.MA.IN","name":"Age population, age 17, male, interpolated","source":{"id":"16","value":"Health Nutrition and Population Statistics"},"sourceNote":"Age population, male refers to male population at the specified age level, as estimated by World Bank staff.","sourceOrganization":"World Bank staff estimates from various sources including census reports, the United Nations Population Division's World Population Prospects, national statistical offices, household surveys conducted by national agencies, and Macro International.","topics":[]},{"id":"SP.POP.AG17.FE.UN","name":"Population, age 17, female","source":{"id":"12","value":"Education Statistics"},"sourceNote":"Age population, female refers to female population at the specified age level, as estimated by the UNESCO Institute for Statistics.","sourceOrganization":"UNESCO Institute for Statistics.","topics":[{"id":"4","value":"Education "}]},{"id":"SP.POP.AG17.FE.IN","name":"Age population, age 17, female, interpolated","source":{"id":"16","value":"Health Nutrition and Population Statistics"},"sourceNote":"Age population, female refers to female population at the specified age level, as estimated by World Bank staff.","sourceOrganization":"World Bank staff estimates from various sources including census reports, the United Nations Population Division's World Population Prospects, national statistical offices, household surveys conducted by national agencies, and Macro International.","topics":[]},{"id":"SP.POP.AG16.TO.UN","name":"Population, age 16, total","source":{"id":"12","value":"Education Statistics"},"sourceNote":"Age population, total refers to total population at the specified age level, as estimated by the UNESCO Institute for Statistics.","sourceOrganization":"UNESCO Institute for Statistics.","topics":[{"id":"4","value":"Education "}]},{"id":"SP.POP.AG16.MA.UN","name":"Population, age 16, male","source":{"id":"12","value":"Education Statistics"},"sourceNote":"Population, age 16, male refers to the male population at the specified age.","sourceOrganization":"UNESCO Institute for Statistics","topics":[{"id":"4","value":"Education "}]},{"id":"SP.POP.AG16.MA.IN","name":"Age population, age 16, male, interpolated","source":{"id":"16","value":"Health Nutrition and Population Statistics"},"sourceNote":"Age population, male refers to male population at the specified age level, as estimated by World Bank staff.","sourceOrganization":"World Bank staff estimates from various sources including census reports, the United Nations Population Division's World Population Prospects, national statistical offices, household surveys conducted by national agencies, and Macro International.","topics":[]},{"id":"SP.POP.AG16.FE.UN","name":"Population, age 16, female","source":{"id":"12","value":"Education Statistics"},"sourceNote":"Age population, female refers to female population at the specified age level, as estimated by the UNESCO Institute for Statistics.","sourceOrganization":"UNESCO Institute for Statistics.","topics":[{"id":"4","value":"Education "}]},{"id":"SP.POP.AG16.FE.IN","name":"Age population, age 16, female, interpolated","source":{"id":"16","value":"Health Nutrition and Population Statistics"},"sourceNote":"Age population, female refers to female population at the specified age level, as estimated by World Bank staff.","sourceOrganization":"World Bank staff estimates from various sources including census reports, the United Nations Population Division's World Population Prospects, national statistical offices, household surveys conducted by national agencies, and Macro International.","topics":[]},{"id":"SP.POP.AG15.TO.UN","name":"Population, age 15, total","source":{"id":"12","value":"Education Statistics"},"sourceNote":"Age population, total refers to total population at the specified age level, as estimated by the UNESCO Institute for Statistics.","sourceOrganization":"UNESCO Institute for Statistics.","topics":[{"id":"4","value":"Education "}]},{"id":"SP.POP.AG15.MA.UN","name":"Population, age 15, male","source":{"id":"12","value":"Education Statistics"},"sourceNote":"Population, age 15, male refers to the male population at the specified age.","sourceOrganization":"UNESCO Institute for Statistics","topics":[{"id":"4","value":"Education "}]},{"id":"SP.POP.AG15.MA.IN","name":"Age population, age 15, male, interpolated","source":{"id":"16","value":"Health Nutrition and Population Statistics"},"sourceNote":"Age population, male refers to male population at the specified age level, as estimated by World Bank staff.","sourceOrganization":"World Bank staff estimates from various sources including census reports, the United Nations Population Division's World Population Prospects, national statistical offices, household surveys conducted by national agencies, and Macro International.","topics":[{}]}]]