[{"page":68,"pages":324,"per_page":"50","total":16174},[{"id":"DT.DOD.DSCD.CD.GG.AR.PX.US","name":"Gross Ext. Debt Pos., General Government, Short-term, Currency and deposits, Other price chg, USD","source":{"id":"22","value":"Quarterly External Debt Statistics\/SDDS (New)"},"sourceNote":"","sourceOrganization":"","topics":[]},{"id":"DT.DOD.DSCD.CD.GG.AR.OC.US","name":"Gross Ext. Debt Pos., General Government, Short-term, Currency and deposits, Other chg in vol., USD","source":{"id":"22","value":"Quarterly External Debt Statistics\/SDDS (New)"},"sourceNote":"","sourceOrganization":"","topics":[]},{"id":"DT.DOD.DSCD.CD.GG.AR.NE.US","name":"Net Ext. Debt Position, General Government, Short-term, Currency and deposits, USD","source":{"id":"22","value":"Quarterly External Debt Statistics\/SDDS (New)"},"sourceNote":"","sourceOrganization":"","topics":[]},{"id":"DT.DOD.DSCD.CD.GG.AR.GE.US","name":"Gross Ext. Debt Pos., General Government, Short-term, Currency and deposits, Beginning pos., USD","source":{"id":"22","value":"Quarterly External Debt Statistics\/SDDS (New)"},"sourceNote":"","sourceOrganization":"","topics":[]},{"id":"DT.DOD.DSCD.CD.GG.AR.EX.US","name":"Gross Ext. Debt Pos., General Government, Short-term, Currency and deposits, Exchange rate chg, USD","source":{"id":"22","value":"Quarterly External Debt Statistics\/SDDS (New)"},"sourceNote":"","sourceOrganization":"","topics":[]},{"id":"DT.DOD.DSCD.CD.GG.AR.EN.US","name":"Gross Ext. Debt Pos., General Government, Short-term, Currency and deposits, end of period, USD","source":{"id":"22","value":"Quarterly External Debt Statistics\/SDDS (New)"},"sourceNote":"","sourceOrganization":"","topics":[]},{"id":"DT.DOD.DSCD.CD.GG.AR.EA.US","name":"Ext. Assets in Debt Instruments, General Government, Short-term, Currency and deposits, USD","source":{"id":"22","value":"Quarterly External Debt Statistics\/SDDS (New)"},"sourceNote":"","sourceOrganization":"","topics":[]},{"id":"DT.DOD.DSCD.CD.GG.AR.BE.US","name":"Gross Ext. Debt Pos., General Government, Short-term, Currency and deposits, Beginning of period, USD","source":{"id":"22","value":"Quarterly External Debt Statistics\/SDDS (New)"},"sourceNote":"","sourceOrganization":"","topics":[]},{"id":"DT.DOD.DSCD.CD.CB.AR.US","name":"Gross Ext. Debt Pos., Deposit-Taking Corp., exc. CB, Short-term, Currency and deposits, USD","source":{"id":"22","value":"Quarterly External Debt Statistics\/SDDS (New)"},"sourceNote":"","sourceOrganization":"","topics":[]},{"id":"DT.DOD.DSCD.CD.CB.AR.TR.US","name":"Gross Ext. Debt Pos., Deposit-Taking Corp., exc. CB, Short-term, Currency and deposits, Transactions, USD","source":{"id":"22","value":"Quarterly External Debt Statistics\/SDDS (New)"},"sourceNote":"","sourceOrganization":"","topics":[]},{"id":"DT.DOD.DSCD.CD.CB.AR.PX.US","name":"Gross Ext. Debt Pos., Deposit-Taking Corp., exc. CB, Short-term, Currency and deposits, Other price chg, USD","source":{"id":"22","value":"Quarterly External Debt Statistics\/SDDS (New)"},"sourceNote":"","sourceOrganization":"","topics":[]},{"id":"DT.DOD.DSCD.CD.CB.AR.OC.US","name":"Gross Ext. Debt Pos., Deposit-Taking Corp., exc. CB, Short-term, Currency and deposits, Other chg in vol., USD","source":{"id":"22","value":"Quarterly External Debt Statistics\/SDDS (New)"},"sourceNote":"","sourceOrganization":"","topics":[]},{"id":"DT.DOD.DSCD.CD.CB.AR.NE.US","name":"Net Ext. Debt Position, Deposit-Taking Corp., exc. CB, Short-term, Currency and deposits, USD","source":{"id":"22","value":"Quarterly External Debt Statistics\/SDDS (New)"},"sourceNote":"","sourceOrganization":"","topics":[]},{"id":"DT.DOD.DSCD.CD.CB.AR.GE.US","name":"Gross Ext. Debt Pos., Deposit-Taking Corp., exc. CB, Short-term, Currency and deposits, Beginning pos., USD","source":{"id":"22","value":"Quarterly External Debt Statistics\/SDDS (New)"},"sourceNote":"","sourceOrganization":"","topics":[]},{"id":"DT.DOD.DSCD.CD.CB.AR.EX.US","name":"Gross Ext. Debt Pos., Deposit-Taking Corp., exc. CB, Short-term, Currency and deposits, Exchange rate chg, USD","source":{"id":"22","value":"Quarterly External Debt Statistics\/SDDS (New)"},"sourceNote":"","sourceOrganization":"","topics":[]},{"id":"DT.DOD.DSCD.CD.CB.AR.EN.US","name":"Gross Ext. Debt Pos., Deposit-Taking Corp., exc. CB, Short-term, Currency and deposits, end of period, USD","source":{"id":"22","value":"Quarterly External Debt Statistics\/SDDS (New)"},"sourceNote":"","sourceOrganization":"","topics":[]},{"id":"DT.DOD.DSCD.CD.CB.AR.EA.US","name":"Ext. Assets in Debt Instruments, Deposit-Taking Corp., exc. CB, Short-term, Currency and deposits, USD","source":{"id":"22","value":"Quarterly External Debt Statistics\/SDDS (New)"},"sourceNote":"","sourceOrganization":"","topics":[]},{"id":"DT.DOD.DSCD.CD.CB.AR.BE.US","name":"Gross Ext. Debt Pos., Deposit-Taking Corp., exc. CB, Short-term, Currency and deposits, Beginning of period, USD","source":{"id":"22","value":"Quarterly External Debt Statistics\/SDDS (New)"},"sourceNote":"","sourceOrganization":"","topics":[]},{"id":"DT.DOD.DPPG.DS.US","name":"Gross Ext. Debt Pos., Public and Publicly Guar. Private Sector Ext. Debt, All maturities, Debt securities, Memo item, USD","source":{"id":"22","value":"Quarterly External Debt Statistics\/SDDS (New)"},"sourceNote":"","sourceOrganization":"","topics":[]},{"id":"DT.DOD.DPPG.CD.AR.US","name":"Gross Ext. Debt Pos., Public and Publicly Guar. Private Sector Ext. Debt, All maturities, All instruments, USD","source":{"id":"22","value":"Quarterly External Debt Statistics\/SDDS (New)"},"sourceNote":"","sourceOrganization":"","topics":[]},{"id":"DT.DOD.DPPG.CD","name":"External debt stocks, public and publicly guaranteed (PPG) (DOD, current US$)","source":{"id":"2","value":"World Development Indicators"},"sourceNote":"Public and publicly guaranteed debt comprises long-term external obligations of public debtors, including the national government, political subdivisions (or an agency of either), and autonomous public bodies, and external obligations of private debtors that are guaranteed for repayment by a public entity. Data are in current U.S. dollars.","sourceOrganization":"World Bank, International Debt Statistics.","topics":[{"id":"20","value":"External Debt"}]},{"id":"DT.DOD.DPPG.AR.US","name":"Gross Ext. Debt Pos., Public and Publicly Guar. Private Sector Ext. Debt, All maturities, Arrears, Prin. and Int., USD","source":{"id":"22","value":"Quarterly External Debt Statistics\/SDDS (New)"},"sourceNote":"","sourceOrganization":"","topics":[]},{"id":"DT.DOD.DPPC.CD.TO.US","name":"Public and Publicly Guar. Private Sector Ext. Debt Pos., All Creditors, All maturities, All instruments, USD","source":{"id":"23","value":"Quarterly External Debt Statistics\/GDDS (New)"},"sourceNote":"","sourceOrganization":"","topics":[]},{"id":"DT.DOD.DPPC.CD.DT.T5.US","name":"Public and Publicly Guar. Private Sector Ext. Debt Pos., All Sectors, All maturities, All instruments, All currencies, USD","source":{"id":"23","value":"Quarterly External Debt Statistics\/GDDS (New)"},"sourceNote":"","sourceOrganization":"","topics":[]},{"id":"DT.DOD.DPNG.CD.US","name":"Gross Ext. Debt Pos., Private Sector Ext. Debt Not Publicly Guar., All maturities, All instruments, USD","source":{"id":"23","value":"Quarterly External Debt Statistics\/GDDS (New)"},"sourceNote":"","sourceOrganization":"","topics":[]},{"id":"DT.DOD.DPNG.CD.ST.US","name":"Gross Ext. Debt Pos., Private Sector Ext. Debt Not Publicly Guar., Short-term, All instruments, USD","source":{"id":"23","value":"Quarterly External Debt Statistics\/GDDS (New)"},"sourceNote":"","sourceOrganization":"","topics":[]},{"id":"DT.DOD.DPNG.CD.LT.US","name":"Gross Ext. Debt Pos., Private Sector Ext. Debt Not Publicly Guar., Long-term, All instruments, USD","source":{"id":"23","value":"Quarterly External Debt Statistics\/GDDS (New)"},"sourceNote":"","sourceOrganization":"","topics":[]},{"id":"DT.DOD.DPNG.CD.AR.US","name":"Gross Ext. Debt Pos., Private Sector Ext. Debt Not Publicly Guar., All maturities, Arrears, USD","source":{"id":"23","value":"Quarterly External Debt Statistics\/GDDS (New)"},"sourceNote":"","sourceOrganization":"","topics":[]},{"id":"DT.DOD.DPNG.CD","name":"External debt stocks, private nonguaranteed (PNG) (DOD, current US$)","source":{"id":"2","value":"World Development Indicators"},"sourceNote":"Private nonguaranteed external debt comprises long-term external obligations of private debtors that are not guaranteed for repayment by a public entity. Data are in current U.S. dollars.","sourceOrganization":"World Bank, International Debt Statistics.","topics":[{"id":"20","value":"External Debt"}]},{"id":"DT.DOD.DLXF.PU.DS.US","name":"Gross Ext. Debt Pos., Public Sector Ext. Debt, Long-term, Debt securities, Memo item, USD","source":{"id":"22","value":"Quarterly External Debt Statistics\/SDDS (New)"},"sourceNote":"","sourceOrganization":"","topics":[]},{"id":"DT.DOD.DLXF.PR.DS.US","name":"Gross Ext. Debt Pos., Publicly Guar. Private Sector Ext. Debt, Long-term, Debt securities, Memo item, USD","source":{"id":"22","value":"Quarterly External Debt Statistics\/SDDS (New)"},"sourceNote":"","sourceOrganization":"","topics":[]},{"id":"DT.DOD.DLXF.CD.US","name":"Gross Ext. Debt Pos., All Sectors, Long-term, All instruments, USD","source":{"id":"22","value":"Quarterly External Debt Statistics\/SDDS (New)"},"sourceNote":"","sourceOrganization":"","topics":[]},{"id":"DT.DOD.DLXF.CD.OT.TD.NV.US","name":"Gross Ext. Debt Pos., Other Sectors, Long-term, Debt Securities, Nominal Value, USD","source":{"id":"22","value":"Quarterly External Debt Statistics\/SDDS (New)"},"sourceNote":"","sourceOrganization":"","topics":[]},{"id":"DT.DOD.DLXF.CD.OT.TD.MV.US","name":"Gross Ext. Debt Pos., Other Sectors, Long-term, Debt Securities, Market Value, USD","source":{"id":"22","value":"Quarterly External Debt Statistics\/SDDS (New)"},"sourceNote":"","sourceOrganization":"","topics":[]},{"id":"DT.DOD.DLXF.CD.OT.TD.MP.US","name":"Gross Ext. Debt Pos., Other Sectors, Long-term, Debt Securities, Diff. with Market Value, USD","source":{"id":"22","value":"Quarterly External Debt Statistics\/SDDS (New)"},"sourceNote":"","sourceOrganization":"","topics":[]},{"id":"DT.DOD.DLXF.CD.OT.AR.US","name":"Gross Ext. Debt Pos., Other Sectors, Long-term, All instruments, USD","source":{"id":"22","value":"Quarterly External Debt Statistics\/SDDS (New)"},"sourceNote":"","sourceOrganization":"","topics":[]},{"id":"DT.DOD.DLXF.CD.OT.AR.TR.US","name":"Gross Ext. Debt Pos., Other Sectors, Long-term, All instruments, Transactions, USD","source":{"id":"22","value":"Quarterly External Debt Statistics\/SDDS (New)"},"sourceNote":"","sourceOrganization":"","topics":[]},{"id":"DT.DOD.DLXF.CD.OT.AR.PX.US","name":"Gross Ext. Debt Pos., Other Sectors, Long-term, All instruments, Other price chg, USD","source":{"id":"22","value":"Quarterly External Debt Statistics\/SDDS (New)"},"sourceNote":"","sourceOrganization":"","topics":[]},{"id":"DT.DOD.DLXF.CD.OT.AR.OC.US","name":"Gross Ext. Debt Pos., Other Sectors, Long-term, All instruments, Other chg in vol., USD","source":{"id":"22","value":"Quarterly External Debt Statistics\/SDDS (New)"},"sourceNote":"","sourceOrganization":"","topics":[]},{"id":"DT.DOD.DLXF.CD.OT.AR.NE.US","name":"Net Ext. Debt Position, Other Sectors, Long-term, All instruments, USD","source":{"id":"22","value":"Quarterly External Debt Statistics\/SDDS (New)"},"sourceNote":"","sourceOrganization":"","topics":[]},{"id":"DT.DOD.DLXF.CD.OT.AR.GE.US","name":"Gross Ext. Debt Pos., Other Sectors, Long-term, All instruments, Beginning pos., USD","source":{"id":"22","value":"Quarterly External Debt Statistics\/SDDS (New)"},"sourceNote":"","sourceOrganization":"","topics":[]},{"id":"DT.DOD.DLXF.CD.OT.AR.EX.US","name":"Gross Ext. Debt Pos., Other Sectors, Long-term, All instruments, Exchange rate chg, USD","source":{"id":"22","value":"Quarterly External Debt Statistics\/SDDS (New)"},"sourceNote":"","sourceOrganization":"","topics":[]},{"id":"DT.DOD.DLXF.CD.OT.AR.EN.US","name":"Gross Ext. Debt Pos., Other Sectors, Long-term, All instruments, end of period, USD","source":{"id":"22","value":"Quarterly External Debt Statistics\/SDDS (New)"},"sourceNote":"","sourceOrganization":"","topics":[]},{"id":"DT.DOD.DLXF.CD.OT.AR.EA.US","name":"Ext. Assets in Debt Instruments, Other Sectors, Long-term, All instruments, USD","source":{"id":"22","value":"Quarterly External Debt Statistics\/SDDS (New)"},"sourceNote":"","sourceOrganization":"","topics":[]},{"id":"DT.DOD.DLXF.CD.OT.AR.BE.US","name":"Gross Ext. Debt Pos., Other Sectors, Long-term, All instruments, Beginning of period, USD","source":{"id":"22","value":"Quarterly External Debt Statistics\/SDDS (New)"},"sourceNote":"","sourceOrganization":"","topics":[]},{"id":"DT.DOD.DLXF.CD.OF.US","name":"Gross Ext. Debt Pos., Other financial corporations, Long-term, All instruments, USD","source":{"id":"22","value":"Quarterly External Debt Statistics\/SDDS (New)"},"sourceNote":"","sourceOrganization":"","topics":[]},{"id":"DT.DOD.DLXF.CD.NC.US","name":"Gross Ext. Debt Pos., Nonfinancial corporations, Long-term, All instruments, USD","source":{"id":"22","value":"Quarterly External Debt Statistics\/SDDS (New)"},"sourceNote":"","sourceOrganization":"","topics":[]},{"id":"DT.DOD.DLXF.CD.MA.TD.NV.US","name":"Gross Ext. Debt Pos., Central Bank, Long-term, Debt Securities, Nominal Value, USD","source":{"id":"22","value":"Quarterly External Debt Statistics\/SDDS (New)"},"sourceNote":"","sourceOrganization":"","topics":[]},{"id":"DT.DOD.DLXF.CD.MA.TD.MV.US","name":"Gross Ext. Debt Pos., Central Bank, Long-term, Debt Securities, Market Value, USD","source":{"id":"22","value":"Quarterly External Debt Statistics\/SDDS (New)"},"sourceNote":"","sourceOrganization":"","topics":[]},{"id":"DT.DOD.DLXF.CD.MA.TD.MP.US","name":"Gross Ext. Debt Pos., Central Bank, Long-term, Debt Securities, Diff. with Market Value, USD","source":{"id":"22","value":"Quarterly External Debt Statistics\/SDDS (New)"},"sourceNote":"","sourceOrganization":"","topics":[{}]}]]