[{"page":74,"pages":324,"per_page":"50","total":16174},[{"id":"DT.DOD.MLTN.CD","name":"Debt outstanding and disbursed, PPG Multilateral on nonconcessional terms (DOD, current US$)","source":{"id":"11","value":"Africa Development Indicators"},"sourceNote":"Public and publicly guaranteed multilateral loans include loans and credits from the World Bank, regional development banks, and other multilateral and intergovernmental agencies. Excluded are loans from funds administered by an international organization.  ","sourceOrganization":"World Bank, Global Development Finance.","topics":[]},{"id":"DT.DOD.MLTC.CD","name":"PPG, multilateral concessional (DOD, current US$)","source":{"id":"2","value":"World Development Indicators"},"sourceNote":"Public and publicly guaranteed multilateral loans include loans and credits from the World Bank, regional development banks, and other multilateral and intergovernmental agencies. Excluded are loans from funds administered by an international organization on behalf of a single donor government; these are classified as loans from governments. Concessional debt is defined as loans with an original grant element of 25 percent or more. The grant element of a loan is the grant equivalent expressed as a percentage of the amount committed. It is used as a measure of the overall cost of borrowing. The grant equivalent of a loan is its commitment (present) value, less the discounted present value of its contractual debt service; conventionally, future service payments are discounted at 10 percent. Data are in current U.S. dollars.","sourceOrganization":"World Bank, International Debt Statistics.","topics":[{"id":"20","value":"External Debt"}]},{"id":"DT.DOD.MLAT.ZS","name":"Multilateral debt (% of total external debt)","source":{"id":"2","value":"World Development Indicators"},"sourceNote":"Multilateral debt to total external debt stocks.","sourceOrganization":"World Bank, International Debt Statistics.","topics":[{"id":"20","value":"External Debt"}]},{"id":"DT.DOD.MLAT.CD","name":"PPG, multilateral (DOD, current US$)","source":{"id":"2","value":"World Development Indicators"},"sourceNote":"Public and publicly guaranteed multilateral loans include loans and credits from the World Bank, regional development banks, and other multilateral and intergovernmental agencies. Excluded are loans from funds administered by an international organization on behalf of a single donor government; these are classified as loans from governments. Data are in current U.S. dollars.","sourceOrganization":"World Bank, International Debt Statistics.","topics":[{"id":"20","value":"External Debt"}]},{"id":"DT.DOD.MIDA.CD","name":"PPG, IDA (DOD, current US$)","source":{"id":"2","value":"World Development Indicators"},"sourceNote":"Public and publicly guaranteed debt outstanding from the International Development Association (IDA) is concessional. Concessional debt is defined as loans with an original grant element of 25 percent or more. The grant element of a loan is the grant equivalent expressed as a percentage of the amount committed. It is used as a measure of the overall cost of borrowing. The grant equivalent of a loan is its commitment (present) value, less the discounted present value of its contractual debt service; conventionally, future service payments are discounted at 10 percent. Data are in current U.S. dollars.","sourceOrganization":"World Bank, International Debt Statistics.","topics":[{"id":"20","value":"External Debt"}]},{"id":"DT.DOD.MIBR.CD","name":"PPG, IBRD (DOD, current US$)","source":{"id":"2","value":"World Development Indicators"},"sourceNote":"Public and publicly guaranteed debt outstanding from the International Bank for Reconstruction and Development (IBRD) is nonconcessional. Nonconcessional debt excludes loans with an original grant element of 25 percent or more. Data are in current U.S. dollars.","sourceOrganization":"World Bank, International Debt Statistics.","topics":[{"id":"20","value":"External Debt"}]},{"id":"DT.DOD.MDRI.CD","name":"Debt forgiveness grants (current US$)","source":{"id":"2","value":"World Development Indicators"},"sourceNote":"Debt forgiveness grants data cover both debt cancelled by agreement between debtor and creditor and a reduction in the net present value of non-ODA debt achieved by concessional rescheduling or refinancing. The data are on a disbursement basis and cover flows from all bilateral and multilateral donors. Data are in current U.S. dollars. Regional and unspecified allocations are excluded from aggregate data.","sourceOrganization":"Development Assistance Committee of the Organisation for Economic Co-operation and Development.","topics":[{"id":"2","value":"Aid Effectiveness "},{"id":"20","value":"External Debt"}]},{"id":"DT.DOD.LOST.CD.PU.AR.US","name":"Gross Ext. Debt Pos., Public Sector Ext. Debt, Short-term, Loans, USD","source":{"id":"22","value":"Quarterly External Debt Statistics\/SDDS (New)"},"sourceNote":"","sourceOrganization":"","topics":[]},{"id":"DT.DOD.LOST.CD.PR.AR.US","name":"Gross Ext. Debt Pos., Publicly Guar. Private Sector Ext. Debt, Short-term, Loans, USD","source":{"id":"22","value":"Quarterly External Debt Statistics\/SDDS (New)"},"sourceNote":"","sourceOrganization":"","topics":[]},{"id":"DT.DOD.LOLT.CD.PU.AR.US","name":"Gross Ext. Debt Pos., Public Sector Ext. Debt, Long-term, Loans, USD","source":{"id":"22","value":"Quarterly External Debt Statistics\/SDDS (New)"},"sourceNote":"","sourceOrganization":"","topics":[]},{"id":"DT.DOD.LOLT.CD.PR.AR.US","name":"Gross Ext. Debt Pos., Publicly Guar. Private Sector Ext. Debt, Long-term, Loans, USD","source":{"id":"22","value":"Quarterly External Debt Statistics\/SDDS (New)"},"sourceNote":"","sourceOrganization":"","topics":[]},{"id":"DT.DOD.DSUN.CD.MA.AR.NE.US","name":"Net Ext. Debt Position, Central Bank, Short-term, Unallocated gold accounts included in monetary gold, USD","source":{"id":"22","value":"Quarterly External Debt Statistics\/SDDS (New)"},"sourceNote":"","sourceOrganization":"","topics":[]},{"id":"DT.DOD.DSUN.CD.MA.AR.GE.US","name":"Gross Ext. Debt Pos., Central Bank, Short-term, Unallocated gold accounts included in monetary gold, Beginning pos., USD","source":{"id":"22","value":"Quarterly External Debt Statistics\/SDDS (New)"},"sourceNote":"","sourceOrganization":"","topics":[]},{"id":"DT.DOD.DSUN.CD.MA.AR.EA.US","name":"Ext. Assets in Debt Instruments, Central Bank, Short-term, Unallocated gold accounts included in monetary gold, USD","source":{"id":"22","value":"Quarterly External Debt Statistics\/SDDS (New)"},"sourceNote":"","sourceOrganization":"","topics":[]},{"id":"DT.DOD.DSUN.CD.GG.AR.NE.US","name":"Net Ext. Debt Position, General Government, Short-term, Unallocated gold accounts included in monetary gold, USD","source":{"id":"22","value":"Quarterly External Debt Statistics\/SDDS (New)"},"sourceNote":"","sourceOrganization":"","topics":[]},{"id":"DT.DOD.DSUN.CD.GG.AR.GE.US","name":"Gross Ext. Debt Pos., General Government, Short-term, Unallocated gold accounts included in monetary gold, Beginning pos., USD","source":{"id":"22","value":"Quarterly External Debt Statistics\/SDDS (New)"},"sourceNote":"","sourceOrganization":"","topics":[]},{"id":"DT.DOD.DSUN.CD.GG.AR.EA.US","name":"Ext. Assets in Debt Instruments, General Government, Short-term, Unallocated gold accounts included in monetary gold, USD","source":{"id":"22","value":"Quarterly External Debt Statistics\/SDDS (New)"},"sourceNote":"","sourceOrganization":"","topics":[]},{"id":"DT.DOD.DSTT.CD.OT.TD.NV.US","name":"Gross Ext. Debt Pos., Other Sectors, Short-term, Debt Securities, Nominal Value, USD","source":{"id":"22","value":"Quarterly External Debt Statistics\/SDDS (New)"},"sourceNote":"","sourceOrganization":"","topics":[]},{"id":"DT.DOD.DSTT.CD.OT.TD.MV.US","name":"Gross Ext. Debt Pos., Other Sectors, Short-term, Debt Securities, Market Value, USD","source":{"id":"22","value":"Quarterly External Debt Statistics\/SDDS (New)"},"sourceNote":"","sourceOrganization":"","topics":[]},{"id":"DT.DOD.DSTT.CD.OT.TD.MP.US","name":"Gross Ext. Debt Pos., Other Sectors, Short-term, Debt Securities, Diff. with Market Value, USD","source":{"id":"22","value":"Quarterly External Debt Statistics\/SDDS (New)"},"sourceNote":"","sourceOrganization":"","topics":[]},{"id":"DT.DOD.DSTT.CD.OT.AR.US","name":"Gross Ext. Debt Pos., Other Sectors, Short-term, Trade credit and advances, USD","source":{"id":"22","value":"Quarterly External Debt Statistics\/SDDS (New)"},"sourceNote":"","sourceOrganization":"","topics":[]},{"id":"DT.DOD.DSTT.CD.OT.AR.TR.US","name":"Gross Ext. Debt Pos., Other Sectors, Short-term, Trade credit and advances, Transactions, USD","source":{"id":"22","value":"Quarterly External Debt Statistics\/SDDS (New)"},"sourceNote":"","sourceOrganization":"","topics":[]},{"id":"DT.DOD.DSTT.CD.OT.AR.PX.US","name":"Gross Ext. Debt Pos., Other Sectors, Short-term, Trade credit and advances, Other price chg, USD","source":{"id":"22","value":"Quarterly External Debt Statistics\/SDDS (New)"},"sourceNote":"","sourceOrganization":"","topics":[]},{"id":"DT.DOD.DSTT.CD.OT.AR.OC.US","name":"Gross Ext. Debt Pos., Other Sectors, Short-term, Trade credit and advances, Other chg in vol., USD","source":{"id":"22","value":"Quarterly External Debt Statistics\/SDDS (New)"},"sourceNote":"","sourceOrganization":"","topics":[]},{"id":"DT.DOD.DSTT.CD.OT.AR.NE.US","name":"Net Ext. Debt Position, Other Sectors, Short-term, Trade credit and advances, USD","source":{"id":"22","value":"Quarterly External Debt Statistics\/SDDS (New)"},"sourceNote":"","sourceOrganization":"","topics":[]},{"id":"DT.DOD.DSTT.CD.OT.AR.GE.US","name":"Gross Ext. Debt Pos., Other Sectors, Short-term, Trade credit and advances, Beginning pos., USD","source":{"id":"22","value":"Quarterly External Debt Statistics\/SDDS (New)"},"sourceNote":"","sourceOrganization":"","topics":[]},{"id":"DT.DOD.DSTT.CD.OT.AR.EX.US","name":"Gross Ext. Debt Pos., Other Sectors, Short-term, Trade credit and advances, Exchange rate chg, USD","source":{"id":"22","value":"Quarterly External Debt Statistics\/SDDS (New)"},"sourceNote":"","sourceOrganization":"","topics":[]},{"id":"DT.DOD.DSTT.CD.OT.AR.EN.US","name":"Gross Ext. Debt Pos., Other Sectors, Short-term, Trade credit and advances, end of period, USD","source":{"id":"22","value":"Quarterly External Debt Statistics\/SDDS (New)"},"sourceNote":"","sourceOrganization":"","topics":[]},{"id":"DT.DOD.DSTT.CD.OT.AR.EA.US","name":"Ext. Assets in Debt Instruments, Other Sectors, Short-term, Trade credit and advances, USD","source":{"id":"22","value":"Quarterly External Debt Statistics\/SDDS (New)"},"sourceNote":"","sourceOrganization":"","topics":[]},{"id":"DT.DOD.DSTT.CD.OT.AR.BE.US","name":"Gross Ext. Debt Pos., Other Sectors, Short-term, Trade credit and advances, Beginning of period, USD","source":{"id":"22","value":"Quarterly External Debt Statistics\/SDDS (New)"},"sourceNote":"","sourceOrganization":"","topics":[]},{"id":"DT.DOD.DSTT.CD.OF.US","name":"Gross Ext. Debt Pos., Other financial corporations, Short-term, Trade credit and advances, USD","source":{"id":"22","value":"Quarterly External Debt Statistics\/SDDS (New)"},"sourceNote":"","sourceOrganization":"","topics":[]},{"id":"DT.DOD.DSTT.CD.NC.US","name":"Gross Ext. Debt Pos., Nonfinancial corporations, Short-term, Trade credit and advances, USD","source":{"id":"22","value":"Quarterly External Debt Statistics\/SDDS (New)"},"sourceNote":"","sourceOrganization":"","topics":[]},{"id":"DT.DOD.DSTT.CD.MA.AR.US","name":"Gross Ext. Debt Pos., Central Bank, Short-term, Trade credit and advances, USD","source":{"id":"22","value":"Quarterly External Debt Statistics\/SDDS (New)"},"sourceNote":"","sourceOrganization":"","topics":[]},{"id":"DT.DOD.DSTT.CD.MA.AR.TR.US","name":"Gross Ext. Debt Pos., Central Bank, Short-term, Trade credit and advances, Transactions, USD","source":{"id":"22","value":"Quarterly External Debt Statistics\/SDDS (New)"},"sourceNote":"","sourceOrganization":"","topics":[]},{"id":"DT.DOD.DSTT.CD.MA.AR.PX.US","name":"Gross Ext. Debt Pos., Central Bank, Short-term, Trade credit and advances, Other price chg, USD","source":{"id":"22","value":"Quarterly External Debt Statistics\/SDDS (New)"},"sourceNote":"","sourceOrganization":"","topics":[]},{"id":"DT.DOD.DSTT.CD.MA.AR.OC.US","name":"Gross Ext. Debt Pos., Central Bank, Short-term, Trade credit and advances, Other chg in vol., USD","source":{"id":"22","value":"Quarterly External Debt Statistics\/SDDS (New)"},"sourceNote":"","sourceOrganization":"","topics":[]},{"id":"DT.DOD.DSTT.CD.MA.AR.NE.US","name":"Net Ext. Debt Position, Central Bank, Short-term, Trade credit and advances, USD","source":{"id":"22","value":"Quarterly External Debt Statistics\/SDDS (New)"},"sourceNote":"","sourceOrganization":"","topics":[]},{"id":"DT.DOD.DSTT.CD.MA.AR.GE.US","name":"Gross Ext. Debt Pos., Central Bank, Short-term, Trade credit and advances, Beginning pos., USD","source":{"id":"22","value":"Quarterly External Debt Statistics\/SDDS (New)"},"sourceNote":"","sourceOrganization":"","topics":[]},{"id":"DT.DOD.DSTT.CD.MA.AR.EX.US","name":"Gross Ext. Debt Pos., Central Bank, Short-term, Trade credit and advances, Exchange rate chg, USD","source":{"id":"22","value":"Quarterly External Debt Statistics\/SDDS (New)"},"sourceNote":"","sourceOrganization":"","topics":[]},{"id":"DT.DOD.DSTT.CD.MA.AR.EN.US","name":"Gross Ext. Debt Pos., Central Bank, Short-term, Trade credit and advances, end of period, USD","source":{"id":"22","value":"Quarterly External Debt Statistics\/SDDS (New)"},"sourceNote":"","sourceOrganization":"","topics":[]},{"id":"DT.DOD.DSTT.CD.MA.AR.EA.US","name":"Ext. Assets in Debt Instruments, Central Bank, Short-term, Trade credit and advances, USD","source":{"id":"22","value":"Quarterly External Debt Statistics\/SDDS (New)"},"sourceNote":"","sourceOrganization":"","topics":[]},{"id":"DT.DOD.DSTT.CD.MA.AR.BE.US","name":"Gross Ext. Debt Pos., Central Bank, Short-term, Trade credit and advances, Beginning of period, USD","source":{"id":"22","value":"Quarterly External Debt Statistics\/SDDS (New)"},"sourceNote":"","sourceOrganization":"","topics":[]},{"id":"DT.DOD.DSTT.CD.HN.US","name":"Gross Ext. Debt Pos., HH and nonprofit institu. (NPISHs), Short-term, Trade credit and advances, USD","source":{"id":"22","value":"Quarterly External Debt Statistics\/SDDS (New)"},"sourceNote":"","sourceOrganization":"","topics":[]},{"id":"DT.DOD.DSTT.CD.GG.AR.US","name":"Gross Ext. Debt Pos., General Government, Short-term, Trade credit and advances, USD","source":{"id":"22","value":"Quarterly External Debt Statistics\/SDDS (New)"},"sourceNote":"","sourceOrganization":"","topics":[]},{"id":"DT.DOD.DSTT.CD.GG.AR.TR.US","name":"Gross Ext. Debt Pos., General Government, Short-term, Trade credit and advances, Transactions, USD","source":{"id":"22","value":"Quarterly External Debt Statistics\/SDDS (New)"},"sourceNote":"","sourceOrganization":"","topics":[]},{"id":"DT.DOD.DSTT.CD.GG.AR.PX.US","name":"Gross Ext. Debt Pos., General Government, Short-term, Trade credit and advances, Other price chg, USD","source":{"id":"22","value":"Quarterly External Debt Statistics\/SDDS (New)"},"sourceNote":"","sourceOrganization":"","topics":[]},{"id":"DT.DOD.DSTT.CD.GG.AR.OC.US","name":"Gross Ext. Debt Pos., General Government, Short-term, Trade credit and advances, Other chg in vol., USD","source":{"id":"22","value":"Quarterly External Debt Statistics\/SDDS (New)"},"sourceNote":"","sourceOrganization":"","topics":[]},{"id":"DT.DOD.DSTT.CD.GG.AR.NE.US","name":"Net Ext. Debt Position, General Government, Short-term, Trade credit and advances, USD","source":{"id":"22","value":"Quarterly External Debt Statistics\/SDDS (New)"},"sourceNote":"","sourceOrganization":"","topics":[]},{"id":"DT.DOD.DSTT.CD.GG.AR.GE.US","name":"Gross Ext. Debt Pos., General Government, Short-term, Trade credit and advances, Beginning pos., USD","source":{"id":"22","value":"Quarterly External Debt Statistics\/SDDS (New)"},"sourceNote":"","sourceOrganization":"","topics":[]},{"id":"DT.DOD.DSTT.CD.GG.AR.EX.US","name":"Gross Ext. Debt Pos., General Government, Short-term, Trade credit and advances, Exchange rate chg, USD","source":{"id":"22","value":"Quarterly External Debt Statistics\/SDDS (New)"},"sourceNote":"","sourceOrganization":"","topics":[{}]}]]