[{"page":116,"pages":324,"per_page":"50","total":16174},[{"id":"IAGRICULTURE","name":"Agriculture, 2000=100, current$","source":{"id":"21","value":"Global Economic Monitor (GEM) Commodities"},"sourceNote":"Agriculture index includes beverages, food and agricultural raw materials.","sourceOrganization":"World Bank.","topics":[]},{"id":"i_mob_transactions_number","name":"Mobile money transactions per 100,000 adults","source":{"id":"33","value":"G20 Basic Set of Financial Inclusion Indicators"},"sourceNote":"Denotes the number of mobile money transactions per 100,000 adults.","sourceOrganization":"International Monetary Fund, Financial Access Survey.","topics":[]},{"id":"i_mob_agent_pop_registered","name":"Mobile agent outlets per 100,000 adults","source":{"id":"33","value":"G20 Basic Set of Financial Inclusion Indicators"},"sourceNote":"Denotes the number of registered mobile agent outlets per 100,000 adults","sourceOrganization":"International Monetary Fund, Financial Access Survey.","topics":[]},{"id":"i_branches_pop_A1","name":"Branches per 100,000 adults","source":{"id":"33","value":"G20 Basic Set of Financial Inclusion Indicators"},"sourceNote":"Denotes the number of branches of commercial banks for every 1,000 squared kilometers in the reporting country.  Calculated as (number of institutions + number of branches)*1,000\/land area of the reporting country in square kilometers.","sourceOrganization":"International Monetary Fund, Financial Access Survey.","topics":[]},{"id":"i_ATMs_pop","name":"ATMs per 100,000 adults","source":{"id":"33","value":"G20 Basic Set of Financial Inclusion Indicators"},"sourceNote":"Denotes the total number of ATMs for every 100,000 adults in the reporting country. Calculated as (number of ATMs)*100,000\/adult population in the reporting country. Automated teller machines are computerized telecommunications devices that provide client","sourceOrganization":"International Monetary Fund, Financial Access Survey.","topics":[]},{"id":"i_acc_loan_A1_sme","name":"SME loan accounts (as a % of non-financial corporation borrowers)","source":{"id":"33","value":"G20 Basic Set of Financial Inclusion Indicators"},"sourceNote":"Denotes the total number of loans obtained by SMEs from a commercial bank as a fraction of the total loans obtained by non-financial corporations from commercial banks. Calculated as: (number of loan accounts by SMEs with commercial banks)\/(number of loan","sourceOrganization":"International Monetary Fund, Financial Access Survey.","topics":[]},{"id":"i_acc_loan_A1","name":"Outstanding loans per 1,000 adults","source":{"id":"33","value":"G20 Basic Set of Financial Inclusion Indicators"},"sourceNote":"Denotes the total number of loan accounts that are obtained by resident nonfinancial corporations (public and private) and households from commercial banks for every 1,000 adults in the reporting country. For several countries, however, data cover the tot","sourceOrganization":"International Monetary Fund, Financial Access Survey.","topics":[]},{"id":"i_acc_deposit_A1_sme","name":"SME deposit accounts (as a % of non-financial corporation borrowers)","source":{"id":"33","value":"G20 Basic Set of Financial Inclusion Indicators"},"sourceNote":"Denotes the total number of deposit accounts in commercial banks held by SMEs as a fraction of the total number of deposit accounts in commercial banks held by non-financial corporations. Calculated as: (number of deposit accounts by SMEs with commercial ","sourceOrganization":"International Monetary Fund, Financial Access Survey.","topics":[]},{"id":"i_acc_deposit_A1","name":"Deposit accounts per 1,000 adults","source":{"id":"33","value":"G20 Basic Set of Financial Inclusion Indicators"},"sourceNote":"Denotes the total number of deposit accounts that are held by resident nonfinancial corporations (public and private) and households in commercial banks for every 1,000 adults in the reporting country. For several countries, however, data cover the total ","sourceOrganization":"International Monetary Fund, Financial Access Survey.","topics":[]},{"id":"HOU.XPD.TOTL.20POOR.CR","name":"Monthly Per Capita TOTAL Household Expenditure for The Poorest 20 percent (in IDR)","source":{"id":"45","value":"INDO-DAPOER"},"sourceNote":"","sourceOrganization":"BADAN PUSAT STATISTIK - Statistics Indonesia, National Social Economic Survey (SUSENAS)","topics":[]},{"id":"HOU.XPD.PC.CR","name":"Household per capita expenditure (in IDR)","source":{"id":"45","value":"INDO-DAPOER"},"sourceNote":"","sourceOrganization":"BADAN PUSAT STATISTIK - Statistics Indonesia, National Social Economic Survey (SUSENAS)","topics":[]},{"id":"HOU.XPD.HE.PC.CR","name":"Monthly Per Capita Household Health Expenditure (in IDR)","source":{"id":"45","value":"INDO-DAPOER"},"sourceNote":"","sourceOrganization":"BADAN PUSAT STATISTIK - Statistics Indonesia, National Social Economic Survey (SUSENAS)","topics":[]},{"id":"HOU.XPD.EDU.PC.CR","name":"Monthly Per Capita Household Education Expenditure (in IDR)","source":{"id":"45","value":"INDO-DAPOER"},"sourceNote":"","sourceOrganization":"BADAN PUSAT STATISTIK - Statistics Indonesia, National Social Economic Survey (SUSENAS)","topics":[]},{"id":"HOU.STA.ACSN.ZS","name":"Household Access to safe Sanitation (in % of total Household)","source":{"id":"45","value":"INDO-DAPOER"},"sourceNote":"","sourceOrganization":"BADAN PUSAT STATISTIK - Statistics Indonesia, National Social Economic Survey (SUSENAS)","topics":[]},{"id":"HOU.MLT.MAIN.ZS","name":"Household Access to Fixed Line Phone Connection (in % of total Household)","source":{"id":"45","value":"INDO-DAPOER"},"sourceNote":"","sourceOrganization":"BADAN PUSAT STATISTIK - Statistics Indonesia, Village Census (PODES)","topics":[]},{"id":"HOU.H2O.ACSN.ZS","name":"Household Access to Safe Water (in % of total household)","source":{"id":"45","value":"INDO-DAPOER"},"sourceNote":"","sourceOrganization":"BADAN PUSAT STATISTIK - Statistics Indonesia, National Social Economic Survey (SUSENAS)","topics":[]},{"id":"HOU.ELC.ACSN.ZS","name":"Household Access to Electricity: Total (in % of total household)","source":{"id":"45","value":"INDO-DAPOER"},"sourceNote":"","sourceOrganization":"BADAN PUSAT STATISTIK - Statistics Indonesia, National Social Economic Survey (SUSENAS)","topics":[]},{"id":"HMUV","name":"MUV 2010=100","source":{"id":"21","value":"Global Economic Monitor (GEM) Commodities"},"sourceNote":"","sourceOrganization":"","topics":[]},{"id":"HH.MICS.YRS.15UP.GIN.U","name":"MICS: Gini coefficient of average years of schooling. Age 15+. Urban","source":{"id":"12","value":"Education Statistics"},"sourceNote":"Gini coefficient of average years of schooling. Age 15+. Urban measures the degree of inequality in years of schooling in a society. It is calculated similarly to the Gini coefficient of income or wealth. Results range from 0 to 100 with 0 indicating perfect equality and 100 indicating perfect inequality.","sourceOrganization":"World Bank staff calculations based on Multiple Indicator Cluster Survey (MICS) data","topics":[{"id":"4","value":"Education "}]},{"id":"HH.MICS.YRS.15UP.GIN.R","name":"MICS: Gini coefficient of average years of schooling. Age 15+. Rural","source":{"id":"12","value":"Education Statistics"},"sourceNote":"Gini coefficient of average years of schooling. Age 15+. Rural measures the degree of inequality in years of schooling in a society. It is calculated similarly to the Gini coefficient of income or wealth. Results range from 0 to 100 with 0 indicating perfect equality and 100 indicating perfect inequality.","sourceOrganization":"World Bank staff calculations based on Multiple Indicator Cluster Survey (MICS) data","topics":[{"id":"4","value":"Education "}]},{"id":"HH.MICS.YRS.15UP.GIN.Q5","name":"MICS: Gini coefficient of average years of schooling. Age 15+. Quintile 5","source":{"id":"12","value":"Education Statistics"},"sourceNote":"Gini coefficient of average years of schooling. Age 15+. Quintile 5 measures the degree of inequality in years of schooling in a society. It is calculated similarly to the Gini coefficient of income or wealth. Results range from 0 to 100 with 0 indicating perfect equality and 100 indicating perfect inequality.","sourceOrganization":"World Bank staff calculations based on Multiple Indicator Cluster Survey (MICS) data","topics":[]},{"id":"HH.MICS.YRS.15UP.GIN.Q4","name":"MICS: Gini coefficient of average years of schooling. Age 15+. Quintile 4","source":{"id":"12","value":"Education Statistics"},"sourceNote":"Gini coefficient of average years of schooling. Age 15+. Quintile 4 measures the degree of inequality in years of schooling in a society. It is calculated similarly to the Gini coefficient of income or wealth. Results range from 0 to 100 with 0 indicating perfect equality and 100 indicating perfect inequality.","sourceOrganization":"World Bank staff calculations based on Multiple Indicator Cluster Survey (MICS) data","topics":[]},{"id":"HH.MICS.YRS.15UP.GIN.Q3","name":"MICS: Gini coefficient of average years of schooling. Age 15+. Quintile 3","source":{"id":"12","value":"Education Statistics"},"sourceNote":"Gini coefficient of average years of schooling. Age 15+. Quintile 3 measures the degree of inequality in years of schooling in a society. It is calculated similarly to the Gini coefficient of income or wealth. Results range from 0 to 100 with 0 indicating perfect equality and 100 indicating perfect inequality.","sourceOrganization":"World Bank staff calculations based on Multiple Indicator Cluster Survey (MICS) data","topics":[]},{"id":"HH.MICS.YRS.15UP.GIN.Q2","name":"MICS: Gini coefficient of average years of schooling. Age 15+. Quintile 2","source":{"id":"12","value":"Education Statistics"},"sourceNote":"Gini coefficient of average years of schooling. Age 15+. Quintile 2 measures the degree of inequality in years of schooling in a society. It is calculated similarly to the Gini coefficient of income or wealth. Results range from 0 to 100 with 0 indicating perfect equality and 100 indicating perfect inequality.","sourceOrganization":"World Bank staff calculations based on Multiple Indicator Cluster Survey (MICS) data","topics":[]},{"id":"HH.MICS.YRS.15UP.GIN.Q1","name":"MICS: Gini coefficient of average years of schooling. Age 15+. Quintile 1","source":{"id":"12","value":"Education Statistics"},"sourceNote":"Gini coefficient of average years of schooling. Age 15+. Quintile 1 measures the degree of inequality in years of schooling in a society. It is calculated similarly to the Gini coefficient of income or wealth. Results range from 0 to 100 with 0 indicating perfect equality and 100 indicating perfect inequality.","sourceOrganization":"World Bank staff calculations based on Multiple Indicator Cluster Survey (MICS) data","topics":[]},{"id":"HH.MICS.YRS.15UP.GIN.M","name":"MICS: Gini coefficient of average years of schooling. Age 15+. Male","source":{"id":"12","value":"Education Statistics"},"sourceNote":"Gini coefficient of average years of schooling. Age 15+. Male measures the degree of inequality in years of schooling in a society. It is calculated similarly to the Gini coefficient of income or wealth. Results range from 0 to 100 with 0 indicating perfect equality and 100 indicating perfect inequality.","sourceOrganization":"World Bank staff calculations based on Multiple Indicator Cluster Survey (MICS) data","topics":[{"id":"4","value":"Education "}]},{"id":"HH.MICS.YRS.15UP.GIN.F","name":"MICS: Gini coefficient of average years of schooling. Age 15+. Female","source":{"id":"12","value":"Education Statistics"},"sourceNote":"Gini coefficient of average years of schooling. Age 15+. Female measures the degree of inequality in years of schooling in a society. It is calculated similarly to the Gini coefficient of income or wealth. Results range from 0 to 100 with 0 indicating perfect equality and 100 indicating perfect inequality.","sourceOrganization":"World Bank staff calculations based on Multiple Indicator Cluster Survey (MICS) data","topics":[{"id":"4","value":"Education "}]},{"id":"HH.MICS.YRS.15UP.GIN","name":"MICS: Gini coefficient of average years of schooling. Age 15+","source":{"id":"12","value":"Education Statistics"},"sourceNote":"Gini coefficient of average years of schooling. Age 15+ measures the degree of inequality in years of schooling in a society. It is calculated similarly to the Gini coefficient of income or wealth. Results range from 0 to 100 with 0 indicating perfect equality and 100 indicating perfect inequality.","sourceOrganization":"World Bank staff calculations based on Multiple Indicator Cluster Survey (MICS) data","topics":[{"id":"4","value":"Education "}]},{"id":"HH.MICS.YRS.1519.U","name":"MICS: Average years of schooling by age group. Age 15-19. Urban","source":{"id":"12","value":"Education Statistics"},"sourceNote":"Average years of schooling by age group. Age 15-19. Urban is the number of years of formal schooling received, on average, by the urban population of the given age group.","sourceOrganization":"World Bank staff calculations based on Multiple Indicator Cluster Survey (MICS) data","topics":[{"id":"4","value":"Education "}]},{"id":"HH.MICS.YRS.1519.R","name":"MICS: Average years of schooling by age group. Age 15-19. Rural","source":{"id":"12","value":"Education Statistics"},"sourceNote":"Average years of schooling by age group. Age 15-19. Rural is the number of years of formal schooling received, on average, by the rural population of the given age group.","sourceOrganization":"World Bank staff calculations based on Multiple Indicator Cluster Survey (MICS) data","topics":[{"id":"4","value":"Education "}]},{"id":"HH.MICS.YRS.1519.Q5","name":"MICS: Average years of schooling by age group. Age 15-19. Quintile 5","source":{"id":"12","value":"Education Statistics"},"sourceNote":"Average years of schooling by age group. Age 15-19. Quintile 5 is the number of years of formal schooling received, on average, by the quintile 5 population of the given age group.","sourceOrganization":"World Bank staff calculations based on Multiple Indicator Cluster Survey (MICS) data","topics":[{"id":"4","value":"Education "}]},{"id":"HH.MICS.YRS.1519.Q4","name":"MICS: Average years of schooling by age group. Age 15-19. Quintile 4","source":{"id":"12","value":"Education Statistics"},"sourceNote":"Average years of schooling by age group. Age 15-19. Quintile 4 is the number of years of formal schooling received, on average, by the quintile 4 population of the given age group.","sourceOrganization":"World Bank staff calculations based on Multiple Indicator Cluster Survey (MICS) data","topics":[{"id":"4","value":"Education "}]},{"id":"HH.MICS.YRS.1519.Q3","name":"MICS: Average years of schooling by age group. Age 15-19. Quintile 3","source":{"id":"12","value":"Education Statistics"},"sourceNote":"Average years of schooling by age group. Age 15-19. Quintile 3 is the number of years of formal schooling received, on average, by the quintile 3 population of the given age group.","sourceOrganization":"World Bank staff calculations based on Multiple Indicator Cluster Survey (MICS) data","topics":[{"id":"4","value":"Education "}]},{"id":"HH.MICS.YRS.1519.Q2","name":"MICS: Average years of schooling by age group. Age 15-19. Quintile 2","source":{"id":"12","value":"Education Statistics"},"sourceNote":"Average years of schooling by age group. Age 15-19. Quintile 2 is the number of years of formal schooling received, on average, by the quintile 2 population of the given age group.","sourceOrganization":"World Bank staff calculations based on Multiple Indicator Cluster Survey (MICS) data","topics":[{"id":"4","value":"Education "}]},{"id":"HH.MICS.YRS.1519.Q1","name":"MICS: Average years of schooling by age group. Age 15-19. Quintile 1","source":{"id":"12","value":"Education Statistics"},"sourceNote":"Average years of schooling by age group. Age 15-19. Quintile 1 is the number of years of formal schooling received, on average, by the quintile 1 population of the given age group.","sourceOrganization":"World Bank staff calculations based on Multiple Indicator Cluster Survey (MICS) data","topics":[{"id":"4","value":"Education "}]},{"id":"HH.MICS.YRS.1519.M","name":"MICS: Average years of schooling by age group. Age 15-19. Male","source":{"id":"12","value":"Education Statistics"},"sourceNote":"Average years of schooling by age group. Age 15-19. Male is the number of years of formal schooling received, on average, by the male population of the given age group.","sourceOrganization":"World Bank staff calculations based on Multiple Indicator Cluster Survey (MICS) data","topics":[{"id":"4","value":"Education "}]},{"id":"HH.MICS.YRS.1519.F","name":"MICS: Average years of schooling by age group. Age 15-19. Female","source":{"id":"12","value":"Education Statistics"},"sourceNote":"Average years of schooling by age group. Age 15-19. Female is the number of years of formal schooling received, on average, by the female population of the given age group.","sourceOrganization":"World Bank staff calculations based on Multiple Indicator Cluster Survey (MICS) data","topics":[{"id":"4","value":"Education "}]},{"id":"HH.MICS.YRS.1519","name":"MICS: Average years of schooling by age group. Age 15-19","source":{"id":"12","value":"Education Statistics"},"sourceNote":"Average years of schooling by age group. Age 15-19 is the number of years of formal schooling received, on average, by the population of the given age group.","sourceOrganization":"World Bank staff calculations based on Multiple Indicator Cluster Survey (MICS) data","topics":[{"id":"4","value":"Education "}]},{"id":"HH.MICS.TR.12.U","name":"MICS: Transition rate. Primary to Secondary. Urban","source":{"id":"12","value":"Education Statistics"},"sourceNote":"Transition rate. Primary to Secondary. Urban is the proportion of urban pupils in the last grade of primary who transition to the first grade of secondary the following school year.","sourceOrganization":"World Bank staff calculations based on Multiple Indicator Cluster Survey (MICS) data","topics":[{"id":"4","value":"Education "}]},{"id":"HH.MICS.TR.12.R","name":"MICS: Transition rate. Primary to Secondary. Rural","source":{"id":"12","value":"Education Statistics"},"sourceNote":"Transition rate. Primary to Secondary. Rural is the proportion of rural pupils in the last grade of primary who transition to the first grade of secondary the following school year.","sourceOrganization":"World Bank staff calculations based on Multiple Indicator Cluster Survey (MICS) data","topics":[{"id":"4","value":"Education "}]},{"id":"HH.MICS.TR.12.Q5","name":"MICS: Transition rate. Primary to Secondary. Quintile 5","source":{"id":"12","value":"Education Statistics"},"sourceNote":"Transition rate. Primary to Secondary. Quintile 5 is the proportion of quintile 5 pupils in the last grade of primary who transition to the first grade of secondary the following school year.","sourceOrganization":"World Bank staff calculations based on Multiple Indicator Cluster Survey (MICS) data","topics":[{"id":"4","value":"Education "}]},{"id":"HH.MICS.TR.12.Q4","name":"MICS: Transition rate. Primary to Secondary. Quintile 4","source":{"id":"12","value":"Education Statistics"},"sourceNote":"Transition rate. Primary to Secondary. Quintile 4 is the proportion of quintile 4 pupils in the last grade of primary who transition to the first grade of secondary the following school year.","sourceOrganization":"World Bank staff calculations based on Multiple Indicator Cluster Survey (MICS) data","topics":[{"id":"4","value":"Education "}]},{"id":"HH.MICS.TR.12.Q3","name":"MICS: Transition rate. Primary to Secondary. Quintile 3","source":{"id":"12","value":"Education Statistics"},"sourceNote":"Transition rate. Primary to Secondary. Quintile 3 is the proportion of quintile 3 pupils in the last grade of primary who transition to the first grade of secondary the following school year.","sourceOrganization":"World Bank staff calculations based on Multiple Indicator Cluster Survey (MICS) data","topics":[{"id":"4","value":"Education "}]},{"id":"HH.MICS.TR.12.Q2","name":"MICS: Transition rate. Primary to Secondary. Quintile 2","source":{"id":"12","value":"Education Statistics"},"sourceNote":"Transition rate. Primary to Secondary. Quintile 2 is the proportion of quintile 2 pupils in the last grade of primary who transition to the first grade of secondary the following school year.","sourceOrganization":"World Bank staff calculations based on Multiple Indicator Cluster Survey (MICS) data","topics":[{"id":"4","value":"Education "}]},{"id":"HH.MICS.TR.12.Q1","name":"MICS: Transition rate. Primary to Secondary. Quintile 1","source":{"id":"12","value":"Education Statistics"},"sourceNote":"Transition rate. Primary to Secondary. Quintile 1 is the proportion of quintile 1 pupils in the last grade of primary who transition to the first grade of secondary the following school year.","sourceOrganization":"World Bank staff calculations based on Multiple Indicator Cluster Survey (MICS) data","topics":[{"id":"4","value":"Education "}]},{"id":"HH.MICS.TR.12.M","name":"MICS: Transition rate. Primary to Secondary. Male","source":{"id":"12","value":"Education Statistics"},"sourceNote":"Transition rate. Primary to Secondary. Male is the proportion of male pupils in the last grade of primary who transition to the first grade of secondary the following school year.","sourceOrganization":"World Bank staff calculations based on Multiple Indicator Cluster Survey (MICS) data","topics":[{"id":"4","value":"Education "}]},{"id":"HH.MICS.TR.12.F","name":"MICS: Transition rate. Primary to Secondary. Female","source":{"id":"12","value":"Education Statistics"},"sourceNote":"Transition rate. Primary to Secondary. Female is the proportion of female pupils in the last grade of primary who transition to the first grade of secondary the following school year.","sourceOrganization":"World Bank staff calculations based on Multiple Indicator Cluster Survey (MICS) data","topics":[{"id":"4","value":"Education "}]},{"id":"HH.MICS.TR.12","name":"MICS: Transition rate. Primary to Secondary","source":{"id":"12","value":"Education Statistics"},"sourceNote":"Transition rate. Primary to Secondary is the proportion of pupils in the last grade of primary who transition to the first grade of secondary the following school year.","sourceOrganization":"World Bank staff calculations based on Multiple Indicator Cluster Survey (MICS) data","topics":[{"id":"4","value":"Education "}]},{"id":"HH.MICS.SCR.U","name":"MICS: Secondary completion rate. Urban","source":{"id":"12","value":"Education Statistics"},"sourceNote":"Secondary completion rate. Urban is the total number of urban students of any age in last grade of secondary school, minus the number of urban repeaters in that grade, divided by the number of urban children of official graduation age. The completion rate can exceed 100 percent if there are many overage students in the last grade of secondary school.","sourceOrganization":"World Bank staff calculations based on Multiple Indicator Cluster Survey (MICS) data","topics":[{"id":"4","value":"Education "}]},{"id":"HH.MICS.SCR.R","name":"MICS: Secondary completion rate. Rural","source":{"id":"12","value":"Education Statistics"},"sourceNote":"Secondary completion rate. Rural is the total number of rural students of any age in last grade of secondary school, minus the number of rural repeaters in that grade, divided by the number of rural children of official graduation age. The completion rate can exceed 100 percent if there are many overage students in the last grade of secondary school.","sourceOrganization":"World Bank staff calculations based on Multiple Indicator Cluster Survey (MICS) data","topics":[{"id":"4","value":"Education "}]}]]