[{"page":26,"pages":324,"per_page":"50","total":16174},[{"id":"BAR.SCHL.4044.FE","name":"Barro-Lee: Average years of total schooling, age 40-44, female","source":{"id":"12","value":"Education Statistics"},"sourceNote":"Average years of total schooling, 40-44, female is the average years of education completed among females age 40-44.","sourceOrganization":"Robert J. Barro and Jong-Wha Lee: http:\/\/www.barrolee.com\/","topics":[{"id":"4","value":"Education "}]},{"id":"BAR.SCHL.4044","name":"Barro-Lee: Average years of total schooling, age 40-44, total","source":{"id":"12","value":"Education Statistics"},"sourceNote":"Average years of total schooling, 40-44, total is the average years of education completed among people age 40-44.","sourceOrganization":"Robert J. Barro and Jong-Wha Lee: http:\/\/www.barrolee.com\/","topics":[{"id":"4","value":"Education "}]},{"id":"BAR.SCHL.3539.FE","name":"Barro-Lee: Average years of total schooling, age 35-39, female","source":{"id":"12","value":"Education Statistics"},"sourceNote":"Average years of total schooling, 35-39, female is the average years of education completed among females age 35-39.","sourceOrganization":"Robert J. Barro and Jong-Wha Lee: http:\/\/www.barrolee.com\/","topics":[{"id":"4","value":"Education "}]},{"id":"BAR.SCHL.3539","name":"Barro-Lee: Average years of total schooling, age 35-39, total","source":{"id":"12","value":"Education Statistics"},"sourceNote":"Average years of total schooling, 35-39, total is the average years of education completed among people age 35-39.","sourceOrganization":"Robert J. Barro and Jong-Wha Lee: http:\/\/www.barrolee.com\/","topics":[{"id":"4","value":"Education "}]},{"id":"BAR.SCHL.3034.FE","name":"Barro-Lee: Average years of total schooling, age 30-34, female","source":{"id":"12","value":"Education Statistics"},"sourceNote":"Average years of total schooling, 30-34, female is the average years of education completed among females age 30-34.","sourceOrganization":"Robert J. Barro and Jong-Wha Lee: http:\/\/www.barrolee.com\/","topics":[{"id":"4","value":"Education "}]},{"id":"BAR.SCHL.3034","name":"Barro-Lee: Average years of total schooling, age 30-34, total","source":{"id":"12","value":"Education Statistics"},"sourceNote":"Average years of total schooling, 30-34, total is the average years of education completed among people age 30-34.","sourceOrganization":"Robert J. Barro and Jong-Wha Lee: http:\/\/www.barrolee.com\/","topics":[{"id":"4","value":"Education "}]},{"id":"BAR.SCHL.25UP.FE","name":"Barro-Lee: Average years of total schooling, age 25+, female","source":{"id":"12","value":"Education Statistics"},"sourceNote":"Average years of total schooling, 25+, female is the average years of education completed among females over age 25.","sourceOrganization":"Robert J. Barro and Jong-Wha Lee: http:\/\/www.barrolee.com\/","topics":[{"id":"4","value":"Education "}]},{"id":"BAR.SCHL.25UP","name":"Barro-Lee: Average years of total schooling, age 25+, total","source":{"id":"12","value":"Education Statistics"},"sourceNote":"Average years of total schooling, 25+, total is the average years of education completed among people over age 25.","sourceOrganization":"Robert J. Barro and Jong-Wha Lee: http:\/\/www.barrolee.com\/","topics":[{"id":"4","value":"Education "}]},{"id":"BAR.SCHL.2529.FE","name":"Barro-Lee: Average years of total schooling, age 25-29, female","source":{"id":"12","value":"Education Statistics"},"sourceNote":"Average years of total schooling, 25-29, female is the average years of education completed among females age 25-29.","sourceOrganization":"Robert J. Barro and Jong-Wha Lee: http:\/\/www.barrolee.com\/","topics":[{"id":"4","value":"Education "}]},{"id":"BAR.SCHL.2529","name":"Barro-Lee: Average years of total schooling, age 25-29, total","source":{"id":"12","value":"Education Statistics"},"sourceNote":"Average years of total schooling, 25-29, total is the average years of education completed among people age 25-29.","sourceOrganization":"Robert J. Barro and Jong-Wha Lee: http:\/\/www.barrolee.com\/","topics":[{"id":"4","value":"Education "}]},{"id":"BAR.SCHL.2024.FE","name":"Barro-Lee: Average years of total schooling, age 20-24, female","source":{"id":"12","value":"Education Statistics"},"sourceNote":"Average years of total schooling, 20-24, female is the average years of education completed among females age 20-24.","sourceOrganization":"Robert J. Barro and Jong-Wha Lee: http:\/\/www.barrolee.com\/","topics":[{"id":"4","value":"Education "}]},{"id":"BAR.SCHL.2024","name":"Barro-Lee: Average years of total schooling, age 20-24, total","source":{"id":"12","value":"Education Statistics"},"sourceNote":"Average years of total schooling, 20-24, total is the average years of education completed among people age 20-24.","sourceOrganization":"Robert J. Barro and Jong-Wha Lee: http:\/\/www.barrolee.com\/","topics":[{"id":"4","value":"Education "}]},{"id":"BAR.SCHL.15UP.FE","name":"Barro-Lee: Average years of total schooling, age 15+, female","source":{"id":"12","value":"Education Statistics"},"sourceNote":"Average years of total schooling, 15+, female is the average years of education completed among females over age 15.","sourceOrganization":"Robert J. Barro and Jong-Wha Lee: http:\/\/www.barrolee.com\/","topics":[{"id":"4","value":"Education "}]},{"id":"BAR.SCHL.15UP","name":"Barro-Lee: Average years of total schooling, age 15+, total","source":{"id":"12","value":"Education Statistics"},"sourceNote":"Average years of total schooling, 15+, total is the average years of education completed among people over age 15.","sourceOrganization":"Robert J. Barro and Jong-Wha Lee: http:\/\/www.barrolee.com\/","topics":[{"id":"4","value":"Education "}]},{"id":"BAR.SCHL.1519.FE","name":"Barro-Lee: Average years of total schooling, age 15-19, female","source":{"id":"12","value":"Education Statistics"},"sourceNote":"Average years of total schooling, 15-19, female is the average years of education completed among females age 15-19.","sourceOrganization":"Robert J. Barro and Jong-Wha Lee: http:\/\/www.barrolee.com\/","topics":[{"id":"4","value":"Education "}]},{"id":"BAR.SCHL.1519","name":"Barro-Lee: Average years of total schooling, age 15-19, total","source":{"id":"12","value":"Education Statistics"},"sourceNote":"Average years of total schooling, 15-19, total is the average years of education completed among people age 15-19.","sourceOrganization":"Robert J. Barro and Jong-Wha Lee: http:\/\/www.barrolee.com\/","topics":[{"id":"4","value":"Education "}]},{"id":"BAR.PRM.SCHL.75UP.FE","name":"Barro-Lee: Average years of primary schooling, age 75+, female","source":{"id":"12","value":"Education Statistics"},"sourceNote":"Average years of primary schooling, 75+, female is the average years of primary education completed among females over age 75.","sourceOrganization":"Robert J. Barro and Jong-Wha Lee: http:\/\/www.barrolee.com\/","topics":[]},{"id":"BAR.PRM.SCHL.75UP","name":"Barro-Lee: Average years of primary schooling, age 75+, total","source":{"id":"12","value":"Education Statistics"},"sourceNote":"Average years of primary schooling, 75+, total is the average years of primary education completed among people over age 75.","sourceOrganization":"Robert J. Barro and Jong-Wha Lee: http:\/\/www.barrolee.com\/","topics":[]},{"id":"BAR.PRM.SCHL.7074.FE","name":"Barro-Lee: Average years of primary schooling, age 70-74, female","source":{"id":"12","value":"Education Statistics"},"sourceNote":"Average years of primary schooling, 70-74, female is the average years of primary education completed among females age 70-74.","sourceOrganization":"Robert J. Barro and Jong-Wha Lee: http:\/\/www.barrolee.com\/","topics":[]},{"id":"BAR.PRM.SCHL.7074","name":"Barro-Lee: Average years of primary schooling, age 70-74, total","source":{"id":"12","value":"Education Statistics"},"sourceNote":"Average years of primary schooling, 70-74, total is the average years of primary education completed among people age 70-74.","sourceOrganization":"Robert J. Barro and Jong-Wha Lee: http:\/\/www.barrolee.com\/","topics":[]},{"id":"BAR.PRM.SCHL.6569.FE","name":"Barro-Lee: Average years of primary schooling, age 65-69, female","source":{"id":"12","value":"Education Statistics"},"sourceNote":"Average years of primary schooling, 65-69, female is the average years of primary education completed among females age 65-69.","sourceOrganization":"Robert J. Barro and Jong-Wha Lee: http:\/\/www.barrolee.com\/","topics":[]},{"id":"BAR.PRM.SCHL.6569","name":"Barro-Lee: Average years of primary schooling, age 65-69, total","source":{"id":"12","value":"Education Statistics"},"sourceNote":"Average years of primary schooling, 65-69, total is the average years of primary education completed among people age 65-69.","sourceOrganization":"Robert J. Barro and Jong-Wha Lee: http:\/\/www.barrolee.com\/","topics":[]},{"id":"BAR.PRM.SCHL.6064.FE","name":"Barro-Lee: Average years of primary schooling, age 60-64, female","source":{"id":"12","value":"Education Statistics"},"sourceNote":"Average years of primary schooling, 60-64, female is the average years of primary education completed among females age 60-64.","sourceOrganization":"Robert J. Barro and Jong-Wha Lee: http:\/\/www.barrolee.com\/","topics":[{"id":"4","value":"Education "}]},{"id":"BAR.PRM.SCHL.6064","name":"Barro-Lee: Average years of primary schooling, age 60-64, total","source":{"id":"12","value":"Education Statistics"},"sourceNote":"Average years of primary schooling, 60-64, total is the average years of primary education completed among people age 60-64.","sourceOrganization":"Robert J. Barro and Jong-Wha Lee: http:\/\/www.barrolee.com\/","topics":[{"id":"4","value":"Education "}]},{"id":"BAR.PRM.SCHL.5559.FE","name":"Barro-Lee: Average years of primary schooling, age 55-59, female","source":{"id":"12","value":"Education Statistics"},"sourceNote":"Average years of primary schooling, 55-59, female is the average years of primary education completed among females age 55-59.","sourceOrganization":"Robert J. Barro and Jong-Wha Lee: http:\/\/www.barrolee.com\/","topics":[{"id":"4","value":"Education "}]},{"id":"BAR.PRM.SCHL.5559","name":"Barro-Lee: Average years of primary schooling, age 55-59, total","source":{"id":"12","value":"Education Statistics"},"sourceNote":"Average years of primary schooling, 55-59, total is the average years of primary education completed among people age 55-59.","sourceOrganization":"Robert J. Barro and Jong-Wha Lee: http:\/\/www.barrolee.com\/","topics":[{"id":"4","value":"Education "}]},{"id":"BAR.PRM.SCHL.5054.FE","name":"Barro-Lee: Average years of primary schooling, age 50-54, female","source":{"id":"12","value":"Education Statistics"},"sourceNote":"Average years of primary schooling, 50-54, female is the average years of primary education completed among females age 50-54.","sourceOrganization":"Robert J. Barro and Jong-Wha Lee: http:\/\/www.barrolee.com\/","topics":[{"id":"4","value":"Education "}]},{"id":"BAR.PRM.SCHL.5054","name":"Barro-Lee: Average years of primary schooling, age 50-54, total","source":{"id":"12","value":"Education Statistics"},"sourceNote":"Average years of primary schooling, 50-54, total is the average years of primary education completed among people age 50-54.","sourceOrganization":"Robert J. Barro and Jong-Wha Lee: http:\/\/www.barrolee.com\/","topics":[{"id":"4","value":"Education "}]},{"id":"BAR.PRM.SCHL.4549.FE","name":"Barro-Lee: Average years of primary schooling, age 45-49, female","source":{"id":"12","value":"Education Statistics"},"sourceNote":"Average years of primary schooling, 45-49, female is the average years of primary education completed among females age 45-49.","sourceOrganization":"Robert J. Barro and Jong-Wha Lee: http:\/\/www.barrolee.com\/","topics":[{"id":"4","value":"Education "}]},{"id":"BAR.PRM.SCHL.4549","name":"Barro-Lee: Average years of primary schooling, age 45-49, total","source":{"id":"12","value":"Education Statistics"},"sourceNote":"Average years of primary schooling, 45-49, total is the average years of primary education completed among people age 45-49.","sourceOrganization":"Robert J. Barro and Jong-Wha Lee: http:\/\/www.barrolee.com\/","topics":[{"id":"4","value":"Education "}]},{"id":"BAR.PRM.SCHL.4044.FE","name":"Barro-Lee: Average years of primary schooling, age 40-44, female","source":{"id":"12","value":"Education Statistics"},"sourceNote":"Average years of primary schooling, 40-44, female is the average years of primary education completed among females age 40-44.","sourceOrganization":"Robert J. Barro and Jong-Wha Lee: http:\/\/www.barrolee.com\/","topics":[{"id":"4","value":"Education "}]},{"id":"BAR.PRM.SCHL.4044","name":"Barro-Lee: Average years of primary schooling, age 40-44, total","source":{"id":"12","value":"Education Statistics"},"sourceNote":"Average years of primary schooling, 40-44, total is the average years of primary education completed among people age 40-44.","sourceOrganization":"Robert J. Barro and Jong-Wha Lee: http:\/\/www.barrolee.com\/","topics":[{"id":"4","value":"Education "}]},{"id":"BAR.PRM.SCHL.3539.FE","name":"Barro-Lee: Average years of primary schooling, age 35-39, female","source":{"id":"12","value":"Education Statistics"},"sourceNote":"Average years of primary schooling, 35-39, female is the average years of primary education completed among females age 35-39.","sourceOrganization":"Robert J. Barro and Jong-Wha Lee: http:\/\/www.barrolee.com\/","topics":[{"id":"4","value":"Education "}]},{"id":"BAR.PRM.SCHL.3539","name":"Barro-Lee: Average years of primary schooling, age 35-39, total","source":{"id":"12","value":"Education Statistics"},"sourceNote":"Average years of primary schooling, 35-39, total is the average years of primary education completed among people age 35-39.","sourceOrganization":"Robert J. Barro and Jong-Wha Lee: http:\/\/www.barrolee.com\/","topics":[{"id":"4","value":"Education "}]},{"id":"BAR.PRM.SCHL.3034.FE","name":"Barro-Lee: Average years of primary schooling, age 30-34, female","source":{"id":"12","value":"Education Statistics"},"sourceNote":"Average years of primary schooling, 30-34, female is the average years of primary education completed among females age 30-34.","sourceOrganization":"Robert J. Barro and Jong-Wha Lee: http:\/\/www.barrolee.com\/","topics":[{"id":"4","value":"Education "}]},{"id":"BAR.PRM.SCHL.3034","name":"Barro-Lee: Average years of primary schooling, age 30-34, total","source":{"id":"12","value":"Education Statistics"},"sourceNote":"Average years of primary schooling, 30-34, total is the average years of primary education completed among people age 30-34.","sourceOrganization":"Robert J. Barro and Jong-Wha Lee: http:\/\/www.barrolee.com\/","topics":[{"id":"4","value":"Education "}]},{"id":"BAR.PRM.SCHL.25UP.FE","name":"Barro-Lee: Average years of primary schooling, age 25+, female","source":{"id":"12","value":"Education Statistics"},"sourceNote":"Average years of primary schooling, 25+, female is the average years of primary education completed among females over age 25.","sourceOrganization":"Robert J. Barro and Jong-Wha Lee: http:\/\/www.barrolee.com\/","topics":[{"id":"4","value":"Education "}]},{"id":"BAR.PRM.SCHL.25UP","name":"Barro-Lee: Average years of primary schooling, age 25+, total","source":{"id":"12","value":"Education Statistics"},"sourceNote":"Average years of primary schooling, 25+, total is the average years of primary education completed among people over age 25.","sourceOrganization":"Robert J. Barro and Jong-Wha Lee: http:\/\/www.barrolee.com\/","topics":[{"id":"4","value":"Education "}]},{"id":"BAR.PRM.SCHL.2529.FE","name":"Barro-Lee: Average years of primary schooling, age 25-29, female","source":{"id":"12","value":"Education Statistics"},"sourceNote":"Average years of primary schooling, 25-29, female is the average years of primary education completed among females age 25-29.","sourceOrganization":"Robert J. Barro and Jong-Wha Lee: http:\/\/www.barrolee.com\/","topics":[{"id":"4","value":"Education "}]},{"id":"BAR.PRM.SCHL.2529","name":"Barro-Lee: Average years of primary schooling, age 25-29, total","source":{"id":"12","value":"Education Statistics"},"sourceNote":"Average years of primary schooling, 25-29, total is the average years of primary education completed among people age 25-29.","sourceOrganization":"Robert J. Barro and Jong-Wha Lee: http:\/\/www.barrolee.com\/","topics":[{"id":"4","value":"Education "}]},{"id":"BAR.PRM.SCHL.2024.FE","name":"Barro-Lee: Average years of primary schooling, age 20-24, female","source":{"id":"12","value":"Education Statistics"},"sourceNote":"Average years of primary schooling, 20-24, female is the average years of primary education completed among females age 20-24.","sourceOrganization":"Robert J. Barro and Jong-Wha Lee: http:\/\/www.barrolee.com\/","topics":[{"id":"4","value":"Education "}]},{"id":"BAR.PRM.SCHL.2024","name":"Barro-Lee: Average years of primary schooling, age 20-24, total","source":{"id":"12","value":"Education Statistics"},"sourceNote":"Average years of primary schooling, 20-24, total is the average years of primary education completed among people age 20-24.","sourceOrganization":"Robert J. Barro and Jong-Wha Lee: http:\/\/www.barrolee.com\/","topics":[{"id":"4","value":"Education "}]},{"id":"BAR.PRM.SCHL.15UP.FE","name":"Barro-Lee: Average years of primary schooling, age 15+, female","source":{"id":"12","value":"Education Statistics"},"sourceNote":"Average years of primary schooling, 15+, female is the average years of primary education completed among females over age 15.","sourceOrganization":"Robert J. Barro and Jong-Wha Lee: http:\/\/www.barrolee.com\/","topics":[{"id":"4","value":"Education "}]},{"id":"BAR.PRM.SCHL.15UP","name":"Barro-Lee: Average years of primary schooling, age 15+, total","source":{"id":"12","value":"Education Statistics"},"sourceNote":"Average years of primary schooling, 15+, total is the average years of primary education completed among people over age 15.","sourceOrganization":"Robert J. Barro and Jong-Wha Lee: http:\/\/www.barrolee.com\/","topics":[{"id":"4","value":"Education "}]},{"id":"BAR.PRM.SCHL.1519.FE","name":"Barro-Lee: Average years of primary schooling, age 15-19, female","source":{"id":"12","value":"Education Statistics"},"sourceNote":"Average years of primary schooling, 15-19, female is the average years of primary education completed among females age 15-19.","sourceOrganization":"Robert J. Barro and Jong-Wha Lee: http:\/\/www.barrolee.com\/","topics":[{"id":"4","value":"Education "}]},{"id":"BAR.PRM.SCHL.1519","name":"Barro-Lee: Average years of primary schooling, age 15-19, total","source":{"id":"12","value":"Education Statistics"},"sourceNote":"Average years of primary schooling, 15-19, total is the average years of primary education completed among people age 15-19.","sourceOrganization":"Robert J. Barro and Jong-Wha Lee: http:\/\/www.barrolee.com\/","topics":[{"id":"4","value":"Education "}]},{"id":"BAR.PRM.ICMP.75UP.ZS","name":"Barro-Lee: Percentage of population age 75+ with primary schooling. Total (Incomplete and Completed Primary)","source":{"id":"12","value":"Education Statistics"},"sourceNote":"Percentage of population age 75+ with primary schooling. Total (Incomplete and Completed Primary)","sourceOrganization":"Robert J. Barro and Jong-Wha Lee: http:\/\/www.barrolee.com\/","topics":[]},{"id":"BAR.PRM.ICMP.75UP.FE.ZS","name":"Barro-Lee: Percentage of female population age 75+ with primary schooling. Total (Incomplete and Completed Primary)","source":{"id":"12","value":"Education Statistics"},"sourceNote":"Percentage of female population age 75+ with primary schooling. Total (Incomplete and Completed Primary)","sourceOrganization":"Robert J. Barro and Jong-Wha Lee: http:\/\/www.barrolee.com\/","topics":[]},{"id":"BAR.PRM.ICMP.7074.ZS","name":"Barro-Lee: Percentage of population age 70-74 with primary schooling. Total (Incomplete and Completed Primary)","source":{"id":"12","value":"Education Statistics"},"sourceNote":"Percentage of population age 70-74 with primary schooling. Total (Incomplete and Completed Primary)","sourceOrganization":"Robert J. Barro and Jong-Wha Lee: http:\/\/www.barrolee.com\/","topics":[]},{"id":"BAR.PRM.ICMP.7074.FE.ZS","name":"Barro-Lee: Percentage of female population age 70-74 with primary schooling. Total (Incomplete and Completed Primary)","source":{"id":"12","value":"Education Statistics"},"sourceNote":"Percentage of female population age 70-74 with primary schooling. Total (Incomplete and Completed Primary)","sourceOrganization":"Robert J. Barro and Jong-Wha Lee: http:\/\/www.barrolee.com\/","topics":[{}]}]]