[{"page":37,"pages":324,"per_page":"50","total":16174},[{"id":"db_approvie_9_dismiss","name":"Third-party approval if 9 workers are dismissed?","source":{"id":"25","value":"Jobs for Knowledge Platform"},"sourceNote":"Is third-party approval required if 9 workers are dismissed? (Yes=1; No=0)","sourceOrganization":"World Bank, Doing Business project (http:\/\/www.doingbusiness.org).","topics":[]},{"id":"db_approve_1_dismiss","name":"Third-party approval if 1 worker is dismissed?","source":{"id":"25","value":"Jobs for Knowledge Platform"},"sourceNote":"Is third-party approval required if 1 worker is dismissed? (Yes=1; No=0)","sourceOrganization":"World Bank, Doing Business project (http:\/\/www.doingbusiness.org).","topics":[]},{"id":"DAP","name":"DAP, $\/mt, current$","source":{"id":"21","value":"Global Economic Monitor (GEM) Commodities"},"sourceNote":"DAP (diammonium phosphate), standard size, bulk, spot, f.o.b. US Gulf","sourceOrganization":"Fertilizer Week; Fertilizer International; World Bank.","topics":[]},{"id":"DAK.VILG.CR","name":"Total Specific Allocation Grant for Village (in IDR Billion)","source":{"id":"45","value":"INDO-DAPOER"},"sourceNote":"","sourceOrganization":"Ministry of Finance, Ministry of Finance Regulation","topics":[]},{"id":"DAK.TRAD.CR","name":"Total Specific Allocation Grant for Trade (in IDR Billion)","source":{"id":"45","value":"INDO-DAPOER"},"sourceNote":"","sourceOrganization":"Ministry of Finance, Ministry of Finance Regulation","topics":[]},{"id":"DAK.POP.CR","name":"Total Specific Allocation Grant for Demographic (in IDR Billion)","source":{"id":"45","value":"INDO-DAPOER"},"sourceNote":"","sourceOrganization":"Ministry of Finance, Ministry of Finance Regulation","topics":[]},{"id":"DAK.INFR.ROD.CR","name":"Total Specific Allocation Grant for Infrastructure Sector (Subsect: Road) (in IDR Billion)","source":{"id":"45","value":"INDO-DAPOER"},"sourceNote":"","sourceOrganization":"Ministry of Finance, Ministry of Finance Regulation","topics":[]},{"id":"DAK.INFR.IRIG.CR","name":"Total Specific Allocation Grant for Infrastructure Sector (Subsect: Irrigation) (in IDR Billion)","source":{"id":"45","value":"INDO-DAPOER"},"sourceNote":"","sourceOrganization":"Ministry of Finance, Ministry of Finance Regulation","topics":[]},{"id":"DAK.INFR.H2O.CR","name":"Total Specific Allocation Grant for Infrastructure Sector (Subsect: Water) (in IDR Billion)","source":{"id":"45","value":"INDO-DAPOER"},"sourceNote":"","sourceOrganization":"Ministry of Finance, Ministry of Finance Regulation","topics":[]},{"id":"DAK.INFR.CR","name":"Total Specific Allocation Grant for Infrastructure (in IDR Billion)","source":{"id":"45","value":"INDO-DAPOER"},"sourceNote":"","sourceOrganization":"Ministry of Finance, Ministry of Finance Regulation","topics":[]},{"id":"DAK.HE.RSRV.CR","name":"Total Specific Allocation Grant for Health Sector (Subsect: Recommended Services) (in IDR Billion)","source":{"id":"45","value":"INDO-DAPOER"},"sourceNote":"","sourceOrganization":"Ministry of Finance, Ministry of Finance Regulation","topics":[]},{"id":"DAK.HE.CR","name":"Total Specific Allocation Grant for Health (in IDR Billion)","source":{"id":"45","value":"INDO-DAPOER"},"sourceNote":"","sourceOrganization":"Ministry of Finance, Ministry of Finance Regulation","topics":[]},{"id":"DAK.HE.BSRV.CR","name":"Total Specific Allocation Grant for Health Sector (Subsect: Basic Services) (in IDR Billion)","source":{"id":"45","value":"INDO-DAPOER"},"sourceNote":"","sourceOrganization":"Ministry of Finance, Ministry of Finance Regulation","topics":[]},{"id":"DAK.GOVT.CR","name":"Total Specific Allocation Grant for Government Sector (in IDR Billion)","source":{"id":"45","value":"INDO-DAPOER"},"sourceNote":"","sourceOrganization":"Ministry of Finance, Ministry of Finance Regulation","topics":[]},{"id":"DAK.FSH.CR","name":"Total Specific Allocation Grant for Fishery (in IDR Billion)","source":{"id":"45","value":"INDO-DAPOER"},"sourceNote":"","sourceOrganization":"Ministry of Finance, Ministry of Finance Regulation","topics":[]},{"id":"DAK.FRST.CR","name":"Total Specific Allocation Grant for Forestry (in IDR Billion)","source":{"id":"45","value":"INDO-DAPOER"},"sourceNote":"","sourceOrganization":"Ministry of Finance, Ministry of Finance Regulation","topics":[]},{"id":"DAK.ENVR.CR","name":"Total Specific Allocation Grant for Environment (in IDR Billion)","source":{"id":"45","value":"INDO-DAPOER"},"sourceNote":"","sourceOrganization":"Ministry of Finance, Ministry of Finance Regulation","topics":[]},{"id":"DAK.EDU.CR","name":"Total Specific Allocation Grant for Education (in IDR Billion)","source":{"id":"45","value":"INDO-DAPOER"},"sourceNote":"","sourceOrganization":"Ministry of Finance, Ministry of Finance Regulation","topics":[]},{"id":"DAK.AGR.CR","name":"Total Specific Allocation Grant for Agriculture (in IDR Billion)","source":{"id":"45","value":"INDO-DAPOER"},"sourceNote":"","sourceOrganization":"Ministry of Finance, Ministry of Finance Regulation","topics":[]},{"id":"D6iii","name":"80.Product Survival Rate of 2-year Incumbents: StDev","source":{"id":"30","value":"Exporter Dynamics Database: Country-Year"},"sourceNote":"Exporter-level information on export transactions - Customs","sourceOrganization":"","topics":[]},{"id":"D6ii","name":"79.Product Survival Rate of 2-year Incumbents: Median","source":{"id":"30","value":"Exporter Dynamics Database: Country-Year"},"sourceNote":"Exporter-level information on export transactions - Customs","sourceOrganization":"","topics":[]},{"id":"D6i","name":"78.Product Survival Rate of 2-year Incumbents: Mean","source":{"id":"30","value":"Exporter Dynamics Database: Country-Year"},"sourceNote":"Exporter-level information on export transactions - Customs","sourceOrganization":"","topics":[]},{"id":"D5iii","name":"77.Product Exit Rate of Incumbents: StDev","source":{"id":"30","value":"Exporter Dynamics Database: Country-Year"},"sourceNote":"Exporter-level information on export transactions - Customs","sourceOrganization":"","topics":[]},{"id":"D5ii","name":"76.Product Exit Rate of Incumbents: Median","source":{"id":"30","value":"Exporter Dynamics Database: Country-Year"},"sourceNote":"Exporter-level information on export transactions - Customs","sourceOrganization":"","topics":[]},{"id":"D5i","name":"75.Product Exit Rate of Incumbents: Mean","source":{"id":"30","value":"Exporter Dynamics Database: Country-Year"},"sourceNote":"Exporter-level information on export transactions - Customs","sourceOrganization":"","topics":[]},{"id":"D4iii","name":"74.Share of New Products in TEV of Survivors: StDev","source":{"id":"30","value":"Exporter Dynamics Database: Country-Year"},"sourceNote":"Exporter-level information on export transactions - Customs","sourceOrganization":"","topics":[]},{"id":"D4ii","name":"73.Share of New Products in TEV of Survivors: Median","source":{"id":"30","value":"Exporter Dynamics Database: Country-Year"},"sourceNote":"Exporter-level information on export transactions - Customs","sourceOrganization":"","topics":[]},{"id":"D4i","name":"72.Share of New Products in TEV of Survivors: Mean","source":{"id":"30","value":"Exporter Dynamics Database: Country-Year"},"sourceNote":"Exporter-level information on export transactions - Customs","sourceOrganization":"","topics":[]},{"id":"D3iii","name":"71.Share of New Products in TEV of Incumbents: StDev","source":{"id":"30","value":"Exporter Dynamics Database: Country-Year"},"sourceNote":"Exporter-level information on export transactions - Customs","sourceOrganization":"","topics":[]},{"id":"D3ii","name":"70.Share of New Products in TEV of Incumbents: Median","source":{"id":"30","value":"Exporter Dynamics Database: Country-Year"},"sourceNote":"Exporter-level information on export transactions - Customs","sourceOrganization":"","topics":[]},{"id":"D3i","name":"69.Share of New Products in TEV of Incumbents: Mean","source":{"id":"30","value":"Exporter Dynamics Database: Country-Year"},"sourceNote":"Exporter-level information on export transactions - Customs","sourceOrganization":"","topics":[]},{"id":"D2iii","name":"68.Product Entry Rate of Survivors: StDev","source":{"id":"30","value":"Exporter Dynamics Database: Country-Year"},"sourceNote":"Exporter-level information on export transactions - Customs","sourceOrganization":"","topics":[]},{"id":"D2ii","name":"67.Product Entry Rate of Survivors: Median","source":{"id":"30","value":"Exporter Dynamics Database: Country-Year"},"sourceNote":"Exporter-level information on export transactions - Customs","sourceOrganization":"","topics":[]},{"id":"D2i","name":"66.Product Entry Rate of Survivors: Mean","source":{"id":"30","value":"Exporter Dynamics Database: Country-Year"},"sourceNote":"Exporter-level information on export transactions - Customs","sourceOrganization":"","topics":[]},{"id":"D1iii","name":"65.Product Entry Rate of Incumbents: StDev","source":{"id":"30","value":"Exporter Dynamics Database: Country-Year"},"sourceNote":"Exporter-level information on export transactions - Customs","sourceOrganization":"","topics":[]},{"id":"D1ii","name":"64.Product Entry Rate of Incumbents: Median","source":{"id":"30","value":"Exporter Dynamics Database: Country-Year"},"sourceNote":"Exporter-level information on export transactions - Customs","sourceOrganization":"","topics":[]},{"id":"D1i","name":"63.Product Entry Rate of Incumbents: Mean","source":{"id":"30","value":"Exporter Dynamics Database: Country-Year"},"sourceNote":"Exporter-level information on export transactions - Customs","sourceOrganization":"","topics":[]},{"id":"CRUDE_WTI","name":"Crude oil, WTI, $\/bbl, current$","source":{"id":"21","value":"Global Economic Monitor (GEM) Commodities"},"sourceNote":"Crude oil, West Texas Intermediate (WTI) 40` API, f.o.b. Midland Texas, spot price","sourceOrganization":"Bloomberg; World Bank.","topics":[]},{"id":"CRUDE_PETRO","name":"Crude oil, avg, spot, $\/bbl, current$","source":{"id":"21","value":"Global Economic Monitor (GEM) Commodities"},"sourceNote":"Crude oil, average spot price of Brent, Dubai and West Texas  Intermediate, equally weighed","sourceOrganization":"World Bank.","topics":[]},{"id":"CRUDE_DUBAI","name":"Crude oil, Dubai, $\/bbl, current$","source":{"id":"21","value":"Global Economic Monitor (GEM) Commodities"},"sourceNote":"Crude oil, Dubai Fateh 32` API, f.o.b. Dubai, spot price","sourceOrganization":"Bloomberg; World Bank.","topics":[]},{"id":"CRUDE_BRENT","name":"Crude oil, Brendt, $\/bbl, current$","source":{"id":"21","value":"Global Economic Monitor (GEM) Commodities"},"sourceNote":"Crude oil, U.K. Brent 38` API, f.o.b. U.K ports, spot price","sourceOrganization":"Bloomberg; World Bank.","topics":[]},{"id":"CPTOTSAXNZGY","name":"CPI Price, % y-o-y, nominal, seas. adj.","source":{"id":"15","value":"Global Economic Monitor"},"sourceNote":"The consumer price index reflects the change in prices for the average consumer of a constant basket of consumer goods. Data is in nominal percentage terms, measured on a year-on-year basis, and seasonally adjusted.","sourceOrganization":"World Bank staff calculations based on Datastream data.","topics":[]},{"id":"CPTOTSAXN","name":"CPI Price, nominal, seas. adj.","source":{"id":"15","value":"Global Economic Monitor"},"sourceNote":"The consumer price index reflects the change in prices for the average consumer of a constant basket of consumer goods. Data is in nominal terms and seasonally adjusted.","sourceOrganization":"World Bank staff calculations based on Datastream data.","topics":[]},{"id":"CPTOTSAXMZGY","name":"CPI Price, % y-o-y, median weighted, seas. adj.","source":{"id":"15","value":"Global Economic Monitor"},"sourceNote":"Median inflation rate calculated for geographical aggregates (regions, world, etc) of the annual percent change of the CPI. Data is seasonally adjusted.","sourceOrganization":"World Bank staff calculations based on Datastream data.","topics":[]},{"id":"CPTOTNSXN","name":"CPI Price, nominal","source":{"id":"15","value":"Global Economic Monitor"},"sourceNote":"The consumer price index reflects the change in prices for the average consumer of a constant basket of consumer goods. Data is not seasonally adjusted.","sourceOrganization":"World Bank staff calculations based on Datastream data.","topics":[]},{"id":"COTTON_A_INDX","name":"Cotton, A Index, cents\/kg, current$","source":{"id":"21","value":"Global Economic Monitor (GEM) Commodities"},"sourceNote":"Cotton (Cotton Outlook \"CotlookA index\"), middling 1-3\/32 inch, traded in Far East, C\/F beginning 2006; previously Northern Europe, c.i.f.","sourceOrganization":"Cotton Outlook; International Cotton Advisory Committee; Liverpool Cotton Services Ltd.; World Bank.","topics":[]},{"id":"COPRA","name":"Copra, $\/mt, current$","source":{"id":"21","value":"Global Economic Monitor (GEM) Commodities"},"sourceNote":"Copra (Philippines\/Indonesia), bulk, c.i.f. N.W. Europe","sourceOrganization":"ISTA Mielke GmbH, Oil World; US Department of Agriculture; World Bank.","topics":[]},{"id":"COPPER","name":"Copper, $\/mt, current$","source":{"id":"21","value":"Global Economic Monitor (GEM) Commodities"},"sourceNote":"Copper (LME), grade A, minimum 99.9935% purity, cathodes and wire bar shapes, settlement price","sourceOrganization":"Platts Metals Week, Engineering and Mining Journal; Thomson Reuters Datastream; World Bank.","topics":[]},{"id":"COFFEE_ROBUS","name":"Coffee, Robusta, cents\/kg, current$","source":{"id":"21","value":"Global Economic Monitor (GEM) Commodities"},"sourceNote":"Coffee (ICO), International Coffee Organization indicator price, Robustas, average New York and Le Havre\/Marseilles markets, ex-dock","sourceOrganization":"International Coffee Organization; Thomson Reuters Datastream; World Bank.","topics":[]},{"id":"COFFEE_ARABIC","name":"Coffee, Arabica, cents\/kg, current$","source":{"id":"21","value":"Global Economic Monitor (GEM) Commodities"},"sourceNote":"Coffee (ICO), International Coffee Organization indicator price, other mild Arabicas, average New York and Bremen\/Hamburg markets, ex-dock","sourceOrganization":"International Coffee Organization; Thomson Reuters Datastream; Complete Coffee Coverage; World Bank.","topics":[{}]}]]