[{"page":65,"pages":324,"per_page":"50","total":16174},[{"id":"DT.DOD.DLTT.CD.CB.AR.GE.US","name":"Gross Ext. Debt Pos., Deposit-Taking Corp., exc. CB, Long-term, Trade credit and advances, Beginning pos., USD","source":{"id":"22","value":"Quarterly External Debt Statistics\/SDDS (New)"},"sourceNote":"","sourceOrganization":"","topics":[]},{"id":"DT.DOD.DLTT.CD.CB.AR.EX.US","name":"Gross Ext. Debt Pos., Deposit-Taking Corp., exc. CB, Long-term, Trade credit and advances, Exchange rate chg, USD","source":{"id":"22","value":"Quarterly External Debt Statistics\/SDDS (New)"},"sourceNote":"","sourceOrganization":"","topics":[]},{"id":"DT.DOD.DLTT.CD.CB.AR.EN.US","name":"Gross Ext. Debt Pos., Deposit-Taking Corp., exc. CB, Long-term, Trade credit and advances, end of period, USD","source":{"id":"22","value":"Quarterly External Debt Statistics\/SDDS (New)"},"sourceNote":"","sourceOrganization":"","topics":[]},{"id":"DT.DOD.DLTT.CD.CB.AR.EA.US","name":"Ext. Assets in Debt Instruments, Deposit-Taking Corp., exc. CB, Long-term, Trade credit and advances, USD","source":{"id":"22","value":"Quarterly External Debt Statistics\/SDDS (New)"},"sourceNote":"","sourceOrganization":"","topics":[]},{"id":"DT.DOD.DLTT.CD.CB.AR.BE.US","name":"Gross Ext. Debt Pos., Deposit-Taking Corp., exc. CB, Long-term, Trade credit and advances, Beginning of period, USD","source":{"id":"22","value":"Quarterly External Debt Statistics\/SDDS (New)"},"sourceNote":"","sourceOrganization":"","topics":[]},{"id":"DT.DOD.DLTS.CD.MA.AR.US","name":"Gross Ext. Debt Pos., Central Bank, Long-term, Special drawing rights (allocations), USD","source":{"id":"22","value":"Quarterly External Debt Statistics\/SDDS (New)"},"sourceNote":"","sourceOrganization":"","topics":[]},{"id":"DT.DOD.DLTS.CD.MA.AR.TR.US","name":"Gross Ext. Debt Pos., Central Bank, Long-term, Special drawing rights (allocations), Transactions, USD","source":{"id":"22","value":"Quarterly External Debt Statistics\/SDDS (New)"},"sourceNote":"","sourceOrganization":"","topics":[]},{"id":"DT.DOD.DLTS.CD.MA.AR.PX.US","name":"Gross Ext. Debt Pos., Central Bank, Long-term, Special drawing rights (allocations), Other price chg, USD","source":{"id":"22","value":"Quarterly External Debt Statistics\/SDDS (New)"},"sourceNote":"","sourceOrganization":"","topics":[]},{"id":"DT.DOD.DLTS.CD.MA.AR.OC.US","name":"Gross Ext. Debt Pos., Central Bank, Long-term, Special drawing rights (allocations), Other chg in vol., USD","source":{"id":"22","value":"Quarterly External Debt Statistics\/SDDS (New)"},"sourceNote":"","sourceOrganization":"","topics":[]},{"id":"DT.DOD.DLTS.CD.MA.AR.NE.US","name":"Net Ext. Debt Position, Central Bank, Long-term, Special drawing rights (SDRs), USD","source":{"id":"22","value":"Quarterly External Debt Statistics\/SDDS (New)"},"sourceNote":"","sourceOrganization":"","topics":[]},{"id":"DT.DOD.DLTS.CD.MA.AR.GE.US","name":"Gross Ext. Debt Pos., Central Bank, Long-term, Special drawing rights (SDRs), Beginning pos., USD","source":{"id":"22","value":"Quarterly External Debt Statistics\/SDDS (New)"},"sourceNote":"","sourceOrganization":"","topics":[]},{"id":"DT.DOD.DLTS.CD.MA.AR.EX.US","name":"Gross Ext. Debt Pos., Central Bank, Long-term, Special drawing rights (allocations), Exchange rate chg, USD","source":{"id":"22","value":"Quarterly External Debt Statistics\/SDDS (New)"},"sourceNote":"","sourceOrganization":"","topics":[]},{"id":"DT.DOD.DLTS.CD.MA.AR.EN.US","name":"Gross Ext. Debt Pos., Central Bank, Long-term, Special drawing rights (allocations), end of period, USD","source":{"id":"22","value":"Quarterly External Debt Statistics\/SDDS (New)"},"sourceNote":"","sourceOrganization":"","topics":[]},{"id":"DT.DOD.DLTS.CD.MA.AR.EA.US","name":"Ext. Assets in Debt Instruments, Central Bank, Long-term, Special drawing rights (SDRs), USD","source":{"id":"22","value":"Quarterly External Debt Statistics\/SDDS (New)"},"sourceNote":"","sourceOrganization":"","topics":[]},{"id":"DT.DOD.DLTS.CD.MA.AR.BE.US","name":"Gross Ext. Debt Pos., Central Bank, Long-term, Special drawing rights (allocations), Beginning of period, USD","source":{"id":"22","value":"Quarterly External Debt Statistics\/SDDS (New)"},"sourceNote":"","sourceOrganization":"","topics":[]},{"id":"DT.DOD.DLTS.CD.GG.US","name":"Gross Ext. Debt Pos., General Government, Long-term, Special drawing rights (allocations), USD","source":{"id":"22","value":"Quarterly External Debt Statistics\/SDDS (New)"},"sourceNote":"","sourceOrganization":"","topics":[]},{"id":"DT.DOD.DLTS.CD.GG.TR.US","name":"Gross Ext. Debt Pos., General Government, Long-term, Special drawing rights (allocations), Transactions, USD","source":{"id":"22","value":"Quarterly External Debt Statistics\/SDDS (New)"},"sourceNote":"","sourceOrganization":"","topics":[]},{"id":"DT.DOD.DLTS.CD.GG.PX.US","name":"Gross Ext. Debt Pos., General Government, Long-term, Special drawing rights (allocations), Other price chg, USD","source":{"id":"22","value":"Quarterly External Debt Statistics\/SDDS (New)"},"sourceNote":"","sourceOrganization":"","topics":[]},{"id":"DT.DOD.DLTS.CD.GG.OC.US","name":"Gross Ext. Debt Pos., General Government, Long-term, Special drawing rights (allocations), Other chg in vol., USD","source":{"id":"22","value":"Quarterly External Debt Statistics\/SDDS (New)"},"sourceNote":"","sourceOrganization":"","topics":[]},{"id":"DT.DOD.DLTS.CD.GG.NE.US","name":"Net Ext. Debt Position, General Government, Long-term, Special drawing rights (SDRs), USD","source":{"id":"22","value":"Quarterly External Debt Statistics\/SDDS (New)"},"sourceNote":"","sourceOrganization":"","topics":[]},{"id":"DT.DOD.DLTS.CD.GG.GE.US","name":"Gross Ext. Debt Pos., General Government, Long-term, Special drawing rights (SDRs), Beginning pos., USD","source":{"id":"22","value":"Quarterly External Debt Statistics\/SDDS (New)"},"sourceNote":"","sourceOrganization":"","topics":[]},{"id":"DT.DOD.DLTS.CD.GG.EX.US","name":"Gross Ext. Debt Pos., General Government, Long-term, Special drawing rights (allocations), Exchange rate chg, USD","source":{"id":"22","value":"Quarterly External Debt Statistics\/SDDS (New)"},"sourceNote":"","sourceOrganization":"","topics":[]},{"id":"DT.DOD.DLTS.CD.GG.EN.US","name":"Gross Ext. Debt Pos., General Government, Long-term, Special drawing rights (allocations), end of period, USD","source":{"id":"22","value":"Quarterly External Debt Statistics\/SDDS (New)"},"sourceNote":"","sourceOrganization":"","topics":[]},{"id":"DT.DOD.DLTS.CD.GG.EA.US","name":"Ext. Assets in Debt Instruments, General Government, Long-term, Special drawing rights (SDRs), USD","source":{"id":"22","value":"Quarterly External Debt Statistics\/SDDS (New)"},"sourceNote":"","sourceOrganization":"","topics":[]},{"id":"DT.DOD.DLTS.CD.GG.BE.US","name":"Gross Ext. Debt Pos., General Government, Long-term, Special drawing rights (allocations), Beginning of period, USD","source":{"id":"22","value":"Quarterly External Debt Statistics\/SDDS (New)"},"sourceNote":"","sourceOrganization":"","topics":[]},{"id":"DT.DOD.DLTO.CD.OT.AR.US","name":"Gross Ext. Debt Pos., Other Sectors, Long-term, Other debt liabilities, USD","source":{"id":"22","value":"Quarterly External Debt Statistics\/SDDS (New)"},"sourceNote":"","sourceOrganization":"","topics":[]},{"id":"DT.DOD.DLTO.CD.OT.AR.TR.US","name":"Gross Ext. Debt Pos., Other Sectors, Long-term, Other debt liabilities , Transactions, USD","source":{"id":"22","value":"Quarterly External Debt Statistics\/SDDS (New)"},"sourceNote":"","sourceOrganization":"","topics":[]},{"id":"DT.DOD.DLTO.CD.OT.AR.PX.US","name":"Gross Ext. Debt Pos., Other Sectors, Long-term, Other debt liabilities, Other price chg, USD","source":{"id":"22","value":"Quarterly External Debt Statistics\/SDDS (New)"},"sourceNote":"","sourceOrganization":"","topics":[]},{"id":"DT.DOD.DLTO.CD.OT.AR.OC.US","name":"Gross Ext. Debt Pos., Other Sectors, Long-term, Other debt liabilities , Other chg in vol., USD","source":{"id":"22","value":"Quarterly External Debt Statistics\/SDDS (New)"},"sourceNote":"","sourceOrganization":"","topics":[]},{"id":"DT.DOD.DLTO.CD.OT.AR.NE.US","name":"Net Ext. Debt Position, Other Sectors, Long-term, Other debt instruments, USD","source":{"id":"22","value":"Quarterly External Debt Statistics\/SDDS (New)"},"sourceNote":"","sourceOrganization":"","topics":[]},{"id":"DT.DOD.DLTO.CD.OT.AR.GE.US","name":"Gross Ext. Debt Pos., Other Sectors, Long-term, Other debt instruments, Beginning pos., USD","source":{"id":"22","value":"Quarterly External Debt Statistics\/SDDS (New)"},"sourceNote":"","sourceOrganization":"","topics":[]},{"id":"DT.DOD.DLTO.CD.OT.AR.EX.US","name":"Gross Ext. Debt Pos., Other Sectors, Long-term, Other debt liabilities, Exchange rate chg, USD","source":{"id":"22","value":"Quarterly External Debt Statistics\/SDDS (New)"},"sourceNote":"","sourceOrganization":"","topics":[]},{"id":"DT.DOD.DLTO.CD.OT.AR.EN.US","name":"Gross Ext. Debt Pos., Other Sectors, Long-term, Other debt liabilities, end of period, USD","source":{"id":"22","value":"Quarterly External Debt Statistics\/SDDS (New)"},"sourceNote":"","sourceOrganization":"","topics":[]},{"id":"DT.DOD.DLTO.CD.OT.AR.EA.US","name":"Ext. Assets in Debt Instruments, Other Sectors, Long-term, Other debt instruments, USD","source":{"id":"22","value":"Quarterly External Debt Statistics\/SDDS (New)"},"sourceNote":"","sourceOrganization":"","topics":[]},{"id":"DT.DOD.DLTO.CD.OT.AR.BE.US","name":"Gross Ext. Debt Pos., Other Sectors, Long-term, Other debt liabilities , Beginning of period, USD","source":{"id":"22","value":"Quarterly External Debt Statistics\/SDDS (New)"},"sourceNote":"","sourceOrganization":"","topics":[]},{"id":"DT.DOD.DLTO.CD.OF.US","name":"Gross Ext. Debt Pos., Other financial corporations, Long-term, Other debt liabilities, USD","source":{"id":"22","value":"Quarterly External Debt Statistics\/SDDS (New)"},"sourceNote":"","sourceOrganization":"","topics":[]},{"id":"DT.DOD.DLTO.CD.NC.US","name":"Gross Ext. Debt Pos., Nonfinancial corporations, Long-term, Other debt liabilities, USD","source":{"id":"22","value":"Quarterly External Debt Statistics\/SDDS (New)"},"sourceNote":"","sourceOrganization":"","topics":[]},{"id":"DT.DOD.DLTO.CD.MA.AR.US","name":"Gross Ext. Debt Pos., Central Bank, Long-term, Other debt liabilities, USD","source":{"id":"22","value":"Quarterly External Debt Statistics\/SDDS (New)"},"sourceNote":"","sourceOrganization":"","topics":[]},{"id":"DT.DOD.DLTO.CD.MA.AR.TR.US","name":"Gross Ext. Debt Pos., Central Bank, Long-term, Other debt liabilities, Transactions, USD","source":{"id":"22","value":"Quarterly External Debt Statistics\/SDDS (New)"},"sourceNote":"","sourceOrganization":"","topics":[]},{"id":"DT.DOD.DLTO.CD.MA.AR.PX.US","name":"Gross Ext. Debt Pos., Central Bank, Long-term, Other debt liabilities, Other price chg, USD","source":{"id":"22","value":"Quarterly External Debt Statistics\/SDDS (New)"},"sourceNote":"","sourceOrganization":"","topics":[]},{"id":"DT.DOD.DLTO.CD.MA.AR.OC.US","name":"Gross Ext. Debt Pos., Central Bank, Long-term, Other debt liabilities, Other chg in vol., USD","source":{"id":"22","value":"Quarterly External Debt Statistics\/SDDS (New)"},"sourceNote":"","sourceOrganization":"","topics":[]},{"id":"DT.DOD.DLTO.CD.MA.AR.NE.US","name":"Net Ext. Debt Position, Central Bank, Long-term, Other debt instruments, USD","source":{"id":"22","value":"Quarterly External Debt Statistics\/SDDS (New)"},"sourceNote":"","sourceOrganization":"","topics":[]},{"id":"DT.DOD.DLTO.CD.MA.AR.GE.US","name":"Gross Ext. Debt Pos., Central Bank, Long-term, Other debt instruments, Beginning pos., USD","source":{"id":"22","value":"Quarterly External Debt Statistics\/SDDS (New)"},"sourceNote":"","sourceOrganization":"","topics":[]},{"id":"DT.DOD.DLTO.CD.MA.AR.EX.US","name":"Gross Ext. Debt Pos., Central Bank, Long-term, Other debt liabilities, Exchange rate chg, USD","source":{"id":"22","value":"Quarterly External Debt Statistics\/SDDS (New)"},"sourceNote":"","sourceOrganization":"","topics":[]},{"id":"DT.DOD.DLTO.CD.MA.AR.EN.US","name":"Gross Ext. Debt Pos., Central Bank, Long-term, Other debt liabilities, end of period, USD","source":{"id":"22","value":"Quarterly External Debt Statistics\/SDDS (New)"},"sourceNote":"","sourceOrganization":"","topics":[]},{"id":"DT.DOD.DLTO.CD.MA.AR.EA.US","name":"Ext. Assets in Debt Instruments, Central Bank, Long-term, Other debt instruments, USD","source":{"id":"22","value":"Quarterly External Debt Statistics\/SDDS (New)"},"sourceNote":"","sourceOrganization":"","topics":[]},{"id":"DT.DOD.DLTO.CD.MA.AR.BE.US","name":"Gross Ext. Debt Pos., Central Bank, Long-term, Other debt liabilities, Beginning of period, USD","source":{"id":"22","value":"Quarterly External Debt Statistics\/SDDS (New)"},"sourceNote":"","sourceOrganization":"","topics":[]},{"id":"DT.DOD.DLTO.CD.HN.US","name":"Gross Ext. Debt Pos., HH and nonprofit institu. (NPISHs), Long-term, Other debt liabilities, USD","source":{"id":"22","value":"Quarterly External Debt Statistics\/SDDS (New)"},"sourceNote":"","sourceOrganization":"","topics":[]},{"id":"DT.DOD.DLTO.CD.GG.AR.US","name":"Gross Ext. Debt Pos., General Government, Long-term, Other debt liabilities, USD","source":{"id":"22","value":"Quarterly External Debt Statistics\/SDDS (New)"},"sourceNote":"","sourceOrganization":"","topics":[]},{"id":"DT.DOD.DLTO.CD.GG.AR.TR.US","name":"Gross Ext. Debt Pos., General Government, Long-term, Other debt liabilities, Transactions, USD","source":{"id":"22","value":"Quarterly External Debt Statistics\/SDDS (New)"},"sourceNote":"","sourceOrganization":"","topics":[{}]}]]