[{"page":55,"pages":324,"per_page":"50","total":16174},[{"id":"DT.AMT.PNGB.CD","name":"PNG, bonds (AMT, current US$)","source":{"id":"2","value":"World Development Indicators"},"sourceNote":"Nonguaranteed long-term debt from bonds that are privately placed. Principal repayments are actual amounts of principal (amortization) paid by the borrower in currency, goods, or services in the year specified. Data are in current U.S. dollars.","sourceOrganization":"World Bank, International Debt Statistics.","topics":[{"id":"20","value":"External Debt"}]},{"id":"DT.AMT.PGNG.CD","name":"Principal repayments, PPG and PNG private creditors (AMT, current US$)","source":{"id":"11","value":"Africa Development Indicators"},"sourceNote":"Private nonguaranteed external debt is an external obligation of a private debtor that is not guaranteed for repayment by a public entity. Principal repayments are actual amounts of principal (amortization) paid in currency, goods, or services in the year specified. Long-term external debt is defined as debt that has an original or extended maturity of more than one year and that is owed to nonresidents and repayable in currency, goods, or services.  Data are in current U.S. dollars.  ","sourceOrganization":"World Bank, Global Development Finance.","topics":[]},{"id":"DT.AMT.PCBK.CD","name":"PPG, commercial banks (AMT, current US$)","source":{"id":"2","value":"World Development Indicators"},"sourceNote":"Public and publicly guaranteed commercial bank loans from private banks and other private financial institutions. Principal repayments are actual amounts of principal (amortization) paid by the borrower in currency, goods, or services in the year specified. Data are in current U.S. dollars.","sourceOrganization":"World Bank, International Debt Statistics.","topics":[{"id":"20","value":"External Debt"}]},{"id":"DT.AMT.PBND.CD","name":"PPG, bonds (AMT, current US$)","source":{"id":"2","value":"World Development Indicators"},"sourceNote":"Public and publicly guaranteed debt from bonds that are either publicly issued or privately placed. Principal repayments are actual amounts of principal (amortization) paid by the borrower in currency, goods, or services in the year specified. Data are in current U.S. dollars.","sourceOrganization":"World Bank, International Debt Statistics.","topics":[{"id":"20","value":"External Debt"}]},{"id":"DT.AMT.OFFT.CD","name":"PPG, official creditors (AMT, current US$)","source":{"id":"2","value":"World Development Indicators"},"sourceNote":"Public and publicly guaranteed debt from official creditors includes loans from international organizations (multilateral loans) and loans from governments (bilateral loans). Loans from international organization include loans and credits from the World Bank, regional development banks, and other multilateral and intergovernmental agencies. Excluded are loans from funds administered by an international organization on behalf of a single donor government; these are classified as loans from governments. Government loans include loans from governments and their agencies (including central banks), loans from autonomous bodies, and direct loans from official export credit agencies. Principal repayments are actual amounts of principal (amortization) paid by the borrower in currency, goods, or services in the year specified. Data are in current U.S. dollars.","sourceOrganization":"World Bank, International Debt Statistics.","topics":[{"id":"20","value":"External Debt"}]},{"id":"DT.AMT.MLTC.CD","name":"PPG, multilateral concessional (AMT, current US$)","source":{"id":"2","value":"World Development Indicators"},"sourceNote":"Public and publicly guaranteed multilateral loans include loans and credits from the World Bank, regional development banks, and other multilateral and intergovernmental agencies. Excluded are loans from funds administered by an international organization on behalf of a single donor government; these are classified as loans from governments. Concessional debt is defined as loans with an original grant element of 25 percent or more. The grant element of a loan is the grant equivalent expressed as a percentage of the amount committed. It is used as a measure of the overall cost of borrowing. The grant equivalent of a loan is its commitment (present) value, less the discounted present value of its contractual debt service; conventionally, future service payments are discounted at 10 percent. Principal repayments are actual amounts of principal (amortization) paid by the borrower in currency, goods, or services in the year specified. Data are in current U.S. dollars.","sourceOrganization":"World Bank, International Debt Statistics.","topics":[{"id":"20","value":"External Debt"}]},{"id":"DT.AMT.MLAT.CD","name":"PPG, multilateral (AMT, current US$)","source":{"id":"2","value":"World Development Indicators"},"sourceNote":"Public and publicly guaranteed multilateral loans include loans and credits from the World Bank, regional development banks, and other multilateral and intergovernmental agencies. Excluded are loans from funds administered by an international organization on behalf of a single donor government; these are classified as loans from governments. Principal repayments are actual amounts of principal (amortization) paid by the borrower in currency, goods, or services in the year specified. Data are in current U.S. dollars.","sourceOrganization":"World Bank, International Debt Statistics.","topics":[{"id":"20","value":"External Debt"}]},{"id":"DT.AMT.MIDA.CD","name":"PPG, IDA (AMT, current US$)","source":{"id":"2","value":"World Development Indicators"},"sourceNote":"Public and publicly guaranteed debt outstanding from the International Development Association (IDA) is concessional. Concessional debt is defined as loans with an original grant element of 25 percent or more. The grant element of a loan is the grant equivalent expressed as a percentage of the amount committed. It is used as a measure of the overall cost of borrowing. The grant equivalent of a loan is its commitment (present) value, less the discounted present value of its contractual debt service; conventionally, future service payments are discounted at 10 percent. Principal repayments are actual amounts of principal (amortization) paid by the borrower in currency, goods, or services in the year specified. Data are in current U.S. dollars.","sourceOrganization":"World Bank, International Debt Statistics.","topics":[{"id":"20","value":"External Debt"}]},{"id":"DT.AMT.MIBR.CD","name":"PPG, IBRD (AMT, current US$)","source":{"id":"2","value":"World Development Indicators"},"sourceNote":"Public and publicly guaranteed debt outstanding from the International Bank for Reconstruction and Development (IBRD) is nonconcessional. Nonconcessional debt excludes loans with an original grant element of 25 percent or more. Principal repayments are actual amounts of principal (amortization) paid by the borrower in currency, goods, or services in the year specified. Data are in current U.S. dollars.","sourceOrganization":"World Bank, International Debt Statistics.","topics":[{"id":"20","value":"External Debt"}]},{"id":"DT.AMT.DPPG.CD","name":"Principal repayments on external debt, public and publicly guaranteed (PPG) (AMT, current US$)","source":{"id":"2","value":"World Development Indicators"},"sourceNote":"Public and publicly guaranteed long-term debt are aggregated. Public debt is an external obligation of a public debtor, including the national government, a political subdivision (or an agency of either), and autonomous public bodies. Publicly guaranteed debt is an external obligation of a private debtor that is guaranteed for repayment by a public entity. Principal repayments are actual amounts of principal (amortization) paid by the borrower in currency, goods, or services in the year specified. Long-term external debt is defined as debt that has an original or extended maturity of more than one year and that is owed to nonresidents by residents of an economy and repayable in currency, goods, or services. Data are in current U.S. dollars.","sourceOrganization":"World Bank, International Debt Statistics.","topics":[{"id":"20","value":"External Debt"}]},{"id":"DT.AMT.DPNG.CD","name":"Principal repayments on external debt, private nonguaranteed (PNG) (AMT, current US$)","source":{"id":"2","value":"World Development Indicators"},"sourceNote":"Private nonguaranteed external debt is an external obligation of a private debtor that is not guaranteed for repayment by a public entity. Principal repayments are actual amounts of principal (amortization) paid by the borrower in currency, goods, or services in the year specified. Long-term external debt is defined as debt that has an original or extended maturity of more than one year and that is owed to nonresidents by residents of an economy and repayable in currency, goods, or services. Data are in current U.S. dollars.","sourceOrganization":"World Bank, International Debt Statistics.","topics":[{"id":"20","value":"External Debt"}]},{"id":"DT.AMT.DLXF.CD","name":"Principal repayments on external debt, long-term (AMT, current US$)","source":{"id":"2","value":"World Development Indicators"},"sourceNote":"Principal repayments on long-term debt are actual amounts of principal (amortization) paid by the borrower in currency, goods, or services in the year specified. Long-term external debt is defined as debt that has an original or extended maturity of more than one year and that is owed to nonresidents by residents of an economy and repayable in currency, goods, or services. Data are in current U.S. dollars.","sourceOrganization":"World Bank, International Debt Statistics.","topics":[{"id":"20","value":"External Debt"}]},{"id":"DT.AMT.DLTT.CD.OT.AR.IQ.US","name":"Gross Ext. Debt Pmt, Other Sectors, Immediate, Trade credit and advances, Principal, USD","source":{"id":"22","value":"Quarterly External Debt Statistics\/SDDS (New)"},"sourceNote":"","sourceOrganization":"","topics":[]},{"id":"DT.AMT.DLTT.CD.OT.AR.69.US","name":"Gross Ext. Debt Pmt, Other Sectors, More than 6 to 9, Trade credit and advances, Principal, USD","source":{"id":"22","value":"Quarterly External Debt Statistics\/SDDS (New)"},"sourceNote":"","sourceOrganization":"","topics":[]},{"id":"DT.AMT.DLTT.CD.OT.AR.36.US","name":"Gross Ext. Debt Pmt, Other Sectors, More than 3 to 6, Trade credit and advances, Principal, USD","source":{"id":"22","value":"Quarterly External Debt Statistics\/SDDS (New)"},"sourceNote":"","sourceOrganization":"","topics":[]},{"id":"DT.AMT.DLTT.CD.OT.AR.24P.US","name":"Gross Ext. Debt Pmt, Other Sectors, More than 2yrs, Trade credit and advances, Principal, USD","source":{"id":"22","value":"Quarterly External Debt Statistics\/SDDS (New)"},"sourceNote":"","sourceOrganization":"","topics":[]},{"id":"DT.AMT.DLTT.CD.OT.AR.1824.US","name":"Gross Ext. Debt Pmt, Other Sectors, More than 18 to 24, Trade credit and advances, Principal, USD","source":{"id":"22","value":"Quarterly External Debt Statistics\/SDDS (New)"},"sourceNote":"","sourceOrganization":"","topics":[]},{"id":"DT.AMT.DLTT.CD.OT.AR.1218.US","name":"Gross Ext. Debt Pmt, Other Sectors, More than 12 to 18, Trade credit and advances, Principal, USD","source":{"id":"22","value":"Quarterly External Debt Statistics\/SDDS (New)"},"sourceNote":"","sourceOrganization":"","topics":[]},{"id":"DT.AMT.DLTT.CD.OT.AR.0912.US","name":"Gross Ext. Debt Pmt, Other Sectors, More than 9 to 12, Trade credit and advances, Principal, USD","source":{"id":"22","value":"Quarterly External Debt Statistics\/SDDS (New)"},"sourceNote":"","sourceOrganization":"","topics":[]},{"id":"DT.AMT.DLTT.CD.OT.AR.03.US","name":"Gross Ext. Debt Pmt, Other Sectors, More than 0 to 3, Trade credit and advances, Principal, USD","source":{"id":"22","value":"Quarterly External Debt Statistics\/SDDS (New)"},"sourceNote":"","sourceOrganization":"","topics":[]},{"id":"DT.AMT.DLTT.CD.MA.AR.IQ.US","name":"Gross Ext. Debt Pmt, Central Bank, Immediate, Trade credit and advances, Principal, USD","source":{"id":"22","value":"Quarterly External Debt Statistics\/SDDS (New)"},"sourceNote":"","sourceOrganization":"","topics":[]},{"id":"DT.AMT.DLTT.CD.MA.AR.69.US","name":"Gross Ext. Debt Pmt, Central Bank, More than 6 to 9, Trade credit and advances, Principal, USD","source":{"id":"22","value":"Quarterly External Debt Statistics\/SDDS (New)"},"sourceNote":"","sourceOrganization":"","topics":[]},{"id":"DT.AMT.DLTT.CD.MA.AR.36.US","name":"Gross Ext. Debt Pmt, Central Bank, More than 3 to 6, Trade credit and advances, Principal, USD","source":{"id":"22","value":"Quarterly External Debt Statistics\/SDDS (New)"},"sourceNote":"","sourceOrganization":"","topics":[]},{"id":"DT.AMT.DLTT.CD.MA.AR.24P.US","name":"Gross Ext. Debt Pmt, Central Bank, More than 2yrs, Trade credit and advances, Principal, USD","source":{"id":"22","value":"Quarterly External Debt Statistics\/SDDS (New)"},"sourceNote":"","sourceOrganization":"","topics":[]},{"id":"DT.AMT.DLTT.CD.MA.AR.1824.US","name":"Gross Ext. Debt Pmt, Central Bank, More than 18 to 24, Trade credit and advances, Principal, USD","source":{"id":"22","value":"Quarterly External Debt Statistics\/SDDS (New)"},"sourceNote":"","sourceOrganization":"","topics":[]},{"id":"DT.AMT.DLTT.CD.MA.AR.1218.US","name":"Gross Ext. Debt Pmt, Central Bank, More than 12 to 18, Trade credit and advances, Principal, USD","source":{"id":"22","value":"Quarterly External Debt Statistics\/SDDS (New)"},"sourceNote":"","sourceOrganization":"","topics":[]},{"id":"DT.AMT.DLTT.CD.MA.AR.0912.US","name":"Gross Ext. Debt Pmt, Central Bank, More than 9 to 12, Trade credit and advances, Principal, USD","source":{"id":"22","value":"Quarterly External Debt Statistics\/SDDS (New)"},"sourceNote":"","sourceOrganization":"","topics":[]},{"id":"DT.AMT.DLTT.CD.MA.AR.03.US","name":"Gross Ext. Debt Pmt, Central Bank, More than 0 to 3, Trade credit and advances, Principal, USD","source":{"id":"22","value":"Quarterly External Debt Statistics\/SDDS (New)"},"sourceNote":"","sourceOrganization":"","topics":[]},{"id":"DT.AMT.DLTT.CD.GG.AR.IQ.US","name":"Gross Ext. Debt Pmt, General Government, Immediate, Trade credit and advances, Principal, USD","source":{"id":"22","value":"Quarterly External Debt Statistics\/SDDS (New)"},"sourceNote":"","sourceOrganization":"","topics":[]},{"id":"DT.AMT.DLTT.CD.GG.AR.69.US","name":"Gross Ext. Debt Pmt, General Government, More than 6 to 9, Trade credit and advances, Principal, USD","source":{"id":"22","value":"Quarterly External Debt Statistics\/SDDS (New)"},"sourceNote":"","sourceOrganization":"","topics":[]},{"id":"DT.AMT.DLTT.CD.GG.AR.36.US","name":"Gross Ext. Debt Pmt, General Government, More than 3 to 6, Trade credit and advances, Principal, USD","source":{"id":"22","value":"Quarterly External Debt Statistics\/SDDS (New)"},"sourceNote":"","sourceOrganization":"","topics":[]},{"id":"DT.AMT.DLTT.CD.GG.AR.24P.US","name":"Gross Ext. Debt Pmt, General Government, More than 2yrs, Trade credit and advances, Principal, USD","source":{"id":"22","value":"Quarterly External Debt Statistics\/SDDS (New)"},"sourceNote":"","sourceOrganization":"","topics":[]},{"id":"DT.AMT.DLTT.CD.GG.AR.1824.US","name":"Gross Ext. Debt Pmt, General Government, More than 18 to 24, Trade credit and advances, Principal, USD","source":{"id":"22","value":"Quarterly External Debt Statistics\/SDDS (New)"},"sourceNote":"","sourceOrganization":"","topics":[]},{"id":"DT.AMT.DLTT.CD.GG.AR.1218.US","name":"Gross Ext. Debt Pmt, General Government, More than 12 to 18, Trade credit and advances, Principal, USD","source":{"id":"22","value":"Quarterly External Debt Statistics\/SDDS (New)"},"sourceNote":"","sourceOrganization":"","topics":[]},{"id":"DT.AMT.DLTT.CD.GG.AR.0912.US","name":"Gross Ext. Debt Pmt, General Government, More than 9 to 12, Trade credit and advances, Principal, USD","source":{"id":"22","value":"Quarterly External Debt Statistics\/SDDS (New)"},"sourceNote":"","sourceOrganization":"","topics":[]},{"id":"DT.AMT.DLTT.CD.GG.AR.03.US","name":"Gross Ext. Debt Pmt, General Government, More than 0 to 3, Trade credit and advances, Principal, USD","source":{"id":"22","value":"Quarterly External Debt Statistics\/SDDS (New)"},"sourceNote":"","sourceOrganization":"","topics":[]},{"id":"DT.AMT.DLTT.CD.CB.AR.IQ.US","name":"Gross Ext. Debt Pmt, Deposit-Taking Corp., exc. CB, Immediate, Trade credit and advances, Principal, USD","source":{"id":"22","value":"Quarterly External Debt Statistics\/SDDS (New)"},"sourceNote":"","sourceOrganization":"","topics":[]},{"id":"DT.AMT.DLTT.CD.CB.AR.69.US","name":"Gross Ext. Debt Pmt, Deposit-Taking Corp., exc. CB, More than 6 to 9, Trade credit and advances, Principal, USD","source":{"id":"22","value":"Quarterly External Debt Statistics\/SDDS (New)"},"sourceNote":"","sourceOrganization":"","topics":[]},{"id":"DT.AMT.DLTT.CD.CB.AR.36.US","name":"Gross Ext. Debt Pmt, Deposit-Taking Corp., exc. CB, More than 3 to 6, Trade credit and advances, Principal, USD","source":{"id":"22","value":"Quarterly External Debt Statistics\/SDDS (New)"},"sourceNote":"","sourceOrganization":"","topics":[]},{"id":"DT.AMT.DLTT.CD.CB.AR.24P.US","name":"Gross Ext. Debt Pmt, Deposit-Taking Corp., exc. CB, More than 2yrs, Trade credit and advances, Principal, USD","source":{"id":"22","value":"Quarterly External Debt Statistics\/SDDS (New)"},"sourceNote":"","sourceOrganization":"","topics":[]},{"id":"DT.AMT.DLTT.CD.CB.AR.1824.US","name":"Gross Ext. Debt Pmt, Deposit-Taking Corp., exc. CB, More than 18 to 24, Trade credit and advances, Principal, USD","source":{"id":"22","value":"Quarterly External Debt Statistics\/SDDS (New)"},"sourceNote":"","sourceOrganization":"","topics":[]},{"id":"DT.AMT.DLTT.CD.CB.AR.1218.US","name":"Gross Ext. Debt Pmt, Deposit-Taking Corp., exc. CB, More than 12 to 18, Trade credit and advances, Principal, USD","source":{"id":"22","value":"Quarterly External Debt Statistics\/SDDS (New)"},"sourceNote":"","sourceOrganization":"","topics":[]},{"id":"DT.AMT.DLTT.CD.CB.AR.0912.US","name":"Gross Ext. Debt Pmt, Deposit-Taking Corp., exc. CB, More than 9 to 12, Trade credit and advances, Principal, USD","source":{"id":"22","value":"Quarterly External Debt Statistics\/SDDS (New)"},"sourceNote":"","sourceOrganization":"","topics":[]},{"id":"DT.AMT.DLTT.CD.CB.AR.03.US","name":"Gross Ext. Debt Pmt, Deposit-Taking Corp., exc. CB, More than 0 to 3, Trade credit and advances, Principal, USD","source":{"id":"22","value":"Quarterly External Debt Statistics\/SDDS (New)"},"sourceNote":"","sourceOrganization":"","topics":[]},{"id":"DT.AMT.DLTS.CD.MA.AR.IQ.US","name":"Gross Ext. Debt Pmt, Central Bank, Immediate, Special drawing rights (allocations), Principal, USD","source":{"id":"22","value":"Quarterly External Debt Statistics\/SDDS (New)"},"sourceNote":"","sourceOrganization":"","topics":[]},{"id":"DT.AMT.DLTS.CD.MA.AR.69.US","name":"Gross Ext. Debt Pmt, Central Bank, More than 6 to 9, Special drawing rights (allocations), Principal, USD","source":{"id":"22","value":"Quarterly External Debt Statistics\/SDDS (New)"},"sourceNote":"","sourceOrganization":"","topics":[]},{"id":"DT.AMT.DLTS.CD.MA.AR.36.US","name":"Gross Ext. Debt Pmt, Central Bank, More than 3 to 6, Special drawing rights (allocations), Principal, USD","source":{"id":"22","value":"Quarterly External Debt Statistics\/SDDS (New)"},"sourceNote":"","sourceOrganization":"","topics":[]},{"id":"DT.AMT.DLTS.CD.MA.AR.24P.US","name":"Gross Ext. Debt Pmt, Central Bank, More than 2yrs, Special drawing rights (allocations), Principal, USD","source":{"id":"22","value":"Quarterly External Debt Statistics\/SDDS (New)"},"sourceNote":"","sourceOrganization":"","topics":[]},{"id":"DT.AMT.DLTS.CD.MA.AR.1824.US","name":"Gross Ext. Debt Pmt, Central Bank, More than 18 to 24, Special drawing rights (allocations), Principal, USD","source":{"id":"22","value":"Quarterly External Debt Statistics\/SDDS (New)"},"sourceNote":"","sourceOrganization":"","topics":[]},{"id":"DT.AMT.DLTS.CD.MA.AR.1218.US","name":"Gross Ext. Debt Pmt, Central Bank, More than 12 to 18, Special drawing rights (allocations), Principal, USD","source":{"id":"22","value":"Quarterly External Debt Statistics\/SDDS (New)"},"sourceNote":"","sourceOrganization":"","topics":[{}]}]]