[{"page":293,"pages":324,"per_page":"50","total":16174},[{"id":"UIS.GER.123","name":"Gross enrolment ratio, primary and secondary, both sexes (%)","source":{"id":"12","value":"Education Statistics"},"sourceNote":"Total enrollment in primary and secondary education, regardless of age, expressed as a percentage of the total population of official primary and secondary education age. GER can exceed 100% due to the inclusion of over-aged and under-aged students because of early or late school entrance and grade repetition.","sourceOrganization":"UNESCO Institute for Statistics","topics":[{"id":"4","value":"Education "}]},{"id":"UIS.GER.12.M","name":"Gross enrolment ratio, primary and lower secondary, male (%)","source":{"id":"12","value":"Education Statistics"},"sourceNote":"Total male enrollment in primary and lower secondary education, regardless of age, expressed as a percentage of the male population of official primary and lower secondary education age. GER can exceed 100% due to the inclusion of over-aged and under-aged students because of early or late school entrance and grade repetition.","sourceOrganization":"UNESCO Institute for Statistics","topics":[]},{"id":"UIS.GER.12.GPI","name":"Gross enrolment ratio, primary and lower secondary, gender parity index (GPI)","source":{"id":"12","value":"Education Statistics"},"sourceNote":"Ratio of female gross enrolment ratio for primary and lower secondary to male gross enrolment ratio for primary and lower secondary. It is calculated by dividing the female value for the indicator by the male value for the indicator. A GPI equal to 1 indicates parity between females and males. In general, a value less than 1 indicates disparity in favor of males and a value greater than 1 indicates disparity in favor of females.","sourceOrganization":"UNESCO Institute for Statistics","topics":[]},{"id":"UIS.GER.12.F","name":"Gross enrolment ratio, primary and lower secondary, female (%)","source":{"id":"12","value":"Education Statistics"},"sourceNote":"Total female enrollment in primary and lower secondary education, regardless of age, expressed as a percentage of the female population of official primary and lower secondary education age. GER can exceed 100% due to the inclusion of over-aged and under-aged students because of early or late school entrance and grade repetition.","sourceOrganization":"UNESCO Institute for Statistics","topics":[]},{"id":"UIS.GER.12","name":"Gross enrolment ratio, primary and lower secondary, both sexes (%)","source":{"id":"12","value":"Education Statistics"},"sourceNote":"Total enrollment in primary and lower secondary education, regardless of age, expressed as a percentage of the population of official primary and lower secondary education age. GER can exceed 100% due to the inclusion of over-aged and under-aged students because of early or late school entrance and grade repetition.","sourceOrganization":"UNESCO Institute for Statistics","topics":[]},{"id":"UIS.GER.0.GPI","name":"Gross enrolment ratio, pre-primary, gender parity index (GPI)","source":{"id":"12","value":"Education Statistics"},"sourceNote":"Ratio of female gross enrolment ratio for pre-primary to male gross enrolment ratio for pre-primary. It is calculated by dividing the female value for the indicator by the male value for the indicator. A GPI equal to 1 indicates parity between females and males. In general, a value less than 1 indicates disparity in favor of males and a value greater than 1 indicates disparity in favor of females.","sourceOrganization":"UNESCO Institute for Statistics","topics":[{"id":"4","value":"Education "}]},{"id":"UIS.G.8.T","name":"Graduates from ISCED 8 programmes in tertiary education, both sexes (number)","source":{"id":"12","value":"Education Statistics"},"sourceNote":"Total number of students successfully completing programmes on the doctoral or equivalent (ISCED 8) level during the reference academic year in public and private tertiary education institutions.","sourceOrganization":"UNESCO Institute for Statistics","topics":[{"id":"4","value":"Education "}]},{"id":"UIS.G.8.F","name":"Graduates from ISCED 8 programmes in tertiary education, female (number)","source":{"id":"12","value":"Education Statistics"},"sourceNote":"Total number of female students successfully completing programmes on the doctoral or equivalent (ISCED 8) level during the reference academic year in public and private tertiary education institutions.","sourceOrganization":"UNESCO Institute for Statistics","topics":[{"id":"4","value":"Education "}]},{"id":"UIS.G.7.T","name":"Graduates from ISCED 7 programmes in tertiary education, both sexes (number)","source":{"id":"12","value":"Education Statistics"},"sourceNote":"Total number of students successfully completing programmes on the masters or equivalent (ISCED 7) level during the reference academic year in public and private tertiary education institutions.","sourceOrganization":"UNESCO Institute for Statistics","topics":[{"id":"4","value":"Education "}]},{"id":"UIS.G.7.F","name":"Graduates from ISCED 7 programmes in tertiary education, female (number)","source":{"id":"12","value":"Education Statistics"},"sourceNote":"Total number of female students successfully completing programmes on the masters or equivalent (ISCED 7) level during the reference academic year in public and private tertiary education institutions.","sourceOrganization":"UNESCO Institute for Statistics","topics":[{"id":"4","value":"Education "}]},{"id":"UIS.G.6.T","name":"Graduates from ISCED 6 programmes in tertiary education, both sexes (number)","source":{"id":"12","value":"Education Statistics"},"sourceNote":"Total number of students successfully completing programmes on the bachelors or equivalent (ISCED 6) level during the reference academic year in public and private tertiary education institutions.\u000d\u000a","sourceOrganization":"UNESCO Institute for Statistics","topics":[]},{"id":"UIS.G.6.F","name":"Graduates from ISCED 6 programmes in tertiary education, female (number)","source":{"id":"12","value":"Education Statistics"},"sourceNote":"Total number of female students successfully completing programmes on the bachelors or equivalent (ISCED 6) level during the reference academic year in public and private tertiary education institutions.\u000d\u000a","sourceOrganization":"UNESCO Institute for Statistics","topics":[]},{"id":"UIS.G.5.B.T","name":"Graduates from ISCED 5 programmes in tertiary education, both sexes (number)","source":{"id":"12","value":"Education Statistics"},"sourceNote":"Total number of students successfully completing short-cycle tertiary education programmes (ISCED 5) in public and private tertiary education institutions during the reference academic year.\u000d\u000a","sourceOrganization":"UNESCO Institute for Statistics","topics":[]},{"id":"UIS.G.5.B.F","name":"Graduates from ISCED 5 programmes in tertiary education, female (number)","source":{"id":"12","value":"Education Statistics"},"sourceNote":"Total number of female students successfully completing short-cycle tertiary education programmes (ISCED 5) in public and private tertiary education institutions during the reference academic year.\u000d\u000a","sourceOrganization":"UNESCO Institute for Statistics","topics":[]},{"id":"UIS.FTP.4","name":"Percentage of teachers in post-secondary non-tertiary education who are female (%)","source":{"id":"12","value":"Education Statistics"},"sourceNote":"Number of female teachers at the post-secondary non-tertiary level expressed as a percentage of the total number of teachers (male and female) at the post-secondary non-tertiary level in a given school year. Teachers are persons employed full time or part time in an official capacity to guide and direct the learning experience of pupils and students, irrespective of their qualifications or the delivery mechanism, i.e. face-to-face and\/or at a distance. This definition excludes educational personnel who have no active teaching duties (e.g. headmasters, headmistresses or principals who do not teach) and persons who work occasionally or in a voluntary capacity in educational institutions.","sourceOrganization":"UNESCO Institute for Statistics","topics":[{"id":"4","value":"Education "}]},{"id":"UIS.FTP.3","name":"Percentage of teachers in upper secondary education who are female (%)","source":{"id":"12","value":"Education Statistics"},"sourceNote":"Number of female teachers at the upper secondary level expressed as a percentage of the total number of teachers (male and female) at the upper secondary level in a given school year. Teachers are persons employed full time or part time in an official capacity to guide and direct the learning experience of pupils and students, irrespective of their qualifications or the delivery mechanism, i.e. face-to-face and\/or at a distance. This definition excludes educational personnel who have no active teaching duties (e.g. headmasters, headmistresses or principals who do not teach) and persons who work occasionally or in a voluntary capacity in educational institutions.","sourceOrganization":"UNESCO Institute for Statistics","topics":[{"id":"4","value":"Education "}]},{"id":"UIS.FTP.2","name":"Percentage of teachers in lower secondary education who are female (%)","source":{"id":"12","value":"Education Statistics"},"sourceNote":"Number of female teachers at the lower secondary level expressed as a percentage of the total number of teachers (male and female) at the lower secondary level in a given school year. Teachers are persons employed full time or part time in an official capacity to guide and direct the learning experience of pupils and students, irrespective of their qualifications or the delivery mechanism, i.e. face-to-face and\/or at a distance. This definition excludes educational personnel who have no active teaching duties (e.g. headmasters, headmistresses or principals who do not teach) and persons who work occasionally or in a voluntary capacity in educational institutions.","sourceOrganization":"UNESCO Institute for Statistics","topics":[{"id":"4","value":"Education "}]},{"id":"UIS.FOSGP.56.FUK.M","name":"Percentage of male graduates from tertiary education graduating from programmes in unspecified fields, male (%)","source":{"id":"12","value":"Education Statistics"},"sourceNote":"Share of all male tertiary graduates who completed programmes in unspecified fields in the reference year.","sourceOrganization":"UNESCO Institute for Statistics","topics":[]},{"id":"UIS.FOSGP.56.F800.M","name":"Percentage of male graduates from tertiary education graduating from Services programmes, male (%)","source":{"id":"12","value":"Education Statistics"},"sourceNote":"Share of all male tertiary graduates who completed services programmes in the reference year.","sourceOrganization":"UNESCO Institute for Statistics","topics":[]},{"id":"UIS.FOSGP.56.F700.M","name":"Percentage of male graduates from tertiary education graduating from Health and Welfare programmes, male (%)","source":{"id":"12","value":"Education Statistics"},"sourceNote":"Share of all male tertiary graduates who completed health and welfare programmes in the reference year.","sourceOrganization":"UNESCO Institute for Statistics","topics":[]},{"id":"UIS.FOSGP.56.F600.M","name":"Percentage of male graduates from tertiary education graduating from Agriculture programmes, male (%)","source":{"id":"12","value":"Education Statistics"},"sourceNote":"Share of all male tertiary graduates who completed agriculture programmes in the reference year.","sourceOrganization":"UNESCO Institute for Statistics","topics":[]},{"id":"UIS.FOSGP.56.F500.M","name":"Percentage of male graduates from tertiary education graduating from Engineering, Manufacturing and Construction programmes, male (%)","source":{"id":"12","value":"Education Statistics"},"sourceNote":"Share of all male tertiary graduates who completed engineering, manufacturing and construction programmes in the reference year.","sourceOrganization":"UNESCO Institute for Statistics","topics":[]},{"id":"UIS.FOSGP.56.F400.M","name":"Percentage of male graduates from tertiary education graduating from Science programmes, male (%)","source":{"id":"12","value":"Education Statistics"},"sourceNote":"Share of all male tertiary graduates who completed science programmes in the reference year.","sourceOrganization":"UNESCO Institute for Statistics","topics":[]},{"id":"UIS.FOSGP.56.F300.M","name":"Percentage of male graduates from tertiary education graduating from Social Sciences, Business and Law programmes, male (%)","source":{"id":"12","value":"Education Statistics"},"sourceNote":"Share of all male tertiary graduates who completed social sciences, business and law programmes in the reference year.","sourceOrganization":"UNESCO Institute for Statistics","topics":[]},{"id":"UIS.FOSGP.56.F200.M","name":"Percentage of male graduates from tertiary education graduating from Humanities and Arts programmes, male (%)","source":{"id":"12","value":"Education Statistics"},"sourceNote":"Share of all male tertiary graduates who completed humanities and arts programmes in the reference year.","sourceOrganization":"UNESCO Institute for Statistics","topics":[]},{"id":"UIS.FOSGP.56.F140.M","name":"Percentage of male graduates from tertiary education graduating from Education programmes, male (%)","source":{"id":"12","value":"Education Statistics"},"sourceNote":"Share of all male tertiary graduates who completed education programmes in the reference year.","sourceOrganization":"UNESCO Institute for Statistics","topics":[]},{"id":"UIS.FOSEP.56.FUK.M","name":"Percentage of male students in tertiary education enrolled in programmes in unspecified fields, male (%)","source":{"id":"12","value":"Education Statistics"},"sourceNote":"Percentage of all male tertiary students who are enrolled in programmes in unspecified fields.","sourceOrganization":"UNESCO Institute for Statistics","topics":[]},{"id":"UIS.FOSEP.56.FUK.F","name":"Percentage of female students in tertiary education enrolled in programmes in unspecified fields, female (%)","source":{"id":"12","value":"Education Statistics"},"sourceNote":"Percentage of all female tertiary students who are enrolled in programmes in unspecified fields.","sourceOrganization":"UNESCO Institute for Statistics","topics":[{"id":"4","value":"Education "}]},{"id":"UIS.FOSEP.56.FUK","name":"Percentage of students in tertiary education enrolled in programmes in unspecified fields, both sexes (%)","source":{"id":"12","value":"Education Statistics"},"sourceNote":"Percentage of all tertiary students who are enrolled in programmes in unspecified fields.","sourceOrganization":"UNESCO Institute for Statistics","topics":[{"id":"4","value":"Education "}]},{"id":"UIS.FOSEP.56.F800.M","name":"Percentage of male students in tertiary education enrolled in Services programmes, male (%)","source":{"id":"12","value":"Education Statistics"},"sourceNote":"Percentage of all male tertiary students who are enrolled in services programmes.","sourceOrganization":"UNESCO Institute for Statistics","topics":[]},{"id":"UIS.FOSEP.56.F800.F","name":"Percentage of female students in tertiary education enrolled in Services programmes, female (%)","source":{"id":"12","value":"Education Statistics"},"sourceNote":"Percentage of all female tertiary students who are enrolled in services programmes.","sourceOrganization":"UNESCO Institute for Statistics","topics":[{"id":"4","value":"Education "}]},{"id":"UIS.FOSEP.56.F800","name":"Percentage of students in tertiary education enrolled in Services programmes, both sexes (%)","source":{"id":"12","value":"Education Statistics"},"sourceNote":"Percentage of all tertiary students who are enrolled in services programmes.","sourceOrganization":"UNESCO Institute for Statistics","topics":[{"id":"4","value":"Education "}]},{"id":"UIS.FOSEP.56.F700.M","name":"Percentage of male students in tertiary education enrolled in Health and Welfare programmes, male (%)","source":{"id":"12","value":"Education Statistics"},"sourceNote":"Percentage of all male tertiary students who are enrolled in health and welfare programmes.","sourceOrganization":"UNESCO Institute for Statistics","topics":[]},{"id":"UIS.FOSEP.56.F700.F","name":"Percentage of female students in tertiary education enrolled in Health and Welfare programmes, female (%)","source":{"id":"12","value":"Education Statistics"},"sourceNote":"Percentage of all female tertiary students who are enrolled in health and welfare programmes.","sourceOrganization":"UNESCO Institute for Statistics","topics":[{"id":"4","value":"Education "}]},{"id":"UIS.FOSEP.56.F700","name":"Percentage of students in tertiary education enrolled in Health and Welfare programmes, both sexes (%)","source":{"id":"12","value":"Education Statistics"},"sourceNote":"Percentage of all tertiary students who are enrolled in health and welfare programmes.","sourceOrganization":"UNESCO Institute for Statistics","topics":[{"id":"4","value":"Education "}]},{"id":"UIS.FOSEP.56.F600.M","name":"Percentage of male students in tertiary education enrolled in Agriculture programmes, male (%)","source":{"id":"12","value":"Education Statistics"},"sourceNote":"Percentage of all male tertiary students who are enrolled in agriculture programmes.","sourceOrganization":"UNESCO Institute for Statistics","topics":[]},{"id":"UIS.FOSEP.56.F600.F","name":"Percentage of female students in tertiary education enrolled in Agriculture programmes, female (%)","source":{"id":"12","value":"Education Statistics"},"sourceNote":"Percentage of all female tertiary students who are enrolled in agriculture programmes.","sourceOrganization":"UNESCO Institute for Statistics","topics":[{"id":"4","value":"Education "}]},{"id":"UIS.FOSEP.56.F600","name":"Percentage of students in tertiary education enrolled in Agriculture programmes, both sexes (%)","source":{"id":"12","value":"Education Statistics"},"sourceNote":"Percentage of all tertiary students who are enrolled in agriculture programmes.","sourceOrganization":"UNESCO Institute for Statistics","topics":[{"id":"4","value":"Education "}]},{"id":"UIS.FOSEP.56.F500.M","name":"Percentage of male students in tertiary education enrolled in Engineering, Manufacturing and Construction programmes, male (%)","source":{"id":"12","value":"Education Statistics"},"sourceNote":"Percentage of all male tertiary students who are enrolled in engineering, manufacturing and construction programmes.","sourceOrganization":"UNESCO Institute for Statistics","topics":[]},{"id":"UIS.FOSEP.56.F500.F","name":"Percentage of female students in tertiary education enrolled in Engineering, Manufacturing and Construction programmes, female (%)","source":{"id":"12","value":"Education Statistics"},"sourceNote":"Percentage of all female tertiary students who are enrolled in engineering, manufacturing and construction programmes.","sourceOrganization":"UNESCO Institute for Statistics","topics":[{"id":"4","value":"Education "}]},{"id":"UIS.FOSEP.56.F500","name":"Percentage of students in tertiary education enrolled in Engineering, Manufacturing and Construction programmes, both sexes (%)","source":{"id":"12","value":"Education Statistics"},"sourceNote":"Percentage of all tertiary students who are enrolled in engineering, manufacturing and construction programmes.","sourceOrganization":"UNESCO Institute for Statistics","topics":[{"id":"4","value":"Education "}]},{"id":"UIS.FOSEP.56.F400.M","name":"Percentage of male students in tertiary education enrolled in Science programmes, male (%)","source":{"id":"12","value":"Education Statistics"},"sourceNote":"Percentage of all male tertiary students who are enrolled in science programmes.","sourceOrganization":"UNESCO Institute for Statistics","topics":[]},{"id":"UIS.FOSEP.56.F400.F","name":"Percentage of female students in tertiary education enrolled in Science programmes, female (%)","source":{"id":"12","value":"Education Statistics"},"sourceNote":"Percentage of all female tertiary students who are enrolled in science programmes.","sourceOrganization":"UNESCO Institute for Statistics","topics":[{"id":"4","value":"Education "}]},{"id":"UIS.FOSEP.56.F400","name":"Percentage of students in tertiary education enrolled in Science programmes, both sexes (%)","source":{"id":"12","value":"Education Statistics"},"sourceNote":"Percentage of all tertiary students who are enrolled in science programmes.","sourceOrganization":"UNESCO Institute for Statistics","topics":[{"id":"4","value":"Education "}]},{"id":"UIS.FOSEP.56.F300.M","name":"Percentage of male students in tertiary education enrolled in Social Sciences, Business and Law programmes, male (%)","source":{"id":"12","value":"Education Statistics"},"sourceNote":"Percentage of all male tertiary students who are enrolled in social sciences, business and law programmes.","sourceOrganization":"UNESCO Institute for Statistics","topics":[]},{"id":"UIS.FOSEP.56.F300.F","name":"Percentage of female students in tertiary education enrolled in Social Sciences, Business and Law programmes, female (%)","source":{"id":"12","value":"Education Statistics"},"sourceNote":"Percentage of all female tertiary students who are enrolled in social sciences, business and law programmes.\u000d\u000a","sourceOrganization":"UNESCO Institute for Statistics","topics":[{"id":"4","value":"Education "}]},{"id":"UIS.FOSEP.56.F300","name":"Percentage of students in tertiary education enrolled in Social Sciences, Business and Law programmes, both sexes (%)","source":{"id":"12","value":"Education Statistics"},"sourceNote":"Percentage of all tertiary students who are enrolled in social sciences, business and law programmes.","sourceOrganization":"UNESCO Institute for Statistics","topics":[{"id":"4","value":"Education "}]},{"id":"UIS.FOSEP.56.F200.M","name":"Percentage of male students in tertiary education enrolled in Humanities and Arts programmes, male (%)","source":{"id":"12","value":"Education Statistics"},"sourceNote":"Percentage of all male tertiary students who are enrolled in humanities and arts programmes.","sourceOrganization":"UNESCO Institute for Statistics","topics":[]},{"id":"UIS.FOSEP.56.F200.F","name":"Percentage of female students in tertiary education enrolled in Humanities and Arts programmes, female (%)","source":{"id":"12","value":"Education Statistics"},"sourceNote":"Percentage of all female tertiary students who are enrolled in humanities and arts programmes.","sourceOrganization":"UNESCO Institute for Statistics","topics":[{"id":"4","value":"Education "}]},{"id":"UIS.FOSEP.56.F200","name":"Percentage of students in tertiary education enrolled in Humanities and Arts programmes, both sexes (%)","source":{"id":"12","value":"Education Statistics"},"sourceNote":"Percentage of all tertiary students who are enrolled in humanities and arts programmes.","sourceOrganization":"UNESCO Institute for Statistics","topics":[{"id":"4","value":"Education "}]}]]