[{"page":246,"pages":324,"per_page":"50","total":16174},[{"id":"SABER.STD.ASS.GOAL1","name":"SABER: (Student Assessment) Policy Goal 1: Classroom Assessment","source":{"id":"12","value":"Education Statistics"},"sourceNote":"Data Read: 1=Latent; 2=Emerging; 3Established; 4=Advanced","sourceOrganization":"The Systems Approach for Better Education Results (SABER), World Bank","topics":[]},{"id":"SABER.SCH.FNNC.GOAL6.LVL2","name":"SABER: (School Finance) Policy Goal 6 Lever 2: Are education expenditures audited?","source":{"id":"12","value":"Education Statistics"},"sourceNote":"Data Read: 1=Latent; 2=Emerging; 3Established; 4=Advanced","sourceOrganization":"The Systems Approach for Better Education Results (SABER), World Bank","topics":[]},{"id":"SABER.SCH.FNNC.GOAL6.LVL1","name":"SABER: (School Finance) Policy Goal 6 Lever 1: Are there systems in place to verify the use of educational resources?","source":{"id":"12","value":"Education Statistics"},"sourceNote":"Data Read: 1=Latent; 2=Emerging; 3Established; 4=Advanced","sourceOrganization":"The Systems Approach for Better Education Results (SABER), World Bank","topics":[]},{"id":"SABER.SCH.FNNC.GOAL6","name":"SABER: (School Finance) Policy Goal 6: Managing resources efficiently","source":{"id":"12","value":"Education Statistics"},"sourceNote":"Data Read: 1=Latent; 2=Emerging; 3Established; 4=Advanced","sourceOrganization":"The Systems Approach for Better Education Results (SABER), World Bank","topics":[]},{"id":"SABER.SCH.FNNC.GOAL5.LVL2","name":"SABER: (School Finance) Policy Goal 5 Lever 2: Do payments for schooling represent a small share of income for low income families?","source":{"id":"12","value":"Education Statistics"},"sourceNote":"Data Read: 1=Latent; 2=Emerging; 3Established; 4=Advanced","sourceOrganization":"The Systems Approach for Better Education Results (SABER), World Bank","topics":[]},{"id":"SABER.SCH.FNNC.GOAL5.LVL1","name":"SABER: (School Finance) Policy Goal 5 Lever 1: Are more public resources available to students from disadvantaged backgrounds?","source":{"id":"12","value":"Education Statistics"},"sourceNote":"Data Read: 1=Latent; 2=Emerging; 3Established; 4=Advanced","sourceOrganization":"The Systems Approach for Better Education Results (SABER), World Bank","topics":[]},{"id":"SABER.SCH.FNNC.GOAL5","name":"SABER: (School Finance) Policy Goal 5: Providing more resources to students who need them","source":{"id":"12","value":"Education Statistics"},"sourceNote":"Data Read: 1=Latent; 2=Emerging; 3Established; 4=Advanced","sourceOrganization":"The Systems Approach for Better Education Results (SABER), World Bank","topics":[]},{"id":"SABER.SCH.FNNC.GOAL4.LVL2","name":"SABER: (School Finance) Policy Goal 4 Lever 2: Is the budget comprehensive and transparent?","source":{"id":"12","value":"Education Statistics"},"sourceNote":"Data Read: 1=Latent; 2=Emerging; 3Established; 4=Advanced","sourceOrganization":"The Systems Approach for Better Education Results (SABER), World Bank","topics":[]},{"id":"SABER.SCH.FNNC.GOAL4.LVL1","name":"SABER: (School Finance) Policy Goal 4 Lever 1: Is there an informed budget process?","source":{"id":"12","value":"Education Statistics"},"sourceNote":"Data Read: 1=Latent; 2=Emerging; 3Established; 4=Advanced","sourceOrganization":"The Systems Approach for Better Education Results (SABER), World Bank","topics":[]},{"id":"SABER.SCH.FNNC.GOAL4","name":"SABER: (School Finance) Policy Goal 4: Budgeting with adequate and transparent information","source":{"id":"12","value":"Education Statistics"},"sourceNote":"Data Read: 1=Latent; 2=Emerging; 3Established; 4=Advanced","sourceOrganization":"The Systems Approach for Better Education Results (SABER), World Bank","topics":[]},{"id":"SABER.SCH.FNNC.GOAL3.LVL2","name":"SABER: (School Finance) Policy Goal 3 Lever 2: What mechanisms are in place to verify the availability of human resources at schools?","source":{"id":"12","value":"Education Statistics"},"sourceNote":"Data Read: 1=Latent; 2=Emerging; 3Established; 4=Advanced","sourceOrganization":"The Systems Approach for Better Education Results (SABER), World Bank","topics":[]},{"id":"SABER.SCH.FNNC.GOAL3.LVL1","name":"SABER: (School Finance) Policy Goal 3 Lever 1: What mechanisms are in place to verify the availability of physical resources at schools?","source":{"id":"12","value":"Education Statistics"},"sourceNote":"Data Read: 1=Latent; 2=Emerging; 3Established; 4=Advanced","sourceOrganization":"The Systems Approach for Better Education Results (SABER), World Bank","topics":[]},{"id":"SABER.SCH.FNNC.GOAL3","name":"SABER: (School Finance) Policy Goal 3: Overseeing service delivery","source":{"id":"12","value":"Education Statistics"},"sourceNote":"Data Read: 1=Latent; 2=Emerging; 3Established; 4=Advanced","sourceOrganization":"The Systems Approach for Better Education Results (SABER), World Bank","topics":[]},{"id":"SABER.SCH.FNNC.GOAL2.LVL2","name":"SABER: (School Finance) Policy Goal 2 Lever 2: Are there systems in place to assess learning outcomes?","source":{"id":"12","value":"Education Statistics"},"sourceNote":"Data Read: 1=Latent; 2=Emerging; 3Established; 4=Advanced","sourceOrganization":"The Systems Approach for Better Education Results (SABER), World Bank","topics":[]},{"id":"SABER.SCH.FNNC.GOAL2.LVL1","name":"SABER: (School Finance) Policy Goal 2 Lever 1: Are there systems in place to monitor learning conditions?","source":{"id":"12","value":"Education Statistics"},"sourceNote":"Data Read: 1=Latent; 2=Emerging; 3Established; 4=Advanced","sourceOrganization":"The Systems Approach for Better Education Results (SABER), World Bank","topics":[]},{"id":"SABER.SCH.FNNC.GOAL2","name":"SABER: (School Finance) Policy Goal 2: Monitoring learning conditions and outcomes","source":{"id":"12","value":"Education Statistics"},"sourceNote":"Data Read: 1=Latent; 2=Emerging; 3Established; 4=Advanced","sourceOrganization":"The Systems Approach for Better Education Results (SABER), World Bank","topics":[]},{"id":"SABER.SCH.FNNC.GOAL1.LVL2","name":"SABER: (School Finance) Policy Goal 1 Lever 2: Are there 3 learning goals?","source":{"id":"12","value":"Education Statistics"},"sourceNote":"Data Read: 1=Latent; 2=Emerging; 3Established; 4=Advanced","sourceOrganization":"The Systems Approach for Better Education Results (SABER), World Bank","topics":[]},{"id":"SABER.SCH.FNNC.GOAL1.LVL1","name":"SABER: (School Finance) Policy Goal 1 Lever 1: Are there policies to ensure basic inputs?","source":{"id":"12","value":"Education Statistics"},"sourceNote":"Data Read: 1=Latent; 2=Emerging; 3Established; 4=Advanced","sourceOrganization":"The Systems Approach for Better Education Results (SABER), World Bank","topics":[]},{"id":"SABER.SCH.FNNC.GOAL1","name":"SABER: (School Finance) Policy Goal 1: Ensuring basic conditions for learning","source":{"id":"12","value":"Education Statistics"},"sourceNote":"Data Read: 1=Latent; 2=Emerging; 3Established; 4=Advanced","sourceOrganization":"The Systems Approach for Better Education Results (SABER), World Bank","topics":[]},{"id":"SABER.SCH.ATNM.GOAL5.LVL5","name":"SABER: (School Autonomy Accountability) Policy Goal 5 Level 5: Degree of learning accountability","source":{"id":"12","value":"Education Statistics"},"sourceNote":"Data Read: 1=Latent; 2=Emerging; 3Established; 4=Advanced","sourceOrganization":"The Systems Approach for Better Education Results (SABER), World Bank","topics":[]},{"id":"SABER.SCH.ATNM.GOAL5.LVL4","name":"SABER: (School Autonomy Accountability) Policy Goal 5 Level 4: Degree of Accountability in school operations","source":{"id":"12","value":"Education Statistics"},"sourceNote":"Data Read: 1=Latent; 2=Emerging; 3Established; 4=Advanced","sourceOrganization":"The Systems Approach for Better Education Results (SABER), World Bank","topics":[]},{"id":"SABER.SCH.ATNM.GOAL5.LVL3","name":"SABER: (School Autonomy Accountability) Policy Goal 5 Level 3:  Degree of Financial accountability at the central level, regional, municipal, local and school level","source":{"id":"12","value":"Education Statistics"},"sourceNote":"Data Read: 1=Latent; 2=Emerging; 3Established; 4=Advanced","sourceOrganization":"The Systems Approach for Better Education Results (SABER), World Bank","topics":[]},{"id":"SABER.SCH.ATNM.GOAL5.LVL2","name":"SABER: (School Autonomy Accountability) Policy Goal 5 Level 2:  Analysis of school and student performan","source":{"id":"12","value":"Education Statistics"},"sourceNote":"Data Read: 1=Latent; 2=Emerging; 3Established; 4=Advanced","sourceOrganization":"The Systems Approach for Better Education Results (SABER), World Bank","topics":[]},{"id":"SABER.SCH.ATNM.GOAL5.LVL1","name":"SABER: (School Autonomy Accountability) Policy Goal 5 Level 1:  Guidelines for the use of results of student assessments","source":{"id":"12","value":"Education Statistics"},"sourceNote":"Data Read: 1=Latent; 2=Emerging; 3Established; 4=Advanced","sourceOrganization":"The Systems Approach for Better Education Results (SABER), World Bank","topics":[]},{"id":"SABER.SCH.ATNM.GOAL5","name":"SABER: (School Autonomy Accountability) Policy Goal 5: School Accountability","source":{"id":"12","value":"Education Statistics"},"sourceNote":"Data Read: 1=Latent; 2=Emerging; 3Established; 4=Advanced","sourceOrganization":"The Systems Approach for Better Education Results (SABER), World Bank","topics":[]},{"id":"SABER.SCH.ATNM.GOAL4.LVL5","name":"SABER: (School Autonomy Accountability) Policy Goal 4 Level 5: Publication of student assessments","source":{"id":"12","value":"Education Statistics"},"sourceNote":"Data Read: 1=Latent; 2=Emerging; 3Established; 4=Advanced","sourceOrganization":"The Systems Approach for Better Education Results (SABER), World Bank","topics":[]},{"id":"SABER.SCH.ATNM.GOAL4.LVL4","name":"SABER: (School Autonomy Accountability) Policy Goal 4 Level 4: Use of standardized student assessments for pedagogical, operational, and personnel adjustments","source":{"id":"12","value":"Education Statistics"},"sourceNote":"Data Read: 1=Latent; 2=Emerging; 3Established; 4=Advanced","sourceOrganization":"The Systems Approach for Better Education Results (SABER), World Bank","topics":[]},{"id":"SABER.SCH.ATNM.GOAL4.LVL3","name":"SABER: (School Autonomy Accountability) Policy Goal 4 Level 3: Existence and Frequency of standardized student assessments","source":{"id":"12","value":"Education Statistics"},"sourceNote":"Data Read: 1=Latent; 2=Emerging; 3Established; 4=Advanced","sourceOrganization":"The Systems Approach for Better Education Results (SABER), World Bank","topics":[]},{"id":"SABER.SCH.ATNM.GOAL4.LVL2","name":"SABER: (School Autonomy Accountability) Policy Goal 4 Level 2: Use of school assessments for making school adjustments","source":{"id":"12","value":"Education Statistics"},"sourceNote":"Data Read: 1=Latent; 2=Emerging; 3Established; 4=Advanced","sourceOrganization":"The Systems Approach for Better Education Results (SABER), World Bank","topics":[]},{"id":"SABER.SCH.ATNM.GOAL4.LVL1","name":"SABER: (School Autonomy Accountability) Policy Goal 4 Level 1: Existence and Frequency of school assessments","source":{"id":"12","value":"Education Statistics"},"sourceNote":"Data Read: 1=Latent; 2=Emerging; 3Established; 4=Advanced","sourceOrganization":"The Systems Approach for Better Education Results (SABER), World Bank","topics":[]},{"id":"SABER.SCH.ATNM.GOAL4","name":"SABER: (School Autonomy Accountability) Policy Goal 4: School and student assessment","source":{"id":"12","value":"Education Statistics"},"sourceNote":"Data Read: 1=Latent; 2=Emerging; 3Established; 4=Advanced","sourceOrganization":"The Systems Approach for Better Education Results (SABER), World Bank","topics":[]},{"id":"SABER.SCH.ATNM.GOAL3.LVL6","name":"SABER: (School Autonomy Accountability) Policy Goal 3 Level 6: Transparency in community participation","source":{"id":"12","value":"Education Statistics"},"sourceNote":"Data Read: 1=Latent; 2=Emerging; 3Established; 4=Advanced","sourceOrganization":"The Systems Approach for Better Education Results (SABER), World Bank","topics":[]},{"id":"SABER.SCH.ATNM.GOAL3.LVL5","name":"SABER: (School Autonomy Accountability) Policy Goal 3 Level 5: Participation of the school councils in learning inputs","source":{"id":"12","value":"Education Statistics"},"sourceNote":"Data Read: 1=Latent; 2=Emerging; 3Established; 4=Advanced","sourceOrganization":"The Systems Approach for Better Education Results (SABER), World Bank","topics":[]},{"id":"SABER.SCH.ATNM.GOAL3.LVL4","name":"SABER: (School Autonomy Accountability) Policy Goal 3 Level 4: Participation of the school councils in personnel oversight","source":{"id":"12","value":"Education Statistics"},"sourceNote":"Data Read: 1=Latent; 2=Emerging; 3Established; 4=Advanced","sourceOrganization":"The Systems Approach for Better Education Results (SABER), World Bank","topics":[]},{"id":"SABER.SCH.ATNM.GOAL3.LVL3","name":"SABER: (School Autonomy Accountability) Policy Goal 3 Level 3: Participation of the school councils in school activities","source":{"id":"12","value":"Education Statistics"},"sourceNote":"Data Read: 1=Latent; 2=Emerging; 3Established; 4=Advanced","sourceOrganization":"The Systems Approach for Better Education Results (SABER), World Bank","topics":[]},{"id":"SABER.SCH.ATNM.GOAL3.LVL2","name":"SABER: (School Autonomy Accountability) Policy Goal 3 Level 2: Participation of the school councils in financial oversight","source":{"id":"12","value":"Education Statistics"},"sourceNote":"Data Read: 1=Latent; 2=Emerging; 3Established; 4=Advanced","sourceOrganization":"The Systems Approach for Better Education Results (SABER), World Bank","topics":[]},{"id":"SABER.SCH.ATNM.GOAL3.LVL1","name":"SABER: (School Autonomy Accountability) Policy Goal 3 Level 1: Participation of the school councils in budget preparation","source":{"id":"12","value":"Education Statistics"},"sourceNote":"Data Read: 1=Latent; 2=Emerging; 3Established; 4=Advanced","sourceOrganization":"The Systems Approach for Better Education Results (SABER), World Bank","topics":[]},{"id":"SABER.SCH.ATNM.GOAL3","name":"SABER: (School Autonomy Accountability) Policy Goal 3: Role of the school council on school governance","source":{"id":"12","value":"Education Statistics"},"sourceNote":"Data Read: 1=Latent; 2=Emerging; 3Established; 4=Advanced","sourceOrganization":"The Systems Approach for Better Education Results (SABER), World Bank","topics":[]},{"id":"SABER.SCH.ATNM.GOAL2.LVL3","name":"SABER: (School Autonomy Accountability) Policy Goal 2 Level 3: Autonomy in school principal appointment and deployment decisions","source":{"id":"12","value":"Education Statistics"},"sourceNote":"Data Read: 1=Latent; 2=Emerging; 3Established; 4=Advanced","sourceOrganization":"The Systems Approach for Better Education Results (SABER), World Bank","topics":[]},{"id":"SABER.SCH.ATNM.GOAL2.LVL2","name":"SABER: (School Autonomy Accountability) Policy Goal 2 Level 2: Autonomy in non-teaching staff appointment and deployment decisions","source":{"id":"12","value":"Education Statistics"},"sourceNote":"Data Read: 1=Latent; 2=Emerging; 3Established; 4=Advanced","sourceOrganization":"The Systems Approach for Better Education Results (SABER), World Bank","topics":[]},{"id":"SABER.SCH.ATNM.GOAL2.LVL1","name":"SABER: (School Autonomy Accountability) Policy Goal 2 Level 1: Autonomy in teacher appointment and deployment decisions","source":{"id":"12","value":"Education Statistics"},"sourceNote":"Data Read: 1=Latent; 2=Emerging; 3Established; 4=Advanced","sourceOrganization":"The Systems Approach for Better Education Results (SABER), World Bank","topics":[]},{"id":"SABER.SCH.ATNM.GOAL2","name":"SABER: (School Autonomy Accountability) Policy Goal 2: Level of autonomy in personnel management","source":{"id":"12","value":"Education Statistics"},"sourceNote":"Data Read: 1=Latent; 2=Emerging; 3Established; 4=Advanced","sourceOrganization":"The Systems Approach for Better Education Results (SABER), World Bank","topics":[]},{"id":"SABER.SCH.ATNM.GOAL1.LVL5","name":"SABER: (School Autonomy Accountability) Policy Goal 1 Level 5: Collaborative budget planning","source":{"id":"12","value":"Education Statistics"},"sourceNote":"Data Read: 1=Latent; 2=Emerging; 3Established; 4=Advanced","sourceOrganization":"The Systems Approach for Better Education Results (SABER), World Bank","topics":[]},{"id":"SABER.SCH.ATNM.GOAL1.LVL4","name":"SABER: (School Autonomy Accountability) Policy Goal 1 Level 4: Legal authority to raise additional funds for the school","source":{"id":"12","value":"Education Statistics"},"sourceNote":"Data Read: 1=Latent; 2=Emerging; 3Established; 4=Advanced","sourceOrganization":"The Systems Approach for Better Education Results (SABER), World Bank","topics":[]},{"id":"SABER.SCH.ATNM.GOAL1.LVL3","name":"SABER: (School Autonomy Accountability) Policy Goal 1 Level 3: Legal authority over the management of teacher salaries","source":{"id":"12","value":"Education Statistics"},"sourceNote":"Data Read: 1=Latent; 2=Emerging; 3Established; 4=Advanced","sourceOrganization":"The Systems Approach for Better Education Results (SABER), World Bank","topics":[]},{"id":"SABER.SCH.ATNM.GOAL1.LVL2","name":"SABER: (School Autonomy Accountability) Policy Goal 1 Level 2: Legal authority over the management of the non-teaching staff salaries","source":{"id":"12","value":"Education Statistics"},"sourceNote":"Data Read: 1=Latent; 2=Emerging; 3Established; 4=Advanced","sourceOrganization":"The Systems Approach for Better Education Results (SABER), World Bank","topics":[]},{"id":"SABER.SCH.ATNM.GOAL1.LVL1","name":"SABER: (School Autonomy Accountability) Policy Goal 1 Level 1: Legal authority over the management of the operational budget","source":{"id":"12","value":"Education Statistics"},"sourceNote":"Data Read: 1=Latent; 2=Emerging; 3Established; 4=Advanced","sourceOrganization":"The Systems Approach for Better Education Results (SABER), World Bank","topics":[]},{"id":"SABER.SCH.ATNM.GOAL1","name":"SABER: (School Autonomy Accountability) Policy Goal 1: Level of autonomy in the planning and management of school budget","source":{"id":"12","value":"Education Statistics"},"sourceNote":"Data Read: 1=Latent; 2=Emerging; 3Established; 4=Advanced","sourceOrganization":"The Systems Approach for Better Education Results (SABER), World Bank","topics":[]},{"id":"SABER.PRVT.GOAL4.LVL5","name":"SABER: (Engaging the Private Sector) Policy Goal 4 Level 5: Regulatory fees","source":{"id":"12","value":"Education Statistics"},"sourceNote":"Data Read: 1=Latent; 2=Emerging; 3Established; 4=Advanced","sourceOrganization":"The Systems Approach for Better Education Results (SABER), World Bank","topics":[]},{"id":"SABER.PRVT.GOAL4.LVL4","name":"SABER: (Engaging the Private Sector) Policy Goal 4 Level 4: Market entry","source":{"id":"12","value":"Education Statistics"},"sourceNote":"Data Read: 1=Latent; 2=Emerging; 3Established; 4=Advanced","sourceOrganization":"The Systems Approach for Better Education Results (SABER), World Bank","topics":[{}]}]]