[{"page":81,"pages":324,"per_page":"50","total":16174},[{"id":"DT.INT.DECT.CD.MA.0912.US","name":"Ext. Debt Service Pmt, Central Bank, More than 9 to 12, All instruments, Interest, USD","source":{"id":"22","value":"Quarterly External Debt Statistics\/SDDS (New)"},"sourceNote":"","sourceOrganization":"","topics":[]},{"id":"DT.INT.DECT.CD.MA.03.US","name":"Ext. Debt Service Pmt, Central Bank, More than 0 to 3, All instruments, Interest, USD","source":{"id":"22","value":"Quarterly External Debt Statistics\/SDDS (New)"},"sourceNote":"","sourceOrganization":"","topics":[]},{"id":"DT.INT.DECT.CD.IQ.US","name":"Ext. Debt Service Pmt, All Sectors, Immediate, All instruments, Interest, USD","source":{"id":"22","value":"Quarterly External Debt Statistics\/SDDS (New)"},"sourceNote":"","sourceOrganization":"","topics":[]},{"id":"DT.INT.DECT.CD.IQ.00.US","name":"Ext. Debt Service Pmt, Public and Publicly Guar. Private Sector Ext. Debt, Immediately, All instruments, Interest, USD","source":{"id":"23","value":"Quarterly External Debt Statistics\/GDDS (New)"},"sourceNote":"","sourceOrganization":"","topics":[]},{"id":"DT.INT.DECT.CD.IL.RM.US","name":"Gross Ext. Debt Pos., DI: Intercom Lending, One year or less, All instruments, Interest, USD","source":{"id":"22","value":"Quarterly External Debt Statistics\/SDDS (New)"},"sourceNote":"","sourceOrganization":"","topics":[]},{"id":"DT.INT.DECT.CD.IL.IQ.US","name":"Ext. Debt Service Pmt, DI: Intercom Lending, Immediate, All instruments, Interest, USD","source":{"id":"22","value":"Quarterly External Debt Statistics\/SDDS (New)"},"sourceNote":"","sourceOrganization":"","topics":[]},{"id":"DT.INT.DECT.CD.IL.69.US","name":"Ext. Debt Service Pmt, DI: Intercom Lending, More than 6 to 9, All instruments, Interest, USD","source":{"id":"22","value":"Quarterly External Debt Statistics\/SDDS (New)"},"sourceNote":"","sourceOrganization":"","topics":[]},{"id":"DT.INT.DECT.CD.IL.36.US","name":"Ext. Debt Service Pmt, DI: Intercom Lending, More than 3 to 6, All instruments, Interest, USD","source":{"id":"22","value":"Quarterly External Debt Statistics\/SDDS (New)"},"sourceNote":"","sourceOrganization":"","topics":[]},{"id":"DT.INT.DECT.CD.IL.24P.US","name":"Ext. Debt Service Pmt, DI: Intercom Lending, More than 2yrs, All instruments, Interest, USD","source":{"id":"22","value":"Quarterly External Debt Statistics\/SDDS (New)"},"sourceNote":"","sourceOrganization":"","topics":[]},{"id":"DT.INT.DECT.CD.IL.1824.US","name":"Ext. Debt Service Pmt, DI: Intercom Lending, More than 18 to 24, All instruments, Interest, USD","source":{"id":"22","value":"Quarterly External Debt Statistics\/SDDS (New)"},"sourceNote":"","sourceOrganization":"","topics":[]},{"id":"DT.INT.DECT.CD.IL.1218.US","name":"Ext. Debt Service Pmt, DI: Intercom Lending, More than 12 to 18, All instruments, Interest, USD","source":{"id":"22","value":"Quarterly External Debt Statistics\/SDDS (New)"},"sourceNote":"","sourceOrganization":"","topics":[]},{"id":"DT.INT.DECT.CD.IL.0912.US","name":"Ext. Debt Service Pmt, DI: Intercom Lending, More than 9 to 12, All instruments, Interest, USD","source":{"id":"22","value":"Quarterly External Debt Statistics\/SDDS (New)"},"sourceNote":"","sourceOrganization":"","topics":[]},{"id":"DT.INT.DECT.CD.IL.03.US","name":"Ext. Debt Service Pmt, DI: Intercom Lending, More than 0 to 3, All instruments, Interest, USD","source":{"id":"22","value":"Quarterly External Debt Statistics\/SDDS (New)"},"sourceNote":"","sourceOrganization":"","topics":[]},{"id":"DT.INT.DECT.CD.GG.RM.US","name":"Gross Ext. Debt Pos., General Government, One year or less, All instruments, Interest, USD","source":{"id":"22","value":"Quarterly External Debt Statistics\/SDDS (New)"},"sourceNote":"","sourceOrganization":"","topics":[]},{"id":"DT.INT.DECT.CD.GG.IQ.US","name":"Ext. Debt Service Pmt, General Government, Immediate, All instruments, Interest, USD","source":{"id":"22","value":"Quarterly External Debt Statistics\/SDDS (New)"},"sourceNote":"","sourceOrganization":"","topics":[]},{"id":"DT.INT.DECT.CD.GG.69.US","name":"Ext. Debt Service Pmt, General Government, More than 6 to 9, All instruments, Interest, USD","source":{"id":"22","value":"Quarterly External Debt Statistics\/SDDS (New)"},"sourceNote":"","sourceOrganization":"","topics":[]},{"id":"DT.INT.DECT.CD.GG.36.US","name":"Ext. Debt Service Pmt, General Government, More than 3 to 6, All instruments, Interest, USD","source":{"id":"22","value":"Quarterly External Debt Statistics\/SDDS (New)"},"sourceNote":"","sourceOrganization":"","topics":[]},{"id":"DT.INT.DECT.CD.GG.24P.US","name":"Ext. Debt Service Pmt, General Government, More than 2yrs, All instruments, Interest, USD","source":{"id":"22","value":"Quarterly External Debt Statistics\/SDDS (New)"},"sourceNote":"","sourceOrganization":"","topics":[]},{"id":"DT.INT.DECT.CD.GG.1824.US","name":"Ext. Debt Service Pmt, General Government, More than 18 to 24, All instruments, Interest, USD","source":{"id":"22","value":"Quarterly External Debt Statistics\/SDDS (New)"},"sourceNote":"","sourceOrganization":"","topics":[]},{"id":"DT.INT.DECT.CD.GG.1218.US","name":"Ext. Debt Service Pmt, General Government, More than 12 to 18, All instruments, Interest, USD","source":{"id":"22","value":"Quarterly External Debt Statistics\/SDDS (New)"},"sourceNote":"","sourceOrganization":"","topics":[]},{"id":"DT.INT.DECT.CD.GG.0912.US","name":"Ext. Debt Service Pmt, General Government, More than 9 to 12, All instruments, Interest, USD","source":{"id":"22","value":"Quarterly External Debt Statistics\/SDDS (New)"},"sourceNote":"","sourceOrganization":"","topics":[]},{"id":"DT.INT.DECT.CD.GG.03.US","name":"Ext. Debt Service Pmt, General Government, More than 0 to 3, All instruments, Interest, USD","source":{"id":"22","value":"Quarterly External Debt Statistics\/SDDS (New)"},"sourceNote":"","sourceOrganization":"","topics":[]},{"id":"DT.INT.DECT.CD.CB.RM.US","name":"Gross Ext. Debt Pos., Deposit-Taking Corp., exc. CB, One year or less, All instruments, Interest, USD","source":{"id":"22","value":"Quarterly External Debt Statistics\/SDDS (New)"},"sourceNote":"","sourceOrganization":"","topics":[]},{"id":"DT.INT.DECT.CD.CB.IQ.US","name":"Ext. Debt Service Pmt, Deposit-Taking Corp., exc. CB, Immediate, All instruments, Interest, USD","source":{"id":"22","value":"Quarterly External Debt Statistics\/SDDS (New)"},"sourceNote":"","sourceOrganization":"","topics":[]},{"id":"DT.INT.DECT.CD.CB.69.US","name":"Ext. Debt Service Pmt, Deposit-Taking Corp., exc. CB, More than 6 to 9, All instruments, Interest, USD","source":{"id":"22","value":"Quarterly External Debt Statistics\/SDDS (New)"},"sourceNote":"","sourceOrganization":"","topics":[]},{"id":"DT.INT.DECT.CD.CB.36.US","name":"Ext. Debt Service Pmt, Deposit-Taking Corp., exc. CB, More than 3 to 6, All instruments, Interest, USD","source":{"id":"22","value":"Quarterly External Debt Statistics\/SDDS (New)"},"sourceNote":"","sourceOrganization":"","topics":[]},{"id":"DT.INT.DECT.CD.CB.24P.US","name":"Ext. Debt Service Pmt, Deposit-Taking Corp., exc. CB, More than 2yrs, All instruments, Interest, USD","source":{"id":"22","value":"Quarterly External Debt Statistics\/SDDS (New)"},"sourceNote":"","sourceOrganization":"","topics":[]},{"id":"DT.INT.DECT.CD.CB.1824.US","name":"Ext. Debt Service Pmt, Deposit-Taking Corp., exc. CB, More than 18 to 24, All instruments, Interest, USD","source":{"id":"22","value":"Quarterly External Debt Statistics\/SDDS (New)"},"sourceNote":"","sourceOrganization":"","topics":[]},{"id":"DT.INT.DECT.CD.CB.1218.US","name":"Ext. Debt Service Pmt, Deposit-Taking Corp., exc. CB, More than 12 to 18, All instruments, Interest, USD","source":{"id":"22","value":"Quarterly External Debt Statistics\/SDDS (New)"},"sourceNote":"","sourceOrganization":"","topics":[]},{"id":"DT.INT.DECT.CD.CB.0912.US","name":"Ext. Debt Service Pmt, Deposit-Taking Corp., exc. CB, More than 9 to 12, All instruments, Interest, USD","source":{"id":"22","value":"Quarterly External Debt Statistics\/SDDS (New)"},"sourceNote":"","sourceOrganization":"","topics":[]},{"id":"DT.INT.DECT.CD.CB.03.US","name":"Ext. Debt Service Pmt, Deposit-Taking Corp., exc. CB, More than 0 to 3, All instruments, Interest, USD","source":{"id":"22","value":"Quarterly External Debt Statistics\/SDDS (New)"},"sourceNote":"","sourceOrganization":"","topics":[]},{"id":"DT.INT.DECT.CD.AR.IQ.US","name":"Gross Ext. Debt Pmt, All Sectors, Immediate, All instruments, Interest, USD","source":{"id":"22","value":"Quarterly External Debt Statistics\/SDDS (New)"},"sourceNote":"","sourceOrganization":"","topics":[]},{"id":"DT.INT.DECT.CD.AR.69.US","name":"Gross Ext. Debt Pmt, All Sectors, More than 6 to 9, All instruments, Interest, USD","source":{"id":"22","value":"Quarterly External Debt Statistics\/SDDS (New)"},"sourceNote":"","sourceOrganization":"","topics":[]},{"id":"DT.INT.DECT.CD.AR.36.US","name":"Gross Ext. Debt Pmt, All Sectors, More than 3 to 6, All instruments, Interest, USD","source":{"id":"22","value":"Quarterly External Debt Statistics\/SDDS (New)"},"sourceNote":"","sourceOrganization":"","topics":[]},{"id":"DT.INT.DECT.CD.AR.24P.US","name":"Gross Ext. Debt Pmt, All Sectors, More than 2yrs, All instruments, Interest, USD","source":{"id":"22","value":"Quarterly External Debt Statistics\/SDDS (New)"},"sourceNote":"","sourceOrganization":"","topics":[]},{"id":"DT.INT.DECT.CD.AR.1824.US","name":"Gross Ext. Debt Pmt, All Sectors, More than 18 to 24, All instruments, Interest, USD","source":{"id":"22","value":"Quarterly External Debt Statistics\/SDDS (New)"},"sourceNote":"","sourceOrganization":"","topics":[]},{"id":"DT.INT.DECT.CD.AR.1218.US","name":"Gross Ext. Debt Pmt, All Sectors, More than 12 to 18, All instruments, Interest, USD","source":{"id":"22","value":"Quarterly External Debt Statistics\/SDDS (New)"},"sourceNote":"","sourceOrganization":"","topics":[]},{"id":"DT.INT.DECT.CD.AR.0912.US","name":"Gross Ext. Debt Pmt, All Sectors, More than 9 to 12, All instruments, Interest, USD","source":{"id":"22","value":"Quarterly External Debt Statistics\/SDDS (New)"},"sourceNote":"","sourceOrganization":"","topics":[]},{"id":"DT.INT.DECT.CD.AR.03.US","name":"Gross Ext. Debt Pmt, All Sectors, More than 0 to 3, All instruments, Interest, USD","source":{"id":"22","value":"Quarterly External Debt Statistics\/SDDS (New)"},"sourceNote":"","sourceOrganization":"","topics":[]},{"id":"DT.INT.DECT.CD.69.US","name":"Ext. Debt Service Pmt, All Sectors, More than 6 to 9, All instruments, Interest, USD","source":{"id":"22","value":"Quarterly External Debt Statistics\/SDDS (New)"},"sourceNote":"","sourceOrganization":"","topics":[]},{"id":"DT.INT.DECT.CD.36.US","name":"Ext. Debt Service Pmt, All Sectors, More than 3 to 6, All instruments, Interest, USD","source":{"id":"22","value":"Quarterly External Debt Statistics\/SDDS (New)"},"sourceNote":"","sourceOrganization":"","topics":[]},{"id":"DT.INT.DECT.CD.24P.US","name":"Ext. Debt Service Pmt, All Sectors, More than 2yrs, All instruments, Interest, USD","source":{"id":"22","value":"Quarterly External Debt Statistics\/SDDS (New)"},"sourceNote":"","sourceOrganization":"","topics":[]},{"id":"DT.INT.DECT.CD.19.24.MO.US","name":"Ext. Debt Service Pmt, Public and Publicly Guar. Private Sector Ext. Debt, 18 to 24 mo., All instruments, Interest, USD","source":{"id":"23","value":"Quarterly External Debt Statistics\/GDDS (New)"},"sourceNote":"","sourceOrganization":"","topics":[]},{"id":"DT.INT.DECT.CD.1824.US","name":"Ext. Debt Service Pmt, All Sectors, More than 18 to 24, All instruments, Interest, USD","source":{"id":"22","value":"Quarterly External Debt Statistics\/SDDS (New)"},"sourceNote":"","sourceOrganization":"","topics":[]},{"id":"DT.INT.DECT.CD.15.UP.YR.US","name":"Ext. Debt Service Pmt, Public and Publicly Guar. Private Sector Ext. Debt, More than15yrs, All instruments, Interest, USD","source":{"id":"23","value":"Quarterly External Debt Statistics\/GDDS (New)"},"sourceNote":"","sourceOrganization":"","topics":[]},{"id":"DT.INT.DECT.CD.13.18.MO.US","name":"Ext. Debt Service Pmt, Public and Publicly Guar. Private Sector Ext. Debt, 12 to 18 mo., All instruments, Interest, USD","source":{"id":"23","value":"Quarterly External Debt Statistics\/GDDS (New)"},"sourceNote":"","sourceOrganization":"","topics":[]},{"id":"DT.INT.DECT.CD.1218.US","name":"Ext. Debt Service Pmt, All Sectors, More than 12 to 18, All instruments, Interest, USD","source":{"id":"22","value":"Quarterly External Debt Statistics\/SDDS (New)"},"sourceNote":"","sourceOrganization":"","topics":[]},{"id":"DT.INT.DECT.CD.10.15.YR.US","name":"Ext. Debt Service Pmt, Public and Publicly Guar. Private Sector Ext. Debt, 10 to 15 yrs, All instruments, Interest, USD","source":{"id":"23","value":"Quarterly External Debt Statistics\/GDDS (New)"},"sourceNote":"","sourceOrganization":"","topics":[]},{"id":"DT.INT.DECT.CD.10.12.MO.US","name":"Ext. Debt Service Pmt, Public and Publicly Guar. Private Sector Ext. Debt, 9 to 12 mo., All instruments, Interest, USD","source":{"id":"23","value":"Quarterly External Debt Statistics\/GDDS (New)"},"sourceNote":"","sourceOrganization":"","topics":[]},{"id":"DT.INT.DECT.CD.0912.US","name":"Ext. Debt Service Pmt, All Sectors, More than 9 to 12, All instruments, Interest, USD","source":{"id":"22","value":"Quarterly External Debt Statistics\/SDDS (New)"},"sourceNote":"","sourceOrganization":"","topics":[{}]}]]