[{"page":179,"pages":324,"per_page":"50","total":16174},[{"id":"per_pr_dp.adq_q5_rur","name":"Adequacy of benefits in richest quintile (%) - Domestic Private Transfers -rural","source":{"id":"29","value":"Global Social Protection"},"sourceNote":"Total transfer amount received by all beneficiaries in a population group as a share of the total welfare of beneficiaries in that group","sourceOrganization":"ASPIRE","topics":[{"id":"10","value":"Social Protection & Labor"}]},{"id":"per_pr_dp.adq_q5_preT_tot","name":"Adequacy of benefits in richest quintile (%) - Domestic Private Transfers (preT)","source":{"id":"29","value":"Global Social Protection"},"sourceNote":"Total transfer amount received by all beneficiaries in a population group as a share of the total welfare of beneficiaries in that group","sourceOrganization":"ASPIRE","topics":[{"id":"10","value":"Social Protection & Labor"}]},{"id":"per_pr_dp.adq_q4_urb","name":"Adequacy of benefits in 4th quintile (%) - Domestic Private Transfers -urban","source":{"id":"29","value":"Global Social Protection"},"sourceNote":"Total transfer amount received by all beneficiaries in a population group as a share of the total welfare of beneficiaries in that group","sourceOrganization":"ASPIRE","topics":[{"id":"10","value":"Social Protection & Labor"}]},{"id":"per_pr_dp.adq_q4_tot","name":"Adequacy of benefits in 4th quintile (%) - Domestic Private Transfers","source":{"id":"29","value":"Global Social Protection"},"sourceNote":"Total transfer amount received by all beneficiaries in a population group as a share of the total welfare of beneficiaries in that group","sourceOrganization":"ASPIRE","topics":[{"id":"10","value":"Social Protection & Labor"}]},{"id":"per_pr_dp.adq_q4_rur","name":"Adequacy of benefits in 4th quintile (%) - Domestic Private Transfers -rural","source":{"id":"29","value":"Global Social Protection"},"sourceNote":"Total transfer amount received by all beneficiaries in a population group as a share of the total welfare of beneficiaries in that group","sourceOrganization":"ASPIRE","topics":[{"id":"10","value":"Social Protection & Labor"}]},{"id":"per_pr_dp.adq_q4_preT_tot","name":"Adequacy of benefits in 4th quintile (%) - Domestic Private Transfers (preT)","source":{"id":"29","value":"Global Social Protection"},"sourceNote":"Total transfer amount received by all beneficiaries in a population group as a share of the total welfare of beneficiaries in that group","sourceOrganization":"ASPIRE","topics":[{"id":"10","value":"Social Protection & Labor"}]},{"id":"per_pr_dp.adq_q3_urb","name":"Adequacy of benefits in 3rd quintile (%) - Domestic Private Transfers -urban","source":{"id":"29","value":"Global Social Protection"},"sourceNote":"Total transfer amount received by all beneficiaries in a population group as a share of the total welfare of beneficiaries in that group","sourceOrganization":"ASPIRE","topics":[{"id":"10","value":"Social Protection & Labor"}]},{"id":"per_pr_dp.adq_q3_tot","name":"Adequacy of benefits in 3rd quintile (%) - Domestic Private Transfers","source":{"id":"29","value":"Global Social Protection"},"sourceNote":"Total transfer amount received by all beneficiaries in a population group as a share of the total welfare of beneficiaries in that group","sourceOrganization":"ASPIRE","topics":[{"id":"10","value":"Social Protection & Labor"}]},{"id":"per_pr_dp.adq_q3_rur","name":"Adequacy of benefits in 3rd quintile (%) - Domestic Private Transfers -rural","source":{"id":"29","value":"Global Social Protection"},"sourceNote":"Total transfer amount received by all beneficiaries in a population group as a share of the total welfare of beneficiaries in that group","sourceOrganization":"ASPIRE","topics":[{"id":"10","value":"Social Protection & Labor"}]},{"id":"per_pr_dp.adq_q3_preT_tot","name":"Adequacy of benefits in 3rd quintile (%) - Domestic Private Transfers (preT)","source":{"id":"29","value":"Global Social Protection"},"sourceNote":"Total transfer amount received by all beneficiaries in a population group as a share of the total welfare of beneficiaries in that group","sourceOrganization":"ASPIRE","topics":[{"id":"10","value":"Social Protection & Labor"}]},{"id":"per_pr_dp.adq_q2_urb","name":"Adequacy of benefits in 2nd quintile (%) - Domestic Private Transfers -urban","source":{"id":"29","value":"Global Social Protection"},"sourceNote":"Total transfer amount received by all beneficiaries in a population group as a share of the total welfare of beneficiaries in that group","sourceOrganization":"ASPIRE","topics":[{"id":"10","value":"Social Protection & Labor"}]},{"id":"per_pr_dp.adq_q2_tot","name":"Adequacy of benefits in 2nd quintile (%) - Domestic Private Transfers","source":{"id":"29","value":"Global Social Protection"},"sourceNote":"Total transfer amount received by all beneficiaries in a population group as a share of the total welfare of beneficiaries in that group","sourceOrganization":"ASPIRE","topics":[{"id":"10","value":"Social Protection & Labor"}]},{"id":"per_pr_dp.adq_q2_rur","name":"Adequacy of benefits in 2nd quintile (%) - Domestic Private Transfers -rural","source":{"id":"29","value":"Global Social Protection"},"sourceNote":"Total transfer amount received by all beneficiaries in a population group as a share of the total welfare of beneficiaries in that group","sourceOrganization":"ASPIRE","topics":[{"id":"10","value":"Social Protection & Labor"}]},{"id":"per_pr_dp.adq_q2_preT_tot","name":"Adequacy of benefits in 2nd quintile (%) - Domestic Private Transfers (preT)","source":{"id":"29","value":"Global Social Protection"},"sourceNote":"Total transfer amount received by all beneficiaries in a population group as a share of the total welfare of beneficiaries in that group","sourceOrganization":"ASPIRE","topics":[{"id":"10","value":"Social Protection & Labor"}]},{"id":"per_pr_dp.adq_q1_urb","name":"Adequacy of benefits in poorest quintile (%) - Domestic Private Transfers -urban","source":{"id":"29","value":"Global Social Protection"},"sourceNote":"Total transfer amount received by all beneficiaries in a population group as a share of the total welfare of beneficiaries in that group","sourceOrganization":"ASPIRE","topics":[{"id":"10","value":"Social Protection & Labor"}]},{"id":"per_pr_dp.adq_q1_tot","name":"Adequacy of benefits in poorest quintile (%) - Domestic Private Transfers","source":{"id":"29","value":"Global Social Protection"},"sourceNote":"Total transfer amount received by all beneficiaries in a population group as a share of the total welfare of beneficiaries in that group","sourceOrganization":"ASPIRE","topics":[{"id":"10","value":"Social Protection & Labor"}]},{"id":"per_pr_dp.adq_q1_rur","name":"Adequacy of benefits in poorest quintile (%) - Domestic Private Transfers -rural","source":{"id":"29","value":"Global Social Protection"},"sourceNote":"Total transfer amount received by all beneficiaries in a population group as a share of the total welfare of beneficiaries in that group","sourceOrganization":"ASPIRE","topics":[{"id":"10","value":"Social Protection & Labor"}]},{"id":"per_pr_dp.adq_q1_preT_tot","name":"Adequacy of benefits in poorest quintile (%) - Domestic Private Transfers (preT)","source":{"id":"29","value":"Global Social Protection"},"sourceNote":"Total transfer amount received by all beneficiaries in a population group as a share of the total welfare of beneficiaries in that group","sourceOrganization":"ASPIRE","topics":[{"id":"10","value":"Social Protection & Labor"}]},{"id":"per_pr_dp.adq_pop_urb","name":"Adequacy of benefits (%) - Domestic Private Transfers -urban","source":{"id":"29","value":"Global Social Protection"},"sourceNote":"Total transfer amount received by all beneficiaries in a population group as a share of the total welfare of beneficiaries in that group","sourceOrganization":"ASPIRE","topics":[{"id":"10","value":"Social Protection & Labor"}]},{"id":"per_pr_dp.adq_pop_tot","name":"Adequacy of benefits (%) - Domestic Private Transfers","source":{"id":"29","value":"Global Social Protection"},"sourceNote":"Total transfer amount received by all beneficiaries in a population group as a share of the total welfare of beneficiaries in that group","sourceOrganization":"ASPIRE","topics":[{"id":"10","value":"Social Protection & Labor"}]},{"id":"per_pr_dp.adq_pop_rur","name":"Adequacy of benefits (%) - Domestic Private Transfers -rural","source":{"id":"29","value":"Global Social Protection"},"sourceNote":"Total transfer amount received by all beneficiaries in a population group as a share of the total welfare of beneficiaries in that group","sourceOrganization":"ASPIRE","topics":[{"id":"10","value":"Social Protection & Labor"}]},{"id":"per_pr_dp.adq_pop_preT_tot","name":"Adequacy of benefits (%) - Domestic Private Transfers (preT)","source":{"id":"29","value":"Global Social Protection"},"sourceNote":"Total transfer amount received by all beneficiaries in a population group as a share of the total welfare of beneficiaries in that group","sourceOrganization":"ASPIRE","topics":[{"id":"10","value":"Social Protection & Labor"}]},{"id":"per_pr_dp.adq_ep_tot","name":"Adequacy of benefits in extreme poor (<$1.25 a day) (%) - Domestic Private Transfers","source":{"id":"29","value":"Global Social Protection"},"sourceNote":"Total transfer amount received by all beneficiaries in a population group as a share of the total welfare of beneficiaries in that group","sourceOrganization":"ASPIRE","topics":[{"id":"10","value":"Social Protection & Labor"}]},{"id":"per_pr_dp.adq_ep_preT_tot","name":"Adequacy of benefits in extreme poor (<$1.25 a day) (%) - Domestic Private Transfers (preT)","source":{"id":"29","value":"Global Social Protection"},"sourceNote":"Total transfer amount received by all beneficiaries in a population group as a share of the total welfare of beneficiaries in that group","sourceOrganization":"ASPIRE","topics":[{"id":"10","value":"Social Protection & Labor"}]},{"id":"per_pr_allpr_p1_urb","name":"Poverty Gap reduction (%) -  All Private Transfers - poorest quintile -urban","source":{"id":"29","value":"Global Social Protection"},"sourceNote":"","sourceOrganization":"The Atlas of Social Protection: Indicators of Resilience and Equity (ASPIRE)","topics":[]},{"id":"per_pr_allpr_p1_tot","name":"Poverty Gap reduction (%) -  All Private Transfers -poorest quintile","source":{"id":"29","value":"Global Social Protection"},"sourceNote":"","sourceOrganization":"The Atlas of Social Protection: Indicators of Resilience and Equity (ASPIRE)","topics":[]},{"id":"per_pr_allpr_p1_rur","name":"Poverty Gap reduction (%) -  All Private Transfers -poorest quintile -rural","source":{"id":"29","value":"Global Social Protection"},"sourceNote":"","sourceOrganization":"The Atlas of Social Protection: Indicators of Resilience and Equity (ASPIRE)","topics":[]},{"id":"per_pr_allpr_p1_preT_tot","name":"Poverty Gap reduction (%) -  All Private Transfers -poorest quintile (preT)","source":{"id":"29","value":"Global Social Protection"},"sourceNote":"","sourceOrganization":"The Atlas of Social Protection: Indicators of Resilience and Equity (ASPIRE)","topics":[]},{"id":"per_pr_allpr_p1_ep_tot","name":"Poverty Gap reduction (%) -  All Private Transfers -extreme poor (<$1.25 a day)","source":{"id":"29","value":"Global Social Protection"},"sourceNote":"","sourceOrganization":"The Atlas of Social Protection: Indicators of Resilience and Equity (ASPIRE)","topics":[]},{"id":"per_pr_allpr_p1_ep_preT_tot","name":"Poverty Gap reduction (%) -  All Private Transfers -extreme poor (<$1.25 a day) (preT)","source":{"id":"29","value":"Global Social Protection"},"sourceNote":"","sourceOrganization":"The Atlas of Social Protection: Indicators of Resilience and Equity (ASPIRE)","topics":[]},{"id":"per_pr_allpr_p0_urb","name":"Poverty Headcount reduction (%) -  All Private Transfers - poorest quintile -urban","source":{"id":"29","value":"Global Social Protection"},"sourceNote":"","sourceOrganization":"The Atlas of Social Protection: Indicators of Resilience and Equity (ASPIRE)","topics":[]},{"id":"per_pr_allpr_p0_tot","name":"Poverty Headcount reduction (%) -  All Private Transfers -poorest quintile","source":{"id":"29","value":"Global Social Protection"},"sourceNote":"","sourceOrganization":"The Atlas of Social Protection: Indicators of Resilience and Equity (ASPIRE)","topics":[]},{"id":"per_pr_allpr_p0_rur","name":"Poverty Headcount reduction (%) -  All Private Transfers -poorest quintile -rural","source":{"id":"29","value":"Global Social Protection"},"sourceNote":"","sourceOrganization":"The Atlas of Social Protection: Indicators of Resilience and Equity (ASPIRE)","topics":[]},{"id":"per_pr_allpr_p0_preT_tot","name":"Poverty Headcount reduction (%) -  All Private Transfers -poorest quintile (preT)","source":{"id":"29","value":"Global Social Protection"},"sourceNote":"","sourceOrganization":"The Atlas of Social Protection: Indicators of Resilience and Equity (ASPIRE)","topics":[]},{"id":"per_pr_allpr_p0_ep_tot","name":"Poverty Headcount reduction (%) -  All Private Transfers -extreme poor (<$1.25 a day)","source":{"id":"29","value":"Global Social Protection"},"sourceNote":"","sourceOrganization":"The Atlas of Social Protection: Indicators of Resilience and Equity (ASPIRE)","topics":[]},{"id":"per_pr_allpr_p0_ep_preT_tot","name":"Poverty Headcount reduction (%) -  All Private Transfers -extreme poor (<$1.25 a day) (preT)","source":{"id":"29","value":"Global Social Protection"},"sourceNote":"","sourceOrganization":"The Atlas of Social Protection: Indicators of Resilience and Equity (ASPIRE)","topics":[]},{"id":"per_pr_allpr_gini_urb","name":"Gini inequality reduction (%) -  All Private Transfers - poorest quintile -urban","source":{"id":"29","value":"Global Social Protection"},"sourceNote":"","sourceOrganization":"The Atlas of Social Protection: Indicators of Resilience and Equity (ASPIRE)","topics":[]},{"id":"per_pr_allpr_gini_tot","name":"Gini inequality reduction (%) -  All Private Transfers -poorest quintile","source":{"id":"29","value":"Global Social Protection"},"sourceNote":"","sourceOrganization":"The Atlas of Social Protection: Indicators of Resilience and Equity (ASPIRE)","topics":[]},{"id":"per_pr_allpr_gini_rur","name":"Gini inequality reduction (%) -  All Private Transfers -poorest quintile -rural","source":{"id":"29","value":"Global Social Protection"},"sourceNote":"","sourceOrganization":"The Atlas of Social Protection: Indicators of Resilience and Equity (ASPIRE)","topics":[]},{"id":"per_pr_allpr_gini_preT_tot","name":"Gini inequality reduction (%) -  All Private Transfers -poorest quintile (preT)","source":{"id":"29","value":"Global Social Protection"},"sourceNote":"","sourceOrganization":"The Atlas of Social Protection: Indicators of Resilience and Equity (ASPIRE)","topics":[]},{"id":"per_pr_allpr_gini_ep_tot","name":"Gini inequality reduction (%) -  All Private Transfers -extreme poor (<$1.25 a day)","source":{"id":"29","value":"Global Social Protection"},"sourceNote":"","sourceOrganization":"The Atlas of Social Protection: Indicators of Resilience and Equity (ASPIRE)","topics":[]},{"id":"per_pr_allpr_gini_ep_preT_tot","name":"Gini inequality reduction (%) -  All Private Transfers -extreme poor (<$1.25 a day) (preT)","source":{"id":"29","value":"Global Social Protection"},"sourceNote":"","sourceOrganization":"The Atlas of Social Protection: Indicators of Resilience and Equity (ASPIRE)","topics":[]},{"id":"per_pr_allpr.cov_q5_urb","name":"Coverage in richest quintile (%) - All Private Transfers -urban","source":{"id":"29","value":"Global Social Protection"},"sourceNote":"","sourceOrganization":"The Atlas of Social Protection: Indicators of Resilience and Equity (ASPIRE)","topics":[]},{"id":"per_pr_allpr.cov_q5_tot","name":"Coverage in richest quintile (%) - All Private Transfers  ","source":{"id":"29","value":"Global Social Protection"},"sourceNote":"","sourceOrganization":"The Atlas of Social Protection: Indicators of Resilience and Equity (ASPIRE)","topics":[]},{"id":"per_pr_allpr.cov_q5_rur","name":"Coverage in richest quintile (%) - All Private Transfers -rural","source":{"id":"29","value":"Global Social Protection"},"sourceNote":"","sourceOrganization":"The Atlas of Social Protection: Indicators of Resilience and Equity (ASPIRE)","topics":[]},{"id":"per_pr_allpr.cov_q5_preT_tot","name":"Coverage in richest quintile (%) - All Private Transfers (preT)","source":{"id":"29","value":"Global Social Protection"},"sourceNote":"","sourceOrganization":"The Atlas of Social Protection: Indicators of Resilience and Equity (ASPIRE)","topics":[]},{"id":"per_pr_allpr.cov_q4_urb","name":"Coverage in 4th quintile (%) - All Private Transfers -urban","source":{"id":"29","value":"Global Social Protection"},"sourceNote":"","sourceOrganization":"The Atlas of Social Protection: Indicators of Resilience and Equity (ASPIRE)","topics":[]},{"id":"per_pr_allpr.cov_q4_tot","name":"Coverage in 4th quintile (%) - All Private Transfers  ","source":{"id":"29","value":"Global Social Protection"},"sourceNote":"","sourceOrganization":"The Atlas of Social Protection: Indicators of Resilience and Equity (ASPIRE)","topics":[]},{"id":"per_pr_allpr.cov_q4_rur","name":"Coverage in 4th quintile (%) - All Private Transfers -rural","source":{"id":"29","value":"Global Social Protection"},"sourceNote":"","sourceOrganization":"The Atlas of Social Protection: Indicators of Resilience and Equity (ASPIRE)","topics":[]},{"id":"per_pr_allpr.cov_q4_preT_tot","name":"Coverage in 4th quintile (%) - All Private Transfers (preT)","source":{"id":"29","value":"Global Social Protection"},"sourceNote":"","sourceOrganization":"The Atlas of Social Protection: Indicators of Resilience and Equity (ASPIRE)","topics":[{}]}]]