[{"page":243,"pages":324,"per_page":"50","total":16174},[{"id":"ROD.DIST.GOOD.BM.KM","name":"Length of District Road: Good (in km) (Bina Marga Data)","source":{"id":"45","value":"INDO-DAPOER"},"sourceNote":"","sourceOrganization":"Ministry of Public Works, Directorate General of Highways (Bina Marga) Statistics","topics":[]},{"id":"ROD.DIST.FAIR.KM","name":"Length of District Road: Fair (in km) (BPS Data, Province only)","source":{"id":"45","value":"INDO-DAPOER"},"sourceNote":"","sourceOrganization":"BADAN PUSAT STATISTIK - Statistics Indonesia","topics":[]},{"id":"ROD.DIST.FAIR.BM.KM","name":"Length of District Road: Fair (in km) (Bina Marga Data)","source":{"id":"45","value":"INDO-DAPOER"},"sourceNote":"","sourceOrganization":"Ministry of Public Works, Directorate General of Highways (Bina Marga) Statistics","topics":[]},{"id":"ROD.DIST.DIRT.KM","name":"Length of District Road: Dirt (in km) (BPS Data, Province only)","source":{"id":"45","value":"INDO-DAPOER"},"sourceNote":"","sourceOrganization":"BADAN PUSAT STATISTIK - Statistics Indonesia","topics":[]},{"id":"ROD.DIST.BDMG.KM","name":"Length of District Road: Bad Damage (in km) (BPS Data, Province only)","source":{"id":"45","value":"INDO-DAPOER"},"sourceNote":"","sourceOrganization":"BADAN PUSAT STATISTIK - Statistics Indonesia","topics":[]},{"id":"ROD.DIST.BDMG.BM.KM","name":"Length of District Road: Bad Damage (in km) (Bina Marga Data)","source":{"id":"45","value":"INDO-DAPOER"},"sourceNote":"","sourceOrganization":"Ministry of Public Works, Directorate General of Highways (Bina Marga) Statistics","topics":[]},{"id":"ROD.DIST.ASPH.KM","name":"Length of District Road: Asphalt (in km) (BPS Data, Province only)","source":{"id":"45","value":"INDO-DAPOER"},"sourceNote":"","sourceOrganization":"BADAN PUSAT STATISTIK - Statistics Indonesia","topics":[]},{"id":"RL.STD.ERR","name":"Rule of Law: Standard Error","source":{"id":"3","value":"Worldwide Governance Indicators"},"sourceNote":"Rule of Law captures perceptions of the extent to which agents have confidence in and abide by the rules of society, and in particular the quality of contract enforcement, property rights, the police, and the courts, as well as the likelihood of crime and violence.","sourceOrganization":"Worldwide Governance Indicators, The World Bank","topics":[]},{"id":"RL.PER.RNK.UPPER","name":"Rule of Law: Percentile Rank, Upper Bound of 90% Confidence Interval","source":{"id":"3","value":"Worldwide Governance Indicators"},"sourceNote":"Rule of Law captures perceptions of the extent to which agents have confidence in and abide by the rules of society, and in particular the quality of contract enforcement, property rights, the police, and the courts, as well as the likelihood of crime and violence. Percentile rank indicates the country's rank among all countries covered by the aggregate indicator, with 0 corresponding to lowest rank, and 100 to highest rank.  Percentile ranks have been adjusted to correct for changes over time in the composition of the countries covered by the WGI.    Percentile Rank Upper refers to upper bound of 90 percent confidence interval for governance, expressed in percentile rank terms.","sourceOrganization":"Worldwide Governance Indicators, The World Bank","topics":[]},{"id":"RL.PER.RNK.LOWER","name":"Rule of Law: Percentile Rank, Lower Bound of 90% Confidence Interval","source":{"id":"3","value":"Worldwide Governance Indicators"},"sourceNote":"Rule of Law captures perceptions of the extent to which agents have confidence in and abide by the rules of society, and in particular the quality of contract enforcement, property rights, the police, and the courts, as well as the likelihood of crime and violence. Percentile rank indicates the country's rank among all countries covered by the aggregate indicator, with 0 corresponding to lowest rank, and 100 to highest rank.  Percentile ranks have been adjusted to correct for changes over time in the composition of the countries covered by the WGI.  Percentile Rank Lower refers to lower bound of 90 percent confidence interval for governance, expressed in percentile rank terms.","sourceOrganization":"Worldwide Governance Indicators, The World Bank","topics":[]},{"id":"RL.PER.RNK","name":"Rule of Law: Percentile Rank","source":{"id":"3","value":"Worldwide Governance Indicators"},"sourceNote":"Rule of Law captures perceptions of the extent to which agents have confidence in and abide by the rules of society, and in particular the quality of contract enforcement, property rights, the police, and the courts, as well as the likelihood of crime and violence.","sourceOrganization":"Worldwide Governance Indicators, The World Bank","topics":[]},{"id":"RL.NO.SRC","name":"Rule of Law: Number of Sources","source":{"id":"3","value":"Worldwide Governance Indicators"},"sourceNote":"Rule of Law captures perceptions of the extent to which agents have confidence in and abide by the rules of society, and in particular the quality of contract enforcement, property rights, the police, and the courts, as well as the likelihood of crime and violence.","sourceOrganization":"Worldwide Governance Indicators, The World Bank","topics":[]},{"id":"RL.EST","name":"Rule of Law: Estimate","source":{"id":"3","value":"Worldwide Governance Indicators"},"sourceNote":"Rule of Law captures perceptions of the extent to which agents have confidence in and abide by the rules of society, and in particular the quality of contract enforcement, property rights, the police, and the courts, as well as the likelihood of crime and violence.","sourceOrganization":"Worldwide Governance Indicators, The World Bank","topics":[]},{"id":"RISE.RE.TO","name":"RISE Renewable Energy - Overall country score","source":{"id":"44","value":"Readiness for Investment in Sustainable Energy (RISE)"},"sourceNote":"","sourceOrganization":"","topics":[]},{"id":"RISE.RE.PS","name":"RISE Renewable Energy - Pricing and Subsidies","source":{"id":"44","value":"Readiness for Investment in Sustainable Energy (RISE)"},"sourceNote":"","sourceOrganization":"","topics":[]},{"id":"RISE.RE.PR","name":"RISE Renewable Energy - Policies and Regulations","source":{"id":"44","value":"Readiness for Investment in Sustainable Energy (RISE)"},"sourceNote":"","sourceOrganization":"","topics":[]},{"id":"RISE.RE.PL","name":"RISE Renewable Energy - Planning","source":{"id":"44","value":"Readiness for Investment in Sustainable Energy (RISE)"},"sourceNote":"","sourceOrganization":"","topics":[]},{"id":"RISE.RE.PE","name":"RISE Renewable Energy - Procedural Efficiency","source":{"id":"44","value":"Readiness for Investment in Sustainable Energy (RISE)"},"sourceNote":"","sourceOrganization":"","topics":[]},{"id":"RISE.EE.TO","name":"RISE Energy Efficiency - Overall country score","source":{"id":"44","value":"Readiness for Investment in Sustainable Energy (RISE)"},"sourceNote":"","sourceOrganization":"","topics":[]},{"id":"RISE.EE.PS","name":"RISE Energy Efficiency - Pricing and Subsidies","source":{"id":"44","value":"Readiness for Investment in Sustainable Energy (RISE)"},"sourceNote":"","sourceOrganization":"","topics":[]},{"id":"RISE.EE.PR","name":"RISE Energy Efficiency - Policies and Regulations","source":{"id":"44","value":"Readiness for Investment in Sustainable Energy (RISE)"},"sourceNote":"","sourceOrganization":"","topics":[]},{"id":"RISE.EE.PL","name":"RISE Energy Efficiency - Planning","source":{"id":"44","value":"Readiness for Investment in Sustainable Energy (RISE)"},"sourceNote":"","sourceOrganization":"","topics":[]},{"id":"RISE.EE.PE","name":"RISE Energy Efficiency - Procedural Efficiency","source":{"id":"44","value":"Readiness for Investment in Sustainable Energy (RISE)"},"sourceNote":"","sourceOrganization":"","topics":[]},{"id":"RISE.EA.TO","name":"RISE Energy Access - Overall country score","source":{"id":"44","value":"Readiness for Investment in Sustainable Energy (RISE)"},"sourceNote":"","sourceOrganization":"","topics":[]},{"id":"RISE.EA.PS","name":"RISE Energy Access - Pricing and Subsidies","source":{"id":"44","value":"Readiness for Investment in Sustainable Energy (RISE)"},"sourceNote":"","sourceOrganization":"","topics":[]},{"id":"RISE.EA.PR","name":"RISE Energy Access - Policies and Regulations","source":{"id":"44","value":"Readiness for Investment in Sustainable Energy (RISE)"},"sourceNote":"","sourceOrganization":"","topics":[]},{"id":"RISE.EA.PL","name":"RISE Energy Access - Planning","source":{"id":"44","value":"Readiness for Investment in Sustainable Energy (RISE)"},"sourceNote":"","sourceOrganization":"","topics":[]},{"id":"RISE.EA.PE","name":"RISE Energy Access - Procedural Efficiency","source":{"id":"44","value":"Readiness for Investment in Sustainable Energy (RISE)"},"sourceNote":"","sourceOrganization":"","topics":[]},{"id":"RICE_A1","name":"Rice, Thai, A1.Special, $\/mt, current$","source":{"id":"21","value":"Global Economic Monitor (GEM) Commodities"},"sourceNote":"Rice (Thailand), 100% broken, A.1 Super from 2006 onwards, government standard, f.o.b. Bangkok; prior to 2006, A1 Special, a slightly lower grade than A1 Super.","sourceOrganization":"US Department of Agricuture; World Bank.","topics":[]},{"id":"RICE_25","name":"Rice, Thailand, 25%, $\/mt, current$","source":{"id":"21","value":"Global Economic Monitor (GEM) Commodities"},"sourceNote":"Rice (Thailand), 25% broken, WR, milled indicative survey price, government standard, f.o.b. Bangkok","sourceOrganization":"US Department of Agricuture; World Bank.","topics":[]},{"id":"RICE_05_VNM","name":"Rice, Vietnamese, 5%, $\/mt, current$","source":{"id":"21","value":"Global Economic Monitor (GEM) Commodities"},"sourceNote":"","sourceOrganization":"","topics":[]},{"id":"RICE_05","name":"Rice, Thailand, 5%, $\/mt, current$","source":{"id":"21","value":"Global Economic Monitor (GEM) Commodities"},"sourceNote":"Rice (Thailand), 5% broken, white rice (WR), milled, indicative price based on  weekly surveys of export transactions, government standard, f.o.b. Bangkok","sourceOrganization":"US Department of Agricuture; World Bank.","topics":[]},{"id":"REV.TXRV.SHR.CR","name":"Total Tax Revenue Sharing\/DBH Pajak (in IDR)","source":{"id":"45","value":"INDO-DAPOER"},"sourceNote":"","sourceOrganization":"Ministry of Finance, SIKD (Information System for Sub-National Budget)","topics":[]},{"id":"REV.TOTL.CR","name":"Total Revenue (in IDR)","source":{"id":"45","value":"INDO-DAPOER"},"sourceNote":"","sourceOrganization":"Ministry of Finance, SIKD (Information System for Sub-National Budget)","topics":[]},{"id":"REV.OTHR.CR","name":"Total Other Revenue (in IDR)","source":{"id":"45","value":"INDO-DAPOER"},"sourceNote":"","sourceOrganization":"Ministry of Finance, SIKD (Information System for Sub-National Budget)","topics":[]},{"id":"REV.OSRV.CR","name":"Total Own Source Revenue\/PAD (in IDR)","source":{"id":"45","value":"INDO-DAPOER"},"sourceNote":"","sourceOrganization":"Ministry of Finance, SIKD (Information System for Sub-National Budget)","topics":[]},{"id":"REV.NRRV.SHR.CR","name":"Total Natural Resource Revenue Sharing\/DBH SDA (in IDR)","source":{"id":"45","value":"INDO-DAPOER"},"sourceNote":"","sourceOrganization":"Ministry of Finance, SIKD (Information System for Sub-National Budget)","topics":[]},{"id":"REV.DAU.CR","name":"Total General Allocation Grant\/DAU (in IDR)","source":{"id":"45","value":"INDO-DAPOER"},"sourceNote":"","sourceOrganization":"Ministry of Finance, SIKD (Information System for Sub-National Budget)","topics":[]},{"id":"REV.DAK.CR","name":"Total Special Allocation Grant\/DAK (in IDR)","source":{"id":"45","value":"INDO-DAPOER"},"sourceNote":"","sourceOrganization":"Ministry of Finance, SIKD (Information System for Sub-National Budget)","topics":[]},{"id":"RES.DPST.CBK","name":"Outstanding Deposits of Commercial Banks owned by Regional Government (Province Level, in IDR Million)","source":{"id":"45","value":"INDO-DAPOER"},"sourceNote":"","sourceOrganization":"Bank Indonesia, Commercial Bank Monthly Report","topics":[]},{"id":"REER","name":"Real Effective Exchange Rate","source":{"id":"15","value":"Global Economic Monitor"},"sourceNote":"Real effective exchange rate is the nominal effective exchange rate (a measure of the value of a currency against a weighted average of several foreign currencies) divided by a price deflator or index of costs.","sourceOrganization":"World Bank staff calculations based on Datastream and IMF International Finance Statistics data.","topics":[]},{"id":"Q.8A0.5B0.C.5A.ALL.IECE.1.STR.MX.TO1.ALL","name":"10_Insured export credit exposures, short term (BU)","source":{"id":"54","value":"(JEDH) Joint External Debt Hub"},"sourceNote":"ST refers to insured export credits with credit terms up to and including 12 months, except for transactions involving an insured manufacturing (pre-credit) risk with a risk period of more than 12 months, which are classified as medium\/long-term  (MLT).","sourceOrganization":"BIS","topics":[]},{"id":"Q.8A0.5B0.C.5A.ALL.IECE.1.ALL.MX.TO1.ALL","name":"09_Insured export credit exposures, Berne Union","source":{"id":"54","value":"(JEDH) Joint External Debt Hub"},"sourceNote":"Data refer to Berne Union members’ direct insurance or lending, i.e. amount reinsured by others are not deducted and amounts reinsured by members for others are not added. Countries are defined  based on ISO 3166-1. Amounts guaranteed by an international financial institution are allocated to that institution, not the country of residence of the borrower or guarantor. Data are stock data, i.e. total outstanding amounts at the end of each quarter (31 March, 30 June, 30 September, and 31 December). Total data include medium\/long-term (MLT) exposures and short-term (ST) exposures. ","sourceOrganization":"BIS","topics":[]},{"id":"Q.6T0.5B0.C.3P.GGO.PCOD.1.ALL.NV.TO1.GGO","name":"20_Paris Club claims (ODA)","source":{"id":"54","value":"(JEDH) Joint External Debt Hub"},"sourceNote":"Amounts due to Paris Club Creditor Countries by foreign sovereign and other public debtors.","sourceOrganization":"BIS","topics":[]},{"id":"Q.6T0.5B0.C.3P.GGO.PCNO.1.ALL.NV.TO1.GGO","name":"21_Paris Club claims (non ODA)","source":{"id":"54","value":"(JEDH) Joint External Debt Hub"},"sourceNote":"Amounts due to Paris Club Creditor Countries by foreign sovereign and other public debtors.","sourceOrganization":"BIS","topics":[]},{"id":"Q.5B0.5B0.M.3P.ALL.DSIT.1.STR.NV.TO1.NBK","name":"19_Intnl debt securities, nonbanks, short term","source":{"id":"54","value":"(JEDH) Joint External Debt Hub"},"sourceNote":"The data are derived from the Bank for International Settlements (BIS) International Debt Securities Statistics and cover securities with original maturity of up to 12 months, excluding bank issuers.","sourceOrganization":"BIS","topics":[]},{"id":"Q.5B0.5B0.M.3P.ALL.DSIT.1.STR.NV.TO1.ALL","name":"18_International debt securities, short term","source":{"id":"54","value":"(JEDH) Joint External Debt Hub"},"sourceNote":"The data are derived from the Bank for International Settlements (BIS) International Debt Securities Statistics and cover securities with original maturity of up to 12 months.","sourceOrganization":"BIS","topics":[]},{"id":"Q.5B0.5B0.M.3P.ALL.DSIT.1.ALL.NV.TO1.NBK","name":"17_International debt securities, nonbanks","source":{"id":"54","value":"(JEDH) Joint External Debt Hub"},"sourceNote":"The data are derived from the Bank for International Settlements (BIS) International Debt Securities Statistics, excluding bank issuers.","sourceOrganization":"BIS","topics":[]},{"id":"Q.5B0.5B0.M.3P.ALL.DSIT.1.ALL.NV.TO1.ALL","name":"16_International debt securities, all maturities","source":{"id":"54","value":"(JEDH) Joint External Debt Hub"},"sourceNote":"The data are derived from the Bank for International Settlements (BIS) International Debt Securities Statistics.  ","sourceOrganization":"BIS","topics":[]},{"id":"Q.5B0.5B0.D.5A.NBK.DFXB.1.ALL.NV.TO1.BMA","name":"28_Cross-border dep. with BIS banks,  nonbanks","source":{"id":"54","value":"(JEDH) Joint External Debt Hub"},"sourceNote":"The data are derived from the BIS locational banking statistics. Deposits with BIS reporting banks are shown in BIS publications as banks' liabilities to their creditors.","sourceOrganization":"BIS","topics":[{}]}]]