[{"page":312,"pages":324,"per_page":"50","total":16174},[{"id":"WP11656.3","name":"Outstanding loan to purchase a home, female (% age 15+) [w1]","source":{"id":"28","value":"Global Findex ( Global Financial Inclusion database)"},"sourceNote":"Denotes the percentage of respondents who report having an outstanding loan to purchase their home or apartment (female, % age 15+). [w1: data are available for wave 1].","sourceOrganization":"Demirguc-Kunt and Klapper, 2012","topics":[{"id":"7","value":"Financial Sector "}]},{"id":"WP11656.2","name":"Outstanding loan to purchase a home, male (% age 15+) [w1]","source":{"id":"28","value":"Global Findex ( Global Financial Inclusion database)"},"sourceNote":"Denotes the percentage of respondents who report having an outstanding loan to purchase their home or apartment (male, % age 15+). [w1: data are available for wave 1].","sourceOrganization":"Demirguc-Kunt and Klapper, 2012","topics":[{"id":"7","value":"Financial Sector "}]},{"id":"WP11656.10","name":"Outstanding loan to purchase a home, rural (% age 15+) [w1]","source":{"id":"28","value":"Global Findex ( Global Financial Inclusion database)"},"sourceNote":"Denotes the percentage of respondents who report having an outstanding loan to purchase their home or apartment (rural, % age 15+ ). [w1: data are available for wave 1].","sourceOrganization":"Demirguc-Kunt and Klapper, 2012","topics":[{"id":"7","value":"Financial Sector "}]},{"id":"WP11656.1","name":"Outstanding loan to purchase a home (% age 15+) [w1]","source":{"id":"28","value":"Global Findex ( Global Financial Inclusion database)"},"sourceNote":"Denotes the percentage of respondents who report having an outstanding loan to purchase their home or apartment (% age 15+). [w1: data are available for wave 1].","sourceOrganization":"Demirguc-Kunt and Klapper, 2012","topics":[{"id":"7","value":"Financial Sector "}]},{"id":"WP11655.9","name":"Borrowed from a private informal lender, income, richest 60% (% ages 15+) [w1]","source":{"id":"28","value":"Global Findex ( Global Financial Inclusion database)"},"sourceNote":"Denotes the percentage of respondents who report borrowing any money from a private lender in the past 12 months (income, richest 60%, % age 15+). [w1: data are available for wave 1].","sourceOrganization":"Demirguc-Kunt and Klapper, 2012","topics":[{"id":"7","value":"Financial Sector "}]},{"id":"WP11655.8","name":"Borrowed from a private informal lender, income, poorest 40% (% ages 15+) [w1]","source":{"id":"28","value":"Global Findex ( Global Financial Inclusion database)"},"sourceNote":"Denotes the percentage of respondents who report borrowing any money from a private lender in the past 12 months (income, poorest 40%, % age 15+). [w1: data are available for wave 1].","sourceOrganization":"Demirguc-Kunt and Klapper, 2012","topics":[{"id":"7","value":"Financial Sector "}]},{"id":"WP11655.7","name":"Borrowed from a private informal lender, secondary education or more (% ages 15+) [w1]","source":{"id":"28","value":"Global Findex ( Global Financial Inclusion database)"},"sourceNote":"Denotes the percentage of respondents who report borrowing any money from a private lender in the past 12 months (secondary education or more, % age 15+). [w1: data are available for wave 1].","sourceOrganization":"Demirguc-Kunt and Klapper, 2012","topics":[{"id":"7","value":"Financial Sector "}]},{"id":"WP11655.6","name":"Borrowed from a private informal lender, primary education or less (% ages 15+) [w1]","source":{"id":"28","value":"Global Findex ( Global Financial Inclusion database)"},"sourceNote":"Denotes the percentage of respondents who report borrowing any money from a private lender in the past 12 months (primary education or less, % age 15+). [w1: data are available for wave 1].","sourceOrganization":"Demirguc-Kunt and Klapper, 2012","topics":[{"id":"7","value":"Financial Sector "}]},{"id":"WP11655.5","name":"Borrowed from a private informal lender, older adults (% ages 25+) [w1]","source":{"id":"28","value":"Global Findex ( Global Financial Inclusion database)"},"sourceNote":"Denotes the percentage of respondents who report borrowing any money from a private lender in the past 12 months (% age 25+). [w1: data are available for wave 1].","sourceOrganization":"Demirguc-Kunt and Klapper, 2012","topics":[{"id":"7","value":"Financial Sector "}]},{"id":"WP11655.4","name":"Borrowed from a private informal lender, young adults (% ages 15-24) [w1]","source":{"id":"28","value":"Global Findex ( Global Financial Inclusion database)"},"sourceNote":"Denotes the percentage of respondents who report borrowing any money from a private lender in the past 12 months (% ages 15-24). [w1: data are available for wave 1].","sourceOrganization":"Demirguc-Kunt and Klapper, 2012","topics":[{"id":"7","value":"Financial Sector "}]},{"id":"WP11655.3","name":"Borrowed from a private informal lender, female (% age 15+) [w1]","source":{"id":"28","value":"Global Findex ( Global Financial Inclusion database)"},"sourceNote":"Denotes the percentage of respondents who report borrowing any money from a private lender in the past 12 months (female, % age 15+). [w1: data are available for wave 1].","sourceOrganization":"Demirguc-Kunt and Klapper, 2012","topics":[{"id":"7","value":"Financial Sector "}]},{"id":"WP11655.2","name":"Borrowed from a private informal lender, male (% age 15+) [w1]","source":{"id":"28","value":"Global Findex ( Global Financial Inclusion database)"},"sourceNote":"Denotes the percentage of respondents who report borrowing any money from a private lender in the past 12 months (male, % age 15+). [w1: data are available for wave 1].","sourceOrganization":"Demirguc-Kunt and Klapper, 2012","topics":[{"id":"7","value":"Financial Sector "}]},{"id":"WP11655.10","name":"Borrowed from a private informal lender, rural (% age 15+) [w1]","source":{"id":"28","value":"Global Findex ( Global Financial Inclusion database)"},"sourceNote":"Denotes the percentage of respondents who report borrowing any money from a private lender in the past 12 months (rural, % age 15+ ). [w1: data are available for wave 1].","sourceOrganization":"Demirguc-Kunt and Klapper, 2012","topics":[{"id":"7","value":"Financial Sector "}]},{"id":"WP11655.1","name":"Borrowed from a private informal lender (% age 15+) [w1]","source":{"id":"28","value":"Global Findex ( Global Financial Inclusion database)"},"sourceNote":"Denotes the percentage of respondents who report borrowing any money from a private lender in the past 12 months (% age 15+). [w1: data are available for wave 1].","sourceOrganization":"Demirguc-Kunt and Klapper, 2012","topics":[{"id":"7","value":"Financial Sector "}]},{"id":"WP11654.9","name":"Borrowed from an employer, income, richest 60% (% ages 15+) [w1]","source":{"id":"28","value":"Global Findex ( Global Financial Inclusion database)"},"sourceNote":"Denotes the percentage of respondents who report borrowing any money from an employer in the past 12 months (income, richest 60%, % age 15+). [w1: data are available for wave 1].","sourceOrganization":"Demirguc-Kunt and Klapper, 2012","topics":[{"id":"7","value":"Financial Sector "}]},{"id":"WP11654.8","name":"Borrowed from an employer, income, poorest 40% (% ages 15+) [w1]","source":{"id":"28","value":"Global Findex ( Global Financial Inclusion database)"},"sourceNote":"Denotes the percentage of respondents who report borrowing any money from an employer in the past 12 months (income, poorest 40%, % age 15+). [w1: data are available for wave 1].","sourceOrganization":"Demirguc-Kunt and Klapper, 2012","topics":[{"id":"7","value":"Financial Sector "}]},{"id":"WP11654.7","name":"Borrowed from an employer, secondary education or more (% ages 15+) [w1]","source":{"id":"28","value":"Global Findex ( Global Financial Inclusion database)"},"sourceNote":"Denotes the percentage of respondents who report borrowing any money from an employer in the past 12 months (secondary education or more, % age 15+). [w1: data are available for wave 1].","sourceOrganization":"Demirguc-Kunt and Klapper, 2012","topics":[{"id":"7","value":"Financial Sector "}]},{"id":"WP11654.6","name":"Borrowed from an employer, primary education or less (% ages 15+) [w1]","source":{"id":"28","value":"Global Findex ( Global Financial Inclusion database)"},"sourceNote":"Denotes the percentage of respondents who report borrowing any money from an employer in the past 12 months (primary education or less, % age 15+). [w1: data are available for wave 1].","sourceOrganization":"Demirguc-Kunt and Klapper, 2012","topics":[{"id":"7","value":"Financial Sector "}]},{"id":"WP11654.5","name":"Borrowed from an employer, older adults (% ages 25+) [w1]","source":{"id":"28","value":"Global Findex ( Global Financial Inclusion database)"},"sourceNote":"Denotes the percentage of respondents who report borrowing any money from an employer in the past 12 months (% age 25+). [w1: data are available for wave 1].","sourceOrganization":"Demirguc-Kunt and Klapper, 2012","topics":[{"id":"7","value":"Financial Sector "}]},{"id":"WP11654.4","name":"Borrowed from an employer, young adults (% ages 15-24) [w1]","source":{"id":"28","value":"Global Findex ( Global Financial Inclusion database)"},"sourceNote":"Denotes the percentage of respondents who report borrowing any money from an employer in the past 12 months (% ages 15-24). [w1: data are available for wave 1].","sourceOrganization":"Demirguc-Kunt and Klapper, 2012","topics":[{"id":"7","value":"Financial Sector "}]},{"id":"WP11654.3","name":"Borrowed from an employer, female (% age 15+) [w1]","source":{"id":"28","value":"Global Findex ( Global Financial Inclusion database)"},"sourceNote":"Denotes the percentage of respondents who report borrowing any money from an employer in the past 12 months (female, % age 15+). [w1: data are available for wave 1].","sourceOrganization":"Demirguc-Kunt and Klapper, 2012","topics":[{"id":"7","value":"Financial Sector "}]},{"id":"WP11654.2","name":"Borrowed from an employer, male (% age 15+) [w1]","source":{"id":"28","value":"Global Findex ( Global Financial Inclusion database)"},"sourceNote":"Denotes the percentage of respondents who report borrowing any money from an employer in the past 12 months (male, % age 15+). [w1: data are available for wave 1].","sourceOrganization":"Demirguc-Kunt and Klapper, 2012","topics":[{"id":"7","value":"Financial Sector "}]},{"id":"WP11654.10","name":"Borrowed from an employer, rural (% age 15+) [w1]","source":{"id":"28","value":"Global Findex ( Global Financial Inclusion database)"},"sourceNote":"Denotes the percentage of respondents who report borrowing any money from an employer in the past 12 months (rural, % age 15+ ). [w1: data are available for wave 1].","sourceOrganization":"Demirguc-Kunt and Klapper, 2012","topics":[{"id":"7","value":"Financial Sector "}]},{"id":"WP11654.1","name":"Borrowed from an employer (% age 15+) [w1]","source":{"id":"28","value":"Global Findex ( Global Financial Inclusion database)"},"sourceNote":"Denotes the percentage of respondents who report borrowing any money from an employer in the past 12 months (% age 15+). [w1: data are available for wave 1].","sourceOrganization":"Demirguc-Kunt and Klapper, 2012","topics":[{"id":"7","value":"Financial Sector "}]},{"id":"WP11653.9","name":"Borrowed from family or friends, income, richest 60% (% ages 15+) [w1]","source":{"id":"28","value":"Global Findex ( Global Financial Inclusion database)"},"sourceNote":"Denotes the percentage of respondents who report borrowing any money from family or friends in the past 12 months (income, richest 60%, % age 15+). [w1: data are available for wave 1].","sourceOrganization":"Demirguc-Kunt and Klapper, 2012","topics":[{"id":"7","value":"Financial Sector "}]},{"id":"WP11653.8","name":"Borrowed from family or friends, income, poorest 40% (% ages 15+) [w1]","source":{"id":"28","value":"Global Findex ( Global Financial Inclusion database)"},"sourceNote":"Denotes the percentage of respondents who report borrowing any money from family or friends in the past 12 months (income, poorest 40%, % age 15+). [w1: data are available for wave 1].","sourceOrganization":"Demirguc-Kunt and Klapper, 2012","topics":[{"id":"7","value":"Financial Sector "}]},{"id":"WP11653.7","name":"Borrowed from family or friends, secondary education or more (% ages 15+) [w1]","source":{"id":"28","value":"Global Findex ( Global Financial Inclusion database)"},"sourceNote":"Denotes the percentage of respondents who report borrowing any money from family or friends in the past 12 months (secondary education or more, % age 15+). [w1: data are available for wave 1].","sourceOrganization":"Demirguc-Kunt and Klapper, 2012","topics":[{"id":"7","value":"Financial Sector "}]},{"id":"WP11653.6","name":"Borrowed from family or friends, primary education or less (% ages 15+) [w1]","source":{"id":"28","value":"Global Findex ( Global Financial Inclusion database)"},"sourceNote":"Denotes the percentage of respondents who report borrowing any money from family or friends in the past 12 months (primary education or less, % age 15+). [w1: data are available for wave 1].","sourceOrganization":"Demirguc-Kunt and Klapper, 2012","topics":[{"id":"7","value":"Financial Sector "}]},{"id":"WP11653.5","name":"Borrowed from family or friends, older adults (% ages 25+) [w1]","source":{"id":"28","value":"Global Findex ( Global Financial Inclusion database)"},"sourceNote":"Denotes the percentage of respondents who report borrowing any money from family or friends in the past 12 months (% age 25+). [w1: data are available for wave 1].","sourceOrganization":"Demirguc-Kunt and Klapper, 2012","topics":[{"id":"7","value":"Financial Sector "}]},{"id":"WP11653.4","name":"Borrowed from family or friends, young adults (% ages 15-24) [w1]","source":{"id":"28","value":"Global Findex ( Global Financial Inclusion database)"},"sourceNote":"Denotes the percentage of respondents who report borrowing any money from family or friends in the past 12 months (% ages 15-24). [w1: data are available for wave 1].","sourceOrganization":"Demirguc-Kunt and Klapper, 2012","topics":[{"id":"7","value":"Financial Sector "}]},{"id":"WP11653.3","name":"Borrowed from family or friends, female (% age 15+) [w1]","source":{"id":"28","value":"Global Findex ( Global Financial Inclusion database)"},"sourceNote":"Denotes the percentage of respondents who report borrowing any money from family or friends in the past 12 months (female, % age 15+). [w1: data are available for wave 1].","sourceOrganization":"Demirguc-Kunt and Klapper, 2012","topics":[{"id":"7","value":"Financial Sector "}]},{"id":"WP11653.2","name":"Borrowed from family or friends, male (% age 15+) [w1]","source":{"id":"28","value":"Global Findex ( Global Financial Inclusion database)"},"sourceNote":"Denotes the percentage of respondents who report borrowing any money from family or friends in the past 12 months (male, % age 15+). [w1: data are available for wave 1].","sourceOrganization":"Demirguc-Kunt and Klapper, 2012","topics":[{"id":"7","value":"Financial Sector "}]},{"id":"WP11653.10","name":"Borrowed from family or friends, rural (% age 15+) [w1]","source":{"id":"28","value":"Global Findex ( Global Financial Inclusion database)"},"sourceNote":"Denotes the percentage of respondents who report borrowing any money from family or friends in the past 12 months (rural, % age 15+ ). [w1: data are available for wave 1].","sourceOrganization":"Demirguc-Kunt and Klapper, 2012","topics":[{"id":"7","value":"Financial Sector "}]},{"id":"WP11653.1","name":"Borrowed from family or friends (% age 15+) [w1]","source":{"id":"28","value":"Global Findex ( Global Financial Inclusion database)"},"sourceNote":"Denotes the percentage of respondents who report borrowing any money from family or friends in the past 12 months (% age 15+). [w1: data are available for wave 1].","sourceOrganization":"Demirguc-Kunt and Klapper, 2012","topics":[{"id":"7","value":"Financial Sector "}]},{"id":"WP11652.9","name":"Borrowed from a store by buying on credit, income, richest 60% (% ages 15+) [w1]","source":{"id":"28","value":"Global Findex ( Global Financial Inclusion database)"},"sourceNote":"Denotes the percentage of respondents who borrowed any money in the past 12 months from a store by using installment credit or buying on credit (income, richest 60%, % age 15+). [w1: data are available for wave 1].","sourceOrganization":"Demirguc-Kunt and Klapper, 2012","topics":[{"id":"7","value":"Financial Sector "}]},{"id":"WP11652.8","name":"Borrowed from a store by buying on credit, income, poorest 40% (% ages 15+) [w1]","source":{"id":"28","value":"Global Findex ( Global Financial Inclusion database)"},"sourceNote":"Denotes the percentage of respondents who borrowed any money in the past 12 months from a store by using installment credit or buying on credit (income, poorest 40%, % age 15+). [w1: data are available for wave 1].","sourceOrganization":"Demirguc-Kunt and Klapper, 2012","topics":[{"id":"7","value":"Financial Sector "}]},{"id":"WP11652.7","name":"Borrowed from a store by buying on credit, secondary education or more (% ages 15+) [w1]","source":{"id":"28","value":"Global Findex ( Global Financial Inclusion database)"},"sourceNote":"Denotes the percentage of respondents who borrowed any money in the past 12 months from a store by using installment credit or buying on credit (secondary education or more, % age 15+). [w1: data are available for wave 1].","sourceOrganization":"Demirguc-Kunt and Klapper, 2012","topics":[{"id":"7","value":"Financial Sector "}]},{"id":"WP11652.6","name":"Borrowed from a store by buying on credit, primary education or less (% ages 15+) [w1]","source":{"id":"28","value":"Global Findex ( Global Financial Inclusion database)"},"sourceNote":"Denotes the percentage of respondents who borrowed any money in the past 12 months from a store by using installment credit or buying on credit (primary education or less, % age 15+). [w1: data are available for wave 1].","sourceOrganization":"Demirguc-Kunt and Klapper, 2012","topics":[{"id":"7","value":"Financial Sector "}]},{"id":"WP11652.5","name":"Borrowed from a store by buying on credit, older adults (% ages 25+) [w1]","source":{"id":"28","value":"Global Findex ( Global Financial Inclusion database)"},"sourceNote":"Denotes the percentage of respondents who borrowed any money in the past 12 months from a store by using installment credit or buying on credit (% age 25+). [w1: data are available for wave 1].","sourceOrganization":"Demirguc-Kunt and Klapper, 2012","topics":[{"id":"7","value":"Financial Sector "}]},{"id":"WP11652.4","name":"Borrowed from a store by buying on credit, young adults (% ages 15-24) [w1]","source":{"id":"28","value":"Global Findex ( Global Financial Inclusion database)"},"sourceNote":"Denotes the percentage of respondents who borrowed any money in the past 12 months from a store by using installment credit or buying on credit (% ages 15-24). [w1: data are available for wave 1].","sourceOrganization":"Demirguc-Kunt and Klapper, 2012","topics":[{"id":"7","value":"Financial Sector "}]},{"id":"WP11652.3","name":"Borrowed from a store by buying on credit, female (% age 15+) [w1]","source":{"id":"28","value":"Global Findex ( Global Financial Inclusion database)"},"sourceNote":"Denotes the percentage of respondents who borrowed any money in the past 12 months from a store by using installment credit or buying on credit (female, % age 15+). [w1: data are available for wave 1].","sourceOrganization":"Demirguc-Kunt and Klapper, 2012","topics":[{"id":"7","value":"Financial Sector "}]},{"id":"WP11652.2","name":"Borrowed from a store by buying on credit, male (% age 15+) [w1]","source":{"id":"28","value":"Global Findex ( Global Financial Inclusion database)"},"sourceNote":"Denotes the percentage of respondents who borrowed any money in the past 12 months from a store by using installment credit or buying on credit (male, % age 15+). [w1: data are available for wave 1].","sourceOrganization":"Demirguc-Kunt and Klapper, 2012","topics":[{"id":"7","value":"Financial Sector "}]},{"id":"WP11652.10","name":"Borrowed from a store by buying on credit, rural (% age 15+) [w1]","source":{"id":"28","value":"Global Findex ( Global Financial Inclusion database)"},"sourceNote":"Denotes the percentage of respondents who borrowed any money in the past 12 months from a store by using installment credit or buying on credit (rural, % age 15+ ). [w1: data are available for wave 1].","sourceOrganization":"Demirguc-Kunt and Klapper, 2012","topics":[{"id":"7","value":"Financial Sector "}]},{"id":"WP11652.1","name":"Borrowed from a store by buying on credit (% age 15+) [w1]","source":{"id":"28","value":"Global Findex ( Global Financial Inclusion database)"},"sourceNote":"Denotes the percentage of respondents who borrowed any money in the past 12 months from a store by using installment credit or buying on credit (% age 15+). [w1: data are available for wave 1].","sourceOrganization":"Demirguc-Kunt and Klapper, 2012","topics":[{"id":"7","value":"Financial Sector "}]},{"id":"WP11651_5.9","name":"Loan in the past year, income, richest 60% (% ages 15+) [w1]","source":{"id":"28","value":"Global Findex ( Global Financial Inclusion database)"},"sourceNote":"Denotes the percentage of respondents who borrowed any money in the past 12 months from any of the following sources: a formal financial institution, a store by using installment credit, family or friends, employer, or another private lender (income, richest 60%, % age 15+). [w1: data are available for wave 1].","sourceOrganization":"Demirguc-Kunt and Klapper, 2012","topics":[{"id":"7","value":"Financial Sector "}]},{"id":"WP11651_5.8","name":"Loan in the past year, income, poorest 40% (% ages 15+) [w1]","source":{"id":"28","value":"Global Findex ( Global Financial Inclusion database)"},"sourceNote":"Denotes the percentage of respondents who borrowed any money in the past 12 months from any of the following sources: a formal financial institution, a store by using installment credit, family or friends, employer, or another private lender (income, poorest 40%, % age 15+). [w1: data are available for wave 1].","sourceOrganization":"Demirguc-Kunt and Klapper, 2012","topics":[{"id":"7","value":"Financial Sector "}]},{"id":"WP11651_5.7","name":"Loan in the past year, secondary education or more (% ages 15+) [w1]","source":{"id":"28","value":"Global Findex ( Global Financial Inclusion database)"},"sourceNote":"Denotes the percentage of respondents who borrowed any money in the past 12 months from any of the following sources: a formal financial institution, a store by using installment credit, family or friends, employer, or another private lender (secondary education or more, % age 15+). [w1: data are available for wave 1].","sourceOrganization":"Demirguc-Kunt and Klapper, 2012","topics":[{"id":"7","value":"Financial Sector "}]},{"id":"WP11651_5.6","name":"Loan in the past year, primary education or less (% ages 15+) [w1]","source":{"id":"28","value":"Global Findex ( Global Financial Inclusion database)"},"sourceNote":"Denotes the percentage of respondents who borrowed any money in the past 12 months from any of the following sources: a formal financial institution, a store by using installment credit, family or friends, employer, or another private lender (primary education or less, % age 15+). [w1: data are available for wave 1].","sourceOrganization":"Demirguc-Kunt and Klapper, 2012","topics":[{"id":"7","value":"Financial Sector "}]},{"id":"WP11651_5.5","name":"Loan in the past year, older adults (% ages 25+) [w1]","source":{"id":"28","value":"Global Findex ( Global Financial Inclusion database)"},"sourceNote":"Denotes the percentage of respondents who borrowed any money in the past 12 months from any of the following sources: a formal financial institution, a store by using installment credit, family or friends, employer, or another private lender (% age 25+). [w1: data are available for wave 1].","sourceOrganization":"Demirguc-Kunt and Klapper, 2012","topics":[{"id":"7","value":"Financial Sector "}]},{"id":"WP11651_5.4","name":"Loan in the past year, young adults (% ages 15-24) [w1]","source":{"id":"28","value":"Global Findex ( Global Financial Inclusion database)"},"sourceNote":"Denotes the percentage of respondents who borrowed any money in the past 12 months from any of the following sources: a formal financial institution, a store by using installment credit, family or friends, employer, or another private lender (% ages 15-24). [w1: data are available for wave 1].","sourceOrganization":"Demirguc-Kunt and Klapper, 2012","topics":[{"id":"7","value":"Financial Sector "}]}]]