[{"page":92,"pages":324,"per_page":"50","total":16174},[{"id":"DT.TDS.DECT.CD.OT.AR.0912.US","name":"Gross Ext. Debt Pmt, Other Sectors, More than 9 to 12, All instruments, Prin. and Int., USD","source":{"id":"22","value":"Quarterly External Debt Statistics\/SDDS (New)"},"sourceNote":"","sourceOrganization":"","topics":[]},{"id":"DT.TDS.DECT.CD.OT.AR.03.US","name":"Gross Ext. Debt Pmt, Other Sectors, More than 0 to 3, All instruments, Prin. and Int., USD","source":{"id":"22","value":"Quarterly External Debt Statistics\/SDDS (New)"},"sourceNote":"","sourceOrganization":"","topics":[]},{"id":"DT.TDS.DECT.CD.OS.RM.US","name":"Gross Ext. Debt Pos., Other Sectors, One year or less, All instruments, Prin. and Int., USD","source":{"id":"22","value":"Quarterly External Debt Statistics\/SDDS (New)"},"sourceNote":"","sourceOrganization":"","topics":[]},{"id":"DT.TDS.DECT.CD.OS.IQ.US","name":"Ext. Debt Service Pmt, Other Sectors, Immediate, All instruments, Prin. and Int., USD","source":{"id":"22","value":"Quarterly External Debt Statistics\/SDDS (New)"},"sourceNote":"","sourceOrganization":"","topics":[]},{"id":"DT.TDS.DECT.CD.OS.69.US","name":"Ext. Debt Service Pmt, Other Sectors, More than 6 to 9, All instruments, Prin. and Int., USD","source":{"id":"22","value":"Quarterly External Debt Statistics\/SDDS (New)"},"sourceNote":"","sourceOrganization":"","topics":[]},{"id":"DT.TDS.DECT.CD.OS.36.US","name":"Ext. Debt Service Pmt, Other Sectors, More than 3 to 6, All instruments, Prin. and Int., USD","source":{"id":"22","value":"Quarterly External Debt Statistics\/SDDS (New)"},"sourceNote":"","sourceOrganization":"","topics":[]},{"id":"DT.TDS.DECT.CD.OS.24P.US","name":"Ext. Debt Service Pmt, Other Sectors, More than 2yrs, All instruments, Prin. and Int., USD","source":{"id":"22","value":"Quarterly External Debt Statistics\/SDDS (New)"},"sourceNote":"","sourceOrganization":"","topics":[]},{"id":"DT.TDS.DECT.CD.OS.1824.US","name":"Ext. Debt Service Pmt, Other Sectors, More than 18 to 24, All instruments, Prin. and Int., USD","source":{"id":"22","value":"Quarterly External Debt Statistics\/SDDS (New)"},"sourceNote":"","sourceOrganization":"","topics":[]},{"id":"DT.TDS.DECT.CD.OS.1218.US","name":"Ext. Debt Service Pmt, Other Sectors, More than 12 to 18, All instruments, Prin. and Int., USD","source":{"id":"22","value":"Quarterly External Debt Statistics\/SDDS (New)"},"sourceNote":"","sourceOrganization":"","topics":[]},{"id":"DT.TDS.DECT.CD.OS.0912.US","name":"Ext. Debt Service Pmt, Other Sectors, More than 9 to 12, All instruments, Prin. and Int., USD","source":{"id":"22","value":"Quarterly External Debt Statistics\/SDDS (New)"},"sourceNote":"","sourceOrganization":"","topics":[]},{"id":"DT.TDS.DECT.CD.OS.03.US","name":"Ext. Debt Service Pmt, Other Sectors, More than 0 to 3, All instruments, Prin. and Int., USD","source":{"id":"22","value":"Quarterly External Debt Statistics\/SDDS (New)"},"sourceNote":"","sourceOrganization":"","topics":[]},{"id":"DT.TDS.DECT.CD.MA.RM.US","name":"Gross Ext. Debt Pos., Central Bank, One year or less, All instruments, Prin. and Int., USD","source":{"id":"22","value":"Quarterly External Debt Statistics\/SDDS (New)"},"sourceNote":"","sourceOrganization":"","topics":[]},{"id":"DT.TDS.DECT.CD.MA.IQ.US","name":"Ext. Debt Service Pmt, Central Bank, Immediate, All instruments, Prin. and Int., USD","source":{"id":"22","value":"Quarterly External Debt Statistics\/SDDS (New)"},"sourceNote":"","sourceOrganization":"","topics":[]},{"id":"DT.TDS.DECT.CD.MA.AR.IQ.US","name":"Gross Ext. Debt Pmt, Central Bank, Immediate, All instruments, Prin. and Int., USD","source":{"id":"22","value":"Quarterly External Debt Statistics\/SDDS (New)"},"sourceNote":"","sourceOrganization":"","topics":[]},{"id":"DT.TDS.DECT.CD.MA.AR.69.US","name":"Gross Ext. Debt Pmt, Central Bank, More than 6 to 9, All instruments, Prin. and Int., USD","source":{"id":"22","value":"Quarterly External Debt Statistics\/SDDS (New)"},"sourceNote":"","sourceOrganization":"","topics":[]},{"id":"DT.TDS.DECT.CD.MA.AR.36.US","name":"Gross Ext. Debt Pmt, Central Bank, More than 3 to 6, All instruments, Prin. and Int., USD","source":{"id":"22","value":"Quarterly External Debt Statistics\/SDDS (New)"},"sourceNote":"","sourceOrganization":"","topics":[]},{"id":"DT.TDS.DECT.CD.MA.AR.24P.US","name":"Gross Ext. Debt Pmt, Central Bank, More than 2yrs, All instruments, Prin. and Int., USD","source":{"id":"22","value":"Quarterly External Debt Statistics\/SDDS (New)"},"sourceNote":"","sourceOrganization":"","topics":[]},{"id":"DT.TDS.DECT.CD.MA.AR.1824.US","name":"Gross Ext. Debt Pmt, Central Bank, More than 18 to 24, All instruments, Prin. and Int., USD","source":{"id":"22","value":"Quarterly External Debt Statistics\/SDDS (New)"},"sourceNote":"","sourceOrganization":"","topics":[]},{"id":"DT.TDS.DECT.CD.MA.AR.1218.US","name":"Gross Ext. Debt Pmt, Central Bank, More than 12 to 18, All instruments, Prin. and Int., USD","source":{"id":"22","value":"Quarterly External Debt Statistics\/SDDS (New)"},"sourceNote":"","sourceOrganization":"","topics":[]},{"id":"DT.TDS.DECT.CD.MA.AR.0912.US","name":"Gross Ext. Debt Pmt, Central Bank, More than 9 to 12, All instruments, Prin. and Int., USD","source":{"id":"22","value":"Quarterly External Debt Statistics\/SDDS (New)"},"sourceNote":"","sourceOrganization":"","topics":[]},{"id":"DT.TDS.DECT.CD.MA.AR.03.US","name":"Gross Ext. Debt Pmt, Central Bank, More than 0 to 3, All instruments, Prin. and Int., USD","source":{"id":"22","value":"Quarterly External Debt Statistics\/SDDS (New)"},"sourceNote":"","sourceOrganization":"","topics":[]},{"id":"DT.TDS.DECT.CD.MA.69.US","name":"Ext. Debt Service Pmt, Central Bank, More than 6 to 9, All instruments, Prin. and Int., USD","source":{"id":"22","value":"Quarterly External Debt Statistics\/SDDS (New)"},"sourceNote":"","sourceOrganization":"","topics":[]},{"id":"DT.TDS.DECT.CD.MA.36.US","name":"Ext. Debt Service Pmt, Central Bank, More than 3 to 6, All instruments, Prin. and Int., USD","source":{"id":"22","value":"Quarterly External Debt Statistics\/SDDS (New)"},"sourceNote":"","sourceOrganization":"","topics":[]},{"id":"DT.TDS.DECT.CD.MA.24P.US","name":"Ext. Debt Service Pmt, Central Bank, More than 2yrs, All instruments, Prin. and Int., USD","source":{"id":"22","value":"Quarterly External Debt Statistics\/SDDS (New)"},"sourceNote":"","sourceOrganization":"","topics":[]},{"id":"DT.TDS.DECT.CD.MA.1824.US","name":"Ext. Debt Service Pmt, Central Bank, More than 18 to 24, All instruments, Prin. and Int., USD","source":{"id":"22","value":"Quarterly External Debt Statistics\/SDDS (New)"},"sourceNote":"","sourceOrganization":"","topics":[]},{"id":"DT.TDS.DECT.CD.MA.1218.US","name":"Ext. Debt Service Pmt, Central Bank, More than 12 to 18, All instruments, Prin. and Int., USD","source":{"id":"22","value":"Quarterly External Debt Statistics\/SDDS (New)"},"sourceNote":"","sourceOrganization":"","topics":[]},{"id":"DT.TDS.DECT.CD.MA.0912.US","name":"Ext. Debt Service Pmt, Central Bank, More than 9 to 12, All instruments, Prin. and Int., USD","source":{"id":"22","value":"Quarterly External Debt Statistics\/SDDS (New)"},"sourceNote":"","sourceOrganization":"","topics":[]},{"id":"DT.TDS.DECT.CD.MA.03.US","name":"Ext. Debt Service Pmt, Central Bank, More than 0 to 3, All instruments, Prin. and Int., USD","source":{"id":"22","value":"Quarterly External Debt Statistics\/SDDS (New)"},"sourceNote":"","sourceOrganization":"","topics":[]},{"id":"DT.TDS.DECT.CD.IQ.US","name":"Ext. Debt Service Pmt, All Sectors, Immediate, All instruments, Prin. and Int., USD","source":{"id":"22","value":"Quarterly External Debt Statistics\/SDDS (New)"},"sourceNote":"","sourceOrganization":"","topics":[]},{"id":"DT.TDS.DECT.CD.IQ.00.US","name":"Ext. Debt Service Pmt, Public and Publicly Guar. Private Sector Ext. Debt, Immediately, All instruments, Prin. and Int., USD","source":{"id":"23","value":"Quarterly External Debt Statistics\/GDDS (New)"},"sourceNote":"","sourceOrganization":"","topics":[]},{"id":"DT.TDS.DECT.CD.IL.RM.US","name":"Gross Ext. Debt Pos., DI: Intercom Lending, One year or less, All instruments, Prin. and Int., USD","source":{"id":"22","value":"Quarterly External Debt Statistics\/SDDS (New)"},"sourceNote":"","sourceOrganization":"","topics":[]},{"id":"DT.TDS.DECT.CD.IL.IQ.US","name":"Ext. Debt Service Pmt, DI: Intercom Lending, Immediate, All instruments, Prin. and Int., USD","source":{"id":"22","value":"Quarterly External Debt Statistics\/SDDS (New)"},"sourceNote":"","sourceOrganization":"","topics":[]},{"id":"DT.TDS.DECT.CD.IL.AR.IQ.US","name":"Gross Ext. Debt Pmt, DI: Intercom Lending, Immediate, All instruments, Prin. and Int., USD","source":{"id":"22","value":"Quarterly External Debt Statistics\/SDDS (New)"},"sourceNote":"","sourceOrganization":"","topics":[]},{"id":"DT.TDS.DECT.CD.IL.AR.69.US","name":"Gross Ext. Debt Pmt, DI: Intercom Lending, More than 6 to 9, All instruments, Prin. and Int., USD","source":{"id":"22","value":"Quarterly External Debt Statistics\/SDDS (New)"},"sourceNote":"","sourceOrganization":"","topics":[]},{"id":"DT.TDS.DECT.CD.IL.AR.36.US","name":"Gross Ext. Debt Pmt, DI: Intercom Lending, More than 3 to 6, All instruments, Prin. and Int., USD","source":{"id":"22","value":"Quarterly External Debt Statistics\/SDDS (New)"},"sourceNote":"","sourceOrganization":"","topics":[]},{"id":"DT.TDS.DECT.CD.IL.AR.24P.US","name":"Gross Ext. Debt Pmt, DI: Intercom Lending, More than 2yrs, All instruments, Prin. and Int., USD","source":{"id":"22","value":"Quarterly External Debt Statistics\/SDDS (New)"},"sourceNote":"","sourceOrganization":"","topics":[]},{"id":"DT.TDS.DECT.CD.IL.AR.1824.US","name":"Gross Ext. Debt Pmt, DI: Intercom Lending, More than 18 to 24, All instruments, Prin. and Int., USD","source":{"id":"22","value":"Quarterly External Debt Statistics\/SDDS (New)"},"sourceNote":"","sourceOrganization":"","topics":[]},{"id":"DT.TDS.DECT.CD.IL.AR.1218.US","name":"Gross Ext. Debt Pmt, DI: Intercom Lending, More than 12 to 18, All instruments, Prin. and Int., USD","source":{"id":"22","value":"Quarterly External Debt Statistics\/SDDS (New)"},"sourceNote":"","sourceOrganization":"","topics":[]},{"id":"DT.TDS.DECT.CD.IL.AR.0912.US","name":"Gross Ext. Debt Pmt, DI: Intercom Lending, More than 9 to 12, All instruments, Prin. and Int., USD","source":{"id":"22","value":"Quarterly External Debt Statistics\/SDDS (New)"},"sourceNote":"","sourceOrganization":"","topics":[]},{"id":"DT.TDS.DECT.CD.IL.AR.03.US","name":"Gross Ext. Debt Pmt, DI: Intercom Lending, More than 0 to 3, All instruments, Prin. and Int., USD","source":{"id":"22","value":"Quarterly External Debt Statistics\/SDDS (New)"},"sourceNote":"","sourceOrganization":"","topics":[]},{"id":"DT.TDS.DECT.CD.IL.69.US","name":"Ext. Debt Service Pmt, DI: Intercom Lending, More than 6 to 9, All instruments, Prin. and Int., USD","source":{"id":"22","value":"Quarterly External Debt Statistics\/SDDS (New)"},"sourceNote":"","sourceOrganization":"","topics":[]},{"id":"DT.TDS.DECT.CD.IL.36.US","name":"Ext. Debt Service Pmt, DI: Intercom Lending, More than 3 to 6, All instruments, Prin. and Int., USD","source":{"id":"22","value":"Quarterly External Debt Statistics\/SDDS (New)"},"sourceNote":"","sourceOrganization":"","topics":[]},{"id":"DT.TDS.DECT.CD.IL.24P.US","name":"Ext. Debt Service Pmt, DI: Intercom Lending, More than 2yrs, All instruments, Prin. and Int., USD","source":{"id":"22","value":"Quarterly External Debt Statistics\/SDDS (New)"},"sourceNote":"","sourceOrganization":"","topics":[]},{"id":"DT.TDS.DECT.CD.IL.1824.US","name":"Ext. Debt Service Pmt, DI: Intercom Lending, More than 18 to 24, All instruments, Prin. and Int., USD","source":{"id":"22","value":"Quarterly External Debt Statistics\/SDDS (New)"},"sourceNote":"","sourceOrganization":"","topics":[]},{"id":"DT.TDS.DECT.CD.IL.1218.US","name":"Ext. Debt Service Pmt, DI: Intercom Lending, More than 12 to 18, All instruments, Prin. and Int., USD","source":{"id":"22","value":"Quarterly External Debt Statistics\/SDDS (New)"},"sourceNote":"","sourceOrganization":"","topics":[]},{"id":"DT.TDS.DECT.CD.IL.0912.US","name":"Ext. Debt Service Pmt, DI: Intercom Lending, More than 9 to 12, All instruments, Prin. and Int., USD","source":{"id":"22","value":"Quarterly External Debt Statistics\/SDDS (New)"},"sourceNote":"","sourceOrganization":"","topics":[]},{"id":"DT.TDS.DECT.CD.IL.03.US","name":"Ext. Debt Service Pmt, DI: Intercom Lending, More than 0 to 3, All instruments, Prin. and Int., USD","source":{"id":"22","value":"Quarterly External Debt Statistics\/SDDS (New)"},"sourceNote":"","sourceOrganization":"","topics":[]},{"id":"DT.TDS.DECT.CD.GG.RM.US","name":"Gross Ext. Debt Pos., General Government, One year or less, All instruments, Prin. and Int., USD","source":{"id":"22","value":"Quarterly External Debt Statistics\/SDDS (New)"},"sourceNote":"","sourceOrganization":"","topics":[]},{"id":"DT.TDS.DECT.CD.GG.IQ.US","name":"Ext. Debt Service Pmt, General Government, Immediate, All instruments, Prin. and Int., USD","source":{"id":"22","value":"Quarterly External Debt Statistics\/SDDS (New)"},"sourceNote":"","sourceOrganization":"","topics":[]},{"id":"DT.TDS.DECT.CD.GG.AR.IQ.US","name":"Gross Ext. Debt Pmt, General Government, Immediate, All instruments, Prin. and Int., USD","source":{"id":"22","value":"Quarterly External Debt Statistics\/SDDS (New)"},"sourceNote":"","sourceOrganization":"","topics":[{}]}]]