[{"page":309,"pages":324,"per_page":"50","total":16174},[{"id":"WP11634.10","name":"Used an account at a financial institution to receive wages, rural (% age 15+) [w1]","source":{"id":"28","value":"Global Findex ( Global Financial Inclusion database)"},"sourceNote":"Denotes the percentage of respondents who report using their accounts at a formal financial institution to receive money or payments for work or from selling goods in the past 12 months (rural, % age 15+ ). [w1: data are available for wave 1].","sourceOrganization":"Demirguc-Kunt and Klapper, 2012","topics":[{"id":"7","value":"Financial Sector "}]},{"id":"WP11634.1","name":"Used an account at a financial institution to receive wages (% age 15+) [w1]","source":{"id":"28","value":"Global Findex ( Global Financial Inclusion database)"},"sourceNote":"Denotes the percentage of respondents who report using their accounts at a formal financial institution to receive money or payments for work or from selling goods in the past 12 months (% age 15+). [w1: data are available for wave 1].","sourceOrganization":"Demirguc-Kunt and Klapper, 2012","topics":[{"id":"7","value":"Financial Sector "}]},{"id":"WP11633.9","name":"Used electronic payments to make payments, income, richest 60% (% ages 15+) [w1]","source":{"id":"28","value":"Global Findex ( Global Financial Inclusion database)"},"sourceNote":"Denotes the percentage of respondents who used electronic payments (payments that one makes or that are made automatically including wire transfers or payments made online) in the past 12 months to make payments on bills or to buy things using money from their accounts (income, richest 60%, % age 15+). [w1: data are available for wave 1].","sourceOrganization":"Demirguc-Kunt and Klapper, 2012","topics":[{"id":"7","value":"Financial Sector "}]},{"id":"WP11633.8","name":"Used electronic payments to make payments, income, poorest 40% (% ages 15+) [w1]","source":{"id":"28","value":"Global Findex ( Global Financial Inclusion database)"},"sourceNote":"Denotes the percentage of respondents who used electronic payments (payments that one makes or that are made automatically including wire transfers or payments made online) in the past 12 months to make payments on bills or to buy things using money from their accounts (income, poorest 40%, % age 15+). [w1: data are available for wave 1].","sourceOrganization":"Demirguc-Kunt and Klapper, 2012","topics":[{"id":"7","value":"Financial Sector "}]},{"id":"WP11633.7","name":"Used electronic payments to make payments, secondary education or more (% ages 15+) [w1]","source":{"id":"28","value":"Global Findex ( Global Financial Inclusion database)"},"sourceNote":"Denotes the percentage of respondents who used electronic payments (payments that one makes or that are made automatically including wire transfers or payments made online) in the past 12 months to make payments on bills or to buy things using money from their accounts (secondary education or more, % age 15+). [w1: data are available for wave 1].","sourceOrganization":"Demirguc-Kunt and Klapper, 2012","topics":[{"id":"7","value":"Financial Sector "}]},{"id":"WP11633.6","name":"Used electronic payments to make payments, primary education or less (% ages 15+) [w1]","source":{"id":"28","value":"Global Findex ( Global Financial Inclusion database)"},"sourceNote":"Denotes the percentage of respondents who used electronic payments (payments that one makes or that are made automatically including wire transfers or payments made online) in the past 12 months to make payments on bills or to buy things using money from their accounts (primary education or less, % age 15+). [w1: data are available for wave 1].","sourceOrganization":"Demirguc-Kunt and Klapper, 2012","topics":[{"id":"7","value":"Financial Sector "}]},{"id":"WP11633.5","name":"Used electronic payments to make payments, older adults (% ages 25+) [w1]","source":{"id":"28","value":"Global Findex ( Global Financial Inclusion database)"},"sourceNote":"Denotes the percentage of respondents who used electronic payments (payments that one makes or that are made automatically including wire transfers or payments made online) in the past 12 months to make payments on bills or to buy things using money from their accounts (% age 25+). [w1: data are available for wave 1].","sourceOrganization":"Demirguc-Kunt and Klapper, 2012","topics":[{"id":"7","value":"Financial Sector "}]},{"id":"WP11633.4","name":"Used electronic payments to make payments, young adults (% ages 15-24) [w1]","source":{"id":"28","value":"Global Findex ( Global Financial Inclusion database)"},"sourceNote":"Denotes the percentage of respondents who used electronic payments (payments that one makes or that are made automatically including wire transfers or payments made online) in the past 12 months to make payments on bills or to buy things using money from their accounts (% ages 15-24). [w1: data are available for wave 1].","sourceOrganization":"Demirguc-Kunt and Klapper, 2012","topics":[{"id":"7","value":"Financial Sector "}]},{"id":"WP11633.3","name":"Used electronic payments to make payments, female (% age 15+) [w1]","source":{"id":"28","value":"Global Findex ( Global Financial Inclusion database)"},"sourceNote":"Denotes the percentage of respondents who used electronic payments (payments that one makes or that are made automatically including wire transfers or payments made online) in the past 12 months to make payments on bills or to buy things using money from their accounts (female, % age 15+). [w1: data are available for wave 1].","sourceOrganization":"Demirguc-Kunt and Klapper, 2012","topics":[{"id":"7","value":"Financial Sector "}]},{"id":"WP11633.2","name":"Used electronic payments to make payments, male (% age 15+) [w1]","source":{"id":"28","value":"Global Findex ( Global Financial Inclusion database)"},"sourceNote":"Denotes the percentage of respondents who used electronic payments (payments that one makes or that are made automatically including wire transfers or payments made online) in the past 12 months to make payments on bills or to buy things using money from their accounts (male, % age 15+). [w1: data are available for wave 1].","sourceOrganization":"Demirguc-Kunt and Klapper, 2012","topics":[{"id":"7","value":"Financial Sector "}]},{"id":"WP11633.10","name":"Used electronic payments to make payments, rural (% age 15+) [w1]","source":{"id":"28","value":"Global Findex ( Global Financial Inclusion database)"},"sourceNote":"Denotes the percentage of respondents who used electronic payments (payments that one makes or that are made automatically including wire transfers or payments made online) in the past 12 months to make payments on bills or to buy things using money from their accounts (rural, % age 15+ ). [w1: data are available for wave 1].","sourceOrganization":"Demirguc-Kunt and Klapper, 2012","topics":[{"id":"7","value":"Financial Sector "}]},{"id":"WP11633.1","name":"Used electronic payments to make payments (% age 15+) [w1]","source":{"id":"28","value":"Global Findex ( Global Financial Inclusion database)"},"sourceNote":"Denotes the percentage of respondents who used electronic payments (payments that one makes or that are made automatically including wire transfers or payments made online) in the past 12 months to make payments on bills or to buy things using money from their accounts (% age 15+). [w1: data are available for wave 1].","sourceOrganization":"Demirguc-Kunt and Klapper, 2012","topics":[{"id":"7","value":"Financial Sector "}]},{"id":"WP11632.9","name":"Used checks to make payments, income, richest 60% (% ages 15+) [w1]","source":{"id":"28","value":"Global Findex ( Global Financial Inclusion database)"},"sourceNote":"Denotes the percentage of respondents who used checks in the past 12 months to make payments on bills or to buy things using money from their accounts (income, richest 60%, % age 15+). [w1: data are available for wave 1].","sourceOrganization":"Demirguc-Kunt and Klapper, 2012","topics":[{"id":"7","value":"Financial Sector "}]},{"id":"WP11632.8","name":"Used checks to make payments, income, poorest 40% (% ages 15+) [w1]","source":{"id":"28","value":"Global Findex ( Global Financial Inclusion database)"},"sourceNote":"Denotes the percentage of respondents who used checks in the past 12 months to make payments on bills or to buy things using money from their accounts (income, poorest 40%, % age 15+). [w1: data are available for wave 1].","sourceOrganization":"Demirguc-Kunt and Klapper, 2012","topics":[{"id":"7","value":"Financial Sector "}]},{"id":"WP11632.7","name":"Used checks to make payments, secondary education or more (% ages 15+) [w1]","source":{"id":"28","value":"Global Findex ( Global Financial Inclusion database)"},"sourceNote":"Denotes the percentage of respondents who used checks in the past 12 months to make payments on bills or to buy things using money from their accounts (secondary education or more, % age 15+). [w1: data are available for wave 1].","sourceOrganization":"Demirguc-Kunt and Klapper, 2012","topics":[{"id":"7","value":"Financial Sector "}]},{"id":"WP11632.6","name":"Used checks to make payments, primary education or less (% ages 15+) [w1]","source":{"id":"28","value":"Global Findex ( Global Financial Inclusion database)"},"sourceNote":"Denotes the percentage of respondents who used checks in the past 12 months to make payments on bills or to buy things using money from their accounts (primary education or less, % age 15+). [w1: data are available for wave 1].","sourceOrganization":"Demirguc-Kunt and Klapper, 2012","topics":[{"id":"7","value":"Financial Sector "}]},{"id":"WP11632.5","name":"Used checks to make payments, older adults (% ages 25+) [w1]","source":{"id":"28","value":"Global Findex ( Global Financial Inclusion database)"},"sourceNote":"Denotes the percentage of respondents who used checks in the past 12 months to make payments on bills or to buy things using money from their accounts (% age 25+). [w1: data are available for wave 1].","sourceOrganization":"Demirguc-Kunt and Klapper, 2012","topics":[{"id":"7","value":"Financial Sector "}]},{"id":"WP11632.4","name":"Used checks to make payments, young adults (% ages 15-24) [w1]","source":{"id":"28","value":"Global Findex ( Global Financial Inclusion database)"},"sourceNote":"Denotes the percentage of respondents who used checks in the past 12 months to make payments on bills or to buy things using money from their accounts (% ages 15-24). [w1: data are available for wave 1].","sourceOrganization":"Demirguc-Kunt and Klapper, 2012","topics":[{"id":"7","value":"Financial Sector "}]},{"id":"WP11632.3","name":"Used checks to make payments, female (% age 15+) [w1]","source":{"id":"28","value":"Global Findex ( Global Financial Inclusion database)"},"sourceNote":"Denotes the percentage of respondents who used checks in the past 12 months to make payments on bills or to buy things using money from their accounts (female, % age 15+). [w1: data are available for wave 1].","sourceOrganization":"Demirguc-Kunt and Klapper, 2012","topics":[{"id":"7","value":"Financial Sector "}]},{"id":"WP11632.2","name":"Used checks to make payments, male (% age 15+) [w1]","source":{"id":"28","value":"Global Findex ( Global Financial Inclusion database)"},"sourceNote":"Denotes the percentage of respondents who used checks in the past 12 months to make payments on bills or to buy things using money from their accounts (male, % age 15+). [w1: data are available for wave 1].","sourceOrganization":"Demirguc-Kunt and Klapper, 2012","topics":[{"id":"7","value":"Financial Sector "}]},{"id":"WP11632.10","name":"Used checks to make payments, rural (% age 15+) [w1]","source":{"id":"28","value":"Global Findex ( Global Financial Inclusion database)"},"sourceNote":"Denotes the percentage of respondents who used checks in the past 12 months to make payments on bills or to buy things using money from their accounts (rural, % age 15+ ). [w1: data are available for wave 1].","sourceOrganization":"Demirguc-Kunt and Klapper, 2012","topics":[{"id":"7","value":"Financial Sector "}]},{"id":"WP11632.1","name":"Used checks to make payments (% age 15+) [w1]","source":{"id":"28","value":"Global Findex ( Global Financial Inclusion database)"},"sourceNote":"Denotes the percentage of respondents who used checks in the past 12 months to make payments on bills or to buy things using money from their accounts (% age 15+). [w1: data are available for wave 1].","sourceOrganization":"Demirguc-Kunt and Klapper, 2012","topics":[{"id":"7","value":"Financial Sector "}]},{"id":"WP11631.4.1","name":"Main mode of deposit: bank agent (% with an account, age 15+) [w1]","source":{"id":"28","value":"Global Findex ( Global Financial Inclusion database)"},"sourceNote":"Denotes the percentage of respondents with an account at a formal financial institution who report utilizing some other person who is associated with their bank or financial institution as their usual mode of access to put cash (paper or coins) into their account(s) (% age 15+, with an account). [w1: data are available for wave 1].","sourceOrganization":"Demirguc-Kunt and Klapper, 2012","topics":[{"id":"7","value":"Financial Sector "}]},{"id":"WP11631.3.1","name":"Main mode of deposit: retail store (% with an account, age 15+) [w1]","source":{"id":"28","value":"Global Findex ( Global Financial Inclusion database)"},"sourceNote":"Denotes the percentage of respondents with an account at a formal financial institution who report transacting with someone over the counter at a retail store as their usual mode of access to put cash (paper or coins) into their account(s) (% age 15+, with an account). [w1: data are available for wave 1].","sourceOrganization":"Demirguc-Kunt and Klapper, 2012","topics":[{"id":"7","value":"Financial Sector "}]},{"id":"WP11631.2.1","name":"Main mode of deposit: bank teller (% with an account, age 15+) [w1]","source":{"id":"28","value":"Global Findex ( Global Financial Inclusion database)"},"sourceNote":"Denotes the percentage of respondents with an account at a formal financial institution who report transacting with a teller over the counter in a branch of their bank or financial institution as their usual mode of access to put cash (paper or coins) into their account(s) (% age 15+, with an account). [w1: data are available for wave 1].","sourceOrganization":"Demirguc-Kunt and Klapper, 2012","topics":[{"id":"7","value":"Financial Sector "}]},{"id":"WP11631.1.1","name":"Main mode of deposit: ATM (% with an account, age 15+) [w1]","source":{"id":"28","value":"Global Findex ( Global Financial Inclusion database)"},"sourceNote":"Denotes the percentage of respondents with an account at a formal financial institution who report utilizing an automated teller machine (ATM) as their usual mode of access to put cash (paper or coins) into their account(s) (% age 15+, with an account). [w1: data are available for wave 1].","sourceOrganization":"Demirguc-Kunt and Klapper, 2012","topics":[{"id":"7","value":"Financial Sector "}]},{"id":"WP11630.4.1","name":"Main mode of withdrawal: bank agent (% with an account, age 15+) [w1]","source":{"id":"28","value":"Global Findex ( Global Financial Inclusion database)"},"sourceNote":"Denotes the percentage of respondents with an account at a formal financial institution who report utilizing some other person who is associated with their bank or financial institution as their usual mode of access to get cash (paper or coins) from their account(s) (% age 15+, with an account). [w1: data are available for wave 1].","sourceOrganization":"Demirguc-Kunt and Klapper, 2012","topics":[{"id":"7","value":"Financial Sector "}]},{"id":"WP11630.3.1","name":"Main mode of withdrawal: retail store (% with an account, age 15+) [w1]","source":{"id":"28","value":"Global Findex ( Global Financial Inclusion database)"},"sourceNote":"Denotes the percentage of respondents with an account at a formal financial institution who report transacting with someone over the counter at a retail store as their usual mode of access to get cash (paper or coins) from their account(s) (% age 15+, with an account). [w1: data are available for wave 1].","sourceOrganization":"Demirguc-Kunt and Klapper, 2012","topics":[{"id":"7","value":"Financial Sector "}]},{"id":"WP11630.2.1","name":"Main mode of withdrawal: bank teller (% with an account, age 15+) [w1]","source":{"id":"28","value":"Global Findex ( Global Financial Inclusion database)"},"sourceNote":"Denotes the percentage of respondents with an account at a formal financial institution who report transacting with a teller over the counter in a branch of their bank or financial institution as their usual mode of access to get cash (paper or coins) from their account(s) (% age 15+, with an account). [w1: data are available for wave 1].","sourceOrganization":"Demirguc-Kunt and Klapper, 2012","topics":[{"id":"7","value":"Financial Sector "}]},{"id":"WP11630.1.1","name":"Main mode of withdrawal: ATM (% with an account, age 15+) [w1]","source":{"id":"28","value":"Global Findex ( Global Financial Inclusion database)"},"sourceNote":"Denotes the percentage of respondents with an account at a formal financial institution who report utilizing an automated teller machine (ATM) as their usual mode of access to get cash (paper or coins) from their account(s) (% age 15+, with an account). [w1: data are available for wave 1].","sourceOrganization":"Demirguc-Kunt and Klapper, 2012","topics":[{"id":"7","value":"Financial Sector "}]},{"id":"WP11629.3.1","name":"Withdrawals in a typical month: 3+ (% with an account, age 15+) [w1]","source":{"id":"28","value":"Global Findex ( Global Financial Inclusion database)"},"sourceNote":"Denotes the percentage of respondents with an account at a formal financial institution who report making 3 or more withdrawals from their personal account(s) in a typical month. This includes cash or electronic deposits, or any time money is removed from account(s) by self or others (% age 15+, with an account). [w1: data are available for wave 1].","sourceOrganization":"Demirguc-Kunt and Klapper, 2012","topics":[{"id":"7","value":"Financial Sector "}]},{"id":"WP11629.2.1","name":"Withdrawals in a typical month: 1 or 2 (% with an account, age 15+) [w1]","source":{"id":"28","value":"Global Findex ( Global Financial Inclusion database)"},"sourceNote":"Denotes the percentage of respondents with an account at a formal financial institution who report making 1 to 2 withdrawals from their personal account(s) in a typical month. This includes cash or electronic deposits, or any time money is removed from account(s) by self or others (% age 15+, with an account). [w1: data are available for wave 1].","sourceOrganization":"Demirguc-Kunt and Klapper, 2012","topics":[{"id":"7","value":"Financial Sector "}]},{"id":"WP11629.1.1","name":"Withdrawals in a typical month: 0 (% with an account, age 15+) [w1]","source":{"id":"28","value":"Global Findex ( Global Financial Inclusion database)"},"sourceNote":"Denotes the percentage of respondents with an account at a formal financial institution who report making zero withdrawals from their personal account(s) in a typical month. This includes cash or electronic deposits, or any time money is removed from account(s) by self or others (% age 15+, with an account). [w1: data are available for wave 1].","sourceOrganization":"Demirguc-Kunt and Klapper, 2012","topics":[{"id":"7","value":"Financial Sector "}]},{"id":"WP11628_9.1.1","name":"Deposits and withdrawals in a typical month: 0 (% with an account, age 15+) [w1]","source":{"id":"28","value":"Global Findex ( Global Financial Inclusion database)"},"sourceNote":"Denotes the percentage of respondents with an account at a formal financial institution who report making zero deposits into or zero withdrawals from their personal account(s) in a typical month (also called “inactive account”). This includes cash or electronic deposits, or any time money is put into or removed from account(s) by self or others (% age 15+, with an account). [w1: data are available for wave 1].","sourceOrganization":"Demirguc-Kunt and Klapper, 2012","topics":[{"id":"7","value":"Financial Sector "}]},{"id":"WP11628.3.1","name":"Deposits in a typical month: 3+ (% with an account, age 15+) [w1]","source":{"id":"28","value":"Global Findex ( Global Financial Inclusion database)"},"sourceNote":"Denotes the percentage of respondents with an account at a formal financial institution who report making 3 or more deposits into their personal account(s) in a typical month. This includes cash or electronic deposits, or any time money is put into account(s) by self or others (% age 15+, with an account). [w1: data are available for wave 1].","sourceOrganization":"Demirguc-Kunt and Klapper, 2012","topics":[{"id":"7","value":"Financial Sector "}]},{"id":"WP11628.2.1","name":"Deposits in a typical month: 1 or 2 (% with an account, age 15+) [w1]","source":{"id":"28","value":"Global Findex ( Global Financial Inclusion database)"},"sourceNote":"Denotes the percentage of respondents with an account at a formal financial institution who report making 1 to 2 deposits into their personal account(s) in a typical month. This includes cash or electronic deposits, or any time money is put into account(s) by self or others (% age 15+, with an account). [w1: data are available for wave 1].","sourceOrganization":"Demirguc-Kunt and Klapper, 2012","topics":[{"id":"7","value":"Financial Sector "}]},{"id":"WP11628.1.1","name":"Deposits in a typical month: 0 (% with an account, age 15+) [w1]","source":{"id":"28","value":"Global Findex ( Global Financial Inclusion database)"},"sourceNote":"Denotes the percentage of respondents with an account at a formal financial institution who report making zero deposits into their personal account(s) in a typical month. This includes cash or electronic deposits, or any time money is put into account(s) by self or others (% age 15+, with an account). [w1: data are available for wave 1].","sourceOrganization":"Demirguc-Kunt and Klapper, 2012","topics":[{"id":"7","value":"Financial Sector "}]},{"id":"WP11627.9","name":"Credit card, income, richest 60% (% ages 15+) [w1]","source":{"id":"28","value":"Global Findex ( Global Financial Inclusion database)"},"sourceNote":"Denotes the percentage of respondents with a credit card (income, richest 60%, % age 15+). [w1: data are available for wave 1].","sourceOrganization":"Demirguc-Kunt and Klapper, 2012","topics":[{"id":"7","value":"Financial Sector "}]},{"id":"WP11627.8","name":"Credit card, income, poorest 40% (% ages 15+) [w1]","source":{"id":"28","value":"Global Findex ( Global Financial Inclusion database)"},"sourceNote":"Denotes the percentage of respondents with a credit card (income, poorest 40%, % age 15+). [w1: data are available for wave 1].","sourceOrganization":"Demirguc-Kunt and Klapper, 2012","topics":[{"id":"7","value":"Financial Sector "}]},{"id":"WP11627.7","name":"Credit card, secondary education or more (% ages 15+) [w1]","source":{"id":"28","value":"Global Findex ( Global Financial Inclusion database)"},"sourceNote":"Denotes the percentage of respondents with a credit card (secondary education or more, % age 15+). [w1: data are available for wave 1].","sourceOrganization":"Demirguc-Kunt and Klapper, 2012","topics":[{"id":"7","value":"Financial Sector "}]},{"id":"WP11627.6","name":"Credit card, primary education or less (% ages 15+) [w1]","source":{"id":"28","value":"Global Findex ( Global Financial Inclusion database)"},"sourceNote":"Denotes the percentage of respondents with a credit card (primary education or less, % age 15+). [w1: data are available for wave 1].","sourceOrganization":"Demirguc-Kunt and Klapper, 2012","topics":[{"id":"7","value":"Financial Sector "}]},{"id":"WP11627.5","name":"Credit card, older adults (% ages 25+) [w1]","source":{"id":"28","value":"Global Findex ( Global Financial Inclusion database)"},"sourceNote":"Denotes the percentage of respondents with a credit card (% age 25+). [w1: data are available for wave 1].","sourceOrganization":"Demirguc-Kunt and Klapper, 2012","topics":[{"id":"7","value":"Financial Sector "}]},{"id":"WP11627.4","name":"Credit card, young adults (% ages 15-24) [w1]","source":{"id":"28","value":"Global Findex ( Global Financial Inclusion database)"},"sourceNote":"Denotes the percentage of respondents with a credit card (% ages 15-24). [w1: data are available for wave 1].","sourceOrganization":"Demirguc-Kunt and Klapper, 2012","topics":[{"id":"7","value":"Financial Sector "}]},{"id":"WP11627.3","name":"Credit card, female (% age 15+) [w1]","source":{"id":"28","value":"Global Findex ( Global Financial Inclusion database)"},"sourceNote":"Denotes the percentage of respondents with a credit card (female, % age 15+). [w1: data are available for wave 1].","sourceOrganization":"Demirguc-Kunt and Klapper, 2012","topics":[{"id":"7","value":"Financial Sector "}]},{"id":"WP11627.2","name":"Credit card, male (% age 15+) [w1]","source":{"id":"28","value":"Global Findex ( Global Financial Inclusion database)"},"sourceNote":"Denotes the percentage of respondents with a credit card (male, % age 15+). [w1: data are available for wave 1].","sourceOrganization":"Demirguc-Kunt and Klapper, 2012","topics":[{"id":"7","value":"Financial Sector "}]},{"id":"WP11627.10","name":"Credit card, rural (% age 15+) [w1]","source":{"id":"28","value":"Global Findex ( Global Financial Inclusion database)"},"sourceNote":"Denotes the percentage of respondents with a credit card (rural, % age 15+ ). [w1: data are available for wave 1].","sourceOrganization":"Demirguc-Kunt and Klapper, 2012","topics":[{"id":"7","value":"Financial Sector "}]},{"id":"WP11627.1","name":"Credit card (% age 15+) [w1]","source":{"id":"28","value":"Global Findex ( Global Financial Inclusion database)"},"sourceNote":"Denotes the percentage of respondents with a credit card (% age 15+). [w1: data are available for wave 1].","sourceOrganization":"Demirguc-Kunt and Klapper, 2012","topics":[{"id":"7","value":"Financial Sector "}]},{"id":"WP11626.9","name":"Debit card, income, richest 60% (% ages 15+) [w1]","source":{"id":"28","value":"Global Findex ( Global Financial Inclusion database)"},"sourceNote":"Denotes the percentage of respondents with a debit card (income, richest 60%, % age 15+). [w1: data are available for wave 1].","sourceOrganization":"Demirguc-Kunt and Klapper, 2012","topics":[{"id":"7","value":"Financial Sector "}]},{"id":"WP11626.8","name":"Debit card, income, poorest 40% (% ages 15+) [w1]","source":{"id":"28","value":"Global Findex ( Global Financial Inclusion database)"},"sourceNote":"Denotes the percentage of respondents with a debit card (income, poorest 40%, % age 15+). [w1: data are available for wave 1].","sourceOrganization":"Demirguc-Kunt and Klapper, 2012","topics":[{"id":"7","value":"Financial Sector "}]},{"id":"WP11626.7","name":"Debit card, secondary education or more (% ages 15+) [w1]","source":{"id":"28","value":"Global Findex ( Global Financial Inclusion database)"},"sourceNote":"Denotes the percentage of respondents with a debit card (secondary education or more, % age 15+). [w1: data are available for wave 1].","sourceOrganization":"Demirguc-Kunt and Klapper, 2012","topics":[{"id":"7","value":"Financial Sector "}]}]]