[{"page":54,"pages":324,"per_page":"50","total":16174},[{"id":"DT.AMT.DLTS.CD.MA.AR.0912.US","name":"Gross Ext. Debt Pmt, Central Bank, More than 9 to 12, Special drawing rights (allocations), Principal, USD","source":{"id":"22","value":"Quarterly External Debt Statistics\/SDDS (New)"},"sourceNote":"","sourceOrganization":"","topics":[]},{"id":"DT.AMT.DLTS.CD.MA.AR.03.US","name":"Gross Ext. Debt Pmt, Central Bank, More than 0 to 3, Special drawing rights (allocations), Principal, USD","source":{"id":"22","value":"Quarterly External Debt Statistics\/SDDS (New)"},"sourceNote":"","sourceOrganization":"","topics":[]},{"id":"DT.AMT.DLTS.CD.GG.IQ.US","name":"Gross Ext. Debt Pmt, General Government, Immediate, Special drawing rights (allocations), Principal, USD","source":{"id":"22","value":"Quarterly External Debt Statistics\/SDDS (New)"},"sourceNote":"","sourceOrganization":"","topics":[]},{"id":"DT.AMT.DLTS.CD.GG.69.US","name":"Gross Ext. Debt Pmt, General Government, More than 6 to 9, Special drawing rights (allocations), Principal, USD","source":{"id":"22","value":"Quarterly External Debt Statistics\/SDDS (New)"},"sourceNote":"","sourceOrganization":"","topics":[]},{"id":"DT.AMT.DLTS.CD.GG.36.US","name":"Gross Ext. Debt Pmt, General Government, More than 3 to 6, Special drawing rights (allocations), Principal, USD","source":{"id":"22","value":"Quarterly External Debt Statistics\/SDDS (New)"},"sourceNote":"","sourceOrganization":"","topics":[]},{"id":"DT.AMT.DLTS.CD.GG.24P.US","name":"Gross Ext. Debt Pmt, General Government, More than 2yrs, Special drawing rights (allocations), Principal, USD","source":{"id":"22","value":"Quarterly External Debt Statistics\/SDDS (New)"},"sourceNote":"","sourceOrganization":"","topics":[]},{"id":"DT.AMT.DLTS.CD.GG.1824.US","name":"Gross Ext. Debt Pmt, General Government, More than 18 to 24, Special drawing rights (allocations), Principal, USD","source":{"id":"22","value":"Quarterly External Debt Statistics\/SDDS (New)"},"sourceNote":"","sourceOrganization":"","topics":[]},{"id":"DT.AMT.DLTS.CD.GG.1218.US","name":"Gross Ext. Debt Pmt, General Government, More than 12 to 18, Special drawing rights (allocations), Principal, USD","source":{"id":"22","value":"Quarterly External Debt Statistics\/SDDS (New)"},"sourceNote":"","sourceOrganization":"","topics":[]},{"id":"DT.AMT.DLTS.CD.GG.0912.US","name":"Gross Ext. Debt Pmt, General Government, More than 9 to 12, Special drawing rights (allocations), Principal, USD","source":{"id":"22","value":"Quarterly External Debt Statistics\/SDDS (New)"},"sourceNote":"","sourceOrganization":"","topics":[]},{"id":"DT.AMT.DLTS.CD.GG.03.US","name":"Gross Ext. Debt Pmt, General Government, More than 0 to 3, Special drawing rights (allocations), Principal, USD","source":{"id":"22","value":"Quarterly External Debt Statistics\/SDDS (New)"},"sourceNote":"","sourceOrganization":"","topics":[]},{"id":"DT.AMT.DLTO.CD.OT.AR.IQ.US","name":"Gross Ext. Debt Pmt, Other Sectors, Immediate, Other debt liabilities, Principal, USD","source":{"id":"22","value":"Quarterly External Debt Statistics\/SDDS (New)"},"sourceNote":"","sourceOrganization":"","topics":[]},{"id":"DT.AMT.DLTO.CD.OT.AR.69.US","name":"Gross Ext. Debt Pmt, Other Sectors, More than 6 to 9, Other debt liabilities, Principal, USD","source":{"id":"22","value":"Quarterly External Debt Statistics\/SDDS (New)"},"sourceNote":"","sourceOrganization":"","topics":[]},{"id":"DT.AMT.DLTO.CD.OT.AR.36.US","name":"Gross Ext. Debt Pmt, Other Sectors, More than 3 to 6, Other debt liabilities, Principal, USD","source":{"id":"22","value":"Quarterly External Debt Statistics\/SDDS (New)"},"sourceNote":"","sourceOrganization":"","topics":[]},{"id":"DT.AMT.DLTO.CD.OT.AR.24P.US","name":"Gross Ext. Debt Pmt, Other Sectors, More than 2yrs, Other debt liabilities, Principal, USD","source":{"id":"22","value":"Quarterly External Debt Statistics\/SDDS (New)"},"sourceNote":"","sourceOrganization":"","topics":[]},{"id":"DT.AMT.DLTO.CD.OT.AR.1824.US","name":"Gross Ext. Debt Pmt, Other Sectors, More than 18 to 24, Other debt liabilities, Principal, USD","source":{"id":"22","value":"Quarterly External Debt Statistics\/SDDS (New)"},"sourceNote":"","sourceOrganization":"","topics":[]},{"id":"DT.AMT.DLTO.CD.OT.AR.1218.US","name":"Gross Ext. Debt Pmt, Other Sectors, More than 12 to 18, Other debt liabilities, Principal, USD","source":{"id":"22","value":"Quarterly External Debt Statistics\/SDDS (New)"},"sourceNote":"","sourceOrganization":"","topics":[]},{"id":"DT.AMT.DLTO.CD.OT.AR.0912.US","name":"Gross Ext. Debt Pmt, Other Sectors, More than 9 to 12, Other debt liabilities, Principal, USD","source":{"id":"22","value":"Quarterly External Debt Statistics\/SDDS (New)"},"sourceNote":"","sourceOrganization":"","topics":[]},{"id":"DT.AMT.DLTO.CD.OT.AR.03.US","name":"Gross Ext. Debt Pmt, Other Sectors, More than 0 to 3, Other debt liabilities, Principal, USD","source":{"id":"22","value":"Quarterly External Debt Statistics\/SDDS (New)"},"sourceNote":"","sourceOrganization":"","topics":[]},{"id":"DT.AMT.DLTO.CD.MA.AR.IQ.US","name":"Gross Ext. Debt Pmt, Central Bank, Immediate, Other debt liabilities, Principal, USD","source":{"id":"22","value":"Quarterly External Debt Statistics\/SDDS (New)"},"sourceNote":"","sourceOrganization":"","topics":[]},{"id":"DT.AMT.DLTO.CD.MA.AR.69.US","name":"Gross Ext. Debt Pmt, Central Bank, More than 6 to 9, Other debt liabilities, Principal, USD","source":{"id":"22","value":"Quarterly External Debt Statistics\/SDDS (New)"},"sourceNote":"","sourceOrganization":"","topics":[]},{"id":"DT.AMT.DLTO.CD.MA.AR.36.US","name":"Gross Ext. Debt Pmt, Central Bank, More than 3 to 6, Other debt liabilities, Principal, USD","source":{"id":"22","value":"Quarterly External Debt Statistics\/SDDS (New)"},"sourceNote":"","sourceOrganization":"","topics":[]},{"id":"DT.AMT.DLTO.CD.MA.AR.24P.US","name":"Gross Ext. Debt Pmt, Central Bank, More than 2yrs, Other debt liabilities, Principal, USD","source":{"id":"22","value":"Quarterly External Debt Statistics\/SDDS (New)"},"sourceNote":"","sourceOrganization":"","topics":[]},{"id":"DT.AMT.DLTO.CD.MA.AR.1824.US","name":"Gross Ext. Debt Pmt, Central Bank, More than 18 to 24, Other debt liabilities, Principal, USD","source":{"id":"22","value":"Quarterly External Debt Statistics\/SDDS (New)"},"sourceNote":"","sourceOrganization":"","topics":[]},{"id":"DT.AMT.DLTO.CD.MA.AR.1218.US","name":"Gross Ext. Debt Pmt, Central Bank, More than 12 to 18, Other debt liabilities, Principal, USD","source":{"id":"22","value":"Quarterly External Debt Statistics\/SDDS (New)"},"sourceNote":"","sourceOrganization":"","topics":[]},{"id":"DT.AMT.DLTO.CD.MA.AR.0912.US","name":"Gross Ext. Debt Pmt, Central Bank, More than 9 to 12, Other debt liabilities, Principal, USD","source":{"id":"22","value":"Quarterly External Debt Statistics\/SDDS (New)"},"sourceNote":"","sourceOrganization":"","topics":[]},{"id":"DT.AMT.DLTO.CD.MA.AR.03.US","name":"Gross Ext. Debt Pmt, Central Bank, More than 0 to 3, Other debt liabilities, Principal, USD","source":{"id":"22","value":"Quarterly External Debt Statistics\/SDDS (New)"},"sourceNote":"","sourceOrganization":"","topics":[]},{"id":"DT.AMT.DLTO.CD.GG.AR.IQ.US","name":"Gross Ext. Debt Pmt, General Government, Immediate, Other debt liabilities, Principal, USD","source":{"id":"22","value":"Quarterly External Debt Statistics\/SDDS (New)"},"sourceNote":"","sourceOrganization":"","topics":[]},{"id":"DT.AMT.DLTO.CD.GG.AR.69.US","name":"Gross Ext. Debt Pmt, General Government, More than 6 to 9, Other debt liabilities, Principal, USD","source":{"id":"22","value":"Quarterly External Debt Statistics\/SDDS (New)"},"sourceNote":"","sourceOrganization":"","topics":[]},{"id":"DT.AMT.DLTO.CD.GG.AR.36.US","name":"Gross Ext. Debt Pmt, General Government, More than 3 to 6, Other debt liabilities, Principal, USD","source":{"id":"22","value":"Quarterly External Debt Statistics\/SDDS (New)"},"sourceNote":"","sourceOrganization":"","topics":[]},{"id":"DT.AMT.DLTO.CD.GG.AR.24P.US","name":"Gross Ext. Debt Pmt, General Government, More than 2yrs, Other debt liabilities, Principal, USD","source":{"id":"22","value":"Quarterly External Debt Statistics\/SDDS (New)"},"sourceNote":"","sourceOrganization":"","topics":[]},{"id":"DT.AMT.DLTO.CD.GG.AR.1824.US","name":"Gross Ext. Debt Pmt, General Government, More than 18 to 24, Other debt liabilities, Principal, USD","source":{"id":"22","value":"Quarterly External Debt Statistics\/SDDS (New)"},"sourceNote":"","sourceOrganization":"","topics":[]},{"id":"DT.AMT.DLTO.CD.GG.AR.1218.US","name":"Gross Ext. Debt Pmt, General Government, More than 12 to 18, Other debt liabilities, Principal, USD","source":{"id":"22","value":"Quarterly External Debt Statistics\/SDDS (New)"},"sourceNote":"","sourceOrganization":"","topics":[]},{"id":"DT.AMT.DLTO.CD.GG.AR.0912.US","name":"Gross Ext. Debt Pmt, General Government, More than 9 to 12, Other debt liabilities, Principal, USD","source":{"id":"22","value":"Quarterly External Debt Statistics\/SDDS (New)"},"sourceNote":"","sourceOrganization":"","topics":[]},{"id":"DT.AMT.DLTO.CD.GG.AR.03.US","name":"Gross Ext. Debt Pmt, General Government, More than 0 to 3, Other debt liabilities, Principal, USD","source":{"id":"22","value":"Quarterly External Debt Statistics\/SDDS (New)"},"sourceNote":"","sourceOrganization":"","topics":[]},{"id":"DT.AMT.DLTO.CD.CB.AR.IQ.US","name":"Gross Ext. Debt Pmt, Deposit-Taking Corp., exc. CB, Immediate, Other debt liabilities, Principal, USD","source":{"id":"22","value":"Quarterly External Debt Statistics\/SDDS (New)"},"sourceNote":"","sourceOrganization":"","topics":[]},{"id":"DT.AMT.DLTO.CD.CB.AR.69.US","name":"Gross Ext. Debt Pmt, Deposit-Taking Corp., exc. CB, More than 6 to 9, Other debt liabilities, Principal, USD","source":{"id":"22","value":"Quarterly External Debt Statistics\/SDDS (New)"},"sourceNote":"","sourceOrganization":"","topics":[]},{"id":"DT.AMT.DLTO.CD.CB.AR.36.US","name":"Gross Ext. Debt Pmt, Deposit-Taking Corp., exc. CB, More than 3 to 6, Other debt liabilities, Principal, USD","source":{"id":"22","value":"Quarterly External Debt Statistics\/SDDS (New)"},"sourceNote":"","sourceOrganization":"","topics":[]},{"id":"DT.AMT.DLTO.CD.CB.AR.24P.US","name":"Gross Ext. Debt Pmt, Deposit-Taking Corp., exc. CB, More than 2yrs, Other debt liabilities, Principal, USD","source":{"id":"22","value":"Quarterly External Debt Statistics\/SDDS (New)"},"sourceNote":"","sourceOrganization":"","topics":[]},{"id":"DT.AMT.DLTO.CD.CB.AR.1824.US","name":"Gross Ext. Debt Pmt, Deposit-Taking Corp., exc. CB, More than 18 to 24, Other debt liabilities, Principal, USD","source":{"id":"22","value":"Quarterly External Debt Statistics\/SDDS (New)"},"sourceNote":"","sourceOrganization":"","topics":[]},{"id":"DT.AMT.DLTO.CD.CB.AR.1218.US","name":"Gross Ext. Debt Pmt, Deposit-Taking Corp., exc. CB, More than 12 to 18, Other debt liabilities, Principal, USD","source":{"id":"22","value":"Quarterly External Debt Statistics\/SDDS (New)"},"sourceNote":"","sourceOrganization":"","topics":[]},{"id":"DT.AMT.DLTO.CD.CB.AR.0912.US","name":"Gross Ext. Debt Pmt, Deposit-Taking Corp., exc. CB, More than 9 to 12, Other debt liabilities, Principal, USD","source":{"id":"22","value":"Quarterly External Debt Statistics\/SDDS (New)"},"sourceNote":"","sourceOrganization":"","topics":[]},{"id":"DT.AMT.DLTO.CD.CB.AR.03.US","name":"Gross Ext. Debt Pmt, Deposit-Taking Corp., exc. CB, More than 0 to 3, Other debt liabilities, Principal, USD","source":{"id":"22","value":"Quarterly External Debt Statistics\/SDDS (New)"},"sourceNote":"","sourceOrganization":"","topics":[]},{"id":"DT.AMT.DLTL.CD.OT.AR.IQ.US","name":"Gross Ext. Debt Pmt, Other Sectors, Immediate, Loans, Principal, USD","source":{"id":"22","value":"Quarterly External Debt Statistics\/SDDS (New)"},"sourceNote":"","sourceOrganization":"","topics":[]},{"id":"DT.AMT.DLTL.CD.OT.AR.69.US","name":"Gross Ext. Debt Pmt, Other Sectors, More than 6 to 9, Loans, Principal, USD","source":{"id":"22","value":"Quarterly External Debt Statistics\/SDDS (New)"},"sourceNote":"","sourceOrganization":"","topics":[]},{"id":"DT.AMT.DLTL.CD.OT.AR.36.US","name":"Gross Ext. Debt Pmt, Other Sectors, More than 3 to 6, Loans, Principal, USD","source":{"id":"22","value":"Quarterly External Debt Statistics\/SDDS (New)"},"sourceNote":"","sourceOrganization":"","topics":[]},{"id":"DT.AMT.DLTL.CD.OT.AR.24P.US","name":"Gross Ext. Debt Pmt, Other Sectors, More than 2yrs, Loans, Principal, USD","source":{"id":"22","value":"Quarterly External Debt Statistics\/SDDS (New)"},"sourceNote":"","sourceOrganization":"","topics":[]},{"id":"DT.AMT.DLTL.CD.OT.AR.1824.US","name":"Gross Ext. Debt Pmt, Other Sectors, More than 18 to 24, Loans, Principal, USD","source":{"id":"22","value":"Quarterly External Debt Statistics\/SDDS (New)"},"sourceNote":"","sourceOrganization":"","topics":[]},{"id":"DT.AMT.DLTL.CD.OT.AR.1218.US","name":"Gross Ext. Debt Pmt, Other Sectors, More than 12 to 18, Loans, Principal, USD","source":{"id":"22","value":"Quarterly External Debt Statistics\/SDDS (New)"},"sourceNote":"","sourceOrganization":"","topics":[]},{"id":"DT.AMT.DLTL.CD.OT.AR.0912.US","name":"Gross Ext. Debt Pmt, Other Sectors, More than 9 to 12, Loans, Principal, USD","source":{"id":"22","value":"Quarterly External Debt Statistics\/SDDS (New)"},"sourceNote":"","sourceOrganization":"","topics":[]},{"id":"DT.AMT.DLTL.CD.OT.AR.03.US","name":"Gross Ext. Debt Pmt, Other Sectors, More than 0 to 3, Loans, Principal, USD","source":{"id":"22","value":"Quarterly External Debt Statistics\/SDDS (New)"},"sourceNote":"","sourceOrganization":"","topics":[{}]}]]