[{"page":97,"pages":324,"per_page":"50","total":16174},[{"id":"DT.TRA.DECT.CD","name":"Debt service, reduction in arrears\/prepayments (current US$)","source":{"id":"11","value":"Africa Development Indicators"},"sourceNote":"Adjustment - debt service arrears reductions\/prepayments (-), equals principal arrears reductions\/prepayments plus interest arrears reductions. Data are denominated in U.S. dollars.  ","sourceOrganization":"World Bank, Global Development Finance.","topics":[]},{"id":"DT.TDS.PUBS.CD.IQ.00.US","name":"Ext. Debt Service Pmt, Public Sector Ext. Debt, Immediately, All instruments, Prin. and Int., USD","source":{"id":"23","value":"Quarterly External Debt Statistics\/GDDS (New)"},"sourceNote":"","sourceOrganization":"","topics":[]},{"id":"DT.TDS.PUBS.CD.19.24.MO.US","name":"Ext. Debt Service Pmt, Public Sector Ext. Debt, 18 to 24 mo., All instruments, Prin. and Int., USD","source":{"id":"23","value":"Quarterly External Debt Statistics\/GDDS (New)"},"sourceNote":"","sourceOrganization":"","topics":[]},{"id":"DT.TDS.PUBS.CD.15.UP.YR.US","name":"Ext. Debt Service Pmt, Public Sector Ext. Debt, More than15yrs, All instruments, Prin. and Int., USD","source":{"id":"23","value":"Quarterly External Debt Statistics\/GDDS (New)"},"sourceNote":"","sourceOrganization":"","topics":[]},{"id":"DT.TDS.PUBS.CD.13.18.MO.US","name":"Ext. Debt Service Pmt, Public Sector Ext. Debt, 12 to 18 mo., All instruments, Prin. and Int., USD","source":{"id":"23","value":"Quarterly External Debt Statistics\/GDDS (New)"},"sourceNote":"","sourceOrganization":"","topics":[]},{"id":"DT.TDS.PUBS.CD.10.15.YR.US","name":"Ext. Debt Service Pmt, Public Sector Ext. Debt, 10 to 15 yrs, All instruments, Prin. and Int., USD","source":{"id":"23","value":"Quarterly External Debt Statistics\/GDDS (New)"},"sourceNote":"","sourceOrganization":"","topics":[]},{"id":"DT.TDS.PUBS.CD.10.12.MO.US","name":"Ext. Debt Service Pmt, Public Sector Ext. Debt, 9 to 12 mo., All instruments, Prin. and Int., USD","source":{"id":"23","value":"Quarterly External Debt Statistics\/GDDS (New)"},"sourceNote":"","sourceOrganization":"","topics":[]},{"id":"DT.TDS.PUBS.CD.07.09.MO.US","name":"Ext. Debt Service Pmt, Public Sector Ext. Debt, 6 to 9 mo., All instruments, Prin. and Int., USD","source":{"id":"23","value":"Quarterly External Debt Statistics\/GDDS (New)"},"sourceNote":"","sourceOrganization":"","topics":[]},{"id":"DT.TDS.PUBS.CD.05.YR.US","name":"Ext. Debt Service Pmt, Public Sector Ext. Debt, 5yrs, All instruments, Prin. and Int., USD","source":{"id":"23","value":"Quarterly External Debt Statistics\/GDDS (New)"},"sourceNote":"","sourceOrganization":"","topics":[]},{"id":"DT.TDS.PUBS.CD.05.10.YR.US","name":"Ext. Debt Service Pmt, Public Sector Ext. Debt, 5 to 10 yrs, All instruments, Prin. and Int., USD","source":{"id":"23","value":"Quarterly External Debt Statistics\/GDDS (New)"},"sourceNote":"","sourceOrganization":"","topics":[]},{"id":"DT.TDS.PUBS.CD.04.YR.US","name":"Ext. Debt Service Pmt, Public Sector Ext. Debt, 4yrs, All instruments, Prin. and Int., USD","source":{"id":"23","value":"Quarterly External Debt Statistics\/GDDS (New)"},"sourceNote":"","sourceOrganization":"","topics":[]},{"id":"DT.TDS.PUBS.CD.04.06.MO.US","name":"Ext. Debt Service Pmt, Public Sector Ext. Debt, 3 to 6 mo., All instruments, Prin. and Int., USD","source":{"id":"23","value":"Quarterly External Debt Statistics\/GDDS (New)"},"sourceNote":"","sourceOrganization":"","topics":[]},{"id":"DT.TDS.PUBS.CD.03.YR.US","name":"Ext. Debt Service Pmt, Public Sector Ext. Debt, 3yrs, All instruments, Prin. and Int., USD","source":{"id":"23","value":"Quarterly External Debt Statistics\/GDDS (New)"},"sourceNote":"","sourceOrganization":"","topics":[]},{"id":"DT.TDS.PUBS.CD.00.03.MO.US","name":"Ext. Debt Service Pmt, Public Sector Ext. Debt, 0 to 3 mo., All instruments, Prin. and Int., USD","source":{"id":"23","value":"Quarterly External Debt Statistics\/GDDS (New)"},"sourceNote":"","sourceOrganization":"","topics":[]},{"id":"DT.TDS.PRVT.CD","name":"PPG, private creditors (TDS, current US$)","source":{"id":"2","value":"World Development Indicators"},"sourceNote":"Public and publicly guaranteed debt from private creditors include bonds that are either publicly issued or privately placed; commercial bank loans from private banks and other private financial institutions; and other private credits from manufacturers, exporters, and other suppliers of goods, and bank credits covered by a guarantee of an export credit agency. Debt service payments are the sum of principal repayments and interest payments actually made in the year specified. Data are in current U.S. dollars.","sourceOrganization":"World Bank, International Debt Statistics.","topics":[{"id":"20","value":"External Debt"}]},{"id":"DT.TDS.PRVS.CD.IQ.00.US","name":"Ext. Debt Service Pmt, Publicly Guar. Private Sector Ext. Debt, Immediately, All instruments, Prin. and Int., USD","source":{"id":"23","value":"Quarterly External Debt Statistics\/GDDS (New)"},"sourceNote":"","sourceOrganization":"","topics":[]},{"id":"DT.TDS.PRVS.CD.19.24.MO.US","name":"Ext. Debt Service Pmt, Publicly Guar. Private Sector Ext. Debt, 18 to 24 mo., All instruments, Prin. and Int., USD","source":{"id":"23","value":"Quarterly External Debt Statistics\/GDDS (New)"},"sourceNote":"","sourceOrganization":"","topics":[]},{"id":"DT.TDS.PRVS.CD.15.UP.YR.US","name":"Ext. Debt Service Pmt, Publicly Guar. Private Sector Ext. Debt, More than15yrs, All instruments, Prin. and Int., USD","source":{"id":"23","value":"Quarterly External Debt Statistics\/GDDS (New)"},"sourceNote":"","sourceOrganization":"","topics":[]},{"id":"DT.TDS.PRVS.CD.13.18.MO.US","name":"Ext. Debt Service Pmt, Publicly Guar. Private Sector Ext. Debt, 12 to 18 mo., All instruments, Prin. and Int., USD","source":{"id":"23","value":"Quarterly External Debt Statistics\/GDDS (New)"},"sourceNote":"","sourceOrganization":"","topics":[]},{"id":"DT.TDS.PRVS.CD.10.15.YR.US","name":"Ext. Debt Service Pmt, Publicly Guar. Private Sector Ext. Debt, 10 to 15 yrs, All instruments, Prin. and Int., USD","source":{"id":"23","value":"Quarterly External Debt Statistics\/GDDS (New)"},"sourceNote":"","sourceOrganization":"","topics":[]},{"id":"DT.TDS.PRVS.CD.10.12.MO.US","name":"Ext. Debt Service Pmt, Publicly Guar. Private Sector Ext. Debt, 9 to 12 mo., All instruments, Prin. and Int., USD","source":{"id":"23","value":"Quarterly External Debt Statistics\/GDDS (New)"},"sourceNote":"","sourceOrganization":"","topics":[]},{"id":"DT.TDS.PRVS.CD.07.09.MO.US","name":"Ext. Debt Service Pmt, Publicly Guar. Private Sector Ext. Debt, 6 to 9 mo., All instruments, Prin. and Int., USD","source":{"id":"23","value":"Quarterly External Debt Statistics\/GDDS (New)"},"sourceNote":"","sourceOrganization":"","topics":[]},{"id":"DT.TDS.PRVS.CD.05.YR.US","name":"Ext. Debt Service Pmt, Publicly Guar. Private Sector Ext. Debt, 5yrs, All instruments, Prin. and Int., USD","source":{"id":"23","value":"Quarterly External Debt Statistics\/GDDS (New)"},"sourceNote":"","sourceOrganization":"","topics":[]},{"id":"DT.TDS.PRVS.CD.05.10.YR.US","name":"Ext. Debt Service Pmt, Publicly Guar. Private Sector Ext. Debt, 5 to 10 yrs, All instruments, Prin. and Int., USD","source":{"id":"23","value":"Quarterly External Debt Statistics\/GDDS (New)"},"sourceNote":"","sourceOrganization":"","topics":[]},{"id":"DT.TDS.PRVS.CD.04.YR.US","name":"Ext. Debt Service Pmt, Publicly Guar. Private Sector Ext. Debt, 4yrs, All instruments, Prin. and Int., USD","source":{"id":"23","value":"Quarterly External Debt Statistics\/GDDS (New)"},"sourceNote":"","sourceOrganization":"","topics":[]},{"id":"DT.TDS.PRVS.CD.04.06.MO.US","name":"Ext. Debt Service Pmt, Publicly Guar. Private Sector Ext. Debt, 3 to 6 mo., All instruments, Prin. and Int., USD","source":{"id":"23","value":"Quarterly External Debt Statistics\/GDDS (New)"},"sourceNote":"","sourceOrganization":"","topics":[]},{"id":"DT.TDS.PRVS.CD.03.YR.US","name":"Ext. Debt Service Pmt, Publicly Guar. Private Sector Ext. Debt, 3yrs, All instruments, Prin. and Int., USD","source":{"id":"23","value":"Quarterly External Debt Statistics\/GDDS (New)"},"sourceNote":"","sourceOrganization":"","topics":[]},{"id":"DT.TDS.PRVS.CD.00.03.MO.US","name":"Ext. Debt Service Pmt, Publicly Guar. Private Sector Ext. Debt, 0 to 3 mo., All instruments, Prin. and Int., USD","source":{"id":"23","value":"Quarterly External Debt Statistics\/GDDS (New)"},"sourceNote":"","sourceOrganization":"","topics":[]},{"id":"DT.TDS.PROP.CD","name":"PPG, other private creditors (TDS, current US$)","source":{"id":"2","value":"World Development Indicators"},"sourceNote":"Public and publicly guaranteed other private credits from manufacturers, exporters, and other suppliers of goods, and bank credits covered by a guarantee of an export credit agency. Debt service payments are the sum of principal repayments and interest payments actually made in the year specified. Data are in current U.S. dollars.","sourceOrganization":"World Bank, International Debt Statistics.","topics":[{"id":"20","value":"External Debt"}]},{"id":"DT.TDS.PNGC.CD","name":"PNG, commercial banks and other creditors (TDS, current US$)","source":{"id":"2","value":"World Development Indicators"},"sourceNote":"Nonguaranteed long-term commercial bank loans from private banks and other private financial institutions. Debt service payments are the sum of principal repayments and interest payments actually made in the year specified. Data are in current U.S. dollars.","sourceOrganization":"World Bank, International Debt Statistics.","topics":[{"id":"20","value":"External Debt"}]},{"id":"DT.TDS.PNGB.CD","name":"PNG, bonds (TDS, current US$)","source":{"id":"2","value":"World Development Indicators"},"sourceNote":"Nonguaranteed long-term debt from bonds that are privately placed. Debt service payments are the sum of principal repayments and interest payments actually made in the year specified. Data are in current U.S. dollars.","sourceOrganization":"World Bank, International Debt Statistics.","topics":[{"id":"20","value":"External Debt"}]},{"id":"DT.TDS.PGNG.CD","name":"Debt service, PPG and PNG private creditors (TDS, current US$)","source":{"id":"11","value":"Africa Development Indicators"},"sourceNote":"Debt service for private and public non-guaranteed debt is the sum of the two.","sourceOrganization":"World Bank, Global Development Finance.","topics":[]},{"id":"DT.TDS.PCBK.CD","name":"PPG, commercial banks (TDS, current US$)","source":{"id":"2","value":"World Development Indicators"},"sourceNote":"Public and publicly guaranteed commercial bank loans from private banks and other private financial institutions. Debt service payments are the sum of principal repayments and interest payments actually made in the year specified. Data are in current U.S. dollars.","sourceOrganization":"World Bank, International Debt Statistics.","topics":[{"id":"20","value":"External Debt"}]},{"id":"DT.TDS.PBND.CD","name":"PPG, bonds (TDS, current US$)","source":{"id":"2","value":"World Development Indicators"},"sourceNote":"Public and publicly guaranteed debt from bonds that are either publicly issued or privately placed. Debt service payments are the sum of principal repayments and interest payments actually made in the year specified. Data are in current U.S. dollars.","sourceOrganization":"World Bank, International Debt Statistics.","topics":[{"id":"20","value":"External Debt"}]},{"id":"DT.TDS.OFFT.CD","name":"PPG, official creditors (TDS, current US$)","source":{"id":"2","value":"World Development Indicators"},"sourceNote":"Public and publicly guaranteed debt from official creditors includes loans from international organizations (multilateral loans) and loans from governments (bilateral loans). Loans from international organization include loans and credits from the World Bank, regional development banks, and other multilateral and intergovernmental agencies. Excluded are loans from funds administered by an international organization on behalf of a single donor government; these are classified as loans from governments. Government loans include loans from governments and their agencies (including central banks), loans from autonomous bodies, and direct loans from official export credit agencies. Debt service payments are the sum of principal repayments and interest payments actually made in the year specified. Data are in current U.S. dollars.","sourceOrganization":"World Bank, International Debt Statistics.","topics":[{"id":"20","value":"External Debt"}]},{"id":"DT.TDS.MLTC.CD","name":"PPG, multilateral concessional (TDS, current US$)","source":{"id":"2","value":"World Development Indicators"},"sourceNote":"Public and publicly guaranteed multilateral loans include loans and credits from the World Bank, regional development banks, and other multilateral and intergovernmental agencies. Excluded are loans from funds administered by an international organization on behalf of a single donor government; these are classified as loans from governments. Concessional debt is defined as loans with an original grant element of 25 percent or more. The grant element of a loan is the grant equivalent expressed as a percentage of the amount committed. It is used as a measure of the overall cost of borrowing. The grant equivalent of a loan is its commitment (present) value, less the discounted present value of its contractual debt service; conventionally, future service payments are discounted at 10 percent. Debt service payments are the sum of principal repayments and interest payments actually made in the year specified. Data are in current U.S. dollars.","sourceOrganization":"World Bank, International Debt Statistics.","topics":[{"id":"20","value":"External Debt"}]},{"id":"DT.TDS.MLAT.PG.ZS","name":"Multilateral debt service (% of public and publicly guaranteed debt service)","source":{"id":"2","value":"World Development Indicators"},"sourceNote":"Multilateral debt service is the repayment of principal and interest to the World Bank, regional development banks, and other multilateral agencies. public and publicly guaranteed debt service is the sum of principal repayments and interest actually paid in currency, goods, or services on long-term obligations of public debtors and long-term private obligations guaranteed by a public entity.","sourceOrganization":"World Bank, International Debt Statistics.","topics":[{"id":"20","value":"External Debt"}]},{"id":"DT.TDS.MLAT.CD","name":"Multilateral debt service (TDS, current US$)","source":{"id":"2","value":"World Development Indicators"},"sourceNote":"Public and publicly guaranteed multilateral loans include loans and credits from the World Bank, regional development banks, and other multilateral and intergovernmental agencies. Excluded are loans from funds administered by an international organization on behalf of a single donor government; these are classified as loans from governments. Debt service payments are the sum of principal repayments and interest payments actually made in the year specified. Data are in current U.S. dollars.","sourceOrganization":"World Bank, International Debt Statistics.","topics":[{"id":"20","value":"External Debt"}]},{"id":"DT.TDS.MIDA.CD","name":"PPG, IDA (TDS, current US$)","source":{"id":"2","value":"World Development Indicators"},"sourceNote":"Public and publicly guaranteed debt outstanding from the International Development Association (IDA) is concessional. Concessional debt is defined as loans with an original grant element of 25 percent or more. The grant element of a loan is the grant equivalent expressed as a percentage of the amount committed. It is used as a measure of the overall cost of borrowing. The grant equivalent of a loan is its commitment (present) value, less the discounted present value of its contractual debt service; conventionally, future service payments are discounted at 10 percent. Debt service payments are the sum of principal repayments and interest payments actually made in the year specified. Data are in current U.S. dollars.","sourceOrganization":"World Bank, International Debt Statistics.","topics":[{"id":"20","value":"External Debt"}]},{"id":"DT.TDS.MIBR.CD","name":"PPG, IBRD (TDS, current US$)","source":{"id":"2","value":"World Development Indicators"},"sourceNote":"Public and publicly guaranteed debt outstanding from the International Bank for Reconstruction and Development (IBRD) is nonconcessional. Nonconcessional debt excludes loans with an original grant element of 25 percent or more. Debt service payments are the sum of principal repayments and interest payments actually made in the year specified. Data are in current U.S. dollars.","sourceOrganization":"World Bank, International Debt Statistics.","topics":[{"id":"20","value":"External Debt"}]},{"id":"DT.TDS.DPPG.XP.ZS","name":"Public and publicly guaranteed debt service (% of exports of goods, services and primary income)","source":{"id":"2","value":"World Development Indicators"},"sourceNote":"Public and publicly guaranteed debt service is the sum of principal repayments and interest actually paid in currency, goods, or services on long-term obligations of public debtors and long-term private obligations guaranteed by a public entity. Exports refer to exports of goods, services, and income.","sourceOrganization":"World Bank.","topics":[{"id":"20","value":"External Debt"}]},{"id":"DT.TDS.DPPG.GN.ZS","name":"Public and publicly guaranteed debt service (% of GNI)","source":{"id":"2","value":"World Development Indicators"},"sourceNote":"Public and publicly guaranteed debt service is the sum of principal repayments and interest actually paid in currency, goods, or services on long-term obligations of public debtors and long-term private obligations guaranteed by a public entity.","sourceOrganization":"World Bank, International Debt Statistics.","topics":[{"id":"20","value":"External Debt"}]},{"id":"DT.TDS.DPPG.CD","name":"Debt service on external debt, public and publicly guaranteed (PPG) (TDS, current US$)","source":{"id":"2","value":"World Development Indicators"},"sourceNote":"Public and publicly guaranteed debt service is the sum of principal repayments and interest actually paid in currency, goods, or services on long-term obligations of public debtors and long-term private obligations guaranteed by a public entity. Data are in current U.S. dollars.","sourceOrganization":"World Bank, International Debt Statistics.","topics":[{"id":"20","value":"External Debt"}]},{"id":"DT.TDS.DPPF.XP.ZS","name":"Debt service (PPG and IMF only, % of exports of goods, services and primary income)","source":{"id":"2","value":"World Development Indicators"},"sourceNote":"Debt service is the sum of principle repayments and interest actually paid in currency, goods, or services. This series differs from the standard debt to exports series. It covers only long-term public and publicly guaranteed debt and repayments (repurchases and charges) to the IMF. Data for Heavily Indebted Poor Countries (HIPC) are from HIPC Initiative's Status of Implementation Report.","sourceOrganization":"World Bank, International Debt Statistics.","topics":[{"id":"20","value":"External Debt"}]},{"id":"DT.TDS.DPNG.CD","name":"Debt service on external debt, private nonguaranteed (PNG) (TDS, current US$)","source":{"id":"2","value":"World Development Indicators"},"sourceNote":"Private nonguaranteed debt service is an external obligation of a private debtor that is not guaranteed for repayment by a public entity. Debt service payments are the sum of principal repayments and interest payments actually made in the year specified. Long-term external debt is defined as debt that has an original or extended maturity of more than one year and that is owed to nonresidents by residents of an economy and repayable in currency, goods, or services. Data are in current U.S. dollars.","sourceOrganization":"World Bank, International Debt Statistics.","topics":[{"id":"20","value":"External Debt"}]},{"id":"DT.TDS.DLXF.CD","name":"Debt service on external debt, long-term (TDS, current US$)","source":{"id":"2","value":"World Development Indicators"},"sourceNote":"Debt service payments are the sum of principal repayments and interest payments actually made in the year specified. Long-term external debt is defined as debt that has an original or extended maturity of more than one year and that is owed to nonresidents by residents of an economy and repayable in currency, goods, or services. Data are in current U.S. dollars.","sourceOrganization":"World Bank, International Debt Statistics.","topics":[{"id":"20","value":"External Debt"}]},{"id":"DT.TDS.DLTT.CD.OT.AR.IQ.US","name":"Gross Ext. Debt Pmt, Other Sectors, Immediate, Trade credit and advances, Prin. and Int., USD","source":{"id":"22","value":"Quarterly External Debt Statistics\/SDDS (New)"},"sourceNote":"","sourceOrganization":"","topics":[]},{"id":"DT.TDS.DLTT.CD.OT.AR.69.US","name":"Gross Ext. Debt Pmt, Other Sectors, More than 6 to 9, Trade credit and advances, Prin. and Int., USD","source":{"id":"22","value":"Quarterly External Debt Statistics\/SDDS (New)"},"sourceNote":"","sourceOrganization":"","topics":[]},{"id":"DT.TDS.DLTT.CD.OT.AR.36.US","name":"Gross Ext. Debt Pmt, Other Sectors, More than 3 to 6, Trade credit and advances, Prin. and Int., USD","source":{"id":"22","value":"Quarterly External Debt Statistics\/SDDS (New)"},"sourceNote":"","sourceOrganization":"","topics":[]},{"id":"DT.TDS.DLTT.CD.OT.AR.24P.US","name":"Gross Ext. Debt Pmt, Other Sectors, More than 2yrs, Trade credit and advances, Prin. and Int., USD","source":{"id":"22","value":"Quarterly External Debt Statistics\/SDDS (New)"},"sourceNote":"","sourceOrganization":"","topics":[{}]}]]