[{"page":28,"pages":324,"per_page":"50","total":16174},[{"id":"BAR.SEC.SCHL.6569.FE","name":"Barro-Lee: Average years of secondary schooling, age 65-69, female","source":{"id":"12","value":"Education Statistics"},"sourceNote":"Average years of secondary schooling, 65-69, female is the average years of secondary education completed among females age 65-69.","sourceOrganization":"Robert J. Barro and Jong-Wha Lee: http:\/\/www.barrolee.com\/","topics":[]},{"id":"BAR.SEC.SCHL.6569","name":"Barro-Lee: Average years of secondary schooling, age 65-69, total","source":{"id":"12","value":"Education Statistics"},"sourceNote":"Average years of secondary schooling, 65-69, total is the average years of secondary education completed among people age 65-69.","sourceOrganization":"Robert J. Barro and Jong-Wha Lee: http:\/\/www.barrolee.com\/","topics":[]},{"id":"BAR.SEC.SCHL.6064.FE","name":"Barro-Lee: Average years of secondary schooling, age 60-64, female","source":{"id":"12","value":"Education Statistics"},"sourceNote":"Average years of secondary schooling, 60-64, female is the average years of secondary education completed among females age 60-64.","sourceOrganization":"Robert J. Barro and Jong-Wha Lee: http:\/\/www.barrolee.com\/","topics":[{"id":"4","value":"Education "}]},{"id":"BAR.SEC.SCHL.6064","name":"Barro-Lee: Average years of secondary schooling, age 60-64, total","source":{"id":"12","value":"Education Statistics"},"sourceNote":"Average years of secondary schooling, 60-64, total is the average years of secondary education completed among people age 60-64.","sourceOrganization":"Robert J. Barro and Jong-Wha Lee: http:\/\/www.barrolee.com\/","topics":[{"id":"4","value":"Education "}]},{"id":"BAR.SEC.SCHL.5559.FE","name":"Barro-Lee: Average years of secondary schooling, age 55-59, female","source":{"id":"12","value":"Education Statistics"},"sourceNote":"Average years of secondary schooling, 55-59, female is the average years of secondary education completed among females age 55-59.","sourceOrganization":"Robert J. Barro and Jong-Wha Lee: http:\/\/www.barrolee.com\/","topics":[{"id":"4","value":"Education "}]},{"id":"BAR.SEC.SCHL.5559","name":"Barro-Lee: Average years of secondary schooling, age 55-59, total","source":{"id":"12","value":"Education Statistics"},"sourceNote":"Average years of secondary schooling, 55-59, total is the average years of secondary education completed among people age 55-59.","sourceOrganization":"Robert J. Barro and Jong-Wha Lee: http:\/\/www.barrolee.com\/","topics":[{"id":"4","value":"Education "}]},{"id":"BAR.SEC.SCHL.5054.FE","name":"Barro-Lee: Average years of secondary schooling, age 50-54, female","source":{"id":"12","value":"Education Statistics"},"sourceNote":"Average years of secondary schooling, 50-54, female is the average years of secondary education completed among females age 50-54.","sourceOrganization":"Robert J. Barro and Jong-Wha Lee: http:\/\/www.barrolee.com\/","topics":[{"id":"4","value":"Education "}]},{"id":"BAR.SEC.SCHL.5054","name":"Barro-Lee: Average years of secondary schooling, age 50-54, total","source":{"id":"12","value":"Education Statistics"},"sourceNote":"Average years of secondary schooling, 50-54, total is the average years of secondary education completed among people age 50-54.","sourceOrganization":"Robert J. Barro and Jong-Wha Lee: http:\/\/www.barrolee.com\/","topics":[{"id":"4","value":"Education "}]},{"id":"BAR.SEC.SCHL.4549.FE","name":"Barro-Lee: Average years of secondary schooling, age 45-49, female","source":{"id":"12","value":"Education Statistics"},"sourceNote":"Average years of secondary schooling, 45-49, female is the average years of secondary education completed among females age 45-49.","sourceOrganization":"Robert J. Barro and Jong-Wha Lee: http:\/\/www.barrolee.com\/","topics":[{"id":"4","value":"Education "}]},{"id":"BAR.SEC.SCHL.4549","name":"Barro-Lee: Average years of secondary schooling, age 45-49, total","source":{"id":"12","value":"Education Statistics"},"sourceNote":"Average years of secondary schooling, 45-49, total is the average years of secondary education completed among people age 45-49.","sourceOrganization":"Robert J. Barro and Jong-Wha Lee: http:\/\/www.barrolee.com\/","topics":[{"id":"4","value":"Education "}]},{"id":"BAR.SEC.SCHL.4044.FE","name":"Barro-Lee: Average years of secondary schooling, age 40-44, female","source":{"id":"12","value":"Education Statistics"},"sourceNote":"Average years of secondary schooling, 40-44, female is the average years of secondary education completed among females age 40-44.","sourceOrganization":"Robert J. Barro and Jong-Wha Lee: http:\/\/www.barrolee.com\/","topics":[{"id":"4","value":"Education "}]},{"id":"BAR.SEC.SCHL.4044","name":"Barro-Lee: Average years of secondary schooling, age 40-44, total","source":{"id":"12","value":"Education Statistics"},"sourceNote":"Average years of secondary schooling, 40-44, total is the average years of secondary education completed among people age 40-44.","sourceOrganization":"Robert J. Barro and Jong-Wha Lee: http:\/\/www.barrolee.com\/","topics":[{"id":"4","value":"Education "}]},{"id":"BAR.SEC.SCHL.3539.FE","name":"Barro-Lee: Average years of secondary schooling, age 35-39, female","source":{"id":"12","value":"Education Statistics"},"sourceNote":"Average years of secondary schooling, 35-39, female is the average years of secondary education completed among females age 35-39.","sourceOrganization":"Robert J. Barro and Jong-Wha Lee: http:\/\/www.barrolee.com\/","topics":[{"id":"4","value":"Education "}]},{"id":"BAR.SEC.SCHL.3539","name":"Barro-Lee: Average years of secondary schooling, age 35-39, total","source":{"id":"12","value":"Education Statistics"},"sourceNote":"Average years of secondary schooling, 35-39, total is the average years of secondary education completed among people age 35-39.","sourceOrganization":"Robert J. Barro and Jong-Wha Lee: http:\/\/www.barrolee.com\/","topics":[{"id":"4","value":"Education "}]},{"id":"BAR.SEC.SCHL.3034.FE","name":"Barro-Lee: Average years of secondary schooling, age 30-34, female","source":{"id":"12","value":"Education Statistics"},"sourceNote":"Average years of secondary schooling, 30-34, female is the average years of secondary education completed among females age 30-34.","sourceOrganization":"Robert J. Barro and Jong-Wha Lee: http:\/\/www.barrolee.com\/","topics":[{"id":"4","value":"Education "}]},{"id":"BAR.SEC.SCHL.3034","name":"Barro-Lee: Average years of secondary schooling, age 30-34, total","source":{"id":"12","value":"Education Statistics"},"sourceNote":"Average years of secondary schooling, 30-34, total is the average years of secondary education completed among people age 30-34.","sourceOrganization":"Robert J. Barro and Jong-Wha Lee: http:\/\/www.barrolee.com\/","topics":[{"id":"4","value":"Education "}]},{"id":"BAR.SEC.SCHL.25UP.FE","name":"Barro-Lee: Average years of secondary schooling, age 25+, female","source":{"id":"12","value":"Education Statistics"},"sourceNote":"Average years of secondary schooling, 25+, female is the average years of secondary education completed among females over age 25.","sourceOrganization":"Robert J. Barro and Jong-Wha Lee: http:\/\/www.barrolee.com\/","topics":[{"id":"4","value":"Education "}]},{"id":"BAR.SEC.SCHL.25UP","name":"Barro-Lee: Average years of secondary schooling, age 25+, total","source":{"id":"12","value":"Education Statistics"},"sourceNote":"Average years of secondary schooling, 25+, total is the average years of secondary education completed among people over age 25.","sourceOrganization":"Robert J. Barro and Jong-Wha Lee: http:\/\/www.barrolee.com\/","topics":[{"id":"4","value":"Education "}]},{"id":"BAR.SEC.SCHL.2529.FE","name":"Barro-Lee: Average years of secondary schooling, age 25-29, female","source":{"id":"12","value":"Education Statistics"},"sourceNote":"Average years of secondary schooling, 25-29, female is the average years of secondary education completed among females age 25-29.","sourceOrganization":"Robert J. Barro and Jong-Wha Lee: http:\/\/www.barrolee.com\/","topics":[{"id":"4","value":"Education "}]},{"id":"BAR.SEC.SCHL.2529","name":"Barro-Lee: Average years of secondary schooling, age 25-29, total","source":{"id":"12","value":"Education Statistics"},"sourceNote":"Average years of secondary schooling, 25-29, total is the average years of secondary education completed among people age 25-29.","sourceOrganization":"Robert J. Barro and Jong-Wha Lee: http:\/\/www.barrolee.com\/","topics":[{"id":"4","value":"Education "}]},{"id":"BAR.SEC.SCHL.2024.FE","name":"Barro-Lee: Average years of secondary schooling, age 20-24, female","source":{"id":"12","value":"Education Statistics"},"sourceNote":"Average years of secondary schooling, 20-24, female is the average years of secondary education completed among females age 20-24.","sourceOrganization":"Robert J. Barro and Jong-Wha Lee: http:\/\/www.barrolee.com\/","topics":[{"id":"4","value":"Education "}]},{"id":"BAR.SEC.SCHL.2024","name":"Barro-Lee: Average years of secondary schooling, age 20-24, total","source":{"id":"12","value":"Education Statistics"},"sourceNote":"Average years of secondary schooling, 20-24, total is the average years of secondary education completed among people age 20-24.","sourceOrganization":"Robert J. Barro and Jong-Wha Lee: http:\/\/www.barrolee.com\/","topics":[{"id":"4","value":"Education "}]},{"id":"BAR.SEC.SCHL.15UP.FE","name":"Barro-Lee: Average years of secondary schooling, age 15+, female","source":{"id":"12","value":"Education Statistics"},"sourceNote":"Average years of secondary schooling, 15+, female is the average years of secondary education completed among females over age 15.","sourceOrganization":"Robert J. Barro and Jong-Wha Lee: http:\/\/www.barrolee.com\/","topics":[{"id":"4","value":"Education "}]},{"id":"BAR.SEC.SCHL.15UP","name":"Barro-Lee: Average years of secondary schooling, age 15+, total","source":{"id":"12","value":"Education Statistics"},"sourceNote":"Average years of secondary schooling, 15+, total is the average years of secondary education completed among people over age 15.","sourceOrganization":"Robert J. Barro and Jong-Wha Lee: http:\/\/www.barrolee.com\/","topics":[{"id":"4","value":"Education "}]},{"id":"BAR.SEC.SCHL.1519.FE","name":"Barro-Lee: Average years of secondary schooling, age 15-19, female","source":{"id":"12","value":"Education Statistics"},"sourceNote":"Average years of secondary schooling, 15-19, female is the average years of secondary education completed among females age 15-19.","sourceOrganization":"Robert J. Barro and Jong-Wha Lee: http:\/\/www.barrolee.com\/","topics":[{"id":"4","value":"Education "}]},{"id":"BAR.SEC.SCHL.1519","name":"Barro-Lee: Average years of secondary schooling, age 15-19, total","source":{"id":"12","value":"Education Statistics"},"sourceNote":"Average years of secondary schooling, 15-19, total is the average years of secondary education completed among people age 15-19.","sourceOrganization":"Robert J. Barro and Jong-Wha Lee: http:\/\/www.barrolee.com\/","topics":[{"id":"4","value":"Education "}]},{"id":"BAR.SEC.ICMP.75UP.ZS","name":"Barro-Lee: Percentage of population age 75+ with secondary schooling. Total (Incomplete and Completed Secondary)","source":{"id":"12","value":"Education Statistics"},"sourceNote":"Percentage of population age 75+ with secondary schooling. Total (Incomplete and Completed Secondary)","sourceOrganization":"Robert J. Barro and Jong-Wha Lee: http:\/\/www.barrolee.com\/","topics":[]},{"id":"BAR.SEC.ICMP.75UP.FE.ZS","name":"Barro-Lee: Percentage of female population age 75+ with secondary schooling. Total (Incomplete and Completed Secondary)","source":{"id":"12","value":"Education Statistics"},"sourceNote":"Percentage of female population age 75+ with secondary schooling. Total (Incomplete and Completed Secondary)","sourceOrganization":"Robert J. Barro and Jong-Wha Lee: http:\/\/www.barrolee.com\/","topics":[]},{"id":"BAR.SEC.ICMP.7074.ZS","name":"Barro-Lee: Percentage of population age 70-74 with secondary schooling. Total (Incomplete and Completed Secondary)","source":{"id":"12","value":"Education Statistics"},"sourceNote":"Percentage of population age 70-74 with secondary schooling. Total (Incomplete and Completed Secondary)","sourceOrganization":"Robert J. Barro and Jong-Wha Lee: http:\/\/www.barrolee.com\/","topics":[]},{"id":"BAR.SEC.ICMP.7074.FE.ZS","name":"Barro-Lee: Percentage of female population age 70-74 with secondary schooling. Total (Incomplete and Completed Secondary)","source":{"id":"12","value":"Education Statistics"},"sourceNote":"Percentage of female population age 70-74 with secondary schooling. Total (Incomplete and Completed Secondary)","sourceOrganization":"Robert J. Barro and Jong-Wha Lee: http:\/\/www.barrolee.com\/","topics":[]},{"id":"BAR.SEC.ICMP.6569.ZS","name":"Barro-Lee: Percentage of population age 65-69 with secondary schooling. Total (Incomplete and Completed Secondary)","source":{"id":"12","value":"Education Statistics"},"sourceNote":"Percentage of population age 65-69 with secondary schooling. Total (Incomplete and Completed Secondary)","sourceOrganization":"Robert J. Barro and Jong-Wha Lee: http:\/\/www.barrolee.com\/","topics":[]},{"id":"BAR.SEC.ICMP.6569.FE.ZS","name":"Barro-Lee: Percentage of female population age 65-69 with secondary schooling. Total (Incomplete and Completed Secondary)","source":{"id":"12","value":"Education Statistics"},"sourceNote":"Percentage of female population age 65-69 with secondary schooling. Total (Incomplete and Completed Secondary)","sourceOrganization":"Robert J. Barro and Jong-Wha Lee: http:\/\/www.barrolee.com\/","topics":[]},{"id":"BAR.SEC.ICMP.6064.ZS","name":"Barro-Lee: Percentage of population age 60-64 with secondary schooling. Total (Incomplete and Completed Secondary)","source":{"id":"12","value":"Education Statistics"},"sourceNote":"Percentage of population age 60-64 with secondary schooling. Total (Incomplete and Completed Secondary)","sourceOrganization":"Robert J. Barro and Jong-Wha Lee: http:\/\/www.barrolee.com\/","topics":[{"id":"4","value":"Education "}]},{"id":"BAR.SEC.ICMP.6064.FE.ZS","name":"Barro-Lee: Percentage of female population age 60-64 with secondary schooling. Total (Incomplete and Completed Secondary)","source":{"id":"12","value":"Education Statistics"},"sourceNote":"Percentage of female population age 60-64 with secondary schooling. Total (Incomplete and Completed Secondary)","sourceOrganization":"Robert J. Barro and Jong-Wha Lee: http:\/\/www.barrolee.com\/","topics":[{"id":"4","value":"Education "}]},{"id":"BAR.SEC.ICMP.5559.ZS","name":"Barro-Lee: Percentage of population age 55-59 with secondary schooling. Total (Incomplete and Completed Secondary)","source":{"id":"12","value":"Education Statistics"},"sourceNote":"Percentage of population age 55-59 with secondary schooling. Total (Incomplete and Completed Secondary)","sourceOrganization":"Robert J. Barro and Jong-Wha Lee: http:\/\/www.barrolee.com\/","topics":[{"id":"4","value":"Education "}]},{"id":"BAR.SEC.ICMP.5559.FE.ZS","name":"Barro-Lee: Percentage of female population age 55-59 with secondary schooling. Total (Incomplete and Completed Secondary)","source":{"id":"12","value":"Education Statistics"},"sourceNote":"Percentage of female population age 55-59 with secondary schooling. Total (Incomplete and Completed Secondary)","sourceOrganization":"Robert J. Barro and Jong-Wha Lee: http:\/\/www.barrolee.com\/","topics":[{"id":"4","value":"Education "}]},{"id":"BAR.SEC.ICMP.5054.ZS","name":"Barro-Lee: Percentage of population age 50-54 with secondary schooling. Total (Incomplete and Completed Secondary)","source":{"id":"12","value":"Education Statistics"},"sourceNote":"Percentage of population age 50-54 with secondary schooling. Total (Incomplete and Completed Secondary)","sourceOrganization":"Robert J. Barro and Jong-Wha Lee: http:\/\/www.barrolee.com\/","topics":[{"id":"4","value":"Education "}]},{"id":"BAR.SEC.ICMP.5054.FE.ZS","name":"Barro-Lee: Percentage of female population age 50-54 with secondary schooling. Total (Incomplete and Completed Secondary)","source":{"id":"12","value":"Education Statistics"},"sourceNote":"Percentage of female population age 50-54 with secondary schooling. Total (Incomplete and Completed Secondary)","sourceOrganization":"Robert J. Barro and Jong-Wha Lee: http:\/\/www.barrolee.com\/","topics":[{"id":"4","value":"Education "}]},{"id":"BAR.SEC.ICMP.4549.ZS","name":"Barro-Lee: Percentage of population age 45-49 with secondary schooling. Total (Incomplete and Completed Secondary)","source":{"id":"12","value":"Education Statistics"},"sourceNote":"Percentage of population age 45-49 with secondary schooling. Total (Incomplete and Completed Secondary)","sourceOrganization":"Robert J. Barro and Jong-Wha Lee: http:\/\/www.barrolee.com\/","topics":[{"id":"4","value":"Education "}]},{"id":"BAR.SEC.ICMP.4549.FE.ZS","name":"Barro-Lee: Percentage of female population age 45-49 with secondary schooling. Total (Incomplete and Completed Secondary)","source":{"id":"12","value":"Education Statistics"},"sourceNote":"Percentage of female population age 45-49 with secondary schooling. Total (Incomplete and Completed Secondary)","sourceOrganization":"Robert J. Barro and Jong-Wha Lee: http:\/\/www.barrolee.com\/","topics":[{"id":"4","value":"Education "}]},{"id":"BAR.SEC.ICMP.4044.ZS","name":"Barro-Lee: Percentage of population age 40-44 with secondary schooling. Total (Incomplete and Completed Secondary)","source":{"id":"12","value":"Education Statistics"},"sourceNote":"Percentage of population age 40-44 with secondary schooling. Total (Incomplete and Completed Secondary)","sourceOrganization":"Robert J. Barro and Jong-Wha Lee: http:\/\/www.barrolee.com\/","topics":[{"id":"4","value":"Education "}]},{"id":"BAR.SEC.ICMP.4044.FE.ZS","name":"Barro-Lee: Percentage of female population age 40-44 with secondary schooling. Total (Incomplete and Completed Secondary)","source":{"id":"12","value":"Education Statistics"},"sourceNote":"Percentage of female population age 40-44 with secondary schooling. Total (Incomplete and Completed Secondary)","sourceOrganization":"Robert J. Barro and Jong-Wha Lee: http:\/\/www.barrolee.com\/","topics":[{"id":"4","value":"Education "}]},{"id":"BAR.SEC.ICMP.3539.ZS","name":"Barro-Lee: Percentage of population age 35-39 with secondary schooling. Total (Incomplete and Completed Secondary)","source":{"id":"12","value":"Education Statistics"},"sourceNote":"Percentage of population age 35-39 with secondary schooling. Total (Incomplete and Completed Secondary)","sourceOrganization":"Robert J. Barro and Jong-Wha Lee: http:\/\/www.barrolee.com\/","topics":[{"id":"4","value":"Education "}]},{"id":"BAR.SEC.ICMP.3539.FE.ZS","name":"Barro-Lee: Percentage of female population age 35-39 with secondary schooling. Total (Incomplete and Completed Secondary)","source":{"id":"12","value":"Education Statistics"},"sourceNote":"Percentage of female population age 35-39 with secondary schooling. Total (Incomplete and Completed Secondary)","sourceOrganization":"Robert J. Barro and Jong-Wha Lee: http:\/\/www.barrolee.com\/","topics":[{"id":"4","value":"Education "}]},{"id":"BAR.SEC.ICMP.3034.ZS","name":"Barro-Lee: Percentage of population age 30-34 with secondary schooling. Total (Incomplete and Completed Secondary)","source":{"id":"12","value":"Education Statistics"},"sourceNote":"Percentage of population age 30-34 with secondary schooling. Total (Incomplete and Completed Secondary)","sourceOrganization":"Robert J. Barro and Jong-Wha Lee: http:\/\/www.barrolee.com\/","topics":[{"id":"4","value":"Education "}]},{"id":"BAR.SEC.ICMP.3034.FE.ZS","name":"Barro-Lee: Percentage of female population age 30-34 with secondary schooling. Total (Incomplete and Completed Secondary)","source":{"id":"12","value":"Education Statistics"},"sourceNote":"Percentage of female population age 30-34 with secondary schooling. Total (Incomplete and Completed Secondary)","sourceOrganization":"Robert J. Barro and Jong-Wha Lee: http:\/\/www.barrolee.com\/","topics":[{"id":"4","value":"Education "}]},{"id":"BAR.SEC.ICMP.25UP.ZS","name":"Barro-Lee: Percentage of population age 25+ with secondary schooling. Total (Incomplete and Completed Secondary)","source":{"id":"12","value":"Education Statistics"},"sourceNote":"Percentage of population age 25+ with secondary schooling. Total (Incomplete and Completed Secondary)","sourceOrganization":"Robert J. Barro and Jong-Wha Lee: http:\/\/www.barrolee.com\/","topics":[{"id":"4","value":"Education "}]},{"id":"BAR.SEC.ICMP.25UP.FE.ZS","name":"Barro-Lee: Percentage of female population age 25+ with secondary schooling. Total (Incomplete and Completed Secondary)","source":{"id":"12","value":"Education Statistics"},"sourceNote":"Percentage of female population age 25+ with secondary schooling. Total (Incomplete and Completed Secondary)","sourceOrganization":"Robert J. Barro and Jong-Wha Lee: http:\/\/www.barrolee.com\/","topics":[{"id":"4","value":"Education "}]},{"id":"BAR.SEC.ICMP.2529.ZS","name":"Barro-Lee: Percentage of population age 25-29 with secondary schooling. Total (Incomplete and Completed Secondary)","source":{"id":"12","value":"Education Statistics"},"sourceNote":"Percentage of population age 25-29 with secondary schooling. Total (Incomplete and Completed Secondary)","sourceOrganization":"Robert J. Barro and Jong-Wha Lee: http:\/\/www.barrolee.com\/","topics":[{"id":"4","value":"Education "}]},{"id":"BAR.SEC.ICMP.2529.FE.ZS","name":"Barro-Lee: Percentage of female population age 25-29 with secondary schooling. Total (Incomplete and Completed Secondary)","source":{"id":"12","value":"Education Statistics"},"sourceNote":"Percentage of female population age 25-29 with secondary schooling. Total (Incomplete and Completed Secondary)","sourceOrganization":"Robert J. Barro and Jong-Wha Lee: http:\/\/www.barrolee.com\/","topics":[{"id":"4","value":"Education "}]}]]