[{"page":48,"pages":324,"per_page":"50","total":16174},[{"id":"DP.DOD.DSIN.CR.PS","name":"390.Insurance, pensions, and standardized guarantee schemes (PSDT)","source":{"id":"20","value":"Quarterly Public Sector Debt"},"sourceNote":"","sourceOrganization":"","topics":[]},{"id":"DP.DOD.DSIN.CR.NF.Z1","name":"550.Insurance, pensions, and standardized guarantee schemes (PSDNFPC, ST)(% of GDP)","source":{"id":"20","value":"Quarterly Public Sector Debt"},"sourceNote":"The source of non-seasonally adjusted Gross Domestic Product (GDP) data in national currency, at current prices, is the International Finance Statistics quarterly database of the IMF, annualized by the World Bank, unless otherwise specified","sourceOrganization":"","topics":[]},{"id":"DP.DOD.DSIN.CR.NF.CD","name":"102.Insurance, pensions, and standardized guarantee schemes (PSDNFPC, ST) US$","source":{"id":"20","value":"Quarterly Public Sector Debt"},"sourceNote":"Member Country","sourceOrganization":"World Bank.","topics":[]},{"id":"DP.DOD.DSIN.CR.NF","name":"326.Insurance, pensions, and standardized guarantee schemes (PSDNFPC, ST)","source":{"id":"20","value":"Quarterly Public Sector Debt"},"sourceNote":"","sourceOrganization":"","topics":[]},{"id":"DP.DOD.DSIN.CR.GG.Z1","name":"454.Insurance, pensions, and stnd. guarantee schemes (PSDGG, ST)(% of GDP)","source":{"id":"20","value":"Quarterly Public Sector Debt"},"sourceNote":"The source of non-seasonally adjusted Gross Domestic Product (GDP) data in national currency, at current prices, is the International Finance Statistics quarterly database of the IMF, annualized by the World Bank, unless otherwise specified","sourceOrganization":"","topics":[]},{"id":"DP.DOD.DSIN.CR.GG.CD","name":"006.Insurance, pensions, and standardized guarantee schemes (PSDGG, ST) US$","source":{"id":"20","value":"Quarterly Public Sector Debt"},"sourceNote":"Member Country","sourceOrganization":"World Bank.","topics":[]},{"id":"DP.DOD.DSIN.CR.GG","name":"230.Insurance, pensions, and stnd. guarantee schemes (PSDGG, ST)","source":{"id":"20","value":"Quarterly Public Sector Debt"},"sourceNote":"","sourceOrganization":"","topics":[]},{"id":"DP.DOD.DSIN.CR.FC.Z1","name":"582.Insurance, pensions, and standardized guarantee schemes (PSDFPC, ST)(% of GDP)","source":{"id":"20","value":"Quarterly Public Sector Debt"},"sourceNote":"The source of non-seasonally adjusted Gross Domestic Product (GDP) data in national currency, at current prices, is the International Finance Statistics quarterly database of the IMF, annualized by the World Bank, unless otherwise specified","sourceOrganization":"","topics":[]},{"id":"DP.DOD.DSIN.CR.FC.CD","name":"134.Insurance, pensions, and standardized guarantee schemes (PSDFPC, ST) US$","source":{"id":"20","value":"Quarterly Public Sector Debt"},"sourceNote":"Member Country","sourceOrganization":"World Bank.","topics":[]},{"id":"DP.DOD.DSIN.CR.FC","name":"358.Insurance, pensions, and standardized guarantee schemes (PSDFPC, ST)","source":{"id":"20","value":"Quarterly Public Sector Debt"},"sourceNote":"","sourceOrganization":"","topics":[]},{"id":"DP.DOD.DSIN.CR.CG.Z1","name":"486.Insurance, pensions, and standardized guarantee schemes (PSDCG, ST)(% of GDP)","source":{"id":"20","value":"Quarterly Public Sector Debt"},"sourceNote":"The source of non-seasonally adjusted Gross Domestic Product (GDP) data in national currency, at current prices, is the International Finance Statistics quarterly database of the IMF, annualized by the World Bank, unless otherwise specified","sourceOrganization":"","topics":[]},{"id":"DP.DOD.DSIN.CR.CG.CD","name":"038.Insurance, pensions, and standardized guarantee schemes (PSDCG, ST) US$","source":{"id":"20","value":"Quarterly Public Sector Debt"},"sourceNote":"Member Country","sourceOrganization":"World Bank.","topics":[]},{"id":"DP.DOD.DSIN.CR.CG","name":"262.Insurance, pensions, and standardized guarantee schemes (PSDCG, ST)","source":{"id":"20","value":"Quarterly Public Sector Debt"},"sourceNote":"","sourceOrganization":"","topics":[]},{"id":"DP.DOD.DSIN.CR.BC.Z1","name":"518.Insurance, pensions, and standardized guarantee schemes (PSDCGGB, ST)(% of GDP)","source":{"id":"20","value":"Quarterly Public Sector Debt"},"sourceNote":"The source of non-seasonally adjusted Gross Domestic Product (GDP) data in national currency, at current prices, is the International Finance Statistics quarterly database of the IMF, annualized by the World Bank, unless otherwise specified","sourceOrganization":"","topics":[]},{"id":"DP.DOD.DSIN.CR.BC.CD","name":"070.Insurance, pensions, and standardized guarantee schemes (PSDCGGB, ST) US$","source":{"id":"20","value":"Quarterly Public Sector Debt"},"sourceNote":"Member Country","sourceOrganization":"World Bank.","topics":[]},{"id":"DP.DOD.DSIN.CR.BC","name":"294.Insurance, pensions, and standardized guarantee schemes (PSDCGGB, ST)","source":{"id":"20","value":"Quarterly Public Sector Debt"},"sourceNote":"","sourceOrganization":"","topics":[]},{"id":"DP.DOD.DSDS.CR.PS.CD","name":"164.Debt securities (PSDT, ST) US$","source":{"id":"20","value":"Quarterly Public Sector Debt"},"sourceNote":"Member Country","sourceOrganization":"World Bank.","topics":[]},{"id":"DP.DOD.DSDS.CR.PS","name":"388.Debt securities (PSDT)","source":{"id":"20","value":"Quarterly Public Sector Debt"},"sourceNote":"","sourceOrganization":"","topics":[]},{"id":"DP.DOD.DSDS.CR.NF.Z1","name":"548.Debt securities (PSDNFPC, ST)(% of GDP)","source":{"id":"20","value":"Quarterly Public Sector Debt"},"sourceNote":"The source of non-seasonally adjusted Gross Domestic Product (GDP) data in national currency, at current prices, is the International Finance Statistics quarterly database of the IMF, annualized by the World Bank, unless otherwise specified","sourceOrganization":"","topics":[]},{"id":"DP.DOD.DSDS.CR.NF.CD","name":"100.Debt securities (PSDNFPC, ST) US$","source":{"id":"20","value":"Quarterly Public Sector Debt"},"sourceNote":"Member Country","sourceOrganization":"World Bank.","topics":[]},{"id":"DP.DOD.DSDS.CR.NF","name":"324.Debt securities (PSDNFPC, ST)","source":{"id":"20","value":"Quarterly Public Sector Debt"},"sourceNote":"","sourceOrganization":"","topics":[]},{"id":"DP.DOD.DSDS.CR.GG.Z1","name":"452.Debt securities (PSDGG, ST)(% of GDP)","source":{"id":"20","value":"Quarterly Public Sector Debt"},"sourceNote":"The source of non-seasonally adjusted Gross Domestic Product (GDP) data in national currency, at current prices, is the International Finance Statistics quarterly database of the IMF, annualized by the World Bank, unless otherwise specified","sourceOrganization":"","topics":[]},{"id":"DP.DOD.DSDS.CR.GG.CD","name":"004.Debt securities (PSDGG, ST) US$","source":{"id":"20","value":"Quarterly Public Sector Debt"},"sourceNote":"Member Country","sourceOrganization":"World Bank.","topics":[]},{"id":"DP.DOD.DSDS.CR.GG","name":"228.Debt securities (PSDGG, ST)","source":{"id":"20","value":"Quarterly Public Sector Debt"},"sourceNote":"","sourceOrganization":"","topics":[]},{"id":"DP.DOD.DSDS.CR.FC.Z1","name":"580.Debt securities (PSDFPC, ST)(% of GDP)","source":{"id":"20","value":"Quarterly Public Sector Debt"},"sourceNote":"The source of non-seasonally adjusted Gross Domestic Product (GDP) data in national currency, at current prices, is the International Finance Statistics quarterly database of the IMF, annualized by the World Bank, unless otherwise specified","sourceOrganization":"","topics":[]},{"id":"DP.DOD.DSDS.CR.FC.CD","name":"132.Debt securities (PSDFPC, ST) US$","source":{"id":"20","value":"Quarterly Public Sector Debt"},"sourceNote":"Member Country","sourceOrganization":"World Bank.","topics":[]},{"id":"DP.DOD.DSDS.CR.FC","name":"356.Debt securities (PSDFPC, ST)","source":{"id":"20","value":"Quarterly Public Sector Debt"},"sourceNote":"","sourceOrganization":"","topics":[]},{"id":"DP.DOD.DSDS.CR.CG.Z1","name":"484.Debt securities (PSDCG, ST)(% of GDP)","source":{"id":"20","value":"Quarterly Public Sector Debt"},"sourceNote":"The source of non-seasonally adjusted Gross Domestic Product (GDP) data in national currency, at current prices, is the International Finance Statistics quarterly database of the IMF, annualized by the World Bank, unless otherwise specified","sourceOrganization":"","topics":[]},{"id":"DP.DOD.DSDS.CR.CG.CD","name":"036.Debt securities (PSDCG, ST) US$","source":{"id":"20","value":"Quarterly Public Sector Debt"},"sourceNote":"Member Country","sourceOrganization":"World Bank.","topics":[]},{"id":"DP.DOD.DSDS.CR.CG","name":"260.Debt securities (PSDCG, ST)","source":{"id":"20","value":"Quarterly Public Sector Debt"},"sourceNote":"","sourceOrganization":"","topics":[]},{"id":"DP.DOD.DSDS.CR.BC.Z1","name":"516.Debt securities (PSDCGGB, ST)(% of GDP)","source":{"id":"20","value":"Quarterly Public Sector Debt"},"sourceNote":"The source of non-seasonally adjusted Gross Domestic Product (GDP) data in national currency, at current prices, is the International Finance Statistics quarterly database of the IMF, annualized by the World Bank, unless otherwise specified","sourceOrganization":"","topics":[]},{"id":"DP.DOD.DSDS.CR.BC.CD","name":"068.Debt securities (PSDCGGB, ST) US$","source":{"id":"20","value":"Quarterly Public Sector Debt"},"sourceNote":"Member Country","sourceOrganization":"World Bank.","topics":[]},{"id":"DP.DOD.DSDS.CR.BC","name":"292.Debt securities (PSDCGGB, ST)","source":{"id":"20","value":"Quarterly Public Sector Debt"},"sourceNote":"","sourceOrganization":"","topics":[]},{"id":"DP.DOD.DSCD.CR.PS.CD","name":"163.Currency and deposits (PSDT, ST) US$","source":{"id":"20","value":"Quarterly Public Sector Debt"},"sourceNote":"Member Country","sourceOrganization":"World Bank.","topics":[]},{"id":"DP.DOD.DSCD.CR.PS","name":"387.Currency and deposits (PSDT)","source":{"id":"20","value":"Quarterly Public Sector Debt"},"sourceNote":"","sourceOrganization":"","topics":[]},{"id":"DP.DOD.DSCD.CR.NF.Z1","name":"547.Currency and deposits (PSDNFPC, ST)(% of GDP)","source":{"id":"20","value":"Quarterly Public Sector Debt"},"sourceNote":"The source of non-seasonally adjusted Gross Domestic Product (GDP) data in national currency, at current prices, is the International Finance Statistics quarterly database of the IMF, annualized by the World Bank, unless otherwise specified","sourceOrganization":"","topics":[]},{"id":"DP.DOD.DSCD.CR.NF.CD","name":"099.Currency and deposits (PSDNFPC, ST) US$","source":{"id":"20","value":"Quarterly Public Sector Debt"},"sourceNote":"Member Country","sourceOrganization":"World Bank.","topics":[]},{"id":"DP.DOD.DSCD.CR.NF","name":"323.Currency and deposits (PSDNFPC, ST)","source":{"id":"20","value":"Quarterly Public Sector Debt"},"sourceNote":"","sourceOrganization":"","topics":[]},{"id":"DP.DOD.DSCD.CR.GG.Z1","name":"451.Currency and deposits (PSDGG, ST)(% of GDP)","source":{"id":"20","value":"Quarterly Public Sector Debt"},"sourceNote":"The source of non-seasonally adjusted Gross Domestic Product (GDP) data in national currency, at current prices, is the International Finance Statistics quarterly database of the IMF, annualized by the World Bank, unless otherwise specified","sourceOrganization":"","topics":[]},{"id":"DP.DOD.DSCD.CR.GG.CD","name":"003.Currency and deposits (PSDGG, ST) US$","source":{"id":"20","value":"Quarterly Public Sector Debt"},"sourceNote":"Member Country","sourceOrganization":"World Bank.","topics":[]},{"id":"DP.DOD.DSCD.CR.GG","name":"227.Currency and deposits (PSDGG, ST)","source":{"id":"20","value":"Quarterly Public Sector Debt"},"sourceNote":"","sourceOrganization":"","topics":[]},{"id":"DP.DOD.DSCD.CR.FC.Z1","name":"579.Currency and deposits (PSDFPC, ST)(% of GDP)","source":{"id":"20","value":"Quarterly Public Sector Debt"},"sourceNote":"The source of non-seasonally adjusted Gross Domestic Product (GDP) data in national currency, at current prices, is the International Finance Statistics quarterly database of the IMF, annualized by the World Bank, unless otherwise specified","sourceOrganization":"","topics":[]},{"id":"DP.DOD.DSCD.CR.FC.CD","name":"131.Currency and deposits (PSDFPC, ST) US$","source":{"id":"20","value":"Quarterly Public Sector Debt"},"sourceNote":"Member Country","sourceOrganization":"World Bank.","topics":[]},{"id":"DP.DOD.DSCD.CR.FC","name":"355.Currency and deposits (PSDFPC, ST)","source":{"id":"20","value":"Quarterly Public Sector Debt"},"sourceNote":"","sourceOrganization":"","topics":[]},{"id":"DP.DOD.DSCD.CR.CG.Z1","name":"483.Currency and deposits (PSDCG, ST)(% of GDP)","source":{"id":"20","value":"Quarterly Public Sector Debt"},"sourceNote":"The source of non-seasonally adjusted Gross Domestic Product (GDP) data in national currency, at current prices, is the International Finance Statistics quarterly database of the IMF, annualized by the World Bank, unless otherwise specified","sourceOrganization":"","topics":[]},{"id":"DP.DOD.DSCD.CR.CG.CD","name":"035.Currency and deposits (PSDCG, ST) US$","source":{"id":"20","value":"Quarterly Public Sector Debt"},"sourceNote":"Member Country","sourceOrganization":"World Bank.","topics":[]},{"id":"DP.DOD.DSCD.CR.CG","name":"259.Currency and deposits (PSDCG, ST)","source":{"id":"20","value":"Quarterly Public Sector Debt"},"sourceNote":"","sourceOrganization":"","topics":[]},{"id":"DP.DOD.DSCD.CR.BC.Z1","name":"515.Currency and deposits (PSDCGGB, ST)(% of GDP)","source":{"id":"20","value":"Quarterly Public Sector Debt"},"sourceNote":"The source of non-seasonally adjusted Gross Domestic Product (GDP) data in national currency, at current prices, is the International Finance Statistics quarterly database of the IMF, annualized by the World Bank, unless otherwise specified","sourceOrganization":"","topics":[]},{"id":"DP.DOD.DSCD.CR.BC.CD","name":"067.Currency and deposits (PSDCGGB, ST) US$","source":{"id":"20","value":"Quarterly Public Sector Debt"},"sourceNote":"Member Country","sourceOrganization":"World Bank.","topics":[]},{"id":"DP.DOD.DSCD.CR.BC","name":"291.Currency and deposits (PSDCGGB, ST)","source":{"id":"20","value":"Quarterly Public Sector Debt"},"sourceNote":"","sourceOrganization":"","topics":[{}]}]]