[{"page":168,"pages":324,"per_page":"50","total":16174},[{"id":"per_lm_alllm.cov_q3_rur","name":"Coverage in 3rd quintile (%) - All Labor Market -rural","source":{"id":"29","value":"Global Social Protection"},"sourceNote":"NULL","sourceOrganization":"The Atlas of Social Protection: Indicators of Resilience and Equity (ASPIRE)","topics":[{"id":"10","value":"Social Protection & Labor"}]},{"id":"per_lm_alllm.cov_q3_preT_tot","name":"Coverage in 3rd quintile (%) - All Labor Market (preT)","source":{"id":"29","value":"Global Social Protection"},"sourceNote":"NULL","sourceOrganization":"The Atlas of Social Protection: Indicators of Resilience and Equity (ASPIRE)","topics":[{"id":"10","value":"Social Protection & Labor"}]},{"id":"per_lm_alllm.cov_q2_urb","name":"Coverage in 2nd quintile (%) - All Labor Market -urban","source":{"id":"29","value":"Global Social Protection"},"sourceNote":"NULL","sourceOrganization":"The Atlas of Social Protection: Indicators of Resilience and Equity (ASPIRE)","topics":[{"id":"10","value":"Social Protection & Labor"}]},{"id":"per_lm_alllm.cov_q2_tot","name":"Coverage of unemployment benefits and ALMP in 2nd quintile (% of population)","source":{"id":"2","value":"World Development Indicators"},"sourceNote":"Coverage of unemployment benefits and active labor market programs (ALMP) shows the percentage of population participating in unemployment compensation, severance pay, and early retirement due to labor market reasons, labor market services (intermediation), training (vocational, life skills, and cash for training), job rotation and job sharing, employment incentives and wage subsidies, supported employment and rehabilitation, and employment measures for the disabled. Estimates include both direct and indirect beneficiaries.","sourceOrganization":"The Atlas of Social Protection: Indicators of Resilience and Equity (ASPIRE)","topics":[{"id":"10","value":"Social Protection & Labor"}]},{"id":"per_lm_alllm.cov_q2_rur","name":"Coverage in 2nd quintile (%) - All Labor Market -rural","source":{"id":"29","value":"Global Social Protection"},"sourceNote":"NULL","sourceOrganization":"The Atlas of Social Protection: Indicators of Resilience and Equity (ASPIRE)","topics":[{"id":"10","value":"Social Protection & Labor"}]},{"id":"per_lm_alllm.cov_q2_preT_tot","name":"Coverage in 2nd quintile (%) - All Labor Market (preT)","source":{"id":"29","value":"Global Social Protection"},"sourceNote":"NULL","sourceOrganization":"The Atlas of Social Protection: Indicators of Resilience and Equity (ASPIRE)","topics":[{"id":"10","value":"Social Protection & Labor"}]},{"id":"per_lm_alllm.cov_q1_urb","name":"Coverage in poorest quintile (%) - All Labor Market -urban","source":{"id":"29","value":"Global Social Protection"},"sourceNote":"NULL","sourceOrganization":"The Atlas of Social Protection: Indicators of Resilience and Equity (ASPIRE)","topics":[{"id":"10","value":"Social Protection & Labor"}]},{"id":"per_lm_alllm.cov_q1_tot","name":"Coverage of unemployment benefits and ALMP in poorest quintile (% of population)","source":{"id":"2","value":"World Development Indicators"},"sourceNote":"Coverage of unemployment benefits and active labor market programs (ALMP) shows the percentage of population participating in unemployment compensation, severance pay, and early retirement due to labor market reasons, labor market services (intermediation), training (vocational, life skills, and cash for training), job rotation and job sharing, employment incentives and wage subsidies, supported employment and rehabilitation, and employment measures for the disabled. Estimates include both direct and indirect beneficiaries.","sourceOrganization":"The Atlas of Social Protection: Indicators of Resilience and Equity (ASPIRE)","topics":[{"id":"10","value":"Social Protection & Labor"}]},{"id":"per_lm_alllm.cov_q1_rur","name":"Coverage in poorest quintile (%) - All Labor Market -rural","source":{"id":"29","value":"Global Social Protection"},"sourceNote":"NULL","sourceOrganization":"The Atlas of Social Protection: Indicators of Resilience and Equity (ASPIRE)","topics":[{"id":"10","value":"Social Protection & Labor"}]},{"id":"per_lm_alllm.cov_q1_preT_tot","name":"Coverage in poorest quintile (%) - All Labor Market (preT)","source":{"id":"29","value":"Global Social Protection"},"sourceNote":"NULL","sourceOrganization":"The Atlas of Social Protection: Indicators of Resilience and Equity (ASPIRE)","topics":[{"id":"10","value":"Social Protection & Labor"}]},{"id":"per_lm_alllm.cov_pop_urb","name":"Coverage (%) - All Labor Market -urban","source":{"id":"29","value":"Global Social Protection"},"sourceNote":"NULL","sourceOrganization":"The Atlas of Social Protection: Indicators of Resilience and Equity (ASPIRE)","topics":[{"id":"10","value":"Social Protection & Labor"}]},{"id":"per_lm_alllm.cov_pop_tot","name":"Coverage (%) - All Labor Market ","source":{"id":"2","value":"World Development Indicators"},"sourceNote":"Coverage of unemployment benefits and active labor market programs (ALMP) shows the percentage of population participating in unemployment compensation, severance pay, and early retirement due to labor market reasons, labor market services (intermediation), training (vocational, life skills, and cash for training), job rotation and job sharing, employment incentives and wage subsidies, supported employment and rehabilitation, and employment measures for the disabled. Estimates include both direct and indirect beneficiaries.","sourceOrganization":"The Atlas of Social Protection: Indicators of Resilience and Equity (ASPIRE)","topics":[{"id":"10","value":"Social Protection & Labor"}]},{"id":"per_lm_alllm.cov_pop_rur","name":"Coverage (%) - All Labor Market -rural","source":{"id":"29","value":"Global Social Protection"},"sourceNote":"NULL","sourceOrganization":"The Atlas of Social Protection: Indicators of Resilience and Equity (ASPIRE)","topics":[{"id":"10","value":"Social Protection & Labor"}]},{"id":"per_lm_alllm.cov_pop_preT_tot","name":"Coverage (%) - All Labor Market (preT)","source":{"id":"29","value":"Global Social Protection"},"sourceNote":"NULL","sourceOrganization":"The Atlas of Social Protection: Indicators of Resilience and Equity (ASPIRE)","topics":[{"id":"10","value":"Social Protection & Labor"}]},{"id":"per_lm_alllm.cov_ep_tot","name":"Coverage in extreme poor (<$1.25 a day) (%) - All Labor Market ","source":{"id":"29","value":"Global Social Protection"},"sourceNote":"NULL","sourceOrganization":"The Atlas of Social Protection: Indicators of Resilience and Equity (ASPIRE)","topics":[{"id":"10","value":"Social Protection & Labor"}]},{"id":"per_lm_alllm.cov_ep_preT_tot","name":"Coverage in extreme poor (<$1.25 a day) (%) - All Labor Market  (preT)","source":{"id":"29","value":"Global Social Protection"},"sourceNote":"NULL","sourceOrganization":"The Atlas of Social Protection: Indicators of Resilience and Equity (ASPIRE)","topics":[{"id":"10","value":"Social Protection & Labor"}]},{"id":"per_lm_alllm.cba_q1_urb","name":"Benefit-cost ratio -  All Labor Market  - poorest quintile -urban","source":{"id":"29","value":"Global Social Protection"},"sourceNote":"NULL","sourceOrganization":"The Atlas of Social Protection: Indicators of Resilience and Equity (ASPIRE)","topics":[{"id":"10","value":"Social Protection & Labor"}]},{"id":"per_lm_alllm.cba_q1_tot","name":"Benefit-cost ratio -  All Labor Market  -poorest quintile","source":{"id":"29","value":"Global Social Protection"},"sourceNote":"NULL","sourceOrganization":"The Atlas of Social Protection: Indicators of Resilience and Equity (ASPIRE)","topics":[{"id":"10","value":"Social Protection & Labor"}]},{"id":"per_lm_alllm.cba_q1_rur","name":"Benefit-cost ratio -  All Labor Market  -poorest quintile -rural","source":{"id":"29","value":"Global Social Protection"},"sourceNote":"NULL","sourceOrganization":"The Atlas of Social Protection: Indicators of Resilience and Equity (ASPIRE)","topics":[{"id":"10","value":"Social Protection & Labor"}]},{"id":"per_lm_alllm.cba_q1_preT_tot","name":"Benefit-cost ratio -  All Labor Market  -poorest quintile (preT)","source":{"id":"29","value":"Global Social Protection"},"sourceNote":"NULL","sourceOrganization":"The Atlas of Social Protection: Indicators of Resilience and Equity (ASPIRE)","topics":[{"id":"10","value":"Social Protection & Labor"}]},{"id":"per_lm_alllm.cba_ep_tot","name":"Benefit-cost ratio -  All Labor Market  -extreme poor (<$1.25 a day)","source":{"id":"29","value":"Global Social Protection"},"sourceNote":"NULL","sourceOrganization":"The Atlas of Social Protection: Indicators of Resilience and Equity (ASPIRE)","topics":[{"id":"10","value":"Social Protection & Labor"}]},{"id":"per_lm_alllm.cba_ep_preT_tot","name":"Benefit-cost ratio -  All Labor Market  -extreme poor (<$1.25 a day) (preT)","source":{"id":"29","value":"Global Social Protection"},"sourceNote":"NULL","sourceOrganization":"The Atlas of Social Protection: Indicators of Resilience and Equity (ASPIRE)","topics":[{"id":"10","value":"Social Protection & Labor"}]},{"id":"per_lm_alllm.bry_q5_urb","name":"Beneficiary incidence in richest quintile (%) - All Labor Market -urban","source":{"id":"29","value":"Global Social Protection"},"sourceNote":"NULL","sourceOrganization":"The Atlas of Social Protection: Indicators of Resilience and Equity (ASPIRE)","topics":[{"id":"10","value":"Social Protection & Labor"}]},{"id":"per_lm_alllm.bry_q5_tot","name":"Beneficiary incidence in richest quintile (%) - All Labor Market ","source":{"id":"29","value":"Global Social Protection"},"sourceNote":"NULL","sourceOrganization":"The Atlas of Social Protection: Indicators of Resilience and Equity (ASPIRE)","topics":[{"id":"10","value":"Social Protection & Labor"}]},{"id":"per_lm_alllm.bry_q5_rur","name":"Beneficiary incidence in richest quintile (%) - All Labor Market -rural","source":{"id":"29","value":"Global Social Protection"},"sourceNote":"NULL","sourceOrganization":"The Atlas of Social Protection: Indicators of Resilience and Equity (ASPIRE)","topics":[{"id":"10","value":"Social Protection & Labor"}]},{"id":"per_lm_alllm.bry_q5_preT_tot","name":"Beneficiary incidence in richest quintile (%) - All Labor Market (preT)","source":{"id":"29","value":"Global Social Protection"},"sourceNote":"NULL","sourceOrganization":"The Atlas of Social Protection: Indicators of Resilience and Equity (ASPIRE)","topics":[{"id":"10","value":"Social Protection & Labor"}]},{"id":"per_lm_alllm.bry_q4_urb","name":"Beneficiary incidence in 4th quintile (%) - All Labor Market -urban","source":{"id":"29","value":"Global Social Protection"},"sourceNote":"NULL","sourceOrganization":"The Atlas of Social Protection: Indicators of Resilience and Equity (ASPIRE)","topics":[{"id":"10","value":"Social Protection & Labor"}]},{"id":"per_lm_alllm.bry_q4_tot","name":"Beneficiary incidence in 4th quintile (%) - All Labor Market ","source":{"id":"29","value":"Global Social Protection"},"sourceNote":"NULL","sourceOrganization":"The Atlas of Social Protection: Indicators of Resilience and Equity (ASPIRE)","topics":[{"id":"10","value":"Social Protection & Labor"}]},{"id":"per_lm_alllm.bry_q4_rur","name":"Beneficiary incidence in 4th quintile (%) - All Labor Market -rural","source":{"id":"29","value":"Global Social Protection"},"sourceNote":"NULL","sourceOrganization":"The Atlas of Social Protection: Indicators of Resilience and Equity (ASPIRE)","topics":[{"id":"10","value":"Social Protection & Labor"}]},{"id":"per_lm_alllm.bry_q4_preT_tot","name":"Beneficiary incidence in 4th quintile (%) - All Labor Market (preT)","source":{"id":"29","value":"Global Social Protection"},"sourceNote":"NULL","sourceOrganization":"The Atlas of Social Protection: Indicators of Resilience and Equity (ASPIRE)","topics":[{"id":"10","value":"Social Protection & Labor"}]},{"id":"per_lm_alllm.bry_q3_urb","name":"Beneficiary incidence in 3rd quintile (%) - All Labor Market -urban","source":{"id":"29","value":"Global Social Protection"},"sourceNote":"NULL","sourceOrganization":"The Atlas of Social Protection: Indicators of Resilience and Equity (ASPIRE)","topics":[{"id":"10","value":"Social Protection & Labor"}]},{"id":"per_lm_alllm.bry_q3_tot","name":"Beneficiary incidence in 3rd quintile (%) - All Labor Market ","source":{"id":"29","value":"Global Social Protection"},"sourceNote":"NULL","sourceOrganization":"The Atlas of Social Protection: Indicators of Resilience and Equity (ASPIRE)","topics":[{"id":"10","value":"Social Protection & Labor"}]},{"id":"per_lm_alllm.bry_q3_rur","name":"Beneficiary incidence in 3rd quintile (%) - All Labor Market -rural","source":{"id":"29","value":"Global Social Protection"},"sourceNote":"NULL","sourceOrganization":"The Atlas of Social Protection: Indicators of Resilience and Equity (ASPIRE)","topics":[{"id":"10","value":"Social Protection & Labor"}]},{"id":"per_lm_alllm.bry_q3_preT_tot","name":"Beneficiary incidence in 3rd quintile (%) - All Labor Market (preT)","source":{"id":"29","value":"Global Social Protection"},"sourceNote":"NULL","sourceOrganization":"The Atlas of Social Protection: Indicators of Resilience and Equity (ASPIRE)","topics":[{"id":"10","value":"Social Protection & Labor"}]},{"id":"per_lm_alllm.bry_q2_urb","name":"Beneficiary incidence in 2nd quintile (%) - All Labor Market -urban","source":{"id":"29","value":"Global Social Protection"},"sourceNote":"NULL","sourceOrganization":"The Atlas of Social Protection: Indicators of Resilience and Equity (ASPIRE)","topics":[{"id":"10","value":"Social Protection & Labor"}]},{"id":"per_lm_alllm.bry_q2_tot","name":"Beneficiary incidence in 2nd quintile (%) - All Labor Market ","source":{"id":"29","value":"Global Social Protection"},"sourceNote":"NULL","sourceOrganization":"The Atlas of Social Protection: Indicators of Resilience and Equity (ASPIRE)","topics":[{"id":"10","value":"Social Protection & Labor"}]},{"id":"per_lm_alllm.bry_q2_rur","name":"Beneficiary incidence in 2nd quintile (%) - All Labor Market -rural","source":{"id":"29","value":"Global Social Protection"},"sourceNote":"NULL","sourceOrganization":"The Atlas of Social Protection: Indicators of Resilience and Equity (ASPIRE)","topics":[{"id":"10","value":"Social Protection & Labor"}]},{"id":"per_lm_alllm.bry_q2_preT_tot","name":"Beneficiary incidence in 2nd quintile (%) - All Labor Market (preT)","source":{"id":"29","value":"Global Social Protection"},"sourceNote":"NULL","sourceOrganization":"The Atlas of Social Protection: Indicators of Resilience and Equity (ASPIRE)","topics":[{"id":"10","value":"Social Protection & Labor"}]},{"id":"per_lm_alllm.bry_q1_urb","name":"Beneficiary incidence in poorest quintile (%) - All Labor Market -urban","source":{"id":"29","value":"Global Social Protection"},"sourceNote":"NULL","sourceOrganization":"The Atlas of Social Protection: Indicators of Resilience and Equity (ASPIRE)","topics":[{"id":"10","value":"Social Protection & Labor"}]},{"id":"per_lm_alllm.bry_q1_tot","name":"Beneficiary incidence in poorest quintile (%) - All Labor Market ","source":{"id":"29","value":"Global Social Protection"},"sourceNote":"NULL","sourceOrganization":"The Atlas of Social Protection: Indicators of Resilience and Equity (ASPIRE)","topics":[{"id":"10","value":"Social Protection & Labor"}]},{"id":"per_lm_alllm.bry_q1_rur","name":"Beneficiary incidence in poorest quintile (%) - All Labor Market -rural","source":{"id":"29","value":"Global Social Protection"},"sourceNote":"NULL","sourceOrganization":"The Atlas of Social Protection: Indicators of Resilience and Equity (ASPIRE)","topics":[{"id":"10","value":"Social Protection & Labor"}]},{"id":"per_lm_alllm.bry_q1_preT_tot","name":"Beneficiary incidence in poorest quintile (%) - All Labor Market (preT)","source":{"id":"29","value":"Global Social Protection"},"sourceNote":"NULL","sourceOrganization":"The Atlas of Social Protection: Indicators of Resilience and Equity (ASPIRE)","topics":[{"id":"10","value":"Social Protection & Labor"}]},{"id":"per_lm_alllm.bry_ep_tot","name":"Beneficiary incidence in extreme poor (<$1.25 a day) (%) - All Labor Market ","source":{"id":"29","value":"Global Social Protection"},"sourceNote":"NULL","sourceOrganization":"The Atlas of Social Protection: Indicators of Resilience and Equity (ASPIRE)","topics":[{"id":"10","value":"Social Protection & Labor"}]},{"id":"per_lm_alllm.bry_ep_preT_tot","name":"Beneficiary incidence in extreme poor (<$1.25 a day) (%) - All Labor Market  (preT)","source":{"id":"29","value":"Global Social Protection"},"sourceNote":"NULL","sourceOrganization":"The Atlas of Social Protection: Indicators of Resilience and Equity (ASPIRE)","topics":[{"id":"10","value":"Social Protection & Labor"}]},{"id":"per_lm_alllm.ben_q5_urb","name":"Benefits incidence in richest quintile (%) - All Labor Market -urban","source":{"id":"29","value":"Global Social Protection"},"sourceNote":"NULL","sourceOrganization":"The Atlas of Social Protection: Indicators of Resilience and Equity (ASPIRE)","topics":[{"id":"10","value":"Social Protection & Labor"}]},{"id":"per_lm_alllm.ben_q5_tot","name":"Benefits incidence in richest quintile (%) - All Labor Market ","source":{"id":"29","value":"Global Social Protection"},"sourceNote":"NULL","sourceOrganization":"The Atlas of Social Protection: Indicators of Resilience and Equity (ASPIRE)","topics":[{"id":"10","value":"Social Protection & Labor"}]},{"id":"per_lm_alllm.ben_q5_rur","name":"Benefits incidence in richest quintile (%) - All Labor Market -rural","source":{"id":"29","value":"Global Social Protection"},"sourceNote":"NULL","sourceOrganization":"The Atlas of Social Protection: Indicators of Resilience and Equity (ASPIRE)","topics":[{"id":"10","value":"Social Protection & Labor"}]},{"id":"per_lm_alllm.ben_q5_preT_tot","name":"Benefits incidence in richest quintile (%) - All Labor Market (preT)","source":{"id":"29","value":"Global Social Protection"},"sourceNote":"NULL","sourceOrganization":"The Atlas of Social Protection: Indicators of Resilience and Equity (ASPIRE)","topics":[{"id":"10","value":"Social Protection & Labor"}]},{"id":"per_lm_alllm.ben_q4_urb","name":"Benefits incidence in 4th quintile (%) - All Labor Market -urban","source":{"id":"29","value":"Global Social Protection"},"sourceNote":"NULL","sourceOrganization":"The Atlas of Social Protection: Indicators of Resilience and Equity (ASPIRE)","topics":[{"id":"10","value":"Social Protection & Labor"}]},{"id":"per_lm_alllm.ben_q4_tot","name":"Benefits incidence in 4th quintile (%) - All Labor Market ","source":{"id":"29","value":"Global Social Protection"},"sourceNote":"NULL","sourceOrganization":"The Atlas of Social Protection: Indicators of Resilience and Equity (ASPIRE)","topics":[{"id":"10","value":"Social Protection & Labor"}]}]]