[{"page":118,"pages":324,"per_page":"50","total":16174},[{"id":"IC.FRM.CRM.CRIME2","name":"Security costs (% of annual sales)","source":{"id":"13","value":"Enterprise Surveys"},"sourceNote":"Security costs, for example equipment, personnel, or professional security services, as a percentage of total annual sales.   Source:World Bank, Enterprise Surveys Project(http:\/\/www.enterprisesurveys.org\/Data\/ExploreTopics\/crime).","sourceOrganization":"World Bank, Enterprise Surveys Project(http:\/\/www.enterprisesurveys.org\/Data\/ExploreTopics\/crime).","topics":[]},{"id":"IC.FRM.CRM.CRIME1","name":"Percent of firms paying for security","source":{"id":"13","value":"Enterprise Surveys"},"sourceNote":"Percent of firms paying for security, for example equipment, personnel, or professional security services.   Source:World Bank, Enterprise Surveys Project(http:\/\/www.enterprisesurveys.org\/Data\/ExploreTopics\/crime).","sourceOrganization":"World Bank, Enterprise Surveys Project(http:\/\/www.enterprisesurveys.org\/Data\/ExploreTopics\/crime).","topics":[]},{"id":"IC.FRM.CRIM.ZS","name":"Losses due to theft, robbery, vandalism, and arson (% sales)","source":{"id":"2","value":"World Development Indicators"},"sourceNote":"Losses due to theft, robbery, vandalism, and arson are the estimated losses from those causes that occurred on establishments' premises as a percentage of annual sales.","sourceOrganization":"World Bank, Enterprise Surveys (http:\/\/www.enterprisesurveys.org\/).","topics":[{"id":"12","value":"Private Sector"}]},{"id":"IC.FRM.CRD.ZS","name":"Firms with Line of Credit or Loans from Financial Institutions (% of firms)","source":{"id":"11","value":"Africa Development Indicators"},"sourceNote":"Percentage of firms with bank loans or line of credit.","sourceOrganization":"World Bank, Enterprise Surveys (http:\/\/www.enterprisesurveys.org\/).","topics":[]},{"id":"IC.FRM.COST.PC.ZS","name":"Dealing with construction permits, cost (% of income per capita)","source":{"id":"11","value":"Africa Development Indicators"},"sourceNote":"Cost is recorded as a percentage of the economy’s income per capita. Only official costs are recorded. All the fees associated with completing the procedures to legally build a warehouse are recorded, including those associated with obtaining land use approvals and preconstruction design clearances; receiving inspections before, during and after construction; getting utility connections; and registering the warehouse property. Nonrecurring taxes required for the completion of the warehouse project also are recorded. The building code, information from local experts and specific regulations and fee schedules are used as sources for costs. If several local partners provide different estimates, the median reported value is used.","sourceOrganization":"World Bank, Doing Business project (http:\/\/www.doingbusiness.org\/).","topics":[]},{"id":"IC.FRM.CORR.ZS","name":"Informal payments to public officials (% of firms)","source":{"id":"2","value":"World Development Indicators"},"sourceNote":"Informal payments to public officials are the percentage of firms expected to make informal payments to public officials to \"get things done\" with regard to customs, taxes, licenses, regulations, services, and the like.","sourceOrganization":"World Bank, Enterprise Surveys (http:\/\/www.enterprisesurveys.org\/).","topics":[{"id":"12","value":"Private Sector"}]},{"id":"IC.FRM.CORR.GRAFT2","name":"Bribery index (% of gift or informal payment requests during public transactions)","source":{"id":"13","value":"Enterprise Surveys"},"sourceNote":"Bribery index is the percentage of gift or informal payment requests during 6 infrastructure, permits and licences, and tax transactions.   Source:World Bank, Enterprise Surveys Project(http:\/\/www.enterprisesurveys.org\/Data\/ExploreTopics\/corruption).","sourceOrganization":"World Bank, Enterprise Surveys Project(http:\/\/www.enterprisesurveys.org\/Data\/ExploreTopics\/corruption).","topics":[]},{"id":"IC.FRM.CORR.CRIME9","name":"Percent of firms identifying the courts system as a major constraint                         ","source":{"id":"13","value":"Enterprise Surveys"},"sourceNote":"Percent of firms identifying the courts system as a major constraint. The computation of the indicator is based on the rating of the obstacle as a potential constraint to the current operations of the establishment.   Source:World Bank, Enterprise Surveys Project(http:\/\/www.enterprisesurveys.org\/Data\/ExploreTopics\/corruption).","sourceOrganization":"World Bank, Enterprise Surveys Project(http:\/\/www.enterprisesurveys.org\/Data\/ExploreTopics\/corruption).","topics":[]},{"id":"IC.FRM.CORR.CORR9","name":"Percent of firms expected to give gifts to get an import license ","source":{"id":"13","value":"Enterprise Surveys"},"sourceNote":"Percent of firms expected to give gifts or an informal payment to get an import license.   Source:World Bank, Enterprise Surveys Project(http:\/\/www.enterprisesurveys.org\/Data\/ExploreTopics\/corruption).","sourceOrganization":"World Bank, Enterprise Surveys Project(http:\/\/www.enterprisesurveys.org\/Data\/ExploreTopics\/corruption).","topics":[]},{"id":"IC.FRM.CORR.CORR8","name":"Percent of firms expected to give gifts to get a construction permit","source":{"id":"13","value":"Enterprise Surveys"},"sourceNote":"Percent of firms expected to give gifts or an informal payment to get a construction permit.   Source:World Bank, Enterprise Surveys Project(http:\/\/www.enterprisesurveys.org\/Data\/ExploreTopics\/corruption).","sourceOrganization":"World Bank, Enterprise Surveys Project(http:\/\/www.enterprisesurveys.org\/Data\/ExploreTopics\/corruption).","topics":[]},{"id":"IC.FRM.CORR.CORR7","name":"Percent of firms expected to give gifts to get a water connection","source":{"id":"13","value":"Enterprise Surveys"},"sourceNote":"Percent of firms expected to give gifts or an informal payment to get a water connection.   Source:World Bank, Enterprise Surveys Project(http:\/\/www.enterprisesurveys.org\/Data\/ExploreTopics\/corruption).","sourceOrganization":"World Bank, Enterprise Surveys Project(http:\/\/www.enterprisesurveys.org\/Data\/ExploreTopics\/corruption).","topics":[]},{"id":"IC.FRM.CORR.CORR6","name":"Percent of firms expected to give gifts to get an electrical connection","source":{"id":"13","value":"Enterprise Surveys"},"sourceNote":"Percent of firms expected to give gifts or an informal payment to get an electrical connection.   Source:World Bank, Enterprise Surveys Project(http:\/\/www.enterprisesurveys.org\/Data\/ExploreTopics\/corruption).","sourceOrganization":"World Bank, Enterprise Surveys Project(http:\/\/www.enterprisesurveys.org\/Data\/ExploreTopics\/corruption).","topics":[]},{"id":"IC.FRM.CORR.CORR4","name":"Percent of firms expected to give gifts to public officials \"to get things done\" ","source":{"id":"13","value":"Enterprise Surveys"},"sourceNote":"Percent of establishments that consider that firms with characteristics similar to theirs are making informal payments or giving gifts to public officials to \"get things done” with regard to customs, taxes, licenses, regulations, services, etc.   Source:World Bank, Enterprise Surveys Project(http:\/\/www.enterprisesurveys.org\/Data\/ExploreTopics\/corruption).","sourceOrganization":"World Bank, Enterprise Surveys Project(http:\/\/www.enterprisesurveys.org\/Data\/ExploreTopics\/corruption).","topics":[]},{"id":"IC.FRM.CORR.CORR3","name":"Value of gift expected to secure a government contract (% of contract value)","source":{"id":"13","value":"Enterprise Surveys"},"sourceNote":"Percentage of the contract value expected as a gift to secure a government contract. Only firms that have confirmed that they have secured or attempted to secure a government contract in the last 12 months were required to answer this question.   Source:World Bank, Enterprise Surveys Project(http:\/\/www.enterprisesurveys.org\/Data\/ExploreTopics\/corruption).","sourceOrganization":"World Bank, Enterprise Surveys Project(http:\/\/www.enterprisesurveys.org\/Data\/ExploreTopics\/corruption).","topics":[]},{"id":"IC.FRM.CORR.CORR2","name":"Percent of firms expected to give gifts to secure government contract","source":{"id":"13","value":"Enterprise Surveys"},"sourceNote":"Percent of establishments that consider that firms with characteristics similar to theirs are making informal payments or giving gifts to public officials to secure government contract.   Source:World Bank, Enterprise Surveys Project(http:\/\/www.enterprisesurveys.org\/Data\/ExploreTopics\/corruption).","sourceOrganization":"World Bank, Enterprise Surveys Project(http:\/\/www.enterprisesurveys.org\/Data\/ExploreTopics\/corruption).","topics":[]},{"id":"IC.FRM.CORR.CORR11","name":"Percent of firms identifying corruption as a major constraint","source":{"id":"13","value":"Enterprise Surveys"},"sourceNote":"Percent of firms identifying corruption as a major constraint. The computation of the indicator is based on the rating of the obstacle as a potential constraint to the current operations of the establishment.   Source:World Bank, Enterprise Surveys Project(http:\/\/www.enterprisesurveys.org\/Data\/ExploreTopics\/corruption).","sourceOrganization":"World Bank, Enterprise Surveys Project(http:\/\/www.enterprisesurveys.org\/Data\/ExploreTopics\/corruption).","topics":[]},{"id":"IC.FRM.CORR.CORR10","name":"Percent of firms expected to give gifts to get an operating license","source":{"id":"13","value":"Enterprise Surveys"},"sourceNote":"Percent of firms expected to give gifts or an informal payment to get an operating license.   Source:World Bank, Enterprise Surveys Project(http:\/\/www.enterprisesurveys.org\/Data\/ExploreTopics\/corruption).","sourceOrganization":"World Bank, Enterprise Surveys Project(http:\/\/www.enterprisesurveys.org\/Data\/ExploreTopics\/corruption).","topics":[]},{"id":"IC.FRM.CORR.CORR1","name":"Percent of firms expected to give gifts in meetings with tax officials","source":{"id":"13","value":"Enterprise Surveys"},"sourceNote":"Percent of firms expected to give gifts or an informal payment in meetings with tax officials.   Source:World Bank, Enterprise Surveys Project(http:\/\/www.enterprisesurveys.org\/Data\/ExploreTopics\/corruption).","sourceOrganization":"World Bank, Enterprise Surveys Project(http:\/\/www.enterprisesurveys.org\/Data\/ExploreTopics\/corruption).","topics":[]},{"id":"IC.FRM.COR.ZS","name":"Firms identifying corruption as a major constraint (% of firms)","source":{"id":"11","value":"Africa Development Indicators"},"sourceNote":"Percentage of firms identifying corruption as a \"major\" or \"very severe\" obstacle.","sourceOrganization":"World Bank, Enterprise Surveys (http:\/\/www.enterprisesurveys.org\/).","topics":[]},{"id":"IC.FRM.COMP.ZS","name":"Firms identifying practices of competitors in the Informal Sector as a major constraint (% of firms)","source":{"id":"11","value":"Africa Development Indicators"},"sourceNote":"Percentage of firms identifying practices of competitors in the informal sector as a \"major\" or \"very severe\" obstacle.","sourceOrganization":"World Bank, Enterprise Surveys (http:\/\/www.enterprisesurveys.org\/).","topics":[]},{"id":"IC.FRM.CMPU.ZS","name":"Firms competing against unregistered firms (% of firms)","source":{"id":"2","value":"World Development Indicators"},"sourceNote":"Firms competing against unregistered firms are the percentage of firms competing against unregistered or informal firms.","sourceOrganization":"World Bank, Enterprise Surveys (http:\/\/www.enterprisesurveys.org\/).","topics":[{"id":"12","value":"Private Sector"}]},{"id":"IC.FRM.BRIB.ZS","name":"Bribery incidence (% of firms experiencing at least one bribe payment request)","source":{"id":"2","value":"World Development Indicators"},"sourceNote":"Bribery incidence is the percentage of firms experiencing at least one bribe payment request across 6 public transactions dealing with utilities access, permits, licenses, and taxes.","sourceOrganization":"World Bank, Enterprise Surveys (http:\/\/www.enterprisesurveys.org\/).","topics":[{"id":"12","value":"Private Sector"}]},{"id":"IC.FRM.BNKS.ZS","name":"Firms using banks to finance investment (% of firms)","source":{"id":"2","value":"World Development Indicators"},"sourceNote":"Firms using banks to finance investment are the percentage of firms using banks to finance investments.","sourceOrganization":"World Bank, Enterprise Surveys (http:\/\/www.enterprisesurveys.org\/).","topics":[{"id":"5","value":"Energy & Mining "},{"id":"12","value":"Private Sector"}]},{"id":"IC.FRM.BKWC.ZS","name":"Firms using banks to finance working capital (% of firms) ","source":{"id":"2","value":"World Development Indicators"},"sourceNote":"Firms using banks to finance working capital are the percentage of firms using bank loans to finance working capital.","sourceOrganization":"World Bank, Enterprise Surveys (http:\/\/www.enterprisesurveys.org\/).","topics":[{"id":"12","value":"Private Sector"}]},{"id":"IC.FRM.AUDIT.ZS","name":"Firms with annual Financial Statement reviewed by External Auditor (% of firms)","source":{"id":"11","value":"Africa Development Indicators"},"sourceNote":"Percentage of firms with their annual financial statement reviewed by an external auditor.","sourceOrganization":"World Bank, Enterprise Surveys (http:\/\/www.enterprisesurveys.org\/).","topics":[]},{"id":"IC.FRM.AGE.YR","name":"Age of firm (years)","source":{"id":"11","value":"Africa Development Indicators"},"sourceNote":"Age of the firm based on the year in which the firm began operations.","sourceOrganization":"World Bank, Enterprise Surveys (http:\/\/www.enterprisesurveys.org\/).","topics":[]},{"id":"IC.FRM.ACC.ZS","name":"Firms with a Checking or Savings Account (% of firms)","source":{"id":"11","value":"Africa Development Indicators"},"sourceNote":"Percentage of firms with a checking and\/or savings account.","sourceOrganization":"World Bank, Enterprise Surveys (http:\/\/www.enterprisesurveys.org\/).","topics":[]},{"id":"IC.EXP.TMDC","name":"Time to export, documentary compliance (hours)","source":{"id":"2","value":"World Development Indicators"},"sourceNote":"Documentary compliance captures the time and cost associated with compliance with the documentary requirements of all government agencies of the origin economy, the destination economy and any transit economies. The aim is to measure the total burden of preparing the bundle of documents that will enable completion of the international trade for the product and partner pair assumed in the case study.","sourceOrganization":"World Bank, Doing Business project (http:\/\/www.doingbusiness.org\/).","topics":[{"id":"12","value":"Private Sector"},{"id":"21","value":"Trade"}]},{"id":"IC.EXP.TMBC","name":"Time to export, border compliance (hours)","source":{"id":"2","value":"World Development Indicators"},"sourceNote":"Border compliance captures the time and cost associated with compliance with the economy’s customs regulations and with regulations relating to other inspections that are mandatory in order for the shipment to cross the economy’s border, as well as the time and cost for handling that takes place at its port or border. The time and cost for this segment include time and cost for customs clearance and inspection procedures conducted by other government agencies.","sourceOrganization":"World Bank, Doing Business project (http:\/\/www.doingbusiness.org\/).","topics":[{"id":"12","value":"Private Sector"},{"id":"21","value":"Trade"}]},{"id":"IC.EXP.TIME.IMP","name":"Trade: Time to import (days)","source":{"id":"1","value":"Doing Business"},"sourceNote":"This indicator calculates the average number of days it takes to comply with all procedures required to import goods—from the vessel’s arrival at a port of entry to the cargo’s delivery to a warehouse.  Local freight forwarders, shipping lines, customs brokers, port officials, and banks provide information on the time to complete each procedure.\u000aSource: World Bank, Doing Business Project (http:\/\/www.doingbusiness.org\/ExploreTopics\/TradingAcrossBorders\/).","sourceOrganization":"World Bank, Doing Business Project (http:\/\/www.doingbusiness.org\/ExploreTopics\/TradingAcrossBorders\/).","topics":[]},{"id":"IC.EXP.TIME.EXP","name":"Trade: Time to export (day)","source":{"id":"1","value":"Doing Business"},"sourceNote":"This indicator calculates the average number of days it takes to comply with all procedures required to export goods. Local freight forwarders, shipping lines, customs brokers, port officials, and banks provide information on the time to complete each procedure.\u000aSource: World Bank, Doing Business Project (http:\/\/www.doingbusiness.org\/ExploreTopics\/TradingAcrossBorders\/).","sourceOrganization":"World Bank, Doing Business Project (http:\/\/www.doingbusiness.org\/ExploreTopics\/TradingAcrossBorders\/).","topics":[]},{"id":"IC.EXP.DURS","name":"Time to export (days)","source":{"id":"2","value":"World Development Indicators"},"sourceNote":"Time to export is the time necessary to comply with all procedures required to export goods. Time is recorded in calendar days. The time calculation for a procedure starts from the moment it is initiated and runs until it is completed. If a procedure can be accelerated for an additional cost, the fastest legal procedure is chosen. It is assumed that neither the exporter nor the importer wastes time and that each commits to completing each remaining procedure without delay. Procedures that can be completed in parallel are measured as simultaneous. The waiting time between procedures--for example, during unloading of the cargo--is included in the measure.","sourceOrganization":"World Bank, Doing Business project (http:\/\/www.doingbusiness.org\/).","topics":[{"id":"12","value":"Private Sector"},{"id":"21","value":"Trade"}]},{"id":"IC.EXP.DOCS.IMP","name":"Trade: Documents to import (number)","source":{"id":"1","value":"Doing Business"},"sourceNote":"All documents required to import a standardized shipment of goods by ocean transport—from the vessel’s arrival at a port of entry to the cargo’s delivery to a warehouse—are recorded by this indicator. Local freight forwarders, shipping lines, customs brokers, port officials, and banks provide information on required documents.\u000aSource: World Bank, Doing Business Project (http:\/\/www.doingbusiness.org\/ExploreTopics\/TradingAcrossBorders\/).","sourceOrganization":"World Bank, Doing Business Project (http:\/\/www.doingbusiness.org\/ExploreTopics\/TradingAcrossBorders\/).","topics":[]},{"id":"IC.EXP.DOCS","name":"Documents to export (number)","source":{"id":"2","value":"World Development Indicators"},"sourceNote":"All documents required per shipment to export goods are recorded. It is assumed that the contract has already been agreed upon and signed by both parties. Documents required for clearance by government ministries, customs authorities, port and container terminal authorities, health and technical control agencies and banks are taken into account. Since payment is by letter of credit, all documents required by banks for the issuance or securing of a letter of credit are also taken into account. Documents that are renewed annually and that do not require renewal per shipment (for example, an annual tax clearance certificate) are not included.","sourceOrganization":"World Bank, Doing Business project (http:\/\/www.doingbusiness.org\/).","topics":[{"id":"12","value":"Private Sector"},{"id":"21","value":"Trade"}]},{"id":"IC.EXP.CSDC.CD","name":"Cost to export, documentary compliance (US$)","source":{"id":"2","value":"World Development Indicators"},"sourceNote":"Documentary compliance captures the time and cost associated with compliance with the documentary requirements of all government agencies of the origin economy, the destination economy and any transit economies. The aim is to measure the total burden of preparing the bundle of documents that will enable completion of the international trade for the product and partner pair assumed in the case study.","sourceOrganization":"World Bank, Doing Business project (http:\/\/www.doingbusiness.org\/).","topics":[{"id":"12","value":"Private Sector"},{"id":"21","value":"Trade"}]},{"id":"IC.EXP.CSBC.CD","name":"Cost to export, border compliance (US$)","source":{"id":"2","value":"World Development Indicators"},"sourceNote":"Border compliance captures the time and cost associated with compliance with the economy’s customs regulations and with regulations relating to other inspections that are mandatory in order for the shipment to cross the economy’s border, as well as the time and cost for handling that takes place at its port or border. The time and cost for this segment include time and cost for customs clearance and inspection procedures conducted by other government agencies.","sourceOrganization":"World Bank, Doing Business project (http:\/\/www.doingbusiness.org\/).","topics":[{"id":"12","value":"Private Sector"},{"id":"21","value":"Trade"}]},{"id":"IC.EXP.COST.IMP","name":"Trade: Cost to import (US$ per container)","source":{"id":"1","value":"Doing Business"},"sourceNote":"This indicator calculates the cost of importing a standardized shipment of goods by ocean transport—from the vessel’s arrival at a port of entry to the cargo’s delivery to a warehouse—expressed in U.S. dollars per container. Local freight forwarders, shipping lines, customs brokers, port officials, and banks provide information on the cost of each import procedure.\u000aSource: World Bank, Doing Business Project (http:\/\/www.doingbusiness.org\/ExploreTopics\/TradingAcrossBorders\/).","sourceOrganization":"World Bank, Doing Business Project (http:\/\/www.doingbusiness.org\/ExploreTopics\/TradingAcrossBorders\/).","topics":[]},{"id":"IC.EXP.COST.EXP","name":"Trade: Cost to export (US$ per container)","source":{"id":"1","value":"Doing Business"},"sourceNote":"This indicator calculates the cost of exporting a standardized shipment of goods by ocean transport, expressed in U.S. dollars per container. Local freight forwarders, shipping lines, customs brokers, port officials, and banks provide information on the cost of each export procedure.\u000aSource: World Bank, Doing Business Project (http:\/\/www.doingbusiness.org\/ExploreTopics\/TradingAcrossBorders\/).","sourceOrganization":"World Bank, Doing Business Project (http:\/\/www.doingbusiness.org\/ExploreTopics\/TradingAcrossBorders\/).","topics":[]},{"id":"IC.EXP.COST.CD","name":"Cost to export (US$ per container)","source":{"id":"2","value":"World Development Indicators"},"sourceNote":"Cost measures the fees levied on a 20-foot container in U.S. dollars. All the fees associated with completing the procedures to export or import the goods are included. These include costs for documents, administrative fees for customs clearance and technical control, customs broker fees, terminal handling charges and inland transport. The cost measure does not include tariffs or trade taxes. Only official costs are recorded. Several assumptions are made for the business surveyed: Has 60 or more employees; Is located in the country's most populous city; Is a private, limited liability company. It does not operate within an export processing zone or an industrial estate with special export or import privileges; Is domestically owned with no foreign ownership; Exports more than 10% of its sales. Assumptions about the traded goods: The traded product travels in a dry-cargo, 20-foot, full container load. The product: Is not hazardous nor does it include military items; Does not require refrigeration or any other special environment; Does not require any special phytosanitary or environmental safety standards other than accepted international standards.","sourceOrganization":"World Bank, Doing Business project (http:\/\/www.doingbusiness.org\/).","topics":[{"id":"12","value":"Private Sector"},{"id":"21","value":"Trade"}]},{"id":"IC.EMPL.FTRNG.ZS","name":"Employees offered formal training (%)","source":{"id":"11","value":"Africa Development Indicators"},"sourceNote":"Percentage of workers offered formal training. For survey data collected in 2006 and 2007, this indicator is computed for the Manufacturing module only.","sourceOrganization":"World Bank, Enterprise Surveys (http:\/\/www.enterprisesurveys.org\/).","topics":[]},{"id":"IC.ELEC.XQ","name":"Getting electricity (rank)","source":{"id":"11","value":"Africa Development Indicators"},"sourceNote":"This index averages the country's percentile rankings on the challenges required for a business to obtain a permanent electricity connection for a newly constructed warehouse. Included are the number of steps, time, and cost.","sourceOrganization":"World Bank, Doing Business project (http:\/\/www.doingbusiness.org\/).","topics":[{"id":"12","value":"Private Sector"}]},{"id":"IC.ELEC.TIME","name":"Time required to get electricity (days)","source":{"id":"11","value":"Africa Development Indicators"},"sourceNote":"The number of days to obtain a permanent electricity connection. The measure captures the median duration that the electricity utility and experts indicate is necessary in practice, rather than required by law, to complete a procedure.","sourceOrganization":"World Bank, Doing Business project (http:\/\/www.doingbusiness.org\/).","topics":[{"id":"12","value":"Private Sector"}]},{"id":"IC.ELEC.PROC","name":"Procedures required to get electricity (number)","source":{"id":"11","value":"Africa Development Indicators"},"sourceNote":"The number of procedures to obtain a permanent electricity connection. A procedure is defined as any interaction of the company employees or the company’s main electrician with external parties.","sourceOrganization":"World Bank, Doing Business project (http:\/\/www.doingbusiness.org\/).","topics":[{"id":"12","value":"Private Sector"}]},{"id":"IC.ELEC.COST.PC.ZS","name":"Cost to get electricity connection (% of income per capita)","source":{"id":"11","value":"Africa Development Indicators"},"sourceNote":"The cost is recorded as a percentage of the economy’s income per capita. Costs are recorded exclusive of value added tax.","sourceOrganization":"World Bank, Doing Business project (http:\/\/www.doingbusiness.org\/).","topics":[{"id":"12","value":"Private Sector"}]},{"id":"IC.ELC.TIME","name":"Time required to get electricity (days)","source":{"id":"2","value":"World Development Indicators"},"sourceNote":"Time required to get electricity is the number of days to obtain a permanent electricity connection. The measure captures the median duration that the electricity utility and experts indicate is necessary in practice, rather than required by law, to complete a procedure.","sourceOrganization":"World Bank, Doing Business project (http:\/\/www.doingbusiness.org\/).","topics":[{"id":"5","value":"Energy & Mining "},{"id":"12","value":"Private Sector"}]},{"id":"IC.ELC.OUTG.HR","name":"Average duration of power outages (hours)","source":{"id":"11","value":"Africa Development Indicators"},"sourceNote":"Average number of hours of power outages.  ","sourceOrganization":"World Bank, Enterprise Surveys (http:\/\/www.enterprisesurveys.org\/).","topics":[]},{"id":"IC.ELC.OUTG","name":"Power outages in firms in a typical month (number)","source":{"id":"2","value":"World Development Indicators"},"sourceNote":"Power outages are the average number of power outages that establishments experience in a typical month.","sourceOrganization":"World Bank, Enterprise Surveys (http:\/\/www.enterprisesurveys.org\/).","topics":[{"id":"12","value":"Private Sector"}]},{"id":"IC.ELC.GIFT.ZS","name":"Expected to give gifts to get an electrical connection (% of firms)","source":{"id":"11","value":"Africa Development Indicators"},"sourceNote":"Percentage of firms expected to give gifts or an informal payment to get an electrical connection.  ","sourceOrganization":"World Bank, Enterprise Surveys (http:\/\/www.enterprisesurveys.org\/).","topics":[]},{"id":"IC.ELC.GEN.ZS","name":"Electricity from Generator (%)","source":{"id":"11","value":"Africa Development Indicators"},"sourceNote":"Percentage of electricity supplied from a generator or generators that the establishment owned or shared.   For survey data collected in 2006 and 2007, this indicator is computed for the Manufacturing module only.  ","sourceOrganization":"World Bank, Enterprise Surveys (http:\/\/www.enterprisesurveys.org\/).","topics":[]},{"id":"IC.ELC.DURS","name":"Delay in obtaining an electrical connection (days)","source":{"id":"2","value":"World Development Indicators"},"sourceNote":"Delay in obtaining an electrical connection is the average wait, in days, experienced to obtain an electrical connection from the day an establishment applies for it to the day it receives the service.","sourceOrganization":"World Bank, Enterprise Surveys (http:\/\/www.enterprisesurveys.org\/).","topics":[{"id":"5","value":"Energy & Mining "},{"id":"12","value":"Private Sector"}]}]]