[{"page":201,"pages":324,"per_page":"50","total":16174},[{"id":"per_sa_fw.cba_q1_urb","name":"Benefit-cost ratio -  Subsidies - poorest quintile -urban","source":{"id":"29","value":"Global Social Protection"},"sourceNote":"","sourceOrganization":"The Atlas of Social Protection: Indicators of Resilience and Equity (ASPIRE)","topics":[]},{"id":"per_sa_fw.cba_q1_tot","name":"Benefit-cost ratio -  Subsidies -poorest quintile","source":{"id":"29","value":"Global Social Protection"},"sourceNote":"","sourceOrganization":"The Atlas of Social Protection: Indicators of Resilience and Equity (ASPIRE)","topics":[]},{"id":"per_sa_fw.cba_q1_rur","name":"Benefit-cost ratio -  Subsidies -poorest quintile -rural","source":{"id":"29","value":"Global Social Protection"},"sourceNote":"","sourceOrganization":"The Atlas of Social Protection: Indicators of Resilience and Equity (ASPIRE)","topics":[]},{"id":"per_sa_fw.cba_q1_preT_tot","name":"Benefit-cost ratio -  Subsidies -poorest quintile (preT)","source":{"id":"29","value":"Global Social Protection"},"sourceNote":"","sourceOrganization":"The Atlas of Social Protection: Indicators of Resilience and Equity (ASPIRE)","topics":[]},{"id":"per_sa_fw.cba_ep_tot","name":"Benefit-cost ratio -  Subsidies -extreme poor (<$1.25 a day)","source":{"id":"29","value":"Global Social Protection"},"sourceNote":"","sourceOrganization":"The Atlas of Social Protection: Indicators of Resilience and Equity (ASPIRE)","topics":[]},{"id":"per_sa_fw.cba_ep_preT_tot","name":"Benefit-cost ratio -  Subsidies -extreme poor (<$1.25 a day) (preT)","source":{"id":"29","value":"Global Social Protection"},"sourceNote":"","sourceOrganization":"The Atlas of Social Protection: Indicators of Resilience and Equity (ASPIRE)","topics":[]},{"id":"per_sa_fw.bry_q5_urb","name":"Beneficiary incidence in richest quintile (%) - Subsidies -urban","source":{"id":"29","value":"Global Social Protection"},"sourceNote":"","sourceOrganization":"The Atlas of Social Protection: Indicators of Resilience and Equity (ASPIRE)","topics":[]},{"id":"per_sa_fw.bry_q5_tot","name":"Beneficiary incidence in richest quintile (%) - Subsidies  ","source":{"id":"29","value":"Global Social Protection"},"sourceNote":"","sourceOrganization":"The Atlas of Social Protection: Indicators of Resilience and Equity (ASPIRE)","topics":[]},{"id":"per_sa_fw.bry_q5_rur","name":"Beneficiary incidence in richest quintile (%) - Subsidies -rural","source":{"id":"29","value":"Global Social Protection"},"sourceNote":"","sourceOrganization":"The Atlas of Social Protection: Indicators of Resilience and Equity (ASPIRE)","topics":[]},{"id":"per_sa_fw.bry_q5_preT_tot","name":"Beneficiary incidence in richest quintile (%) - Subsidies (preT)","source":{"id":"29","value":"Global Social Protection"},"sourceNote":"","sourceOrganization":"The Atlas of Social Protection: Indicators of Resilience and Equity (ASPIRE)","topics":[]},{"id":"per_sa_fw.bry_q4_urb","name":"Beneficiary incidence in 4th quintile (%) - Subsidies -urban","source":{"id":"29","value":"Global Social Protection"},"sourceNote":"","sourceOrganization":"The Atlas of Social Protection: Indicators of Resilience and Equity (ASPIRE)","topics":[]},{"id":"per_sa_fw.bry_q4_tot","name":"Beneficiary incidence in 4th quintile (%) - Subsidies  ","source":{"id":"29","value":"Global Social Protection"},"sourceNote":"","sourceOrganization":"The Atlas of Social Protection: Indicators of Resilience and Equity (ASPIRE)","topics":[]},{"id":"per_sa_fw.bry_q4_rur","name":"Beneficiary incidence in 4th quintile (%) - Subsidies -rural","source":{"id":"29","value":"Global Social Protection"},"sourceNote":"","sourceOrganization":"The Atlas of Social Protection: Indicators of Resilience and Equity (ASPIRE)","topics":[]},{"id":"per_sa_fw.bry_q4_preT_tot","name":"Beneficiary incidence in 4th quintile (%) - Subsidies (preT)","source":{"id":"29","value":"Global Social Protection"},"sourceNote":"","sourceOrganization":"The Atlas of Social Protection: Indicators of Resilience and Equity (ASPIRE)","topics":[]},{"id":"per_sa_fw.bry_q3_urb","name":"Beneficiary incidence in 3rd quintile (%) - Subsidies -urban","source":{"id":"29","value":"Global Social Protection"},"sourceNote":"","sourceOrganization":"The Atlas of Social Protection: Indicators of Resilience and Equity (ASPIRE)","topics":[]},{"id":"per_sa_fw.bry_q3_tot","name":"Beneficiary incidence in 3rd quintile (%) - Subsidies  ","source":{"id":"29","value":"Global Social Protection"},"sourceNote":"","sourceOrganization":"The Atlas of Social Protection: Indicators of Resilience and Equity (ASPIRE)","topics":[]},{"id":"per_sa_fw.bry_q3_rur","name":"Beneficiary incidence in 3rd quintile (%) - Subsidies -rural","source":{"id":"29","value":"Global Social Protection"},"sourceNote":"","sourceOrganization":"The Atlas of Social Protection: Indicators of Resilience and Equity (ASPIRE)","topics":[]},{"id":"per_sa_fw.bry_q3_preT_tot","name":"Beneficiary incidence in 3rd quintile (%) - Subsidies (preT)","source":{"id":"29","value":"Global Social Protection"},"sourceNote":"","sourceOrganization":"The Atlas of Social Protection: Indicators of Resilience and Equity (ASPIRE)","topics":[]},{"id":"per_sa_fw.bry_q2_urb","name":"Beneficiary incidence in 2nd quintile (%) - Subsidies -urban","source":{"id":"29","value":"Global Social Protection"},"sourceNote":"","sourceOrganization":"The Atlas of Social Protection: Indicators of Resilience and Equity (ASPIRE)","topics":[]},{"id":"per_sa_fw.bry_q2_tot","name":"Beneficiary incidence in 2nd quintile (%) - Subsidies  ","source":{"id":"29","value":"Global Social Protection"},"sourceNote":"","sourceOrganization":"The Atlas of Social Protection: Indicators of Resilience and Equity (ASPIRE)","topics":[]},{"id":"per_sa_fw.bry_q2_rur","name":"Beneficiary incidence in 2nd quintile (%) - Subsidies -rural","source":{"id":"29","value":"Global Social Protection"},"sourceNote":"","sourceOrganization":"The Atlas of Social Protection: Indicators of Resilience and Equity (ASPIRE)","topics":[]},{"id":"per_sa_fw.bry_q2_preT_tot","name":"Beneficiary incidence in 2nd quintile (%) - Subsidies (preT)","source":{"id":"29","value":"Global Social Protection"},"sourceNote":"","sourceOrganization":"The Atlas of Social Protection: Indicators of Resilience and Equity (ASPIRE)","topics":[]},{"id":"per_sa_fw.bry_q1_urb","name":"Beneficiary incidence in poorest quintile (%) - Subsidies -urban","source":{"id":"29","value":"Global Social Protection"},"sourceNote":"","sourceOrganization":"The Atlas of Social Protection: Indicators of Resilience and Equity (ASPIRE)","topics":[]},{"id":"per_sa_fw.bry_q1_tot","name":"Beneficiary incidence in poorest quintile (%) - Subsidies  ","source":{"id":"29","value":"Global Social Protection"},"sourceNote":"","sourceOrganization":"The Atlas of Social Protection: Indicators of Resilience and Equity (ASPIRE)","topics":[]},{"id":"per_sa_fw.bry_q1_rur","name":"Beneficiary incidence in poorest quintile (%) - Subsidies -rural","source":{"id":"29","value":"Global Social Protection"},"sourceNote":"","sourceOrganization":"The Atlas of Social Protection: Indicators of Resilience and Equity (ASPIRE)","topics":[]},{"id":"per_sa_fw.bry_q1_preT_tot","name":"Beneficiary incidence in poorest quintile (%) - Subsidies (preT)","source":{"id":"29","value":"Global Social Protection"},"sourceNote":"","sourceOrganization":"The Atlas of Social Protection: Indicators of Resilience and Equity (ASPIRE)","topics":[]},{"id":"per_sa_fw.bry_ep_tot","name":"Beneficiary incidence in extreme poor (<$1.25 a day) (%) - Subsidies  ","source":{"id":"29","value":"Global Social Protection"},"sourceNote":"","sourceOrganization":"The Atlas of Social Protection: Indicators of Resilience and Equity (ASPIRE)","topics":[]},{"id":"per_sa_fw.bry_ep_preT_tot","name":"Beneficiary incidence in extreme poor (<$1.25 a day) (%) - Subsidies (preT)","source":{"id":"29","value":"Global Social Protection"},"sourceNote":"","sourceOrganization":"The Atlas of Social Protection: Indicators of Resilience and Equity (ASPIRE)","topics":[]},{"id":"per_sa_fw.ben_q5_urb","name":"Benefits incidence in richest quintile (%) - Subsidies -urban","source":{"id":"29","value":"Global Social Protection"},"sourceNote":"","sourceOrganization":"The Atlas of Social Protection: Indicators of Resilience and Equity (ASPIRE)","topics":[]},{"id":"per_sa_fw.ben_q5_tot","name":"Benefits incidence in richest quintile (%) - Subsidies  ","source":{"id":"29","value":"Global Social Protection"},"sourceNote":"","sourceOrganization":"The Atlas of Social Protection: Indicators of Resilience and Equity (ASPIRE)","topics":[]},{"id":"per_sa_fw.ben_q5_rur","name":"Benefits incidence in richest quintile (%) - Subsidies -rural","source":{"id":"29","value":"Global Social Protection"},"sourceNote":"","sourceOrganization":"The Atlas of Social Protection: Indicators of Resilience and Equity (ASPIRE)","topics":[]},{"id":"per_sa_fw.ben_q5_preT_tot","name":"Benefits incidence in richest quintile (%) - Subsidies (preT)","source":{"id":"29","value":"Global Social Protection"},"sourceNote":"","sourceOrganization":"The Atlas of Social Protection: Indicators of Resilience and Equity (ASPIRE)","topics":[]},{"id":"per_sa_fw.ben_q4_urb","name":"Benefits incidence in 4th quintile (%) - Subsidies -urban","source":{"id":"29","value":"Global Social Protection"},"sourceNote":"","sourceOrganization":"The Atlas of Social Protection: Indicators of Resilience and Equity (ASPIRE)","topics":[]},{"id":"per_sa_fw.ben_q4_tot","name":"Benefits incidence in 4th quintile (%) - Subsidies  ","source":{"id":"29","value":"Global Social Protection"},"sourceNote":"","sourceOrganization":"The Atlas of Social Protection: Indicators of Resilience and Equity (ASPIRE)","topics":[]},{"id":"per_sa_fw.ben_q4_rur","name":"Benefits incidence in 4th quintile (%) - Subsidies -rural","source":{"id":"29","value":"Global Social Protection"},"sourceNote":"","sourceOrganization":"The Atlas of Social Protection: Indicators of Resilience and Equity (ASPIRE)","topics":[]},{"id":"per_sa_fw.ben_q4_preT_tot","name":"Benefits incidence in 4th quintile (%) - Subsidies (preT)","source":{"id":"29","value":"Global Social Protection"},"sourceNote":"","sourceOrganization":"The Atlas of Social Protection: Indicators of Resilience and Equity (ASPIRE)","topics":[]},{"id":"per_sa_fw.ben_q3_urb","name":"Benefits incidence in 3rd quintile (%) - Subsidies -urban","source":{"id":"29","value":"Global Social Protection"},"sourceNote":"","sourceOrganization":"The Atlas of Social Protection: Indicators of Resilience and Equity (ASPIRE)","topics":[]},{"id":"per_sa_fw.ben_q3_tot","name":"Benefits incidence in 3rd quintile (%) - Subsidies  ","source":{"id":"29","value":"Global Social Protection"},"sourceNote":"","sourceOrganization":"The Atlas of Social Protection: Indicators of Resilience and Equity (ASPIRE)","topics":[]},{"id":"per_sa_fw.ben_q3_rur","name":"Benefits incidence in 3rd quintile (%) - Subsidies -rural","source":{"id":"29","value":"Global Social Protection"},"sourceNote":"","sourceOrganization":"The Atlas of Social Protection: Indicators of Resilience and Equity (ASPIRE)","topics":[]},{"id":"per_sa_fw.ben_q3_preT_tot","name":"Benefits incidence in 3rd quintile (%) - Subsidies (preT)","source":{"id":"29","value":"Global Social Protection"},"sourceNote":"","sourceOrganization":"The Atlas of Social Protection: Indicators of Resilience and Equity (ASPIRE)","topics":[]},{"id":"per_sa_fw.ben_q2_urb","name":"Benefits incidence in 2nd quintile (%) - Subsidies -urban","source":{"id":"29","value":"Global Social Protection"},"sourceNote":"","sourceOrganization":"The Atlas of Social Protection: Indicators of Resilience and Equity (ASPIRE)","topics":[]},{"id":"per_sa_fw.ben_q2_tot","name":"Benefits incidence in 2nd quintile (%) - Subsidies  ","source":{"id":"29","value":"Global Social Protection"},"sourceNote":"","sourceOrganization":"The Atlas of Social Protection: Indicators of Resilience and Equity (ASPIRE)","topics":[]},{"id":"per_sa_fw.ben_q2_rur","name":"Benefits incidence in 2nd quintile (%) - Subsidies -rural","source":{"id":"29","value":"Global Social Protection"},"sourceNote":"","sourceOrganization":"The Atlas of Social Protection: Indicators of Resilience and Equity (ASPIRE)","topics":[]},{"id":"per_sa_fw.ben_q2_preT_tot","name":"Benefits incidence in 2nd quintile (%) - Subsidies (preT)","source":{"id":"29","value":"Global Social Protection"},"sourceNote":"","sourceOrganization":"The Atlas of Social Protection: Indicators of Resilience and Equity (ASPIRE)","topics":[]},{"id":"per_sa_fw.ben_q1_urb","name":"Benefits incidence in poorest quintile (%) - Subsidies -urban","source":{"id":"29","value":"Global Social Protection"},"sourceNote":"","sourceOrganization":"The Atlas of Social Protection: Indicators of Resilience and Equity (ASPIRE)","topics":[]},{"id":"per_sa_fw.ben_q1_tot","name":"Benefits incidence in poorest quintile (%) - Subsidies  ","source":{"id":"29","value":"Global Social Protection"},"sourceNote":"","sourceOrganization":"The Atlas of Social Protection: Indicators of Resilience and Equity (ASPIRE)","topics":[]},{"id":"per_sa_fw.ben_q1_rur","name":"Benefits incidence in poorest quintile (%) - Subsidies -rural","source":{"id":"29","value":"Global Social Protection"},"sourceNote":"","sourceOrganization":"The Atlas of Social Protection: Indicators of Resilience and Equity (ASPIRE)","topics":[]},{"id":"per_sa_fw.ben_q1_preT_tot","name":"Benefits incidence in poorest quintile (%) - Subsidies (preT)","source":{"id":"29","value":"Global Social Protection"},"sourceNote":"","sourceOrganization":"The Atlas of Social Protection: Indicators of Resilience and Equity (ASPIRE)","topics":[]},{"id":"per_sa_fw.ben_ep_tot","name":"Benefits incidence in extreme poor (<$1.25 a day) (%) - Subsidies  ","source":{"id":"29","value":"Global Social Protection"},"sourceNote":"","sourceOrganization":"The Atlas of Social Protection: Indicators of Resilience and Equity (ASPIRE)","topics":[]},{"id":"per_sa_fw.ben_ep_preT_tot","name":"Benefits incidence in extreme poor (<$1.25 a day) (%) - Subsidies (preT)","source":{"id":"29","value":"Global Social Protection"},"sourceNote":"","sourceOrganization":"The Atlas of Social Protection: Indicators of Resilience and Equity (ASPIRE)","topics":[{}]}]]