[{"page":70,"pages":324,"per_page":"50","total":16174},[{"id":"DT.DOD.DSTC.CD.FC.OT.TO.US","name":"Gross Ext. F. Curr Debt Pos., Other Sectors, Short-term, All instruments, All curr., USD","source":{"id":"22","value":"Quarterly External Debt Statistics\/SDDS (New)"},"sourceNote":"","sourceOrganization":"","topics":[]},{"id":"DT.DOD.DSTC.CD.FC.OT.OT.US","name":"Gross Ext. F. Curr Debt Pos., Other Sectors, Short-term, All instruments, Other curr., USD","source":{"id":"22","value":"Quarterly External Debt Statistics\/SDDS (New)"},"sourceNote":"","sourceOrganization":"","topics":[]},{"id":"DT.DOD.DSTC.CD.FC.OT.JY.US","name":"Gross Ext. F. Curr Debt Pos., Other Sectors, Short-term, All instruments, Yen, USD","source":{"id":"22","value":"Quarterly External Debt Statistics\/SDDS (New)"},"sourceNote":"","sourceOrganization":"","topics":[]},{"id":"DT.DOD.DSTC.CD.FC.OT.EU.US","name":"Gross Ext. F. Curr Debt Pos., Other Sectors, Short-term, All instruments, Euro, USD","source":{"id":"22","value":"Quarterly External Debt Statistics\/SDDS (New)"},"sourceNote":"","sourceOrganization":"","topics":[]},{"id":"DT.DOD.DSTC.CD.FC.MA.US.US","name":"Gross Ext. F. Curr Debt Pos., Central Bank, Short-term, All instruments, US dollar, USD","source":{"id":"22","value":"Quarterly External Debt Statistics\/SDDS (New)"},"sourceNote":"","sourceOrganization":"","topics":[]},{"id":"DT.DOD.DSTC.CD.FC.MA.TO.US","name":"Gross Ext. F. Curr Debt Pos., Central Bank, Short-term, All instruments, All curr., USD","source":{"id":"22","value":"Quarterly External Debt Statistics\/SDDS (New)"},"sourceNote":"","sourceOrganization":"","topics":[]},{"id":"DT.DOD.DSTC.CD.FC.MA.OT.US","name":"Gross Ext. F. Curr Debt Pos., Central Bank, Short-term, All instruments, Other curr., USD","source":{"id":"22","value":"Quarterly External Debt Statistics\/SDDS (New)"},"sourceNote":"","sourceOrganization":"","topics":[]},{"id":"DT.DOD.DSTC.CD.FC.MA.JY.US","name":"Gross Ext. F. Curr Debt Pos., Central Bank, Short-term, All instruments, Yen, USD","source":{"id":"22","value":"Quarterly External Debt Statistics\/SDDS (New)"},"sourceNote":"","sourceOrganization":"","topics":[]},{"id":"DT.DOD.DSTC.CD.FC.MA.EU.US","name":"Gross Ext. F. Curr Debt Pos., Central Bank, Short-term, All instruments, Euro, USD","source":{"id":"22","value":"Quarterly External Debt Statistics\/SDDS (New)"},"sourceNote":"","sourceOrganization":"","topics":[]},{"id":"DT.DOD.DSTC.CD.FC.GG.US.US","name":"Gross Ext. F. Curr Debt Pos., General Government, Short-term, All instruments, US dollar, USD","source":{"id":"22","value":"Quarterly External Debt Statistics\/SDDS (New)"},"sourceNote":"","sourceOrganization":"","topics":[]},{"id":"DT.DOD.DSTC.CD.FC.GG.TO.US","name":"Gross Ext. F. Curr Debt Pos., General Government, Short-term, All instruments, All curr., USD","source":{"id":"22","value":"Quarterly External Debt Statistics\/SDDS (New)"},"sourceNote":"","sourceOrganization":"","topics":[]},{"id":"DT.DOD.DSTC.CD.FC.GG.OT.US","name":"Gross Ext. F. Curr Debt Pos., General Government, Short-term, All instruments, Other curr., USD","source":{"id":"22","value":"Quarterly External Debt Statistics\/SDDS (New)"},"sourceNote":"","sourceOrganization":"","topics":[]},{"id":"DT.DOD.DSTC.CD.FC.GG.JY.US","name":"Gross Ext. F. Curr Debt Pos., General Government, Short-term, All instruments, Yen, USD","source":{"id":"22","value":"Quarterly External Debt Statistics\/SDDS (New)"},"sourceNote":"","sourceOrganization":"","topics":[]},{"id":"DT.DOD.DSTC.CD.FC.GG.EU.US","name":"Gross Ext. F. Curr Debt Pos., General Government, Short-term, All instruments, Euro, USD","source":{"id":"22","value":"Quarterly External Debt Statistics\/SDDS (New)"},"sourceNote":"","sourceOrganization":"","topics":[]},{"id":"DT.DOD.DSTC.CD.FC.CB.US.US","name":"Gross Ext. F. Curr Debt Pos., Deposit-Taking Corp., exc. CB, Short-term, All instruments, US dollar, USD","source":{"id":"22","value":"Quarterly External Debt Statistics\/SDDS (New)"},"sourceNote":"","sourceOrganization":"","topics":[]},{"id":"DT.DOD.DSTC.CD.FC.CB.TO.US","name":"Gross Ext. F. Curr Debt Pos., Deposit-Taking Corp., exc. CB, Short-term, All instruments, All curr., USD","source":{"id":"22","value":"Quarterly External Debt Statistics\/SDDS (New)"},"sourceNote":"","sourceOrganization":"","topics":[]},{"id":"DT.DOD.DSTC.CD.FC.CB.OT.US","name":"Gross Ext. F. Curr Debt Pos., Deposit-Taking Corp., exc. CB, Short-term, All instruments, Other curr., USD","source":{"id":"22","value":"Quarterly External Debt Statistics\/SDDS (New)"},"sourceNote":"","sourceOrganization":"","topics":[]},{"id":"DT.DOD.DSTC.CD.FC.CB.JY.US","name":"Gross Ext. F. Curr Debt Pos., Deposit-Taking Corp., exc. CB, Short-term, All instruments, Yen, USD","source":{"id":"22","value":"Quarterly External Debt Statistics\/SDDS (New)"},"sourceNote":"","sourceOrganization":"","topics":[]},{"id":"DT.DOD.DSTC.CD.FC.CB.EU.US","name":"Gross Ext. F. Curr Debt Pos., Deposit-Taking Corp., exc. CB, Short-term, All instruments, Euro, USD","source":{"id":"22","value":"Quarterly External Debt Statistics\/SDDS (New)"},"sourceNote":"","sourceOrganization":"","topics":[]},{"id":"DT.DOD.DSTC.CD.DC.US","name":"Gross Ext. Debt Pos., All Sectors, Short-term, All instruments, Domestic currency, USD","source":{"id":"22","value":"Quarterly External Debt Statistics\/SDDS (New)"},"sourceNote":"","sourceOrganization":"","topics":[]},{"id":"DT.DOD.DSTC.CD.DC.T5.US","name":"Public and Publicly Guar. Private Sector Ext. Debt Pos., All Sectors, Short-term, All instruments, Domestic currency, USD","source":{"id":"23","value":"Quarterly External Debt Statistics\/GDDS (New)"},"sourceNote":"","sourceOrganization":"","topics":[]},{"id":"DT.DOD.DSTC.CD.CB.TD.NV.US","name":"Gross Ext. Debt Pos., Deposit-Taking Corp., exc. CB, Short-term, Debt Securities, Nominal Value, USD","source":{"id":"22","value":"Quarterly External Debt Statistics\/SDDS (New)"},"sourceNote":"","sourceOrganization":"","topics":[]},{"id":"DT.DOD.DSTC.CD.CB.TD.MV.US","name":"Gross Ext. Debt Pos., Deposit-Taking Corp., exc. CB, Short-term, Debt Securities, Market Value, USD","source":{"id":"22","value":"Quarterly External Debt Statistics\/SDDS (New)"},"sourceNote":"","sourceOrganization":"","topics":[]},{"id":"DT.DOD.DSTC.CD.CB.TD.MP.US","name":"Gross Ext. Debt Pos., Deposit-Taking Corp., exc. CB, Short-term, Debt Securities, Diff. with Market Value, USD","source":{"id":"22","value":"Quarterly External Debt Statistics\/SDDS (New)"},"sourceNote":"","sourceOrganization":"","topics":[]},{"id":"DT.DOD.DSTC.CD.CB.AR.US","name":"Gross Ext. Debt Pos., Deposit-Taking Corp., exc. CB, Short-term, All instruments, USD","source":{"id":"22","value":"Quarterly External Debt Statistics\/SDDS (New)"},"sourceNote":"","sourceOrganization":"","topics":[]},{"id":"DT.DOD.DSTC.CD.CB.AR.TR.US","name":"Gross Ext. Debt Pos., Deposit-Taking Corp., exc. CB, Short-term, All instruments, Transactions, USD","source":{"id":"22","value":"Quarterly External Debt Statistics\/SDDS (New)"},"sourceNote":"","sourceOrganization":"","topics":[]},{"id":"DT.DOD.DSTC.CD.CB.AR.PX.US","name":"Gross Ext. Debt Pos., Deposit-Taking Corp., exc. CB, Short-term, All instruments, Other price chg, USD","source":{"id":"22","value":"Quarterly External Debt Statistics\/SDDS (New)"},"sourceNote":"","sourceOrganization":"","topics":[]},{"id":"DT.DOD.DSTC.CD.CB.AR.OC.US","name":"Gross Ext. Debt Pos., Deposit-Taking Corp., exc. CB, Short-term, All instruments, Other chg in vol., USD","source":{"id":"22","value":"Quarterly External Debt Statistics\/SDDS (New)"},"sourceNote":"","sourceOrganization":"","topics":[]},{"id":"DT.DOD.DSTC.CD.CB.AR.NE.US","name":"Net Ext. Debt Position, Deposit-Taking Corp., exc. CB, Short-term, All instruments, USD","source":{"id":"22","value":"Quarterly External Debt Statistics\/SDDS (New)"},"sourceNote":"","sourceOrganization":"","topics":[]},{"id":"DT.DOD.DSTC.CD.CB.AR.GE.US","name":"Gross Ext. Debt Pos., Deposit-Taking Corp., exc. CB, Short-term, All instruments, Beginning pos., USD","source":{"id":"22","value":"Quarterly External Debt Statistics\/SDDS (New)"},"sourceNote":"","sourceOrganization":"","topics":[]},{"id":"DT.DOD.DSTC.CD.CB.AR.EX.US","name":"Gross Ext. Debt Pos., Deposit-Taking Corp., exc. CB, Short-term, All instruments, Exchange rate chg, USD","source":{"id":"22","value":"Quarterly External Debt Statistics\/SDDS (New)"},"sourceNote":"","sourceOrganization":"","topics":[]},{"id":"DT.DOD.DSTC.CD.CB.AR.EN.US","name":"Gross Ext. Debt Pos., Deposit-Taking Corp., exc. CB, Short-term, All instruments, end of period, USD","source":{"id":"22","value":"Quarterly External Debt Statistics\/SDDS (New)"},"sourceNote":"","sourceOrganization":"","topics":[]},{"id":"DT.DOD.DSTC.CD.CB.AR.EA.US","name":"Ext. Assets in Debt Instruments, Deposit-Taking Corp., exc. CB, Short-term, All instruments, USD","source":{"id":"22","value":"Quarterly External Debt Statistics\/SDDS (New)"},"sourceNote":"","sourceOrganization":"","topics":[]},{"id":"DT.DOD.DSTC.CD.CB.AR.BE.US","name":"Gross Ext. Debt Pos., Deposit-Taking Corp., exc. CB, Short-term, All instruments, Beginning of period, USD","source":{"id":"22","value":"Quarterly External Debt Statistics\/SDDS (New)"},"sourceNote":"","sourceOrganization":"","topics":[]},{"id":"DT.DOD.DSTC.CD","name":"External debt stocks, short-term (DOD, current US$)","source":{"id":"2","value":"World Development Indicators"},"sourceNote":"Short-term external debt is defined as debt that has an original maturity of one year or less. Available data permit no distinction between public and private nonguaranteed short-term debt. Data are in current U.S. dollars.","sourceOrganization":"World Bank, International Debt Statistics.","topics":[{"id":"20","value":"External Debt"}]},{"id":"DT.DOD.DSOO.CD.OT.AR.US","name":"Gross Ext. Debt Pos., Other Sectors, Short-term, Other debt liabilities, USD","source":{"id":"22","value":"Quarterly External Debt Statistics\/SDDS (New)"},"sourceNote":"","sourceOrganization":"","topics":[]},{"id":"DT.DOD.DSOO.CD.OT.AR.TR.US","name":"Gross Ext. Debt Pos., Other Sectors, Short-term, Other debt liabilities, Transactions, USD","source":{"id":"22","value":"Quarterly External Debt Statistics\/SDDS (New)"},"sourceNote":"","sourceOrganization":"","topics":[]},{"id":"DT.DOD.DSOO.CD.OT.AR.PX.US","name":"Gross Ext. Debt Pos., Other Sectors, Short-term, Other debt liabilities, Other price chg, USD","source":{"id":"22","value":"Quarterly External Debt Statistics\/SDDS (New)"},"sourceNote":"","sourceOrganization":"","topics":[]},{"id":"DT.DOD.DSOO.CD.OT.AR.OC.US","name":"Gross Ext. Debt Pos., Other Sectors, Short-term, Other debt liabilities, Other chg in vol., USD","source":{"id":"22","value":"Quarterly External Debt Statistics\/SDDS (New)"},"sourceNote":"","sourceOrganization":"","topics":[]},{"id":"DT.DOD.DSOO.CD.OT.AR.NE.US","name":"Net Ext. Debt Position, Other Sectors, Short-term, Other debt instruments, USD","source":{"id":"22","value":"Quarterly External Debt Statistics\/SDDS (New)"},"sourceNote":"","sourceOrganization":"","topics":[]},{"id":"DT.DOD.DSOO.CD.OT.AR.GE.US","name":"Gross Ext. Debt Pos., Other Sectors, Short-term, Other debt instruments, Beginning pos., USD","source":{"id":"22","value":"Quarterly External Debt Statistics\/SDDS (New)"},"sourceNote":"","sourceOrganization":"","topics":[]},{"id":"DT.DOD.DSOO.CD.OT.AR.EX.US","name":"Gross Ext. Debt Pos., Other Sectors, Short-term, Other debt liabilities, Exchange rate chg, USD","source":{"id":"22","value":"Quarterly External Debt Statistics\/SDDS (New)"},"sourceNote":"","sourceOrganization":"","topics":[]},{"id":"DT.DOD.DSOO.CD.OT.AR.EN.US","name":"Gross Ext. Debt Pos., Other Sectors, Short-term, Other debt liabilities, end of period, USD","source":{"id":"22","value":"Quarterly External Debt Statistics\/SDDS (New)"},"sourceNote":"","sourceOrganization":"","topics":[]},{"id":"DT.DOD.DSOO.CD.OT.AR.EA.US","name":"Ext. Assets in Debt Instruments, Other Sectors, Short-term, Other debt instruments, USD","source":{"id":"22","value":"Quarterly External Debt Statistics\/SDDS (New)"},"sourceNote":"","sourceOrganization":"","topics":[]},{"id":"DT.DOD.DSOO.CD.OT.AR.BE.US","name":"Gross Ext. Debt Pos., Other Sectors, Short-term, Other debt liabilities, Beginning of period, USD","source":{"id":"22","value":"Quarterly External Debt Statistics\/SDDS (New)"},"sourceNote":"","sourceOrganization":"","topics":[]},{"id":"DT.DOD.DSOO.CD.MA.AR.US","name":"Gross Ext. Debt Pos., Central Bank, Short-term, Other debt liabilities, USD","source":{"id":"22","value":"Quarterly External Debt Statistics\/SDDS (New)"},"sourceNote":"","sourceOrganization":"","topics":[]},{"id":"DT.DOD.DSOO.CD.MA.AR.TR.US","name":"Gross Ext. Debt Pos., Central Bank, Short-term, Other debt liabilities, Transactions, USD","source":{"id":"22","value":"Quarterly External Debt Statistics\/SDDS (New)"},"sourceNote":"","sourceOrganization":"","topics":[]},{"id":"DT.DOD.DSOO.CD.MA.AR.PX.US","name":"Gross Ext. Debt Pos., Central Bank, Short-term, Other debt liabilities, Other price chg, USD","source":{"id":"22","value":"Quarterly External Debt Statistics\/SDDS (New)"},"sourceNote":"","sourceOrganization":"","topics":[]},{"id":"DT.DOD.DSOO.CD.MA.AR.OC.US","name":"Gross Ext. Debt Pos., Central Bank, Short-term, Other debt liabilities, Other chg in vol., USD","source":{"id":"22","value":"Quarterly External Debt Statistics\/SDDS (New)"},"sourceNote":"","sourceOrganization":"","topics":[]},{"id":"DT.DOD.DSOO.CD.MA.AR.NE.US","name":"Net Ext. Debt Position, Central Bank, Short-term, Other debt instruments, USD","source":{"id":"22","value":"Quarterly External Debt Statistics\/SDDS (New)"},"sourceNote":"","sourceOrganization":"","topics":[{}]}]]