[{"page":131,"pages":324,"per_page":"50","total":16174},[{"id":"LO.EGRA.CLPM.SPN.2GRD","name":"EGRA: Correct Letter Names Read Per Minute (Mean). Spanish. 2nd Grade","source":{"id":"12","value":"Education Statistics"},"sourceNote":"Average number of letter names that students could read per minute. In this EGRA subtask, assessors present students with a sheet listing between 50 and 100 upper- and lowercase letters of the alphabet (in some languages, graphemes, or sets of letters and\/or symbols representing a single sound, are presented). Students are asked to provide the names of all the letters that they can in one minute. Users are discouraged from using these data to make direct comparisons across countries or languages. Consult the EdData website and the specific country report for more information: www.eddataglobal.org.","sourceOrganization":"Early Grade Reading Assessment (EGRA): https:\/\/www.eddataglobal.org\/reading\/","topics":[]},{"id":"LO.EGRA.CLPM.SOM.3GRD","name":"EGRA: Correct Letter Names Read Per Minute (Mean). Somaligna. 3rd Grade","source":{"id":"12","value":"Education Statistics"},"sourceNote":"Average number of letter names that students could read per minute. In this EGRA subtask, assessors present students with a sheet listing between 50 and 100 upper- and lowercase letters of the alphabet (in some languages, graphemes, or sets of letters and\/or symbols representing a single sound, are presented). Students are asked to provide the names of all the letters that they can in one minute. Users are discouraged from using these data to make direct comparisons across countries or languages. Consult the EdData website and the specific country report for more information: www.eddataglobal.org.","sourceOrganization":"Early Grade Reading Assessment (EGRA): https:\/\/www.eddataglobal.org\/reading\/","topics":[]},{"id":"LO.EGRA.CLPM.SOM.2GRD","name":"EGRA: Correct Letter Names Read Per Minute (Mean). Somaligna. 2nd Grade","source":{"id":"12","value":"Education Statistics"},"sourceNote":"Average number of letter names that students could read per minute. In this EGRA subtask, assessors present students with a sheet listing between 50 and 100 upper- and lowercase letters of the alphabet (in some languages, graphemes, or sets of letters and\/or symbols representing a single sound, are presented). Students are asked to provide the names of all the letters that they can in one minute. Users are discouraged from using these data to make direct comparisons across countries or languages. Consult the EdData website and the specific country report for more information: www.eddataglobal.org.","sourceOrganization":"Early Grade Reading Assessment (EGRA): https:\/\/www.eddataglobal.org\/reading\/","topics":[]},{"id":"LO.EGRA.CLPM.SNG.2GRD","name":"EGRA: Correct Letter Names Read Per Minute (Mean). Songhoi. 2nd Grade","source":{"id":"12","value":"Education Statistics"},"sourceNote":"Average number of letter names that students could read per minute. In this EGRA subtask, assessors present students with a sheet listing between 50 and 100 upper- and lowercase letters of the alphabet (in some languages, graphemes, or sets of letters and\/or symbols representing a single sound, are presented). Students are asked to provide the names of all the letters that they can in one minute. Users are discouraged from using these data to make direct comparisons across countries or languages. Consult the EdData website and the specific country report for more information: www.eddataglobal.org.","sourceOrganization":"Early Grade Reading Assessment (EGRA): https:\/\/www.eddataglobal.org\/reading\/","topics":[]},{"id":"LO.EGRA.CLPM.SID.3GRD","name":"EGRA: Correct Letter Names Read Per Minute (Mean). Sidaamu Afoo. 3rd Grade","source":{"id":"12","value":"Education Statistics"},"sourceNote":"Average number of letter names that students could read per minute. In this EGRA subtask, assessors present students with a sheet listing between 50 and 100 upper- and lowercase letters of the alphabet (in some languages, graphemes, or sets of letters and\/or symbols representing a single sound, are presented). Students are asked to provide the names of all the letters that they can in one minute. Users are discouraged from using these data to make direct comparisons across countries or languages. Consult the EdData website and the specific country report for more information: www.eddataglobal.org.","sourceOrganization":"Early Grade Reading Assessment (EGRA): https:\/\/www.eddataglobal.org\/reading\/","topics":[]},{"id":"LO.EGRA.CLPM.SID.2GRD","name":"EGRA: Correct Letter Names Read Per Minute (Mean). Sidaamu Afoo. 2nd Grade","source":{"id":"12","value":"Education Statistics"},"sourceNote":"Average number of letter names that students could read per minute. In this EGRA subtask, assessors present students with a sheet listing between 50 and 100 upper- and lowercase letters of the alphabet (in some languages, graphemes, or sets of letters and\/or symbols representing a single sound, are presented). Students are asked to provide the names of all the letters that they can in one minute. Users are discouraged from using these data to make direct comparisons across countries or languages. Consult the EdData website and the specific country report for more information: www.eddataglobal.org.","sourceOrganization":"Early Grade Reading Assessment (EGRA): https:\/\/www.eddataglobal.org\/reading\/","topics":[]},{"id":"LO.EGRA.CLPM.HAR.3GRD","name":"EGRA: Correct Letter Names Read Per Minute (Mean). Hararigna. 3rd Grade","source":{"id":"12","value":"Education Statistics"},"sourceNote":"Average number of letter names that students could read per minute. In this EGRA subtask, assessors present students with a sheet listing between 50 and 100 upper- and lowercase letters of the alphabet (in some languages, graphemes, or sets of letters and\/or symbols representing a single sound, are presented). Students are asked to provide the names of all the letters that they can in one minute. Users are discouraged from using these data to make direct comparisons across countries or languages. Consult the EdData website and the specific country report for more information: www.eddataglobal.org.","sourceOrganization":"Early Grade Reading Assessment (EGRA): https:\/\/www.eddataglobal.org\/reading\/","topics":[]},{"id":"LO.EGRA.CLPM.HAR.2GRD","name":"EGRA: Correct Letter Names Read Per Minute (Mean). Hararigna. 2nd Grade","source":{"id":"12","value":"Education Statistics"},"sourceNote":"Average number of letter names that students could read per minute. In this EGRA subtask, assessors present students with a sheet listing between 50 and 100 upper- and lowercase letters of the alphabet (in some languages, graphemes, or sets of letters and\/or symbols representing a single sound, are presented). Students are asked to provide the names of all the letters that they can in one minute. Users are discouraged from using these data to make direct comparisons across countries or languages. Consult the EdData website and the specific country report for more information: www.eddataglobal.org.","sourceOrganization":"Early Grade Reading Assessment (EGRA): https:\/\/www.eddataglobal.org\/reading\/","topics":[]},{"id":"LO.EGRA.CLPM.FRN.3GRD","name":"EGRA: Correct Letter Names Read Per Minute (Mean). French. 3rd Grade","source":{"id":"12","value":"Education Statistics"},"sourceNote":"Average number of letter names that students could read per minute. In this EGRA subtask, assessors present students with a sheet listing between 50 and 100 upper- and lowercase letters of the alphabet (in some languages, graphemes, or sets of letters and\/or symbols representing a single sound, are presented). Students are asked to provide the names of all the letters that they can in one minute. Users are discouraged from using these data to make direct comparisons across countries or languages. Consult the EdData website and the specific country report for more information: www.eddataglobal.org.","sourceOrganization":"Early Grade Reading Assessment (EGRA): https:\/\/www.eddataglobal.org\/reading\/","topics":[]},{"id":"LO.EGRA.CLPM.FLF.2GRD","name":"EGRA: Correct Letter Names Read Per Minute (Mean). Fulfulde. 2nd Grade","source":{"id":"12","value":"Education Statistics"},"sourceNote":"Average number of letter names that students could read per minute. In this EGRA subtask, assessors present students with a sheet listing between 50 and 100 upper- and lowercase letters of the alphabet (in some languages, graphemes, or sets of letters and\/or symbols representing a single sound, are presented). Students are asked to provide the names of all the letters that they can in one minute. Users are discouraged from using these data to make direct comparisons across countries or languages. Consult the EdData website and the specific country report for more information: www.eddataglobal.org.","sourceOrganization":"Early Grade Reading Assessment (EGRA): https:\/\/www.eddataglobal.org\/reading\/","topics":[]},{"id":"LO.EGRA.CLPM.ENG.4GRD","name":"EGRA: Correct Letter Names Read Per Minute (Mean). English. 4th Grade","source":{"id":"12","value":"Education Statistics"},"sourceNote":"Average number of letter names that students could read per minute. In this EGRA subtask, assessors present students with a sheet listing between 50 and 100 upper- and lowercase letters of the alphabet (in some languages, graphemes, or sets of letters and\/or symbols representing a single sound, are presented). Students are asked to provide the names of all the letters that they can in one minute. Users are discouraged from using these data to make direct comparisons across countries or languages. Consult the EdData website and the specific country report for more information: www.eddataglobal.org.","sourceOrganization":"Early Grade Reading Assessment (EGRA): https:\/\/www.eddataglobal.org\/reading\/","topics":[]},{"id":"LO.EGRA.CLPM.ENG.3GRD","name":"EGRA: Correct Letter Names Read Per Minute (Mean). English. 3rd Grade","source":{"id":"12","value":"Education Statistics"},"sourceNote":"Average number of letter names that students could read per minute. In this EGRA subtask, assessors present students with a sheet listing between 50 and 100 upper- and lowercase letters of the alphabet (in some languages, graphemes, or sets of letters and\/or symbols representing a single sound, are presented). Students are asked to provide the names of all the letters that they can in one minute. Users are discouraged from using these data to make direct comparisons across countries or languages. Consult the EdData website and the specific country report for more information: www.eddataglobal.org.","sourceOrganization":"Early Grade Reading Assessment (EGRA): https:\/\/www.eddataglobal.org\/reading\/","topics":[]},{"id":"LO.EGRA.CLPM.ENG.2GRD","name":"EGRA: Correct Letter Names Read Per Minute (Mean). English. 2nd Grade","source":{"id":"12","value":"Education Statistics"},"sourceNote":"Average number of letter names that students could read per minute. In this EGRA subtask, assessors present students with a sheet listing between 50 and 100 upper- and lowercase letters of the alphabet (in some languages, graphemes, or sets of letters and\/or symbols representing a single sound, are presented). Students are asked to provide the names of all the letters that they can in one minute. Users are discouraged from using these data to make direct comparisons across countries or languages. Consult the EdData website and the specific country report for more information: www.eddataglobal.org.","sourceOrganization":"Early Grade Reading Assessment (EGRA): https:\/\/www.eddataglobal.org\/reading\/","topics":[]},{"id":"LO.EGRA.CLPM.CHC.4GRD","name":"EGRA: Correct Letter Names Read Per Minute (Mean). Chichewa. 4th Grade","source":{"id":"12","value":"Education Statistics"},"sourceNote":"Average number of letter names that students could read per minute. In this EGRA subtask, assessors present students with a sheet listing between 50 and 100 upper- and lowercase letters of the alphabet (in some languages, graphemes, or sets of letters and\/or symbols representing a single sound, are presented). Students are asked to provide the names of all the letters that they can in one minute. Users are discouraged from using these data to make direct comparisons across countries or languages. Consult the EdData website and the specific country report for more information: www.eddataglobal.org.","sourceOrganization":"Early Grade Reading Assessment (EGRA): https:\/\/www.eddataglobal.org\/reading\/","topics":[]},{"id":"LO.EGRA.CLPM.CHC.2GRD","name":"EGRA: Correct Letter Names Read Per Minute (Mean). Chichewa. 2nd Grade","source":{"id":"12","value":"Education Statistics"},"sourceNote":"Average number of letter names that students could read per minute. In this EGRA subtask, assessors present students with a sheet listing between 50 and 100 upper- and lowercase letters of the alphabet (in some languages, graphemes, or sets of letters and\/or symbols representing a single sound, are presented). Students are asked to provide the names of all the letters that they can in one minute. Users are discouraged from using these data to make direct comparisons across countries or languages. Consult the EdData website and the specific country report for more information: www.eddataglobal.org.","sourceOrganization":"Early Grade Reading Assessment (EGRA): https:\/\/www.eddataglobal.org\/reading\/","topics":[]},{"id":"LO.EGRA.CLPM.BOM.2GRD","name":"EGRA: Correct Letter Names Read Per Minute (Mean). Bomu. 2nd Grade","source":{"id":"12","value":"Education Statistics"},"sourceNote":"Average number of letter names that students could read per minute. In this EGRA subtask, assessors present students with a sheet listing between 50 and 100 upper- and lowercase letters of the alphabet (in some languages, graphemes, or sets of letters and\/or symbols representing a single sound, are presented). Students are asked to provide the names of all the letters that they can in one minute. Users are discouraged from using these data to make direct comparisons across countries or languages. Consult the EdData website and the specific country report for more information: www.eddataglobal.org.","sourceOrganization":"Early Grade Reading Assessment (EGRA): https:\/\/www.eddataglobal.org\/reading\/","topics":[]},{"id":"LO.EGRA.CLPM.BMN.2GRD","name":"EGRA: Correct Letter Names Read Per Minute (Mean). Bamanankan. 2nd Grade","source":{"id":"12","value":"Education Statistics"},"sourceNote":"Average number of letter names that students could read per minute. In this EGRA subtask, assessors present students with a sheet listing between 50 and 100 upper- and lowercase letters of the alphabet (in some languages, graphemes, or sets of letters and\/or symbols representing a single sound, are presented). Students are asked to provide the names of all the letters that they can in one minute. Users are discouraged from using these data to make direct comparisons across countries or languages. Consult the EdData website and the specific country report for more information: www.eddataglobal.org.","sourceOrganization":"Early Grade Reading Assessment (EGRA): https:\/\/www.eddataglobal.org\/reading\/","topics":[]},{"id":"LO.EGRA.CLPM.AMH.3GRD","name":"EGRA: Correct Letter Names Read Per Minute (Mean). Amharic. 3rd Grade","source":{"id":"12","value":"Education Statistics"},"sourceNote":"Average number of letter names that students could read per minute. In this EGRA subtask, assessors present students with a sheet listing between 50 and 100 upper- and lowercase letters of the alphabet (in some languages, graphemes, or sets of letters and\/or symbols representing a single sound, are presented). Students are asked to provide the names of all the letters that they can in one minute. Users are discouraged from using these data to make direct comparisons across countries or languages. Consult the EdData website and the specific country report for more information: www.eddataglobal.org.","sourceOrganization":"Early Grade Reading Assessment (EGRA): https:\/\/www.eddataglobal.org\/reading\/","topics":[]},{"id":"LO.EGRA.CLPM.AMH.2GRD","name":"EGRA: Correct Letter Names Read Per Minute (Mean). Amharic. 2nd Grade","source":{"id":"12","value":"Education Statistics"},"sourceNote":"Average number of letter names that students could read per minute. In this EGRA subtask, assessors present students with a sheet listing between 50 and 100 upper- and lowercase letters of the alphabet (in some languages, graphemes, or sets of letters and\/or symbols representing a single sound, are presented). Students are asked to provide the names of all the letters that they can in one minute. Users are discouraged from using these data to make direct comparisons across countries or languages. Consult the EdData website and the specific country report for more information: www.eddataglobal.org.","sourceOrganization":"Early Grade Reading Assessment (EGRA): https:\/\/www.eddataglobal.org\/reading\/","topics":[]},{"id":"LO.EGRA.CLPM.AFA.3GRD","name":"EGRA: Correct Letter Names Read Per Minute (Mean). Afan Oromo. 3rd Grade","source":{"id":"12","value":"Education Statistics"},"sourceNote":"Average number of letter names that students could read per minute. In this EGRA subtask, assessors present students with a sheet listing between 50 and 100 upper- and lowercase letters of the alphabet (in some languages, graphemes, or sets of letters and\/or symbols representing a single sound, are presented). Students are asked to provide the names of all the letters that they can in one minute. Users are discouraged from using these data to make direct comparisons across countries or languages. Consult the EdData website and the specific country report for more information: www.eddataglobal.org.","sourceOrganization":"Early Grade Reading Assessment (EGRA): https:\/\/www.eddataglobal.org\/reading\/","topics":[]},{"id":"LO.EGRA.CLPM.AFA.2GRD","name":"EGRA: Correct Letter Names Read Per Minute (Mean). Afan Oromo. 2nd Grade","source":{"id":"12","value":"Education Statistics"},"sourceNote":"Average number of letter names that students could read per minute. In this EGRA subtask, assessors present students with a sheet listing between 50 and 100 upper- and lowercase letters of the alphabet (in some languages, graphemes, or sets of letters and\/or symbols representing a single sound, are presented). Students are asked to provide the names of all the letters that they can in one minute. Users are discouraged from using these data to make direct comparisons across countries or languages. Consult the EdData website and the specific country report for more information: www.eddataglobal.org.","sourceOrganization":"Early Grade Reading Assessment (EGRA): https:\/\/www.eddataglobal.org\/reading\/","topics":[]},{"id":"LND.TOTL.K2","name":"Total Area (in Km²)","source":{"id":"45","value":"INDO-DAPOER"},"sourceNote":"","sourceOrganization":"BADAN PUSAT STATISTIK - Statistics Indonesia","topics":[]},{"id":"LEAD","name":"Lead, cents\/kg, current$","source":{"id":"21","value":"Global Economic Monitor (GEM) Commodities"},"sourceNote":"Lead (LME), refined, 99.97% purity, settlement price","sourceOrganization":"Platts Metals Week, Engineering and Mining Journal; Thomson Reuters Datastream; World Bank.","topics":[]},{"id":"LAMB","name":"Meat, sheep, cents\/kg, current$","source":{"id":"21","value":"Global Economic Monitor (GEM) Commodities"},"sourceNote":"Meat, chicken (US), broiler\/fryer, whole birds, 2-1\/2 to 3 pounds, USDA grade \"A\", ice-packed, Georgia Dock preliminary weighted average, wholesale","sourceOrganization":"Meat Trade Journal; World Bank.","topics":[]},{"id":"KZINC","name":"Zinc, cents\/kg, constant 2000$","source":{"id":"21","value":"Global Economic Monitor (GEM) Commodities"},"sourceNote":"","sourceOrganization":"World Bank.","topics":[]},{"id":"KWOODPULP","name":"Woodpulp, $\/mt, constant 2000$","source":{"id":"21","value":"Global Economic Monitor (GEM) Commodities"},"sourceNote":"","sourceOrganization":"World Bank.","topics":[]},{"id":"KWHEAT_US_SRW","name":"Wheat, US, SRW, $\/mt, constant 2000$","source":{"id":"21","value":"Global Economic Monitor (GEM) Commodities"},"sourceNote":"","sourceOrganization":"World Bank.","topics":[]},{"id":"KWHEAT_US_HRW","name":"Wheat, US, HRW, $\/mt, constant 2000$","source":{"id":"21","value":"Global Economic Monitor (GEM) Commodities"},"sourceNote":"","sourceOrganization":"World Bank.","topics":[]},{"id":"KWHEAT_CANADI","name":"Wheat, Canada, $\/mtv, constant 2000$","source":{"id":"21","value":"Global Economic Monitor (GEM) Commodities"},"sourceNote":"","sourceOrganization":"World Bank.","topics":[]},{"id":"KUREA_EE_BULK","name":"Urea, E. Europe, bulk, $\/mt, constant 2000$","source":{"id":"21","value":"Global Economic Monitor (GEM) Commodities"},"sourceNote":"","sourceOrganization":"","topics":[]},{"id":"KTSP","name":"TSP, $\/mt, constant 2000$","source":{"id":"21","value":"Global Economic Monitor (GEM) Commodities"},"sourceNote":"","sourceOrganization":"World Bank.","topics":[]},{"id":"KTOBAC_US","name":"Tobacco, $\/mt, constant 2000$","source":{"id":"21","value":"Global Economic Monitor (GEM) Commodities"},"sourceNote":"","sourceOrganization":"World Bank.","topics":[]},{"id":"KTIN","name":"Tin, cents\/kg, constant 2000$","source":{"id":"21","value":"Global Economic Monitor (GEM) Commodities"},"sourceNote":"","sourceOrganization":"World Bank.","topics":[]},{"id":"KTEA_MOMBASA","name":"Tea, Mombasa auctions, cents\/kg, constant 2000$","source":{"id":"21","value":"Global Economic Monitor (GEM) Commodities"},"sourceNote":"","sourceOrganization":"World Bank.","topics":[]},{"id":"KTEA_KOLKATA","name":"Tea, Kokata auctions, cents\/kg, constant 2000$","source":{"id":"21","value":"Global Economic Monitor (GEM) Commodities"},"sourceNote":"","sourceOrganization":"World Bank.","topics":[]},{"id":"KTEA_COLOMBO","name":"Tea, Colombo auctions, cents\/kg, constant 2000$","source":{"id":"21","value":"Global Economic Monitor (GEM) Commodities"},"sourceNote":"","sourceOrganization":"World Bank.","topics":[]},{"id":"KTEA_AVG","name":"Tea, auctions (3) average, cents\/kg, constant 2000$","source":{"id":"21","value":"Global Economic Monitor (GEM) Commodities"},"sourceNote":"","sourceOrganization":"World Bank.","topics":[]},{"id":"KSUGAR_WLD","name":"Sugar, world, cents\/kg, constant 2000$","source":{"id":"21","value":"Global Economic Monitor (GEM) Commodities"},"sourceNote":"","sourceOrganization":"World Bank.","topics":[]},{"id":"KSUGAR_US","name":"Sugar, US, cents\/kg, constant 2000$","source":{"id":"21","value":"Global Economic Monitor (GEM) Commodities"},"sourceNote":"","sourceOrganization":"World Bank.","topics":[]},{"id":"KSUGAR_EU","name":"Sugar, EU, cents\/kg, constant 2000$","source":{"id":"21","value":"Global Economic Monitor (GEM) Commodities"},"sourceNote":"","sourceOrganization":"World Bank.","topics":[]},{"id":"KSTL_JP_WIROD","name":"Steel wire rod, $\/mt, constant 2000$","source":{"id":"21","value":"Global Economic Monitor (GEM) Commodities"},"sourceNote":"","sourceOrganization":"World Bank.","topics":[]},{"id":"KSTL_JP_REBAR","name":"Steel, rebar, $\/mt, constant 2000$","source":{"id":"21","value":"Global Economic Monitor (GEM) Commodities"},"sourceNote":"","sourceOrganization":"World Bank.","topics":[]},{"id":"KSTL_JP_HROLL","name":"Steel hr coilsheet, $\/mt, constant 2000$","source":{"id":"21","value":"Global Economic Monitor (GEM) Commodities"},"sourceNote":"","sourceOrganization":"World Bank.","topics":[]},{"id":"KSTL_JP_CROLL","name":"Steel cr coilsheet, $\/mt, constant 2000$","source":{"id":"21","value":"Global Economic Monitor (GEM) Commodities"},"sourceNote":"","sourceOrganization":"World Bank.","topics":[]},{"id":"KSOYBEANS","name":"Soybeans, $\/mt, constant 2000$","source":{"id":"21","value":"Global Economic Monitor (GEM) Commodities"},"sourceNote":"","sourceOrganization":"World Bank.","topics":[]},{"id":"KSOYBEAN_OIL","name":"Soybean oil, $\/mt, constant 2000$","source":{"id":"21","value":"Global Economic Monitor (GEM) Commodities"},"sourceNote":"","sourceOrganization":"World Bank.","topics":[]},{"id":"KSOYBEAN_MEAL","name":"Soybean meal, $\/mt, constant 2000$","source":{"id":"21","value":"Global Economic Monitor (GEM) Commodities"},"sourceNote":"","sourceOrganization":"World Bank.","topics":[]},{"id":"KSORGHUM","name":"Sorghum, $\/mt, constant 2000$","source":{"id":"21","value":"Global Economic Monitor (GEM) Commodities"},"sourceNote":"","sourceOrganization":"World Bank.","topics":[]},{"id":"KSILVER","name":"Silver, cents\/toz, constant 2000$","source":{"id":"21","value":"Global Economic Monitor (GEM) Commodities"},"sourceNote":"","sourceOrganization":"World Bank.","topics":[]},{"id":"KSHRIMP_MEX","name":"Shrimp, Mexico, cents\/kg, constant 2000$","source":{"id":"21","value":"Global Economic Monitor (GEM) Commodities"},"sourceNote":"","sourceOrganization":"World Bank.","topics":[{}]}]]