[{"page":169,"pages":324,"per_page":"50","total":16174},[{"id":"per_lm_pa.adq_q4_urb","name":"Adequacy of benefits in 4th quintile (%) - Passive Labor Market -urban","source":{"id":"29","value":"Global Social Protection"},"sourceNote":"","sourceOrganization":"The Atlas of Social Protection: Indicators of Resilience and Equity (ASPIRE)","topics":[]},{"id":"per_lm_pa.adq_q4_tot","name":"Adequacy of benefits in 4th quintile (%) - Passive Labor Market ","source":{"id":"29","value":"Global Social Protection"},"sourceNote":"","sourceOrganization":"The Atlas of Social Protection: Indicators of Resilience and Equity (ASPIRE)","topics":[]},{"id":"per_lm_pa.adq_q4_rur","name":"Adequacy of benefits in 4th quintile (%) - Passive Labor Market -rural","source":{"id":"29","value":"Global Social Protection"},"sourceNote":"","sourceOrganization":"The Atlas of Social Protection: Indicators of Resilience and Equity (ASPIRE)","topics":[]},{"id":"per_lm_pa.adq_q4_preT_tot","name":"Adequacy of benefits in 4th quintile (%) - Passive Labor Market (preT)","source":{"id":"29","value":"Global Social Protection"},"sourceNote":"","sourceOrganization":"The Atlas of Social Protection: Indicators of Resilience and Equity (ASPIRE)","topics":[]},{"id":"per_lm_pa.adq_q3_urb","name":"Adequacy of benefits in 3rd quintile (%) - Passive Labor Market -urban","source":{"id":"29","value":"Global Social Protection"},"sourceNote":"","sourceOrganization":"The Atlas of Social Protection: Indicators of Resilience and Equity (ASPIRE)","topics":[]},{"id":"per_lm_pa.adq_q3_tot","name":"Adequacy of benefits in 3rd quintile (%) - Passive Labor Market ","source":{"id":"29","value":"Global Social Protection"},"sourceNote":"","sourceOrganization":"The Atlas of Social Protection: Indicators of Resilience and Equity (ASPIRE)","topics":[]},{"id":"per_lm_pa.adq_q3_rur","name":"Adequacy of benefits in 3rd quintile (%) - Passive Labor Market -rural","source":{"id":"29","value":"Global Social Protection"},"sourceNote":"","sourceOrganization":"The Atlas of Social Protection: Indicators of Resilience and Equity (ASPIRE)","topics":[]},{"id":"per_lm_pa.adq_q3_preT_tot","name":"Adequacy of benefits in 3rd quintile (%) - Passive Labor Market (preT)","source":{"id":"29","value":"Global Social Protection"},"sourceNote":"","sourceOrganization":"The Atlas of Social Protection: Indicators of Resilience and Equity (ASPIRE)","topics":[]},{"id":"per_lm_pa.adq_q2_urb","name":"Adequacy of benefits in 2nd quintile (%) - Passive Labor Market -urban","source":{"id":"29","value":"Global Social Protection"},"sourceNote":"","sourceOrganization":"The Atlas of Social Protection: Indicators of Resilience and Equity (ASPIRE)","topics":[]},{"id":"per_lm_pa.adq_q2_tot","name":"Adequacy of benefits in 2nd quintile (%) - Passive Labor Market ","source":{"id":"29","value":"Global Social Protection"},"sourceNote":"","sourceOrganization":"The Atlas of Social Protection: Indicators of Resilience and Equity (ASPIRE)","topics":[]},{"id":"per_lm_pa.adq_q2_rur","name":"Adequacy of benefits in 2nd quintile (%) - Passive Labor Market -rural","source":{"id":"29","value":"Global Social Protection"},"sourceNote":"","sourceOrganization":"The Atlas of Social Protection: Indicators of Resilience and Equity (ASPIRE)","topics":[]},{"id":"per_lm_pa.adq_q2_preT_tot","name":"Adequacy of benefits in 2nd quintile (%) - Passive Labor Market (preT)","source":{"id":"29","value":"Global Social Protection"},"sourceNote":"","sourceOrganization":"The Atlas of Social Protection: Indicators of Resilience and Equity (ASPIRE)","topics":[]},{"id":"per_lm_pa.adq_q1_urb","name":"Adequacy of benefits in poorest quintile (%) - Passive Labor Market -urban","source":{"id":"29","value":"Global Social Protection"},"sourceNote":"","sourceOrganization":"The Atlas of Social Protection: Indicators of Resilience and Equity (ASPIRE)","topics":[]},{"id":"per_lm_pa.adq_q1_tot","name":"Adequacy of benefits in poorest quintile (%) - Passive Labor Market ","source":{"id":"29","value":"Global Social Protection"},"sourceNote":"","sourceOrganization":"The Atlas of Social Protection: Indicators of Resilience and Equity (ASPIRE)","topics":[]},{"id":"per_lm_pa.adq_q1_rur","name":"Adequacy of benefits in poorest quintile (%) - Passive Labor Market -rural","source":{"id":"29","value":"Global Social Protection"},"sourceNote":"","sourceOrganization":"The Atlas of Social Protection: Indicators of Resilience and Equity (ASPIRE)","topics":[]},{"id":"per_lm_pa.adq_q1_preT_tot","name":"Adequacy of benefits in poorest quintile (%) - Passive Labor Market (preT)","source":{"id":"29","value":"Global Social Protection"},"sourceNote":"","sourceOrganization":"The Atlas of Social Protection: Indicators of Resilience and Equity (ASPIRE)","topics":[]},{"id":"per_lm_pa.adq_pop_urb","name":"Adequacy of benefits (%) - Passive Labor Market -urban","source":{"id":"29","value":"Global Social Protection"},"sourceNote":"","sourceOrganization":"The Atlas of Social Protection: Indicators of Resilience and Equity (ASPIRE)","topics":[]},{"id":"per_lm_pa.adq_pop_tot","name":"Adequacy of benefits (%) - Passive Labor Market ","source":{"id":"29","value":"Global Social Protection"},"sourceNote":"","sourceOrganization":"The Atlas of Social Protection: Indicators of Resilience and Equity (ASPIRE)","topics":[]},{"id":"per_lm_pa.adq_pop_rur","name":"Adequacy of benefits (%) - Passive Labor Market -rural","source":{"id":"29","value":"Global Social Protection"},"sourceNote":"","sourceOrganization":"The Atlas of Social Protection: Indicators of Resilience and Equity (ASPIRE)","topics":[]},{"id":"per_lm_pa.adq_pop_preT_tot","name":"Adequacy of benefits (%) - Passive Labor Market (preT)","source":{"id":"29","value":"Global Social Protection"},"sourceNote":"","sourceOrganization":"The Atlas of Social Protection: Indicators of Resilience and Equity (ASPIRE)","topics":[]},{"id":"per_lm_pa.adq_ep_tot","name":"Adequacy of benefits in extreme poor (<$1.25 a day) (%) - Passive Labor Market ","source":{"id":"29","value":"Global Social Protection"},"sourceNote":"","sourceOrganization":"The Atlas of Social Protection: Indicators of Resilience and Equity (ASPIRE)","topics":[]},{"id":"per_lm_pa.adq_ep_preT_tot","name":"Adequacy of benefits in extreme poor (<$1.25 a day) (%) - Passive Labor Market  (preT)","source":{"id":"29","value":"Global Social Protection"},"sourceNote":"","sourceOrganization":"The Atlas of Social Protection: Indicators of Resilience and Equity (ASPIRE)","topics":[]},{"id":"per_lm_alllm_p1_urb","name":"Poverty Gap reduction (%) -  All Labor Market  - poorest quintile -urban","source":{"id":"29","value":"Global Social Protection"},"sourceNote":"NULL","sourceOrganization":"The Atlas of Social Protection: Indicators of Resilience and Equity (ASPIRE)","topics":[{"id":"10","value":"Social Protection & Labor"}]},{"id":"per_lm_alllm_p1_tot","name":"Poverty Gap reduction (%) -  All Labor Market  -poorest quintile","source":{"id":"29","value":"Global Social Protection"},"sourceNote":"NULL","sourceOrganization":"The Atlas of Social Protection: Indicators of Resilience and Equity (ASPIRE)","topics":[{"id":"10","value":"Social Protection & Labor"}]},{"id":"per_lm_alllm_p1_rur","name":"Poverty Gap reduction (%) -  All Labor Market  -poorest quintile -rural","source":{"id":"29","value":"Global Social Protection"},"sourceNote":"NULL","sourceOrganization":"The Atlas of Social Protection: Indicators of Resilience and Equity (ASPIRE)","topics":[{"id":"10","value":"Social Protection & Labor"}]},{"id":"per_lm_alllm_p1_preT_tot","name":"Poverty Gap reduction (%) -  All Labor Market  -poorest quintile (preT)","source":{"id":"29","value":"Global Social Protection"},"sourceNote":"NULL","sourceOrganization":"The Atlas of Social Protection: Indicators of Resilience and Equity (ASPIRE)","topics":[{"id":"10","value":"Social Protection & Labor"}]},{"id":"per_lm_alllm_p1_ep_tot","name":"Poverty Gap reduction (%) -  All Labor Market  -extreme poor (<$1.25 a day)","source":{"id":"29","value":"Global Social Protection"},"sourceNote":"NULL","sourceOrganization":"The Atlas of Social Protection: Indicators of Resilience and Equity (ASPIRE)","topics":[{"id":"10","value":"Social Protection & Labor"}]},{"id":"per_lm_alllm_p1_ep_preT_tot","name":"Poverty Gap reduction (%) -  All Labor Market  -extreme poor (<$1.25 a day) (preT)","source":{"id":"29","value":"Global Social Protection"},"sourceNote":"NULL","sourceOrganization":"The Atlas of Social Protection: Indicators of Resilience and Equity (ASPIRE)","topics":[{"id":"10","value":"Social Protection & Labor"}]},{"id":"per_lm_alllm_p0_urb","name":"Poverty Headcount reduction (%) -  All Labor Market  - poorest quintile -urban","source":{"id":"29","value":"Global Social Protection"},"sourceNote":"NULL","sourceOrganization":"The Atlas of Social Protection: Indicators of Resilience and Equity (ASPIRE)","topics":[{"id":"10","value":"Social Protection & Labor"}]},{"id":"per_lm_alllm_p0_tot","name":"Poverty Headcount reduction (%) -  All Labor Market  -poorest quintile","source":{"id":"29","value":"Global Social Protection"},"sourceNote":"NULL","sourceOrganization":"The Atlas of Social Protection: Indicators of Resilience and Equity (ASPIRE)","topics":[{"id":"10","value":"Social Protection & Labor"}]},{"id":"per_lm_alllm_p0_rur","name":"Poverty Headcount reduction (%) -  All Labor Market  -poorest quintile -rural","source":{"id":"29","value":"Global Social Protection"},"sourceNote":"NULL","sourceOrganization":"The Atlas of Social Protection: Indicators of Resilience and Equity (ASPIRE)","topics":[{"id":"10","value":"Social Protection & Labor"}]},{"id":"per_lm_alllm_p0_preT_tot","name":"Poverty Headcount reduction (%) -  All Labor Market  -poorest quintile (preT)","source":{"id":"29","value":"Global Social Protection"},"sourceNote":"NULL","sourceOrganization":"The Atlas of Social Protection: Indicators of Resilience and Equity (ASPIRE)","topics":[{"id":"10","value":"Social Protection & Labor"}]},{"id":"per_lm_alllm_p0_ep_tot","name":"Poverty Headcount reduction (%) -  All Labor Market  -extreme poor (<$1.25 a day)","source":{"id":"29","value":"Global Social Protection"},"sourceNote":"NULL","sourceOrganization":"The Atlas of Social Protection: Indicators of Resilience and Equity (ASPIRE)","topics":[{"id":"10","value":"Social Protection & Labor"}]},{"id":"per_lm_alllm_p0_ep_preT_tot","name":"Poverty Headcount reduction (%) -  All Labor Market  -extreme poor (<$1.25 a day) (preT)","source":{"id":"29","value":"Global Social Protection"},"sourceNote":"NULL","sourceOrganization":"The Atlas of Social Protection: Indicators of Resilience and Equity (ASPIRE)","topics":[{"id":"10","value":"Social Protection & Labor"}]},{"id":"per_lm_alllm_gini_urb","name":"Gini inequality reduction (%) -  All Labor Market  - poorest quintile -urban","source":{"id":"29","value":"Global Social Protection"},"sourceNote":"NULL","sourceOrganization":"The Atlas of Social Protection: Indicators of Resilience and Equity (ASPIRE)","topics":[{"id":"10","value":"Social Protection & Labor"}]},{"id":"per_lm_alllm_gini_tot","name":"Gini inequality reduction (%) -  All Labor Market  -poorest quintile","source":{"id":"29","value":"Global Social Protection"},"sourceNote":"NULL","sourceOrganization":"The Atlas of Social Protection: Indicators of Resilience and Equity (ASPIRE)","topics":[{"id":"10","value":"Social Protection & Labor"}]},{"id":"per_lm_alllm_gini_rur","name":"Gini inequality reduction (%) -  All Labor Market  -poorest quintile -rural","source":{"id":"29","value":"Global Social Protection"},"sourceNote":"NULL","sourceOrganization":"The Atlas of Social Protection: Indicators of Resilience and Equity (ASPIRE)","topics":[{"id":"10","value":"Social Protection & Labor"}]},{"id":"per_lm_alllm_gini_preT_tot","name":"Gini inequality reduction (%) -  All Labor Market  -poorest quintile (preT)","source":{"id":"29","value":"Global Social Protection"},"sourceNote":"NULL","sourceOrganization":"The Atlas of Social Protection: Indicators of Resilience and Equity (ASPIRE)","topics":[{"id":"10","value":"Social Protection & Labor"}]},{"id":"per_lm_alllm_gini_ep_tot","name":"Gini inequality reduction (%) -  All Labor Market  -extreme poor (<$1.25 a day)","source":{"id":"29","value":"Global Social Protection"},"sourceNote":"NULL","sourceOrganization":"The Atlas of Social Protection: Indicators of Resilience and Equity (ASPIRE)","topics":[{"id":"10","value":"Social Protection & Labor"}]},{"id":"per_lm_alllm_gini_ep_preT_tot","name":"Gini inequality reduction (%) -  All Labor Market  -extreme poor (<$1.25 a day) (preT)","source":{"id":"29","value":"Global Social Protection"},"sourceNote":"NULL","sourceOrganization":"The Atlas of Social Protection: Indicators of Resilience and Equity (ASPIRE)","topics":[{"id":"10","value":"Social Protection & Labor"}]},{"id":"per_lm_alllm.cov_q5_urb","name":"Coverage in richest quintile (%) - All Labor Market -urban","source":{"id":"29","value":"Global Social Protection"},"sourceNote":"NULL","sourceOrganization":"The Atlas of Social Protection: Indicators of Resilience and Equity (ASPIRE)","topics":[{"id":"10","value":"Social Protection & Labor"}]},{"id":"per_lm_alllm.cov_q5_tot","name":"Coverage of unemployment benefits and ALMP in richest quintile (% of population)","source":{"id":"2","value":"World Development Indicators"},"sourceNote":"Coverage of unemployment benefits and active labor market programs (ALMP) shows the percentage of population participating in unemployment compensation, severance pay, and early retirement due to labor market reasons, labor market services (intermediation), training (vocational, life skills, and cash for training), job rotation and job sharing, employment incentives and wage subsidies, supported employment and rehabilitation, and employment measures for the disabled. Estimates include both direct and indirect beneficiaries.","sourceOrganization":"The Atlas of Social Protection: Indicators of Resilience and Equity (ASPIRE)","topics":[{"id":"10","value":"Social Protection & Labor"}]},{"id":"per_lm_alllm.cov_q5_rur","name":"Coverage in richest quintile (%) - All Labor Market -rural","source":{"id":"29","value":"Global Social Protection"},"sourceNote":"NULL","sourceOrganization":"The Atlas of Social Protection: Indicators of Resilience and Equity (ASPIRE)","topics":[{"id":"10","value":"Social Protection & Labor"}]},{"id":"per_lm_alllm.cov_q5_preT_tot","name":"Coverage in richest quintile (%) - All Labor Market (preT)","source":{"id":"29","value":"Global Social Protection"},"sourceNote":"NULL","sourceOrganization":"The Atlas of Social Protection: Indicators of Resilience and Equity (ASPIRE)","topics":[{"id":"10","value":"Social Protection & Labor"}]},{"id":"per_lm_alllm.cov_q4_urb","name":"Coverage in 4th quintile (%) - All Labor Market -urban","source":{"id":"29","value":"Global Social Protection"},"sourceNote":"NULL","sourceOrganization":"The Atlas of Social Protection: Indicators of Resilience and Equity (ASPIRE)","topics":[{"id":"10","value":"Social Protection & Labor"}]},{"id":"per_lm_alllm.cov_q4_tot","name":"Coverage of unemployment benefits and ALMP in 4th quintile (% of population)","source":{"id":"2","value":"World Development Indicators"},"sourceNote":"Coverage of unemployment benefits and active labor market programs (ALMP) shows the percentage of population participating in unemployment compensation, severance pay, and early retirement due to labor market reasons, labor market services (intermediation), training (vocational, life skills, and cash for training), job rotation and job sharing, employment incentives and wage subsidies, supported employment and rehabilitation, and employment measures for the disabled. Estimates include both direct and indirect beneficiaries.","sourceOrganization":"The Atlas of Social Protection: Indicators of Resilience and Equity (ASPIRE)","topics":[{"id":"10","value":"Social Protection & Labor"}]},{"id":"per_lm_alllm.cov_q4_rur","name":"Coverage in 4th quintile (%) - All Labor Market -rural","source":{"id":"29","value":"Global Social Protection"},"sourceNote":"NULL","sourceOrganization":"The Atlas of Social Protection: Indicators of Resilience and Equity (ASPIRE)","topics":[{"id":"10","value":"Social Protection & Labor"}]},{"id":"per_lm_alllm.cov_q4_preT_tot","name":"Coverage in 4th quintile (%) - All Labor Market (preT)","source":{"id":"29","value":"Global Social Protection"},"sourceNote":"NULL","sourceOrganization":"The Atlas of Social Protection: Indicators of Resilience and Equity (ASPIRE)","topics":[{"id":"10","value":"Social Protection & Labor"}]},{"id":"per_lm_alllm.cov_q3_urb","name":"Coverage in 3rd quintile (%) - All Labor Market -urban","source":{"id":"29","value":"Global Social Protection"},"sourceNote":"NULL","sourceOrganization":"The Atlas of Social Protection: Indicators of Resilience and Equity (ASPIRE)","topics":[{"id":"10","value":"Social Protection & Labor"}]},{"id":"per_lm_alllm.cov_q3_tot","name":"Coverage of unemployment benefits and ALMP in 3rd quintile (% of population)","source":{"id":"2","value":"World Development Indicators"},"sourceNote":"Coverage of unemployment benefits and active labor market programs (ALMP) shows the percentage of population participating in unemployment compensation, severance pay, and early retirement due to labor market reasons, labor market services (intermediation), training (vocational, life skills, and cash for training), job rotation and job sharing, employment incentives and wage subsidies, supported employment and rehabilitation, and employment measures for the disabled. Estimates include both direct and indirect beneficiaries.","sourceOrganization":"The Atlas of Social Protection: Indicators of Resilience and Equity (ASPIRE)","topics":[{"id":"10","value":"Social Protection & Labor"}]}]]