[{"page":60,"pages":324,"per_page":"50","total":16174},[{"id":"DT.DOD.DIDI.CD.FC.IL.JY.US","name":"Gross Ext. F. Curr Debt Pos., DI: Intercom Lending, All maturities, Debt liab. of DI ent. to dir. investors, Yen, USD","source":{"id":"22","value":"Quarterly External Debt Statistics\/SDDS (New)"},"sourceNote":"","sourceOrganization":"","topics":[]},{"id":"DT.DOD.DIDI.CD.FC.IL.EU.US","name":"Gross Ext. F. Curr Debt Pos., DI: Intercom Lending, All maturities, Debt liab. of DI ent. to dir. investors, Euro, USD","source":{"id":"22","value":"Quarterly External Debt Statistics\/SDDS (New)"},"sourceNote":"","sourceOrganization":"","topics":[]},{"id":"DT.DOD.DECT.T4.AR.US","name":"Public and Publicly Guar. Private Sector Ext. Debt Pos., All maturities, All instruments, USD","source":{"id":"23","value":"Quarterly External Debt Statistics\/GDDS (New)"},"sourceNote":"","sourceOrganization":"","topics":[]},{"id":"DT.DOD.DECT.OT.DS.US","name":"Gross Ext. Debt Pos., Other Sectors, All maturities, Debt Securities, Memo item, USD","source":{"id":"22","value":"Quarterly External Debt Statistics\/SDDS (New)"},"sourceNote":"","sourceOrganization":"","topics":[]},{"id":"DT.DOD.DECT.OT.AR.US","name":"Gross Ext. Debt Pos., Other Sectors, All maturities, All instruments, Arrears, USD","source":{"id":"22","value":"Quarterly External Debt Statistics\/SDDS (New)"},"sourceNote":"","sourceOrganization":"","topics":[]},{"id":"DT.DOD.DECT.MA.DS.US","name":"Gross Ext. Debt Pos., Central Bank, All maturities, Debt Securities, Memo item, USD","source":{"id":"22","value":"Quarterly External Debt Statistics\/SDDS (New)"},"sourceNote":"","sourceOrganization":"","topics":[]},{"id":"DT.DOD.DECT.MA.AR.US","name":"Gross Ext. Debt Pos., Central Bank, All maturities, All instruments, Arrears, USD","source":{"id":"22","value":"Quarterly External Debt Statistics\/SDDS (New)"},"sourceNote":"","sourceOrganization":"","topics":[]},{"id":"DT.DOD.DECT.IL.AR.US","name":"Gross Ext. Debt Pos., DI: Intercom Lending, All maturities, All instruments, Arrears, USD","source":{"id":"22","value":"Quarterly External Debt Statistics\/SDDS (New)"},"sourceNote":"","sourceOrganization":"","topics":[]},{"id":"DT.DOD.DECT.GN.ZS","name":"External debt stocks (% of GNI)","source":{"id":"2","value":"World Development Indicators"},"sourceNote":"Total external debt stocks to gross national income. Total external debt is debt owed to nonresidents repayable in currency, goods, or services. Total external debt is the sum of public, publicly guaranteed, and private nonguaranteed long-term debt, use of IMF credit, and short-term debt. Short-term debt includes all debt having an original maturity of one year or less and interest in arrears on long-term debt. GNI (formerly GNP) is the sum of value added by all resident producers plus any product taxes (less subsidies) not included in the valuation of output plus net receipts of primary income (compensation of employees and property income) from abroad.","sourceOrganization":"World Bank, International Debt Statistics.","topics":[{"id":"3","value":"Economy & Growth"},{"id":"20","value":"External Debt"}]},{"id":"DT.DOD.DECT.GG.DS.US","name":"Gross Ext. Debt Pos., General Government, All maturities, Debt Securities, Memo item, USD","source":{"id":"22","value":"Quarterly External Debt Statistics\/SDDS (New)"},"sourceNote":"","sourceOrganization":"","topics":[]},{"id":"DT.DOD.DECT.GG.AR.US","name":"Gross Ext. Debt Pos., General Government, All maturities, All instruments, Arrears, USD","source":{"id":"22","value":"Quarterly External Debt Statistics\/SDDS (New)"},"sourceNote":"","sourceOrganization":"","topics":[]},{"id":"DT.DOD.DECT.EX.ZS","name":"External debt stocks (% of exports of goods, services and primary income)","source":{"id":"2","value":"World Development Indicators"},"sourceNote":"Total external debt stocks to exports of goods, services and income.","sourceOrganization":"World Bank, International Debt Statistics.","topics":[{"id":"3","value":"Economy & Growth"},{"id":"20","value":"External Debt"}]},{"id":"DT.DOD.DECT.DS.US","name":"Gross Ext. Debt Pos., All Sectors, All maturities, Debt Securities, Memo item, USD","source":{"id":"22","value":"Quarterly External Debt Statistics\/SDDS (New)"},"sourceNote":"","sourceOrganization":"","topics":[]},{"id":"DT.DOD.DECT.DS.T4.US","name":"Public and Publicly Guar. Private Sector Ext. Debt Pos., All maturities, Debt securities, Memo item, USD","source":{"id":"23","value":"Quarterly External Debt Statistics\/GDDS (New)"},"sourceNote":"","sourceOrganization":"","topics":[]},{"id":"DT.DOD.DECT.CD.ZSG","name":"Debt outstanding and disbursed, Total to GDP (% of GDP)","source":{"id":"11","value":"Africa Development Indicators"},"sourceNote":"Total external debt is debt owed to nonresidents repayable in currency, goods, or services. Total external debt is the sum of public, publicly guaranteed, and private nonguaranteed long-term debt, use of IMF credit, and short-term debt. Short-term debt includes all debt having an original maturity of one year or less and interest in arrears on long-term debt. Data expressed as a percentage of GDP at market prices.  ","sourceOrganization":"World Bank, Global Development Finance.","topics":[]},{"id":"DT.DOD.DECT.CD.UC.US","name":"Gross Ext. Debt Pos., All Sectors, All maturities, All instruments, Unallocated, USD","source":{"id":"22","value":"Quarterly External Debt Statistics\/SDDS (New)"},"sourceNote":"","sourceOrganization":"","topics":[]},{"id":"DT.DOD.DECT.CD.UC.T5.US","name":"Public and Publicly Guar. Private Sector Ext. Debt Pos., All Sectors, All maturities, All instruments, Unallocated, USD","source":{"id":"23","value":"Quarterly External Debt Statistics\/GDDS (New)"},"sourceNote":"","sourceOrganization":"","topics":[]},{"id":"DT.DOD.DECT.CD.TO.US","name":"Gross Ext. Debt Pos., All Other Sectors, All maturities, All instruments, USD","source":{"id":"22","value":"Quarterly External Debt Statistics\/SDDS (New)"},"sourceNote":"","sourceOrganization":"","topics":[]},{"id":"DT.DOD.DECT.CD.TL.US","name":"Gross Ext. Debt Pos., All Sectors, All maturities, All instruments, USD","source":{"id":"23","value":"Quarterly External Debt Statistics\/GDDS (New)"},"sourceNote":"","sourceOrganization":"","topics":[]},{"id":"DT.DOD.DECT.CD.TD.NV.US","name":"Gross Ext. Debt Pos., All Sectors, All maturities, Debt Securities, Nominal Value, USD","source":{"id":"22","value":"Quarterly External Debt Statistics\/SDDS (New)"},"sourceNote":"","sourceOrganization":"","topics":[]},{"id":"DT.DOD.DECT.CD.TD.MV.US","name":"Gross Ext. Debt Pos., All Sectors, All maturities, Debt Securities, Market Value, USD","source":{"id":"22","value":"Quarterly External Debt Statistics\/SDDS (New)"},"sourceNote":"","sourceOrganization":"","topics":[]},{"id":"DT.DOD.DECT.CD.TD.MP.US","name":"Gross Ext. Debt Pos., All Sectors, All maturities, Debt Securities, Diff. with Market Value, USD","source":{"id":"22","value":"Quarterly External Debt Statistics\/SDDS (New)"},"sourceNote":"","sourceOrganization":"","topics":[]},{"id":"DT.DOD.DECT.CD.ST.US","name":"Gross Ext. Debt Pos., All Sectors, Short-term, All instruments, USD","source":{"id":"23","value":"Quarterly External Debt Statistics\/GDDS (New)"},"sourceNote":"","sourceOrganization":"","topics":[]},{"id":"DT.DOD.DECT.CD.ST.TD.NV.US","name":"Gross Ext. Debt Pos., All Sectors, Short-term, Debt Securities, Nominal Value, USD","source":{"id":"22","value":"Quarterly External Debt Statistics\/SDDS (New)"},"sourceNote":"","sourceOrganization":"","topics":[]},{"id":"DT.DOD.DECT.CD.ST.TD.MV.US","name":"Gross Ext. Debt Pos., All Sectors, Short-term, Debt Securities, Market Value, USD","source":{"id":"22","value":"Quarterly External Debt Statistics\/SDDS (New)"},"sourceNote":"","sourceOrganization":"","topics":[]},{"id":"DT.DOD.DECT.CD.ST.TD.MP.US","name":"Gross Ext. Debt Pos., All Sectors, Short-term, Debt Securities, Diff. with Market Value, USD","source":{"id":"22","value":"Quarterly External Debt Statistics\/SDDS (New)"},"sourceNote":"","sourceOrganization":"","topics":[]},{"id":"DT.DOD.DECT.CD.PC","name":"Debt outstanding and disbursed, Total per capita (DOD, current US$)","source":{"id":"11","value":"Africa Development Indicators"},"sourceNote":"Total external debt is debt owed to nonresidents repayable in currency, goods, or services. Total external debt is the sum of public, publicly guaranteed, and private nonguaranteed long-term debt, use of IMF credit, and short-term debt. Short-term debt includes all debt having an original maturity of one year or less and interest in arrears on long-term debt.  Data are in current U.S. dollars per inhabitant of the country.  ","sourceOrganization":"World Bank, Global Development Finance.","topics":[]},{"id":"DT.DOD.DECT.CD.OT.TD.NV.US","name":"Gross Ext. Debt Pos., Other Sectors, All maturities, Debt Securities, Nominal Value, USD","source":{"id":"22","value":"Quarterly External Debt Statistics\/SDDS (New)"},"sourceNote":"","sourceOrganization":"","topics":[]},{"id":"DT.DOD.DECT.CD.OT.TD.MV.US","name":"Gross Ext. Debt Pos., Other Sectors, All maturities, Debt Securities, Market Value, USD","source":{"id":"22","value":"Quarterly External Debt Statistics\/SDDS (New)"},"sourceNote":"","sourceOrganization":"","topics":[]},{"id":"DT.DOD.DECT.CD.OT.TD.MP.US","name":"Gross Ext. Debt Pos., Other Sectors, All maturities, Debt Securities, Diff. with Market Value, USD","source":{"id":"22","value":"Quarterly External Debt Statistics\/SDDS (New)"},"sourceNote":"","sourceOrganization":"","topics":[]},{"id":"DT.DOD.DECT.CD.OT.AR.US","name":"Gross Ext. Debt Pos., Other Sectors, All maturities, All instruments, USD","source":{"id":"22","value":"Quarterly External Debt Statistics\/SDDS (New)"},"sourceNote":"","sourceOrganization":"","topics":[]},{"id":"DT.DOD.DECT.CD.OT.AR.TR.US","name":"Gross Ext. Debt Pos., Other Sectors, All maturities, All instruments, Transactions, USD","source":{"id":"22","value":"Quarterly External Debt Statistics\/SDDS (New)"},"sourceNote":"","sourceOrganization":"","topics":[]},{"id":"DT.DOD.DECT.CD.OT.AR.PX.US","name":"Gross Ext. Debt Pos., Other Sectors, All maturities, All instruments, Other price chg, USD","source":{"id":"22","value":"Quarterly External Debt Statistics\/SDDS (New)"},"sourceNote":"","sourceOrganization":"","topics":[]},{"id":"DT.DOD.DECT.CD.OT.AR.OC.US","name":"Gross Ext. Debt Pos., Other Sectors, All maturities, All instruments, Other chg in vol., USD","source":{"id":"22","value":"Quarterly External Debt Statistics\/SDDS (New)"},"sourceNote":"","sourceOrganization":"","topics":[]},{"id":"DT.DOD.DECT.CD.OT.AR.NE.US","name":"Net Ext. Debt Position, Other Sectors, All maturities, All instruments, USD","source":{"id":"22","value":"Quarterly External Debt Statistics\/SDDS (New)"},"sourceNote":"","sourceOrganization":"","topics":[]},{"id":"DT.DOD.DECT.CD.OT.AR.GE.US","name":"Gross Ext. Debt Pos., Other Sectors, All maturities, All instruments, Beginning pos., USD","source":{"id":"22","value":"Quarterly External Debt Statistics\/SDDS (New)"},"sourceNote":"","sourceOrganization":"","topics":[]},{"id":"DT.DOD.DECT.CD.OT.AR.EX.US","name":"Gross Ext. Debt Pos., Other Sectors, All maturities, All instruments, Exchange rate chg, USD","source":{"id":"22","value":"Quarterly External Debt Statistics\/SDDS (New)"},"sourceNote":"","sourceOrganization":"","topics":[]},{"id":"DT.DOD.DECT.CD.OT.AR.EN.US","name":"Gross Ext. Debt Pos., Other Sectors, All maturities, All instruments, end of period, USD","source":{"id":"22","value":"Quarterly External Debt Statistics\/SDDS (New)"},"sourceNote":"","sourceOrganization":"","topics":[]},{"id":"DT.DOD.DECT.CD.OT.AR.EA.US","name":"Ext. Assets in Debt Instruments, Other Sectors, All maturities, All instruments, USD","source":{"id":"22","value":"Quarterly External Debt Statistics\/SDDS (New)"},"sourceNote":"","sourceOrganization":"","topics":[]},{"id":"DT.DOD.DECT.CD.OT.AR.BE.US","name":"Gross Ext. Debt Pos., Other Sectors, All maturities, All instruments, Beginning of period, USD","source":{"id":"22","value":"Quarterly External Debt Statistics\/SDDS (New)"},"sourceNote":"","sourceOrganization":"","topics":[]},{"id":"DT.DOD.DECT.CD.OF.US","name":"Gross Ext. Debt Pos., Other financial corporations, All maturities, All instruments, USD","source":{"id":"22","value":"Quarterly External Debt Statistics\/SDDS (New)"},"sourceNote":"","sourceOrganization":"","topics":[]},{"id":"DT.DOD.DECT.CD.NC.US","name":"Gross Ext. Debt Pos., Nonfinancial corporations, All maturities, All instruments, USD","source":{"id":"22","value":"Quarterly External Debt Statistics\/SDDS (New)"},"sourceNote":"","sourceOrganization":"","topics":[]},{"id":"DT.DOD.DECT.CD.MA.TD.NV.US","name":"Gross Ext. Debt Pos., Central Bank, All maturities, Debt Securities, Nominal Value, USD","source":{"id":"22","value":"Quarterly External Debt Statistics\/SDDS (New)"},"sourceNote":"","sourceOrganization":"","topics":[]},{"id":"DT.DOD.DECT.CD.MA.TD.MV.US","name":"Gross Ext. Debt Pos., Central Bank, All maturities, Debt Securities, Market Value, USD","source":{"id":"22","value":"Quarterly External Debt Statistics\/SDDS (New)"},"sourceNote":"","sourceOrganization":"","topics":[]},{"id":"DT.DOD.DECT.CD.MA.TD.MP.US","name":"Gross Ext. Debt Pos., Central Bank, All maturities, Debt Securities, Diff. with Market Value, USD","source":{"id":"22","value":"Quarterly External Debt Statistics\/SDDS (New)"},"sourceNote":"","sourceOrganization":"","topics":[]},{"id":"DT.DOD.DECT.CD.MA.AR.US","name":"Gross Ext. Debt Pos., Central Bank, All maturities, All instruments, USD","source":{"id":"22","value":"Quarterly External Debt Statistics\/SDDS (New)"},"sourceNote":"","sourceOrganization":"","topics":[]},{"id":"DT.DOD.DECT.CD.MA.AR.TR.US","name":"Gross Ext. Debt Pos., Central Bank, All maturities, All instruments, Transactions, USD","source":{"id":"22","value":"Quarterly External Debt Statistics\/SDDS (New)"},"sourceNote":"","sourceOrganization":"","topics":[]},{"id":"DT.DOD.DECT.CD.MA.AR.PX.US","name":"Gross Ext. Debt Pos., Central Bank, All maturities, All instruments, Other price chg, USD","source":{"id":"22","value":"Quarterly External Debt Statistics\/SDDS (New)"},"sourceNote":"","sourceOrganization":"","topics":[]},{"id":"DT.DOD.DECT.CD.MA.AR.OC.US","name":"Gross Ext. Debt Pos., Central Bank, All maturities, All instruments, Other chg in vol., USD","source":{"id":"22","value":"Quarterly External Debt Statistics\/SDDS (New)"},"sourceNote":"","sourceOrganization":"","topics":[]},{"id":"DT.DOD.DECT.CD.MA.AR.NE.US","name":"Net Ext. Debt Position, Central Bank, All maturities, All instruments, USD","source":{"id":"22","value":"Quarterly External Debt Statistics\/SDDS (New)"},"sourceNote":"","sourceOrganization":"","topics":[{}]}]]