[{"page":317,"pages":324,"per_page":"50","total":16174},[{"id":"WP14922.2","name":"Borrowed for health or medical purposes, male (% age 15+) [w2]","source":{"id":"28","value":"Global Findex ( Global Financial Inclusion database)"},"sourceNote":"Denotes the percentage of respondents who report borrowing any money in the past 12 months (by themselves or together with someone else) for health or medical purposes (male, % age 15+). [w2: data are available for wave 2].","sourceOrganization":"Demirguc-Kunt et al., 2015","topics":[{"id":"7","value":"Financial Sector "}]},{"id":"WP14922.10","name":"Borrowed for health or medical purposes, rural (% age 15+) [w2]","source":{"id":"28","value":"Global Findex ( Global Financial Inclusion database)"},"sourceNote":"Denotes the percentage of respondents who report borrowing any money in the past 12 months (by themselves or together with someone else) for health or medical purposes (rural, % age 15+). [w2: data are available for wave 2].","sourceOrganization":"Demirguc-Kunt et al., 2015","topics":[{"id":"7","value":"Financial Sector "}]},{"id":"WP14922.1","name":"Borrowed for health or medical purposes (% age 15+) [w2]","source":{"id":"28","value":"Global Findex ( Global Financial Inclusion database)"},"sourceNote":"Denotes the percentage of respondents who report borrowing any money in the past 12 months (by themselves or together with someone else) for health or medical purposes (% age 15+). [w2: data are available for wave 2].","sourceOrganization":"Demirguc-Kunt et al., 2015","topics":[{"id":"7","value":"Financial Sector "}]},{"id":"WP14921.9","name":"Borrowed for education or school fees, income, richest 60% (% ages 15+) [w2]","source":{"id":"28","value":"Global Findex ( Global Financial Inclusion database)"},"sourceNote":"Denotes the percentage of respondents who report borrowing any money in the past 12 months (by themselves or together with someone else) for education or school fees (income, richest 60%, % age 15+). [w2: data are available for wave 2].","sourceOrganization":"Demirguc-Kunt et al., 2015","topics":[{"id":"7","value":"Financial Sector "}]},{"id":"WP14921.8","name":"Borrowed for education or school fees, income, poorest 40% (% ages 15+) [w2]","source":{"id":"28","value":"Global Findex ( Global Financial Inclusion database)"},"sourceNote":"Denotes the percentage of respondents who report borrowing any money in the past 12 months (by themselves or together with someone else) for education or school fees (income, poorest 40%, % age 15+). [w2: data are available for wave 2].","sourceOrganization":"Demirguc-Kunt et al., 2015","topics":[{"id":"7","value":"Financial Sector "}]},{"id":"WP14921.7","name":"Borrowed for education or school fees, secondary education or more (% ages 15+) [w2]","source":{"id":"28","value":"Global Findex ( Global Financial Inclusion database)"},"sourceNote":"Denotes the percentage of respondents who report borrowing any money in the past 12 months (by themselves or together with someone else) for education or school fees (secondary education or more, % age 15+). [w2: data are available for wave 2].","sourceOrganization":"Demirguc-Kunt et al., 2015","topics":[{"id":"7","value":"Financial Sector "}]},{"id":"WP14921.6","name":"Borrowed for education or school fees, primary education or less (% ages 15+) [w2]","source":{"id":"28","value":"Global Findex ( Global Financial Inclusion database)"},"sourceNote":"Denotes the percentage of respondents who report borrowing any money in the past 12 months (by themselves or together with someone else) for education or school fees (primary education or less, % age 15+). [w2: data are available for wave 2].","sourceOrganization":"Demirguc-Kunt et al., 2015","topics":[{"id":"7","value":"Financial Sector "}]},{"id":"WP14921.5","name":"Borrowed for education or school fees, older adults (% ages 25+) [w2]","source":{"id":"28","value":"Global Findex ( Global Financial Inclusion database)"},"sourceNote":"Denotes the percentage of respondents who report borrowing any money in the past 12 months (by themselves or together with someone else) for education or school fees (% age 25+). [w2: data are available for wave 2].","sourceOrganization":"Demirguc-Kunt et al., 2015","topics":[{"id":"7","value":"Financial Sector "}]},{"id":"WP14921.4","name":"Borrowed for education or school fees, young adults (% ages 15-24) [w2]","source":{"id":"28","value":"Global Findex ( Global Financial Inclusion database)"},"sourceNote":"Denotes the percentage of respondents who report borrowing any money in the past 12 months (by themselves or together with someone else) for education or school fees (% ages 15-24). [w2: data are available for wave 2].","sourceOrganization":"Demirguc-Kunt et al., 2015","topics":[{"id":"7","value":"Financial Sector "}]},{"id":"WP14921.3","name":"Borrowed for education or school fees, female (% age 15+) [w2]","source":{"id":"28","value":"Global Findex ( Global Financial Inclusion database)"},"sourceNote":"Denotes the percentage of respondents who report borrowing any money in the past 12 months (by themselves or together with someone else) for education or school fees (female, % age 15+). [w2: data are available for wave 2].","sourceOrganization":"Demirguc-Kunt et al., 2015","topics":[{"id":"7","value":"Financial Sector "}]},{"id":"WP14921.2","name":"Borrowed for education or school fees, male (% age 15+) [w2]","source":{"id":"28","value":"Global Findex ( Global Financial Inclusion database)"},"sourceNote":"Denotes the percentage of respondents who report borrowing any money in the past 12 months (by themselves or together with someone else) for education or school fees (male, % age 15+). [w2: data are available for wave 2].","sourceOrganization":"Demirguc-Kunt et al., 2015","topics":[{"id":"7","value":"Financial Sector "}]},{"id":"WP14921.10","name":"Borrowed for education or school fees, rural (% age 15+) [w2]","source":{"id":"28","value":"Global Findex ( Global Financial Inclusion database)"},"sourceNote":"Denotes the percentage of respondents who report borrowing any money in the past 12 months (by themselves or together with someone else) for education or school fees (rural, % age 15+). [w2: data are available for wave 2].","sourceOrganization":"Demirguc-Kunt et al., 2015","topics":[{"id":"7","value":"Financial Sector "}]},{"id":"WP14921.1","name":"Borrowed for education or school fees (% age 15+) [w2]","source":{"id":"28","value":"Global Findex ( Global Financial Inclusion database)"},"sourceNote":"Denotes the percentage of respondents who report borrowing any money in the past 12 months (by themselves or together with someone else) for education or school fees (% age 15+). [w2: data are available for wave 2].","sourceOrganization":"Demirguc-Kunt et al., 2015","topics":[{"id":"7","value":"Financial Sector "}]},{"id":"WP14920.9","name":"Borrowed from a private informal lender, income, richest 60% (% ages 15+) [w2]","source":{"id":"28","value":"Global Findex ( Global Financial Inclusion database)"},"sourceNote":"Denotes the percentage of respondents who report borrowing any money in the past 12 months (by themselves or together with someone else) from a private informal lender (income, richest 60%, % age 15+). [w2: data are available for wave 2].","sourceOrganization":"Demirguc-Kunt et al., 2015","topics":[{"id":"7","value":"Financial Sector "}]},{"id":"WP14920.8","name":"Borrowed from a private informal lender, income, poorest 40% (% ages 15+) [w2]","source":{"id":"28","value":"Global Findex ( Global Financial Inclusion database)"},"sourceNote":"Denotes the percentage of respondents who report borrowing any money in the past 12 months (by themselves or together with someone else) from a private informal lender (income, poorest 40%, % age 15+). [w2: data are available for wave 2].","sourceOrganization":"Demirguc-Kunt et al., 2015","topics":[{"id":"7","value":"Financial Sector "}]},{"id":"WP14920.7","name":"Borrowed from a private informal lender, secondary education or more (% ages 15+) [w2]","source":{"id":"28","value":"Global Findex ( Global Financial Inclusion database)"},"sourceNote":"Denotes the percentage of respondents who report borrowing any money in the past 12 months (by themselves or together with someone else) from a private informal lender (secondary education or more, % age 15+). [w2: data are available for wave 2].","sourceOrganization":"Demirguc-Kunt et al., 2015","topics":[{"id":"7","value":"Financial Sector "}]},{"id":"WP14920.6","name":"Borrowed from a private informal lender, primary education or less (% ages 15+) [w2]","source":{"id":"28","value":"Global Findex ( Global Financial Inclusion database)"},"sourceNote":"Denotes the percentage of respondents who report borrowing any money in the past 12 months (by themselves or together with someone else) from a private informal lender (primary education or less, % age 15+). [w2: data are available for wave 2].","sourceOrganization":"Demirguc-Kunt et al., 2015","topics":[{"id":"7","value":"Financial Sector "}]},{"id":"WP14920.5","name":"Borrowed from a private informal lender, older adults (% ages 25+) [w2]","source":{"id":"28","value":"Global Findex ( Global Financial Inclusion database)"},"sourceNote":"Denotes the percentage of respondents who report borrowing any money in the past 12 months (by themselves or together with someone else) from a private informal lender (% age 25+). [w2: data are available for wave 2].","sourceOrganization":"Demirguc-Kunt et al., 2015","topics":[{"id":"7","value":"Financial Sector "}]},{"id":"WP14920.4","name":"Borrowed from a private informal lender, young adults (% ages 15-24) [w2]","source":{"id":"28","value":"Global Findex ( Global Financial Inclusion database)"},"sourceNote":"Denotes the percentage of respondents who report borrowing any money in the past 12 months (by themselves or together with someone else) from a private informal lender (% ages 15-24). [w2: data are available for wave 2].","sourceOrganization":"Demirguc-Kunt et al., 2015","topics":[{"id":"7","value":"Financial Sector "}]},{"id":"WP14920.3","name":"Borrowed from a private informal lender, female (% age 15+) [w2]","source":{"id":"28","value":"Global Findex ( Global Financial Inclusion database)"},"sourceNote":"Denotes the percentage of respondents who report borrowing any money in the past 12 months (by themselves or together with someone else) from a private informal lender (female, % age 15+). [w2: data are available for wave 2].","sourceOrganization":"Demirguc-Kunt et al., 2015","topics":[{"id":"7","value":"Financial Sector "}]},{"id":"WP14920.2","name":"Borrowed from a private informal lender, male (% age 15+) [w2]","source":{"id":"28","value":"Global Findex ( Global Financial Inclusion database)"},"sourceNote":"Denotes the percentage of respondents who report borrowing any money in the past 12 months (by themselves or together with someone else) from a private informal lender (male, % age 15+). [w2: data are available for wave 2].","sourceOrganization":"Demirguc-Kunt et al., 2015","topics":[{"id":"7","value":"Financial Sector "}]},{"id":"WP14920.10","name":"Borrowed from a private informal lender, rural (% age 15+) [w2]","source":{"id":"28","value":"Global Findex ( Global Financial Inclusion database)"},"sourceNote":"Denotes the percentage of respondents who report borrowing any money in the past 12 months (by themselves or together with someone else) from a private informal lender (rural, % age 15+). [w2: data are available for wave 2].","sourceOrganization":"Demirguc-Kunt et al., 2015","topics":[{"id":"7","value":"Financial Sector "}]},{"id":"WP14920.1","name":"Borrowed from a private informal lender (% age 15+) [w2]","source":{"id":"28","value":"Global Findex ( Global Financial Inclusion database)"},"sourceNote":"Denotes the percentage of respondents who report borrowing any money in the past 12 months (by themselves or together with someone else) from a private informal lender (% age 15+). [w2: data are available for wave 2].","sourceOrganization":"Demirguc-Kunt et al., 2015","topics":[{"id":"7","value":"Financial Sector "}]},{"id":"WP14919.9","name":"Borrowed from family or friends, income, richest 60% (% ages 15+) [w2]","source":{"id":"28","value":"Global Findex ( Global Financial Inclusion database)"},"sourceNote":"Denotes the percentage of respondents who report borrowing any money in the past 12 months (by themselves or together with someone else) from family, relatives, or friends (income, richest 60%, % age 15+). [w2: data are available for wave 2].","sourceOrganization":"Demirguc-Kunt et al., 2015","topics":[{"id":"7","value":"Financial Sector "}]},{"id":"WP14919.8","name":"Borrowed from family or friends, income, poorest 40% (% ages 15+) [w2]","source":{"id":"28","value":"Global Findex ( Global Financial Inclusion database)"},"sourceNote":"Denotes the percentage of respondents who report borrowing any money in the past 12 months (by themselves or together with someone else) from family, relatives, or friends (income, poorest 40%, % age 15+). [w2: data are available for wave 2].","sourceOrganization":"Demirguc-Kunt et al., 2015","topics":[{"id":"7","value":"Financial Sector "}]},{"id":"WP14919.7","name":"Borrowed from family or friends, secondary education or more (% ages 15+) [w2]","source":{"id":"28","value":"Global Findex ( Global Financial Inclusion database)"},"sourceNote":"Denotes the percentage of respondents who report borrowing any money in the past 12 months (by themselves or together with someone else) from family, relatives, or friends (secondary education or more, % age 15+). [w2: data are available for wave 2].","sourceOrganization":"Demirguc-Kunt et al., 2015","topics":[{"id":"7","value":"Financial Sector "}]},{"id":"WP14919.6","name":"Borrowed from family or friends, primary education or less (% ages 15+) [w2]","source":{"id":"28","value":"Global Findex ( Global Financial Inclusion database)"},"sourceNote":"Denotes the percentage of respondents who report borrowing any money in the past 12 months (by themselves or together with someone else) from family, relatives, or friends (primary education or less, % age 15+). [w2: data are available for wave 2].","sourceOrganization":"Demirguc-Kunt et al., 2015","topics":[{"id":"7","value":"Financial Sector "}]},{"id":"WP14919.5","name":"Borrowed from family or friends, older adults (% ages 25+) [w2]","source":{"id":"28","value":"Global Findex ( Global Financial Inclusion database)"},"sourceNote":"Denotes the percentage of respondents who report borrowing any money in the past 12 months (by themselves or together with someone else) from family, relatives, or friends (% age 25+). [w2: data are available for wave 2].","sourceOrganization":"Demirguc-Kunt et al., 2015","topics":[{"id":"7","value":"Financial Sector "}]},{"id":"WP14919.4","name":"Borrowed from family or friends, young adults (% ages 15-24) [w2]","source":{"id":"28","value":"Global Findex ( Global Financial Inclusion database)"},"sourceNote":"Denotes the percentage of respondents who report borrowing any money in the past 12 months (by themselves or together with someone else) from family, relatives, or friends (% ages 15-24). [w2: data are available for wave 2].","sourceOrganization":"Demirguc-Kunt et al., 2015","topics":[{"id":"7","value":"Financial Sector "}]},{"id":"WP14919.3","name":"Borrowed from family or friends, female (% age 15+) [w2]","source":{"id":"28","value":"Global Findex ( Global Financial Inclusion database)"},"sourceNote":"Denotes the percentage of respondents who report borrowing any money in the past 12 months (by themselves or together with someone else) from family, relatives, or friends (female, % age 15+). [w2: data are available for wave 2].","sourceOrganization":"Demirguc-Kunt et al., 2015","topics":[{"id":"7","value":"Financial Sector "}]},{"id":"WP14919.2","name":"Borrowed from family or friends, male (% age 15+) [w2]","source":{"id":"28","value":"Global Findex ( Global Financial Inclusion database)"},"sourceNote":"Denotes the percentage of respondents who report borrowing any money in the past 12 months (by themselves or together with someone else) from family, relatives, or friends (male, % age 15+). [w2: data are available for wave 2].","sourceOrganization":"Demirguc-Kunt et al., 2015","topics":[{"id":"7","value":"Financial Sector "}]},{"id":"WP14919.10","name":"Borrowed from family or friends, rural (% age 15+) [w2]","source":{"id":"28","value":"Global Findex ( Global Financial Inclusion database)"},"sourceNote":"Denotes the percentage of respondents who report borrowing any money in the past 12 months (by themselves or together with someone else) from family, relatives, or friends (rural, % age 15+). [w2: data are available for wave 2].","sourceOrganization":"Demirguc-Kunt et al., 2015","topics":[{"id":"7","value":"Financial Sector "}]},{"id":"WP14919.1","name":"Borrowed from family or friends (% age 15+) [w2]","source":{"id":"28","value":"Global Findex ( Global Financial Inclusion database)"},"sourceNote":"Denotes the percentage of respondents who report borrowing any money in the past 12 months (by themselves or together with someone else) from family, relatives, or friends (% age 15+). [w2: data are available for wave 2].","sourceOrganization":"Demirguc-Kunt et al., 2015","topics":[{"id":"7","value":"Financial Sector "}]},{"id":"WP14918.9","name":"Borrowed from a store by buying on credit, income, richest 60% (% ages 15+) [w2]","source":{"id":"28","value":"Global Findex ( Global Financial Inclusion database)"},"sourceNote":"Denotes the percentage of respondents who report borrowing any money in the past 12 months (by themselves or together with someone else) from a store by using installment credit or buying on credit (income, richest 60%, % age 15+). [w2: data are available for wave 2].","sourceOrganization":"Demirguc-Kunt et al., 2015","topics":[{"id":"7","value":"Financial Sector "}]},{"id":"WP14918.8","name":"Borrowed from a store by buying on credit, income, poorest 40% (% ages 15+) [w2]","source":{"id":"28","value":"Global Findex ( Global Financial Inclusion database)"},"sourceNote":"Denotes the percentage of respondents who report borrowing any money in the past 12 months (by themselves or together with someone else) from a store by using installment credit or buying on credit (income, poorest 40%, % age 15+). [w2: data are available for wave 2].","sourceOrganization":"Demirguc-Kunt et al., 2015","topics":[{"id":"7","value":"Financial Sector "}]},{"id":"WP14918.7","name":"Borrowed from a store by buying on credit, secondary education or more (% ages 15+) [w2]","source":{"id":"28","value":"Global Findex ( Global Financial Inclusion database)"},"sourceNote":"Denotes the percentage of respondents who report borrowing any money in the past 12 months (by themselves or together with someone else) from a store by using installment credit or buying on credit (secondary education or more, % age 15+). [w2: data are available for wave 2].","sourceOrganization":"Demirguc-Kunt et al., 2015","topics":[{"id":"7","value":"Financial Sector "}]},{"id":"WP14918.6","name":"Borrowed from a store by buying on credit, primary education or less (% ages 15+) [w2]","source":{"id":"28","value":"Global Findex ( Global Financial Inclusion database)"},"sourceNote":"Denotes the percentage of respondents who report borrowing any money in the past 12 months (by themselves or together with someone else) from a store by using installment credit or buying on credit (primary education or less, % age 15+). [w2: data are available for wave 2].","sourceOrganization":"Demirguc-Kunt et al., 2015","topics":[{"id":"7","value":"Financial Sector "}]},{"id":"WP14918.5","name":"Borrowed from a store by buying on credit, older adults (% ages 25+) [w2]","source":{"id":"28","value":"Global Findex ( Global Financial Inclusion database)"},"sourceNote":"Denotes the percentage of respondents who report borrowing any money in the past 12 months (by themselves or together with someone else) from a store by using installment credit or buying on credit (% age 25+). [w2: data are available for wave 2].","sourceOrganization":"Demirguc-Kunt et al., 2015","topics":[{"id":"7","value":"Financial Sector "}]},{"id":"WP14918.4","name":"Borrowed from a store by buying on credit, young adults (% ages 15-24) [w2]","source":{"id":"28","value":"Global Findex ( Global Financial Inclusion database)"},"sourceNote":"Denotes the percentage of respondents who report borrowing any money in the past 12 months (by themselves or together with someone else) from a store by using installment credit or buying on credit (% ages 15-24). [w2: data are available for wave 2].","sourceOrganization":"Demirguc-Kunt et al., 2015","topics":[{"id":"7","value":"Financial Sector "}]},{"id":"WP14918.3","name":"Borrowed from a store by buying on credit, female (% age 15+) [w2]","source":{"id":"28","value":"Global Findex ( Global Financial Inclusion database)"},"sourceNote":"Denotes the percentage of respondents who report borrowing any money in the past 12 months (by themselves or together with someone else) from a store by using installment credit or buying on credit (female, % age 15+). [w2: data are available for wave 2].","sourceOrganization":"Demirguc-Kunt et al., 2015","topics":[{"id":"7","value":"Financial Sector "}]},{"id":"WP14918.2","name":"Borrowed from a store by buying on credit, male (% age 15+) [w2]","source":{"id":"28","value":"Global Findex ( Global Financial Inclusion database)"},"sourceNote":"Denotes the percentage of respondents who report borrowing any money in the past 12 months (by themselves or together with someone else) from a store by using installment credit or buying on credit (male, % age 15+). [w2: data are available for wave 2].","sourceOrganization":"Demirguc-Kunt et al., 2015","topics":[{"id":"7","value":"Financial Sector "}]},{"id":"WP14918.10","name":"Borrowed from a store by buying on credit, rural (% age 15+) [w2]","source":{"id":"28","value":"Global Findex ( Global Financial Inclusion database)"},"sourceNote":"Denotes the percentage of respondents who report borrowing any money in the past 12 months (by themselves or together with someone else) from a store by using installment credit or buying on credit (rural, % age 15+). [w2: data are available for wave 2].","sourceOrganization":"Demirguc-Kunt et al., 2015","topics":[{"id":"7","value":"Financial Sector "}]},{"id":"WP14918.1","name":"Borrowed from a store by buying on credit (% age 15+) [w2]","source":{"id":"28","value":"Global Findex ( Global Financial Inclusion database)"},"sourceNote":"Denotes the percentage of respondents who report borrowing any money in the past 12 months (by themselves or together with someone else) from a store by using installment credit or buying on credit (% age 15+). [w2: data are available for wave 2].","sourceOrganization":"Demirguc-Kunt et al., 2015","topics":[{"id":"7","value":"Financial Sector "}]},{"id":"WP14917.9","name":"Borrowed from a financial institution, income, richest 60% (% ages 15+) [w2]","source":{"id":"28","value":"Global Findex ( Global Financial Inclusion database)"},"sourceNote":"Denotes the percentage of respondents who report borrowing any money in the past 12 months (by themselves or together with someone else) from a bank or another type of financial institution. This does not include the use of credit cards (income, richest 60%, % age 15+). [w2: data are available for wave 2].","sourceOrganization":"Demirguc-Kunt et al., 2015","topics":[{"id":"7","value":"Financial Sector "}]},{"id":"WP14917.8","name":"Borrowed from a financial institution, income, poorest 40% (% ages 15+) [w2]","source":{"id":"28","value":"Global Findex ( Global Financial Inclusion database)"},"sourceNote":"Denotes the percentage of respondents who report borrowing any money in the past 12 months (by themselves or together with someone else) from a bank or another type of financial institution. This does not include the use of credit cards (income, poorest 40%, % age 15+). [w2: data are available for wave 2].","sourceOrganization":"Demirguc-Kunt et al., 2015","topics":[{"id":"7","value":"Financial Sector "}]},{"id":"WP14917.7","name":"Borrowed from a financial institution, secondary education or more (% ages 15+) [w2]","source":{"id":"28","value":"Global Findex ( Global Financial Inclusion database)"},"sourceNote":"Denotes the percentage of respondents who report borrowing any money in the past 12 months (by themselves or together with someone else) from a bank or another type of financial institution. This does not include the use of credit cards (secondary education or more, % age 15+). [w2: data are available for wave 2].","sourceOrganization":"Demirguc-Kunt et al., 2015","topics":[{"id":"7","value":"Financial Sector "}]},{"id":"WP14917.6","name":"Borrowed from a financial institution, primary education or less (% ages 15+) [w2]","source":{"id":"28","value":"Global Findex ( Global Financial Inclusion database)"},"sourceNote":"Denotes the percentage of respondents who report borrowing any money in the past 12 months (by themselves or together with someone else) from a bank or another type of financial institution. This does not include the use of credit cards (primary education or less, % age 15+). [w2: data are available for wave 2].","sourceOrganization":"Demirguc-Kunt et al., 2015","topics":[{"id":"7","value":"Financial Sector "}]},{"id":"WP14917.5","name":"Borrowed from a financial institution, older adults (% ages 25+) [w2]","source":{"id":"28","value":"Global Findex ( Global Financial Inclusion database)"},"sourceNote":"Denotes the percentage of respondents who report borrowing any money in the past 12 months (by themselves or together with someone else) from a bank or another type of financial institution. This does not include the use of credit cards (% age 25+). [w2: data are available for wave 2].","sourceOrganization":"Demirguc-Kunt et al., 2015","topics":[{"id":"7","value":"Financial Sector "}]},{"id":"WP14917.4","name":"Borrowed from a financial institution, young adults (% ages 15-24) [w2]","source":{"id":"28","value":"Global Findex ( Global Financial Inclusion database)"},"sourceNote":"Denotes the percentage of respondents who report borrowing any money in the past 12 months (by themselves or together with someone else) from a bank or another type of financial institution. This does not include the use of credit cards (% ages 15-24). [w2: data are available for wave 2].","sourceOrganization":"Demirguc-Kunt et al., 2015","topics":[{"id":"7","value":"Financial Sector "}]},{"id":"WP14917.3","name":"Borrowed from a financial institution, female (% age 15+) [w2]","source":{"id":"28","value":"Global Findex ( Global Financial Inclusion database)"},"sourceNote":"Denotes the percentage of respondents who report borrowing any money in the past 12 months (by themselves or together with someone else) from a bank or another type of financial institution. This does not include the use of credit cards (female, % age 15+). [w2: data are available for wave 2].","sourceOrganization":"Demirguc-Kunt et al., 2015","topics":[{"id":"7","value":"Financial Sector "}]}]]