[{"page":50,"pages":324,"per_page":"50","total":16174},[{"id":"DT.AMT.DECT.CD.CB.1824.US","name":"Ext. Debt Service Pmt, Deposit-Taking Corp., exc. CB, More than 18 to 24, All instruments, Principal, USD","source":{"id":"22","value":"Quarterly External Debt Statistics\/SDDS (New)"},"sourceNote":"","sourceOrganization":"","topics":[]},{"id":"DT.AMT.DECT.CD.CB.1218.US","name":"Ext. Debt Service Pmt, Deposit-Taking Corp., exc. CB, More than 12 to 18, All instruments, Principal, USD","source":{"id":"22","value":"Quarterly External Debt Statistics\/SDDS (New)"},"sourceNote":"","sourceOrganization":"","topics":[]},{"id":"DT.AMT.DECT.CD.CB.0912.US","name":"Ext. Debt Service Pmt, Deposit-Taking Corp., exc. CB, More than 9 to 12, All instruments, Principal, USD","source":{"id":"22","value":"Quarterly External Debt Statistics\/SDDS (New)"},"sourceNote":"","sourceOrganization":"","topics":[]},{"id":"DT.AMT.DECT.CD.CB.03.US","name":"Ext. Debt Service Pmt, Deposit-Taking Corp., exc. CB, More than 0 to 3, All instruments, Principal, USD","source":{"id":"22","value":"Quarterly External Debt Statistics\/SDDS (New)"},"sourceNote":"","sourceOrganization":"","topics":[]},{"id":"DT.AMT.DECT.CD.AR.IQ.US","name":"Gross Ext. Debt Pmt, All Sectors, Immediate, All instruments, Principal, USD","source":{"id":"22","value":"Quarterly External Debt Statistics\/SDDS (New)"},"sourceNote":"","sourceOrganization":"","topics":[]},{"id":"DT.AMT.DECT.CD.AR.69.US","name":"Gross Ext. Debt Pmt, All Sectors, More than 6 to 9, All instruments, Principal, USD","source":{"id":"22","value":"Quarterly External Debt Statistics\/SDDS (New)"},"sourceNote":"","sourceOrganization":"","topics":[]},{"id":"DT.AMT.DECT.CD.AR.36.US","name":"Gross Ext. Debt Pmt, All Sectors, More than 3 to 6, All instruments, Principal, USD","source":{"id":"22","value":"Quarterly External Debt Statistics\/SDDS (New)"},"sourceNote":"","sourceOrganization":"","topics":[]},{"id":"DT.AMT.DECT.CD.AR.24P.US","name":"Gross Ext. Debt Pmt, All Sectors, More than 2yrs, All instruments, Principal, USD","source":{"id":"22","value":"Quarterly External Debt Statistics\/SDDS (New)"},"sourceNote":"","sourceOrganization":"","topics":[]},{"id":"DT.AMT.DECT.CD.AR.1824.US","name":"Gross Ext. Debt Pmt, All Sectors, More than 18 to 24, All instruments, Principal, USD","source":{"id":"22","value":"Quarterly External Debt Statistics\/SDDS (New)"},"sourceNote":"","sourceOrganization":"","topics":[]},{"id":"DT.AMT.DECT.CD.AR.1218.US","name":"Gross Ext. Debt Pmt, All Sectors, More than 12 to 18, All instruments, Principal, USD","source":{"id":"22","value":"Quarterly External Debt Statistics\/SDDS (New)"},"sourceNote":"","sourceOrganization":"","topics":[]},{"id":"DT.AMT.DECT.CD.AR.0912.US","name":"Gross Ext. Debt Pmt, All Sectors, More than 9 to 12, All instruments, Principal, USD","source":{"id":"22","value":"Quarterly External Debt Statistics\/SDDS (New)"},"sourceNote":"","sourceOrganization":"","topics":[]},{"id":"DT.AMT.DECT.CD.AR.03.US","name":"Gross Ext. Debt Pmt, All Sectors, More than 0 to 3, All instruments, Principal, USD","source":{"id":"22","value":"Quarterly External Debt Statistics\/SDDS (New)"},"sourceNote":"","sourceOrganization":"","topics":[]},{"id":"DT.AMT.DECT.CD.69.US","name":"Ext. Debt Service Pmt, All Sectors, More than 6 to 9, All instruments, Principal, USD","source":{"id":"22","value":"Quarterly External Debt Statistics\/SDDS (New)"},"sourceNote":"","sourceOrganization":"","topics":[]},{"id":"DT.AMT.DECT.CD.36.US","name":"Ext. Debt Service Pmt, All Sectors, More than 3 to 6, All instruments, Principal, USD","source":{"id":"22","value":"Quarterly External Debt Statistics\/SDDS (New)"},"sourceNote":"","sourceOrganization":"","topics":[]},{"id":"DT.AMT.DECT.CD.24P.US","name":"Ext. Debt Service Pmt, All Sectors, More than 2yrs, All instruments, Principal, USD","source":{"id":"22","value":"Quarterly External Debt Statistics\/SDDS (New)"},"sourceNote":"","sourceOrganization":"","topics":[]},{"id":"DT.AMT.DECT.CD.19.24.MO.US","name":"Ext. Debt Service Pmt, Public and Publicly Guar. Private Sector Ext. Debt, 18 to 24 mo., All instruments, Principal, USD","source":{"id":"23","value":"Quarterly External Debt Statistics\/GDDS (New)"},"sourceNote":"","sourceOrganization":"","topics":[]},{"id":"DT.AMT.DECT.CD.1824.US","name":"Ext. Debt Service Pmt, All Sectors, More than 18 to 24, All instruments, Principal, USD","source":{"id":"22","value":"Quarterly External Debt Statistics\/SDDS (New)"},"sourceNote":"","sourceOrganization":"","topics":[]},{"id":"DT.AMT.DECT.CD.15.UP.YR.US","name":"Ext. Debt Service Pmt, Public and Publicly Guar. Private Sector Ext. Debt, More than15yrs, All instruments, Principal, USD","source":{"id":"23","value":"Quarterly External Debt Statistics\/GDDS (New)"},"sourceNote":"","sourceOrganization":"","topics":[]},{"id":"DT.AMT.DECT.CD.13.18.MO.US","name":"Ext. Debt Service Pmt, Public and Publicly Guar. Private Sector Ext. Debt, 12 to 18 mo., All instruments, Principal, USD","source":{"id":"23","value":"Quarterly External Debt Statistics\/GDDS (New)"},"sourceNote":"","sourceOrganization":"","topics":[]},{"id":"DT.AMT.DECT.CD.1218.US","name":"Ext. Debt Service Pmt, All Sectors, More than 12 to 18, All instruments, Principal, USD","source":{"id":"22","value":"Quarterly External Debt Statistics\/SDDS (New)"},"sourceNote":"","sourceOrganization":"","topics":[]},{"id":"DT.AMT.DECT.CD.10.15.YR.US","name":"Ext. Debt Service Pmt, Public and Publicly Guar. Private Sector Ext. Debt, 10 to 15 yrs, All instruments, Principal, USD","source":{"id":"23","value":"Quarterly External Debt Statistics\/GDDS (New)"},"sourceNote":"","sourceOrganization":"","topics":[]},{"id":"DT.AMT.DECT.CD.10.12.MO.US","name":"Ext. Debt Service Pmt, Public and Publicly Guar. Private Sector Ext. Debt, 9 to 12 mo., All instruments, Principal, USD","source":{"id":"23","value":"Quarterly External Debt Statistics\/GDDS (New)"},"sourceNote":"","sourceOrganization":"","topics":[]},{"id":"DT.AMT.DECT.CD.0912.US","name":"Ext. Debt Service Pmt, All Sectors, More than 9 to 12, All instruments, Principal, USD","source":{"id":"22","value":"Quarterly External Debt Statistics\/SDDS (New)"},"sourceNote":"","sourceOrganization":"","topics":[]},{"id":"DT.AMT.DECT.CD.07.09.MO.US","name":"Ext. Debt Service Pmt, Public and Publicly Guar. Private Sector Ext. Debt, 6 to 9 mo., All instruments, Principal, USD","source":{"id":"23","value":"Quarterly External Debt Statistics\/GDDS (New)"},"sourceNote":"","sourceOrganization":"","topics":[]},{"id":"DT.AMT.DECT.CD.05.YR.US","name":"Ext. Debt Service Pmt, Public and Publicly Guar. Private Sector Ext. Debt, 5yrs, All instruments, Principal, USD","source":{"id":"23","value":"Quarterly External Debt Statistics\/GDDS (New)"},"sourceNote":"","sourceOrganization":"","topics":[]},{"id":"DT.AMT.DECT.CD.05.10.YR.US","name":"Ext. Debt Service Pmt, Public and Publicly Guar. Private Sector Ext. Debt, 5 to 10 yrs, All instruments, Principal, USD","source":{"id":"23","value":"Quarterly External Debt Statistics\/GDDS (New)"},"sourceNote":"","sourceOrganization":"","topics":[]},{"id":"DT.AMT.DECT.CD.04.YR.US","name":"Ext. Debt Service Pmt, Public and Publicly Guar. Private Sector Ext. Debt, 4yrs, All instruments, Principal, USD","source":{"id":"23","value":"Quarterly External Debt Statistics\/GDDS (New)"},"sourceNote":"","sourceOrganization":"","topics":[]},{"id":"DT.AMT.DECT.CD.04.06.MO.US","name":"Ext. Debt Service Pmt, Public and Publicly Guar. Private Sector Ext. Debt, 3 to 6 mo., All instruments, Principal, USD","source":{"id":"23","value":"Quarterly External Debt Statistics\/GDDS (New)"},"sourceNote":"","sourceOrganization":"","topics":[]},{"id":"DT.AMT.DECT.CD.03.YR.US","name":"Ext. Debt Service Pmt, Public and Publicly Guar. Private Sector Ext. Debt, 3yrs, All instruments, Principal, USD","source":{"id":"23","value":"Quarterly External Debt Statistics\/GDDS (New)"},"sourceNote":"","sourceOrganization":"","topics":[]},{"id":"DT.AMT.DECT.CD.03.US","name":"Ext. Debt Service Pmt, All Sectors, More than 0 to 3, All instruments, Principal, USD","source":{"id":"22","value":"Quarterly External Debt Statistics\/SDDS (New)"},"sourceNote":"","sourceOrganization":"","topics":[]},{"id":"DT.AMT.DECT.CD.00.03.MO.US","name":"Ext. Debt Service Pmt, Public and Publicly Guar. Private Sector Ext. Debt, 0 to 3 mo., All instruments, Principal, USD","source":{"id":"23","value":"Quarterly External Debt Statistics\/GDDS (New)"},"sourceNote":"","sourceOrganization":"","topics":[]},{"id":"DT.AMT.DECT.CD","name":"Principal repayments, Total (current US$)","source":{"id":"11","value":"Africa Development Indicators"},"sourceNote":"Principal repayments, total (AMT, current U.S. dollars).  ","sourceOrganization":"World Bank country economists.","topics":[]},{"id":"DT.AMT.DEAE.CD.IL.IQ.US","name":"Gross Ext. Debt Pmt, DI: Intercom Lending, Immediate, Debt liab. of dir. investors to DI ent., Principal, USD","source":{"id":"22","value":"Quarterly External Debt Statistics\/SDDS (New)"},"sourceNote":"","sourceOrganization":"","topics":[]},{"id":"DT.AMT.DEAE.CD.IL.69.US","name":"Gross Ext. Debt Pmt, DI: Intercom Lending, More than 6 to 9, Debt liab. of dir. investors to DI ent., Principal, USD","source":{"id":"22","value":"Quarterly External Debt Statistics\/SDDS (New)"},"sourceNote":"","sourceOrganization":"","topics":[]},{"id":"DT.AMT.DEAE.CD.IL.36.US","name":"Gross Ext. Debt Pmt, DI: Intercom Lending, More than 3 to 6, Debt liab. of dir. investors to DI ent., Principal, USD","source":{"id":"22","value":"Quarterly External Debt Statistics\/SDDS (New)"},"sourceNote":"","sourceOrganization":"","topics":[]},{"id":"DT.AMT.DEAE.CD.IL.24P.US","name":"Gross Ext. Debt Pmt, DI: Intercom Lending, More than 2yrs, Debt liab. of dir. investors to DI ent., Principal, USD","source":{"id":"22","value":"Quarterly External Debt Statistics\/SDDS (New)"},"sourceNote":"","sourceOrganization":"","topics":[]},{"id":"DT.AMT.DEAE.CD.IL.1824.US","name":"Gross Ext. Debt Pmt, DI: Intercom Lending, More than 18 to 24, Debt liab. of dir. investors to DI ent., Principal, USD","source":{"id":"22","value":"Quarterly External Debt Statistics\/SDDS (New)"},"sourceNote":"","sourceOrganization":"","topics":[]},{"id":"DT.AMT.DEAE.CD.IL.1218.US","name":"Gross Ext. Debt Pmt, DI: Intercom Lending, More than 12 to 18, Debt liab. of dir. investors to DI ent., Principal, USD","source":{"id":"22","value":"Quarterly External Debt Statistics\/SDDS (New)"},"sourceNote":"","sourceOrganization":"","topics":[]},{"id":"DT.AMT.DEAE.CD.IL.0912.US","name":"Gross Ext. Debt Pmt, DI: Intercom Lending, More than 9 to 12, Debt liab. of dir. investors to DI ent., Principal, USD","source":{"id":"22","value":"Quarterly External Debt Statistics\/SDDS (New)"},"sourceNote":"","sourceOrganization":"","topics":[]},{"id":"DT.AMT.DEAE.CD.IL.03.US","name":"Gross Ext. Debt Pmt, DI: Intercom Lending, More than 0 to 3, Debt liab. of dir. investors to DI ent., Principal, USD","source":{"id":"22","value":"Quarterly External Debt Statistics\/SDDS (New)"},"sourceNote":"","sourceOrganization":"","topics":[]},{"id":"DT.AMT.BLTC.CD","name":"PPG, bilateral concessional (AMT, current US$)","source":{"id":"2","value":"World Development Indicators"},"sourceNote":"Bilateral debt includes loans from governments and their agencies (including central banks), loans from autonomous bodies, and direct loans from official export credit agencies. Concessional debt is defined as loans with an original grant element of 25 percent or more. The grant element of a loan is the grant equivalent expressed as a percentage of the amount committed. It is used as a measure of the overall cost of borrowing. The grant equivalent of a loan is its commitment (present) value, less the discounted present value of its contractual debt service; conventionally, future service payments are discounted at 10 percent. Principal repayments are actual amounts of principal (amortization) paid by the borrower in currency, goods, or services in the year specified. Data are in current U.S. dollars.","sourceOrganization":"World Bank, International Debt Statistics.","topics":[{"id":"20","value":"External Debt"}]},{"id":"DT.AMT.BLAT.CD","name":"PPG, bilateral (AMT, current US$)","source":{"id":"2","value":"World Development Indicators"},"sourceNote":"Bilateral debt includes loans from governments and their agencies (including central banks), loans from autonomous bodies, and direct loans from official export credit agencies. Principal repayments are actual amounts of principal (amortization) paid by the borrower in foreign currency, goods, or services in the year specified. Data are in current U.S. dollars.","sourceOrganization":"World Bank, International Debt Statistics.","topics":[{"id":"20","value":"External Debt"}]},{"id":"DT.AMD.DLXF.CD","name":"LT Principal due per balance of payments account (BoP, current US$)","source":{"id":"11","value":"Africa Development Indicators"},"sourceNote":"Memorandum item - repayments due on outstanding debts.  Data are in current U.S. dollars.  ","sourceOrganization":"World Bank country economists.","topics":[]},{"id":"DSTKMKTXN","name":"Stock Markets, LCU","source":{"id":"15","value":"Global Economic Monitor"},"sourceNote":"Local equity market index valued in local currency unit (LCU) terms","sourceOrganization":"World Bank staff calculations based on Datastream and IMF International Finance Statistics data.","topics":[]},{"id":"DSTKMKTXD","name":"Stock Markets, US$","source":{"id":"15","value":"Global Economic Monitor"},"sourceNote":"Local equity market index valued in US$ terms","sourceOrganization":"World Bank staff calculations based on Datastream and IMF International Finance Statistics data.","topics":[]},{"id":"DPANUSSPF","name":"Exchange rate, old LCU per USD extended forward, period average","source":{"id":"15","value":"Global Economic Monitor"},"sourceNote":"Local currency units (LCU) per U.S. dollar, with values after a new currency's introduction presented in the old currency's terms","sourceOrganization":"World Bank staff calculations based on Datastream and IMF International Finance Statistics data.","topics":[]},{"id":"DPANUSSPB","name":"Exchange rate, new LCU per USD extended backward, period average","source":{"id":"15","value":"Global Economic Monitor"},"sourceNote":"Local currency units (LCU) per U.S. dollar, with values prior to the currency's introduction presented in the new currency's terms","sourceOrganization":"World Bank staff calculations based on Datastream and IMF International Finance Statistics data.","topics":[]},{"id":"DPANUSLCU","name":"Official exchange rate, LCU per USD, period average","source":{"id":"15","value":"Global Economic Monitor"},"sourceNote":"Official exchange rate refers to the exchange rate determined by national authorities or to the rate determined in the legally sanctioned exchange market. It is calculated as an annual average based on monthly averages (local currency units relative to the U.S. dollar).","sourceOrganization":"World Bank staff calculations based on Datastream and IMF International Finance Statistics data.","topics":[]},{"id":"DP.DOD.DSTC.CR.PS.CD","name":"162.Short-term by original maturity (PSDT, ST) US$","source":{"id":"20","value":"Quarterly Public Sector Debt"},"sourceNote":"Member Country","sourceOrganization":"World Bank.","topics":[]},{"id":"DP.DOD.DSTC.CR.PS","name":"386.Short-term by original maturity (PSDT)","source":{"id":"20","value":"Quarterly Public Sector Debt"},"sourceNote":"","sourceOrganization":"","topics":[{}]}]]