[{"page":264,"pages":324,"per_page":"50","total":16174},[{"id":"SH.STA.ANVC.Q2.ZS","name":"Antenatal care (any skilled personnel) (% of women with a birth): Q2","source":{"id":"39","value":"Health Nutrition and Population Statistics by Wealth Quintile"},"sourceNote":"Antenatal care: Percentage of women with one or more live births in the three (one, two) years preceding the survey who have received at least one antenatal care during pregnancy before the most recent birth from any skilled personnel and from a doctor. If the respondent mentioned more than one provider, only the most qualified provider is considered. The DHS surveys refer births in the three years preceding the survey, the MICS2 surveys refer births in the one year preceding the survey, and the MICS3 surveys refer births in the two years preceding the survey.","sourceOrganization":"Household Surveys (DHS, MICS)","topics":[{"id":"8","value":"Health "}]},{"id":"SH.STA.ANVC.Q1.ZS","name":"Antenatal care (any skilled personnel) (% of women with a birth): Q1 (lowest)","source":{"id":"39","value":"Health Nutrition and Population Statistics by Wealth Quintile"},"sourceNote":"Antenatal care: Percentage of women with one or more live births in the three (one, two) years preceding the survey who have received at least one antenatal care during pregnancy before the most recent birth from any skilled personnel and from a doctor. If the respondent mentioned more than one provider, only the most qualified provider is considered. The DHS surveys refer births in the three years preceding the survey, the MICS2 surveys refer births in the one year preceding the survey, and the MICS3 surveys refer births in the two years preceding the survey.","sourceOrganization":"Household Surveys (DHS, MICS)","topics":[{"id":"8","value":"Health "}]},{"id":"SH.STA.ANV4.ZS","name":"Pregnant women receiving prenatal care of at least four visits (% of pregnant women)","source":{"id":"16","value":"Health Nutrition and Population Statistics"},"sourceNote":"UNICEF, State of the World's Children, Childinfo, and Demographic and Health Surveys.","sourceOrganization":"UNICEF, State of the World's Children, Childinfo, and Demographic and Health Surveys.","topics":[]},{"id":"SH.STA.ANCP.Q5.ZS","name":"Components of antenatal care (received iron tablets or syrup) (% of women with a birth): Q5 (highest)","source":{"id":"39","value":"Health Nutrition and Population Statistics by Wealth Quintile"},"sourceNote":"Components of antenatal care: Percentage of women with a live birth in the three years preceding the survey who received iron tablets or syrup during pregnancy before the most recent birth.","sourceOrganization":"Household Surveys (DHS, MICS)","topics":[{"id":"8","value":"Health "}]},{"id":"SH.STA.ANCP.Q4.ZS","name":"Components of antenatal care (received iron tablets or syrup) (% of women with a birth): Q4","source":{"id":"39","value":"Health Nutrition and Population Statistics by Wealth Quintile"},"sourceNote":"Components of antenatal care: Percentage of women with a live birth in the three years preceding the survey who received iron tablets or syrup during pregnancy before the most recent birth.","sourceOrganization":"Household Surveys (DHS, MICS)","topics":[{"id":"8","value":"Health "}]},{"id":"SH.STA.ANCP.Q3.ZS","name":"Components of antenatal care (received iron tablets or syrup) (% of women with a birth): Q3","source":{"id":"39","value":"Health Nutrition and Population Statistics by Wealth Quintile"},"sourceNote":"Components of antenatal care: Percentage of women with a live birth in the three years preceding the survey who received iron tablets or syrup during pregnancy before the most recent birth.","sourceOrganization":"Household Surveys (DHS, MICS)","topics":[{"id":"8","value":"Health "}]},{"id":"SH.STA.ANCP.Q2.ZS","name":"Components of antenatal care (received iron tablets or syrup) (% of women with a birth): Q2","source":{"id":"39","value":"Health Nutrition and Population Statistics by Wealth Quintile"},"sourceNote":"Components of antenatal care: Percentage of women with a live birth in the three years preceding the survey who received iron tablets or syrup during pregnancy before the most recent birth.","sourceOrganization":"Household Surveys (DHS, MICS)","topics":[{"id":"8","value":"Health "}]},{"id":"SH.STA.ANCP.Q1.ZS","name":"Components of antenatal care (received iron tablets or syrup) (% of women with a birth): Q1 (lowest)","source":{"id":"39","value":"Health Nutrition and Population Statistics by Wealth Quintile"},"sourceNote":"Components of antenatal care: Percentage of women with a live birth in the three years preceding the survey who received iron tablets or syrup during pregnancy before the most recent birth.","sourceOrganization":"Household Surveys (DHS, MICS)","topics":[{"id":"8","value":"Health "}]},{"id":"SH.STA.ACSN.UR.QT.ZS","name":"Access to improved sanitation facilities, urban (% of urban population): QT (quintile total)","source":{"id":"39","value":"Health Nutrition and Population Statistics by Wealth Quintile"},"sourceNote":"","sourceOrganization":"","topics":[]},{"id":"SH.STA.ACSN.UR.Q4.ZS","name":"Access to improved sanitation facilities, urban (% of urban population): Q4","source":{"id":"39","value":"Health Nutrition and Population Statistics by Wealth Quintile"},"sourceNote":"","sourceOrganization":"","topics":[]},{"id":"SH.STA.ACSN.UR.Q3.ZS","name":"Access to improved sanitation facilities, urban (% of urban population): Q3","source":{"id":"39","value":"Health Nutrition and Population Statistics by Wealth Quintile"},"sourceNote":"","sourceOrganization":"","topics":[]},{"id":"SH.STA.ACSN.UR.Q2.ZS","name":"Access to improved sanitation facilities, urban (% of urban population): Q2","source":{"id":"39","value":"Health Nutrition and Population Statistics by Wealth Quintile"},"sourceNote":"","sourceOrganization":"","topics":[]},{"id":"SH.STA.ACSN.UR.Q1.ZS","name":"Access to improved sanitation facilities, urban (% of urban population): Q1 (lowest)","source":{"id":"39","value":"Health Nutrition and Population Statistics by Wealth Quintile"},"sourceNote":"","sourceOrganization":"","topics":[]},{"id":"SH.STA.ACSN.UR","name":"Improved sanitation facilities, urban (% of urban population with access)","source":{"id":"2","value":"World Development Indicators"},"sourceNote":"Access to improved sanitation facilities, urban, refers to the percentage of the urban population using improved sanitation facilities. Improved sanitation facilities are likely to ensure hygienic separation of human excreta from human contact. They include flush\/pour flush (to piped sewer system, septic tank, pit latrine), ventilated improved pit (VIP) latrine, pit latrine with slab, and composting toilet.","sourceOrganization":"WHO\/UNICEF Joint Monitoring Programme (JMP) for Water Supply and Sanitation (http:\/\/www.wssinfo.org\/).","topics":[{"id":"8","value":"Health "},{"id":"16","value":"Urban Development "}]},{"id":"SH.STA.ACSN.RU.Q5.ZS","name":"Access to improved sanitation facilities, rural (% of rural population): Q5 (highest)","source":{"id":"39","value":"Health Nutrition and Population Statistics by Wealth Quintile"},"sourceNote":"","sourceOrganization":"","topics":[]},{"id":"SH.STA.ACSN.RU.Q4.ZS","name":"Access to improved sanitation facilities, rural (% of rural population): Q4","source":{"id":"39","value":"Health Nutrition and Population Statistics by Wealth Quintile"},"sourceNote":"","sourceOrganization":"","topics":[]},{"id":"SH.STA.ACSN.RU.Q3.ZS","name":"Access to improved sanitation facilities, rural (% of rural population): Q3","source":{"id":"39","value":"Health Nutrition and Population Statistics by Wealth Quintile"},"sourceNote":"","sourceOrganization":"","topics":[]},{"id":"SH.STA.ACSN.RU.Q2.ZS","name":"Access to improved sanitation facilities, rural (% of rural population): Q2","source":{"id":"39","value":"Health Nutrition and Population Statistics by Wealth Quintile"},"sourceNote":"","sourceOrganization":"","topics":[]},{"id":"SH.STA.ACSN.RU.Q1.ZS","name":"Access to improved sanitation facilities, rural (% of rural population): Q1 (lowest)","source":{"id":"39","value":"Health Nutrition and Population Statistics by Wealth Quintile"},"sourceNote":"","sourceOrganization":"","topics":[]},{"id":"SH.STA.ACSN.RU","name":"Improved sanitation facilities, rural (% of rural population with access)","source":{"id":"2","value":"World Development Indicators"},"sourceNote":"Access to improved sanitation facilities, rural, refers to the percentage of the rural population using improved sanitation facilities. Improved sanitation facilities are likely to ensure hygienic separation of human excreta from human contact. They include flush\/pour flush (to piped sewer system, septic tank, pit latrine), ventilated improved pit (VIP) latrine, pit latrine with slab, and composting toilet.","sourceOrganization":"WHO\/UNICEF Joint Monitoring Programme (JMP) for Water Supply and Sanitation (http:\/\/www.wssinfo.org\/).","topics":[{"id":"1","value":"Agriculture & Rural Development  "},{"id":"8","value":"Health "}]},{"id":"SH.STA.ACSN","name":"Improved sanitation facilities (% of population with access)","source":{"id":"2","value":"World Development Indicators"},"sourceNote":"Access to improved sanitation facilities refers to the percentage of the population using improved sanitation facilities. Improved sanitation facilities are likely to ensure hygienic separation of human excreta from human contact. They include flush\/pour flush (to piped sewer system, septic tank, pit latrine), ventilated improved pit (VIP) latrine, pit latrine with slab, and composting toilet.","sourceOrganization":"WHO\/UNICEF Joint Monitoring Programme (JMP) for Water Supply and Sanitation (http:\/\/www.wssinfo.org\/).","topics":[{"id":"8","value":"Health "},{"id":"2","value":"Aid Effectiveness "},{"id":"19","value":"Climate Change"}]},{"id":"SH.SGR.PROC.P5","name":"Number of surgical procedures (per 100,000 population)","source":{"id":"2","value":"World Development Indicators"},"sourceNote":"The number of procedures undertaken in an operating theatre per 100,000 population per year in each country. A procedure is defined as the incision, excision, or manipulation of tissue that needs regional or general anaesthesia, or profound sedation to control pain.","sourceOrganization":"The Lancet Commission on Global Surgery (www.lancetglobalsurgery.org).","topics":[{"id":"8","value":"Health "}]},{"id":"SH.SGR.IRSK.ZS","name":"Risk of impoverishing expenditure for surgical care (% of people at risk)","source":{"id":"2","value":"World Development Indicators"},"sourceNote":"The proportion of population at risk of impoverishing expenditure when surgical care is required. Impoverishing expenditure is defined as direct out of pocket payments for surgical and anaesthesia care which drive people below a poverty threshold (using a threshold of $1.25 PPP\/day).","sourceOrganization":"The Lancet Commission on Global Surgery (www.lancetglobalsurgery.org).","topics":[{"id":"8","value":"Health "}]},{"id":"SH.SGR.CRSK.ZS","name":"Risk of catastrophic expenditure for surgical care (% of people at risk)","source":{"id":"2","value":"World Development Indicators"},"sourceNote":"The proportion of population at risk of catastrophic expenditure when surgical care is required. Catastrophic expenditure is definined as direct out of pocket payments for surgical and anaesthesia care exceeding 10% of total income.","sourceOrganization":"The Lancet Commission on Global Surgery (www.lancetglobalsurgery.org).","topics":[{"id":"8","value":"Health "}]},{"id":"SH.PUSKESMAS.TOTL","name":"Number of Puskesmas and its line services","source":{"id":"45","value":"INDO-DAPOER"},"sourceNote":"","sourceOrganization":"BADAN PUSAT STATISTIK - Statistics Indonesia, Village Census (PODES)","topics":[]},{"id":"SH.PRV.SMOK.MA","name":"Smoking prevalence, males (% of adults)","source":{"id":"2","value":"World Development Indicators"},"sourceNote":"Prevalence of smoking, male is the percentage of men ages 15 and over who smoke any form of tobacco, including cigarettes, cigars, pipes or any other smoked tobacco products. Data include daily and non-daily or occasional smoking.","sourceOrganization":"World Health Organization, Global Health Observatory Data Repository (http:\/\/apps.who.int\/ghodata\/).","topics":[{"id":"8","value":"Health "},{"id":"17","value":"Gender"}]},{"id":"SH.PRV.SMOK.FE.Q5.ZS","name":"Smoking (% of women): Q5 (highest)","source":{"id":"39","value":"Health Nutrition and Population Statistics by Wealth Quintile"},"sourceNote":"Smoking: Percentage of all women who smoke cigarettes, pipe or other tobacco.","sourceOrganization":"Household Surveys (DHS, MICS)","topics":[{"id":"8","value":"Health "}]},{"id":"SH.PRV.SMOK.FE.Q4.ZS","name":"Smoking (% of women): Q4","source":{"id":"39","value":"Health Nutrition and Population Statistics by Wealth Quintile"},"sourceNote":"Smoking: Percentage of all women who smoke cigarettes, pipe or other tobacco.","sourceOrganization":"Household Surveys (DHS, MICS)","topics":[{"id":"8","value":"Health "}]},{"id":"SH.PRV.SMOK.FE.Q3.ZS","name":"Smoking (% of women): Q3","source":{"id":"39","value":"Health Nutrition and Population Statistics by Wealth Quintile"},"sourceNote":"Smoking: Percentage of all women who smoke cigarettes, pipe or other tobacco.","sourceOrganization":"Household Surveys (DHS, MICS)","topics":[{"id":"8","value":"Health "}]},{"id":"SH.PRV.SMOK.FE.Q2.ZS","name":"Smoking (% of women): Q2","source":{"id":"39","value":"Health Nutrition and Population Statistics by Wealth Quintile"},"sourceNote":"Smoking: Percentage of all women who smoke cigarettes, pipe or other tobacco.","sourceOrganization":"Household Surveys (DHS, MICS)","topics":[{"id":"8","value":"Health "}]},{"id":"SH.PRV.SMOK.FE.Q1.ZS","name":"Smoking (% of women): Q1 (lowest)","source":{"id":"39","value":"Health Nutrition and Population Statistics by Wealth Quintile"},"sourceNote":"Smoking: Percentage of all women who smoke cigarettes, pipe or other tobacco.","sourceOrganization":"Household Surveys (DHS, MICS)","topics":[{"id":"8","value":"Health "}]},{"id":"SH.PRV.SMOK.FE","name":"Smoking prevalence, females (% of adults)","source":{"id":"2","value":"World Development Indicators"},"sourceNote":"Prevalence of smoking, female is the percentage of women ages 15 and over who smoke any form of tobacco, including cigarettes, cigars, pipes or any other smoked tobacco products. Data include daily and non-daily or occasional smoking.","sourceOrganization":"World Health Organization, Global Health Observatory Data Repository (http:\/\/apps.who.int\/ghodata\/).","topics":[{"id":"8","value":"Health "},{"id":"17","value":"Gender"}]},{"id":"SH.PRG.SYPH.ZS","name":"Prevalence of syphilis (% of women attending antenatal care)","source":{"id":"16","value":"Health Nutrition and Population Statistics"},"sourceNote":"Percentage of women attending antenatal care seropositive for syphilis","sourceOrganization":"World Health Organization","topics":[]},{"id":"SH.PRG.ANEM","name":"Prevalence of anemia among pregnant women (%)","source":{"id":"2","value":"World Development Indicators"},"sourceNote":"Stevens GA, Finucane MM, De-Regil LM, et al. Global, regional, and national trends in hemoglobin concentration and prevalence of total and severe anemia in children and pregnant and non-pregnant women for 1995-2011: a systematic analysis of population-representative data. The Lancet Global Health 2013; 1(1): e16-e25.","sourceOrganization":"1. WHO. Global anemia prevalence and trends 1995-2011. Geneva: World Health Organization; forthcoming.  2. Stevens GA, Finucane MM, De-Regil LM, et al. Global, regional, and national trends in hemoglobin concentration and prevalence of total and severe anemia in children and pregnant and non-pregnant women for 1995-2011: a systematic analysis of population-representative data. The Lancet Global Health 2013; 1(1): e16-e25.","topics":[{"id":"8","value":"Health "}]},{"id":"SH.POLINDES.TOTL","name":"Number of Polindes (Poliklinik Desa\/Village Polyclinic)","source":{"id":"45","value":"INDO-DAPOER"},"sourceNote":"","sourceOrganization":"BADAN PUSAT STATISTIK - Statistics Indonesia, Village Census (PODES)","topics":[]},{"id":"SH.MORB.ZS","name":"Morbidity Rate (in %)","source":{"id":"45","value":"INDO-DAPOER"},"sourceNote":"","sourceOrganization":"BADAN PUSAT STATISTIK - Statistics Indonesia, National Social Economic Survey (SUSENAS)","topics":[]},{"id":"SH.MMR.RISK.ZS","name":"Lifetime risk of maternal death (%)","source":{"id":"2","value":"World Development Indicators"},"sourceNote":"Life time risk of maternal death is the probability that a 15-year-old female will die eventually from a maternal cause assuming that current levels of fertility and mortality (including maternal mortality) do not change in the future, taking into account competing causes of death.","sourceOrganization":"WHO, UNICEF, UNFPA, The World Bank, and the United Nations Population Division. Trends in Maternal Mortality: 1990 to 2015. Geneva, World Health Organization, 2015","topics":[{"id":"8","value":"Health "},{"id":"17","value":"Gender"}]},{"id":"SH.MMR.RISK","name":"Lifetime risk of maternal death (1 in: rate varies by country)","source":{"id":"2","value":"World Development Indicators"},"sourceNote":"Life time risk of maternal death is the probability that a 15-year-old female will die eventually from a maternal cause assuming that current levels of fertility and mortality (including maternal mortality) do not change in the future, taking into account competing causes of death.","sourceOrganization":"WHO, UNICEF, UNFPA, The World Bank, and the United Nations Population Division. Trends in Maternal Mortality: 1990 to 2015. Geneva, World Health Organization, 2015","topics":[{"id":"8","value":"Health "},{"id":"17","value":"Gender"}]},{"id":"SH.MMR.DTHS","name":"Number of maternal deaths","source":{"id":"2","value":"World Development Indicators"},"sourceNote":"A maternal death refers to the death of a woman while pregnant or within 42 days of termination of pregnancy, irrespective of the duration and site of the pregnancy, from any cause related to or aggravated by the pregnancy or its management but not from accidental or incidental causes.","sourceOrganization":"WHO, UNICEF, UNFPA, World Bank Group, and the United Nations Population Division. Trends in Maternal Mortality: 1990 to 2015. Geneva, World Health Organization, 2015","topics":[{"id":"8","value":"Health "}]},{"id":"SH.MLR.TRET.ZS","name":"Children with fever receiving antimalarial drugs (% of children under age 5 with fever)","source":{"id":"2","value":"World Development Indicators"},"sourceNote":"Malaria treatment refers to the percentage of children under age five who were ill with fever in the last two weeks and received any appropriate (locally defined) anti-malarial drugs.","sourceOrganization":"UNICEF, State of the World's Children, Childinfo, and Demographic and Health Surveys.","topics":[{"id":"8","value":"Health "}]},{"id":"SH.MLR.TRET.Q5.ZS","name":"Treatment of fever (% of children under 5 with fever): Q5 (highest)","source":{"id":"39","value":"Health Nutrition and Population Statistics by Wealth Quintile"},"sourceNote":"Treatment of fever: Percentage of children under age five years with fever in the two weeks preceding the survey who took antimalarial drugs.","sourceOrganization":"Household Surveys (DHS, MICS)","topics":[{"id":"8","value":"Health "}]},{"id":"SH.MLR.TRET.Q4.ZS","name":"Treatment of fever (% of children under 5 with fever): Q4","source":{"id":"39","value":"Health Nutrition and Population Statistics by Wealth Quintile"},"sourceNote":"Treatment of fever: Percentage of children under age five years with fever in the two weeks preceding the survey who took antimalarial drugs.","sourceOrganization":"Household Surveys (DHS, MICS)","topics":[{"id":"8","value":"Health "}]},{"id":"SH.MLR.TRET.Q3.ZS","name":"Treatment of fever (% of children under 5 with fever): Q3","source":{"id":"39","value":"Health Nutrition and Population Statistics by Wealth Quintile"},"sourceNote":"Treatment of fever: Percentage of children under age five years with fever in the two weeks preceding the survey who took antimalarial drugs.","sourceOrganization":"Household Surveys (DHS, MICS)","topics":[{"id":"8","value":"Health "}]},{"id":"SH.MLR.TRET.Q2.ZS","name":"Treatment of fever (% of children under 5 with fever): Q2","source":{"id":"39","value":"Health Nutrition and Population Statistics by Wealth Quintile"},"sourceNote":"Treatment of fever: Percentage of children under age five years with fever in the two weeks preceding the survey who took antimalarial drugs.","sourceOrganization":"Household Surveys (DHS, MICS)","topics":[{"id":"8","value":"Health "}]},{"id":"SH.MLR.TRET.Q1.ZS","name":"Treatment of fever (% of children under 5 with fever): Q1 (lowest)","source":{"id":"39","value":"Health Nutrition and Population Statistics by Wealth Quintile"},"sourceNote":"Treatment of fever: Percentage of children under age five years with fever in the two weeks preceding the survey who took antimalarial drugs.","sourceOrganization":"Household Surveys (DHS, MICS)","topics":[{"id":"8","value":"Health "}]},{"id":"SH.MLR.SPFN.Q5.ZS","name":"Anti-malarial drug use by pregnant women (SP\/Fansidar two or more doses) (% of women with a birth): Q5 (highest)","source":{"id":"39","value":"Health Nutrition and Population Statistics by Wealth Quintile"},"sourceNote":"Anti-malarial drug use by pregnant women: Percentage of women with a live birth in the two years preceding the survey who during the pregnancy took any antimalarial drug for prevention, and who took SP\/Fansidar two or more doses.","sourceOrganization":"Household Surveys (DHS, MICS)","topics":[{"id":"8","value":"Health "}]},{"id":"SH.MLR.SPFN.Q4.ZS","name":"Anti-malarial drug use by pregnant women (SP\/Fansidar two or more doses) (% of women with a birth): Q4","source":{"id":"39","value":"Health Nutrition and Population Statistics by Wealth Quintile"},"sourceNote":"Anti-malarial drug use by pregnant women: Percentage of women with a live birth in the two years preceding the survey who during the pregnancy took any antimalarial drug for prevention, and who took SP\/Fansidar two or more doses.","sourceOrganization":"Household Surveys (DHS, MICS)","topics":[{"id":"8","value":"Health "}]},{"id":"SH.MLR.SPFN.Q3.ZS","name":"Anti-malarial drug use by pregnant women (SP\/Fansidar two or more doses) (% of women with a birth): Q3","source":{"id":"39","value":"Health Nutrition and Population Statistics by Wealth Quintile"},"sourceNote":"Anti-malarial drug use by pregnant women: Percentage of women with a live birth in the two years preceding the survey who during the pregnancy took any antimalarial drug for prevention, and who took SP\/Fansidar two or more doses.","sourceOrganization":"Household Surveys (DHS, MICS)","topics":[{"id":"8","value":"Health "}]},{"id":"SH.MLR.SPFN.Q2.ZS","name":"Anti-malarial drug use by pregnant women (SP\/Fansidar two or more doses) (% of women with a birth): Q2","source":{"id":"39","value":"Health Nutrition and Population Statistics by Wealth Quintile"},"sourceNote":"Anti-malarial drug use by pregnant women: Percentage of women with a live birth in the two years preceding the survey who during the pregnancy took any antimalarial drug for prevention, and who took SP\/Fansidar two or more doses.","sourceOrganization":"Household Surveys (DHS, MICS)","topics":[{"id":"8","value":"Health "}]},{"id":"SH.MLR.SPFN.Q1.ZS","name":"Anti-malarial drug use by pregnant women (SP\/Fansidar two or more doses) (% of women with a birth): Q1 (lowest)","source":{"id":"39","value":"Health Nutrition and Population Statistics by Wealth Quintile"},"sourceNote":"Anti-malarial drug use by pregnant women: Percentage of women with a live birth in the two years preceding the survey who during the pregnancy took any antimalarial drug for prevention, and who took SP\/Fansidar two or more doses.","sourceOrganization":"Household Surveys (DHS, MICS)","topics":[{"id":"8","value":"Health "}]}]]