[{"page":227,"pages":324,"per_page":"50","total":16174},[{"id":"per_si_cp.ben_q4_rur","name":"Benefits incidence in 4th quintile (%) - Contributory Pensions -rural","source":{"id":"29","value":"Global Social Protection"},"sourceNote":"","sourceOrganization":"The Atlas of Social Protection: Indicators of Resilience and Equity (ASPIRE)","topics":[]},{"id":"per_si_cp.ben_q4_preT_tot","name":"Benefits incidence in 4th quintile (%) - Contributory Pensions (preT)","source":{"id":"29","value":"Global Social Protection"},"sourceNote":"","sourceOrganization":"The Atlas of Social Protection: Indicators of Resilience and Equity (ASPIRE)","topics":[]},{"id":"per_si_cp.ben_q3_urb","name":"Benefits incidence in 3rd quintile (%) - Contributory Pensions -urban","source":{"id":"29","value":"Global Social Protection"},"sourceNote":"","sourceOrganization":"The Atlas of Social Protection: Indicators of Resilience and Equity (ASPIRE)","topics":[]},{"id":"per_si_cp.ben_q3_tot","name":"Benefits incidence in 3rd quintile (%) - Contributory Pensions ","source":{"id":"29","value":"Global Social Protection"},"sourceNote":"","sourceOrganization":"The Atlas of Social Protection: Indicators of Resilience and Equity (ASPIRE)","topics":[]},{"id":"per_si_cp.ben_q3_rur","name":"Benefits incidence in 3rd quintile (%) - Contributory Pensions -rural","source":{"id":"29","value":"Global Social Protection"},"sourceNote":"","sourceOrganization":"The Atlas of Social Protection: Indicators of Resilience and Equity (ASPIRE)","topics":[]},{"id":"per_si_cp.ben_q3_preT_tot","name":"Benefits incidence in 3rd quintile (%) - Contributory Pensions (preT)","source":{"id":"29","value":"Global Social Protection"},"sourceNote":"","sourceOrganization":"The Atlas of Social Protection: Indicators of Resilience and Equity (ASPIRE)","topics":[]},{"id":"per_si_cp.ben_q2_urb","name":"Benefits incidence in 2nd quintile (%) - Contributory Pensions -urban","source":{"id":"29","value":"Global Social Protection"},"sourceNote":"","sourceOrganization":"The Atlas of Social Protection: Indicators of Resilience and Equity (ASPIRE)","topics":[]},{"id":"per_si_cp.ben_q2_tot","name":"Benefits incidence in 2nd quintile (%) - Contributory Pensions ","source":{"id":"29","value":"Global Social Protection"},"sourceNote":"","sourceOrganization":"The Atlas of Social Protection: Indicators of Resilience and Equity (ASPIRE)","topics":[]},{"id":"per_si_cp.ben_q2_rur","name":"Benefits incidence in 2nd quintile (%) - Contributory Pensions -rural","source":{"id":"29","value":"Global Social Protection"},"sourceNote":"","sourceOrganization":"The Atlas of Social Protection: Indicators of Resilience and Equity (ASPIRE)","topics":[]},{"id":"per_si_cp.ben_q2_preT_tot","name":"Benefits incidence in 2nd quintile (%) - Contributory Pensions (preT)","source":{"id":"29","value":"Global Social Protection"},"sourceNote":"","sourceOrganization":"The Atlas of Social Protection: Indicators of Resilience and Equity (ASPIRE)","topics":[]},{"id":"per_si_cp.ben_q1_urb","name":"Benefits incidence in poorest quintile (%) - Contributory Pensions -urban","source":{"id":"29","value":"Global Social Protection"},"sourceNote":"","sourceOrganization":"The Atlas of Social Protection: Indicators of Resilience and Equity (ASPIRE)","topics":[]},{"id":"per_si_cp.ben_q1_tot","name":"Benefits incidence in poorest quintile (%) - Contributory Pensions ","source":{"id":"29","value":"Global Social Protection"},"sourceNote":"","sourceOrganization":"The Atlas of Social Protection: Indicators of Resilience and Equity (ASPIRE)","topics":[]},{"id":"per_si_cp.ben_q1_rur","name":"Benefits incidence in poorest quintile (%) - Contributory Pensions -rural","source":{"id":"29","value":"Global Social Protection"},"sourceNote":"","sourceOrganization":"The Atlas of Social Protection: Indicators of Resilience and Equity (ASPIRE)","topics":[]},{"id":"per_si_cp.ben_q1_preT_tot","name":"Benefits incidence in poorest quintile (%) - Contributory Pensions (preT)","source":{"id":"29","value":"Global Social Protection"},"sourceNote":"","sourceOrganization":"The Atlas of Social Protection: Indicators of Resilience and Equity (ASPIRE)","topics":[]},{"id":"per_si_cp.ben_ep_tot","name":"Benefits incidence in extreme poor (<$1.25 a day) (%) - Contributory Pensions ","source":{"id":"29","value":"Global Social Protection"},"sourceNote":"","sourceOrganization":"The Atlas of Social Protection: Indicators of Resilience and Equity (ASPIRE)","topics":[]},{"id":"per_si_cp.ben_ep_preT_tot","name":"Benefits incidence in extreme poor (<$1.25 a day) (%) - Contributory Pensions  (preT)","source":{"id":"29","value":"Global Social Protection"},"sourceNote":"","sourceOrganization":"The Atlas of Social Protection: Indicators of Resilience and Equity (ASPIRE)","topics":[]},{"id":"per_si_cp.avt_q5_urb","name":"Average per capita transfer held by richest quintile - Contributory Pensions -urban","source":{"id":"29","value":"Global Social Protection"},"sourceNote":"","sourceOrganization":"The Atlas of Social Protection: Indicators of Resilience and Equity (ASPIRE)","topics":[]},{"id":"per_si_cp.avt_q5_tot","name":"Average per capita transfer held by richest quintile - Contributory Pensions ","source":{"id":"29","value":"Global Social Protection"},"sourceNote":"","sourceOrganization":"The Atlas of Social Protection: Indicators of Resilience and Equity (ASPIRE)","topics":[]},{"id":"per_si_cp.avt_q5_rur","name":"Average per capita transfer held by richest quintile - Contributory Pensions -rural","source":{"id":"29","value":"Global Social Protection"},"sourceNote":"","sourceOrganization":"The Atlas of Social Protection: Indicators of Resilience and Equity (ASPIRE)","topics":[]},{"id":"per_si_cp.avt_q5_preT_tot","name":"Average per capita transfer held by richest quintile - Contributory Pensions (preT)","source":{"id":"29","value":"Global Social Protection"},"sourceNote":"","sourceOrganization":"The Atlas of Social Protection: Indicators of Resilience and Equity (ASPIRE)","topics":[]},{"id":"per_si_cp.avt_q4_urb","name":"Average per capita transfer held by 4th quintile - Contributory Pensions -urban","source":{"id":"29","value":"Global Social Protection"},"sourceNote":"","sourceOrganization":"The Atlas of Social Protection: Indicators of Resilience and Equity (ASPIRE)","topics":[]},{"id":"per_si_cp.avt_q4_tot","name":"Average per capita transfer held by 4th quintile - Contributory Pensions ","source":{"id":"29","value":"Global Social Protection"},"sourceNote":"","sourceOrganization":"The Atlas of Social Protection: Indicators of Resilience and Equity (ASPIRE)","topics":[]},{"id":"per_si_cp.avt_q4_rur","name":"Average per capita transfer held by 4th quintile - Contributory Pensions -rural","source":{"id":"29","value":"Global Social Protection"},"sourceNote":"","sourceOrganization":"The Atlas of Social Protection: Indicators of Resilience and Equity (ASPIRE)","topics":[]},{"id":"per_si_cp.avt_q4_preT_tot","name":"Average per capita transfer held by 4th quintile - Contributory Pensions (preT)","source":{"id":"29","value":"Global Social Protection"},"sourceNote":"","sourceOrganization":"The Atlas of Social Protection: Indicators of Resilience and Equity (ASPIRE)","topics":[]},{"id":"per_si_cp.avt_q3_urb","name":"Average per capita transfer held by 3rd quintile - Contributory Pensions -urban","source":{"id":"29","value":"Global Social Protection"},"sourceNote":"","sourceOrganization":"The Atlas of Social Protection: Indicators of Resilience and Equity (ASPIRE)","topics":[]},{"id":"per_si_cp.avt_q3_tot","name":"Average per capita transfer held by 3rd quintile - Contributory Pensions ","source":{"id":"29","value":"Global Social Protection"},"sourceNote":"","sourceOrganization":"The Atlas of Social Protection: Indicators of Resilience and Equity (ASPIRE)","topics":[]},{"id":"per_si_cp.avt_q3_rur","name":"Average per capita transfer held by 3rd quintile - Contributory Pensions -rural","source":{"id":"29","value":"Global Social Protection"},"sourceNote":"","sourceOrganization":"The Atlas of Social Protection: Indicators of Resilience and Equity (ASPIRE)","topics":[]},{"id":"per_si_cp.avt_q3_preT_tot","name":"Average per capita transfer held by 3rd quintile - Contributory Pensions (preT)","source":{"id":"29","value":"Global Social Protection"},"sourceNote":"","sourceOrganization":"The Atlas of Social Protection: Indicators of Resilience and Equity (ASPIRE)","topics":[]},{"id":"per_si_cp.avt_q2_urb","name":"Average per capita transfer held by 2nd quintile - Contributory Pensions -urban","source":{"id":"29","value":"Global Social Protection"},"sourceNote":"","sourceOrganization":"The Atlas of Social Protection: Indicators of Resilience and Equity (ASPIRE)","topics":[]},{"id":"per_si_cp.avt_q2_tot","name":"Average per capita transfer held by 2nd quintile - Contributory Pensions ","source":{"id":"29","value":"Global Social Protection"},"sourceNote":"","sourceOrganization":"The Atlas of Social Protection: Indicators of Resilience and Equity (ASPIRE)","topics":[]},{"id":"per_si_cp.avt_q2_rur","name":"Average per capita transfer held by 2nd quintile - Contributory Pensions -rural","source":{"id":"29","value":"Global Social Protection"},"sourceNote":"","sourceOrganization":"The Atlas of Social Protection: Indicators of Resilience and Equity (ASPIRE)","topics":[]},{"id":"per_si_cp.avt_q2_preT_tot","name":"Average per capita transfer held by 2nd quintile - Contributory Pensions (preT)","source":{"id":"29","value":"Global Social Protection"},"sourceNote":"","sourceOrganization":"The Atlas of Social Protection: Indicators of Resilience and Equity (ASPIRE)","topics":[]},{"id":"per_si_cp.avt_q1_urb","name":"Average per capita transfer held by poorest quintile - Contributory Pensions -urban","source":{"id":"29","value":"Global Social Protection"},"sourceNote":"","sourceOrganization":"The Atlas of Social Protection: Indicators of Resilience and Equity (ASPIRE)","topics":[]},{"id":"per_si_cp.avt_q1_tot","name":"Average per capita transfer held by poorest quintile - Contributory Pensions ","source":{"id":"29","value":"Global Social Protection"},"sourceNote":"","sourceOrganization":"The Atlas of Social Protection: Indicators of Resilience and Equity (ASPIRE)","topics":[]},{"id":"per_si_cp.avt_q1_rur","name":"Average per capita transfer held by poorest quintile - Contributory Pensions -rural","source":{"id":"29","value":"Global Social Protection"},"sourceNote":"","sourceOrganization":"The Atlas of Social Protection: Indicators of Resilience and Equity (ASPIRE)","topics":[]},{"id":"per_si_cp.avt_q1_preT_tot","name":"Average per capita transfer held by poorest quintile - Contributory Pensions (preT)","source":{"id":"29","value":"Global Social Protection"},"sourceNote":"","sourceOrganization":"The Atlas of Social Protection: Indicators of Resilience and Equity (ASPIRE)","topics":[]},{"id":"per_si_cp.avt_pop_urb","name":"Average per capita transfer - Contributory Pensions -urban","source":{"id":"29","value":"Global Social Protection"},"sourceNote":"","sourceOrganization":"The Atlas of Social Protection: Indicators of Resilience and Equity (ASPIRE)","topics":[]},{"id":"per_si_cp.avt_pop_tot","name":"Average per capita transfer - Contributory Pensions ","source":{"id":"29","value":"Global Social Protection"},"sourceNote":"","sourceOrganization":"The Atlas of Social Protection: Indicators of Resilience and Equity (ASPIRE)","topics":[]},{"id":"per_si_cp.avt_pop_rur","name":"Average per capita transfer - Contributory Pensions -rural","source":{"id":"29","value":"Global Social Protection"},"sourceNote":"","sourceOrganization":"The Atlas of Social Protection: Indicators of Resilience and Equity (ASPIRE)","topics":[]},{"id":"per_si_cp.avt_pop_preT_tot","name":"Average per capita transfer - Contributory Pensions (preT)","source":{"id":"29","value":"Global Social Protection"},"sourceNote":"","sourceOrganization":"The Atlas of Social Protection: Indicators of Resilience and Equity (ASPIRE)","topics":[]},{"id":"per_si_cp.avt_ep_tot","name":"Average per capita transfer held by extreme poor (<$1.25 a day) - Contributory Pensions ","source":{"id":"29","value":"Global Social Protection"},"sourceNote":"","sourceOrganization":"The Atlas of Social Protection: Indicators of Resilience and Equity (ASPIRE)","topics":[]},{"id":"per_si_cp.avt_ep_preT_tot","name":"Average per capita transfer held by extreme poor (<$1.25 a day) - Contributory Pensions  (preT)","source":{"id":"29","value":"Global Social Protection"},"sourceNote":"","sourceOrganization":"The Atlas of Social Protection: Indicators of Resilience and Equity (ASPIRE)","topics":[]},{"id":"per_si_cp.adq_q5_urb","name":"Adequacy of benefits in richest quintile (%) - Contributory Pensions -urban","source":{"id":"29","value":"Global Social Protection"},"sourceNote":"","sourceOrganization":"The Atlas of Social Protection: Indicators of Resilience and Equity (ASPIRE)","topics":[]},{"id":"per_si_cp.adq_q5_tot","name":"Adequacy of benefits in richest quintile (%) - Contributory Pensions ","source":{"id":"29","value":"Global Social Protection"},"sourceNote":"","sourceOrganization":"The Atlas of Social Protection: Indicators of Resilience and Equity (ASPIRE)","topics":[]},{"id":"per_si_cp.adq_q5_rur","name":"Adequacy of benefits in richest quintile (%) - Contributory Pensions -rural","source":{"id":"29","value":"Global Social Protection"},"sourceNote":"","sourceOrganization":"The Atlas of Social Protection: Indicators of Resilience and Equity (ASPIRE)","topics":[]},{"id":"per_si_cp.adq_q5_preT_tot","name":"Adequacy of benefits in richest quintile (%) - Contributory Pensions (preT)","source":{"id":"29","value":"Global Social Protection"},"sourceNote":"","sourceOrganization":"The Atlas of Social Protection: Indicators of Resilience and Equity (ASPIRE)","topics":[]},{"id":"per_si_cp.adq_q4_urb","name":"Adequacy of benefits in 4th quintile (%) - Contributory Pensions -urban","source":{"id":"29","value":"Global Social Protection"},"sourceNote":"","sourceOrganization":"The Atlas of Social Protection: Indicators of Resilience and Equity (ASPIRE)","topics":[]},{"id":"per_si_cp.adq_q4_tot","name":"Adequacy of benefits in 4th quintile (%) - Contributory Pensions ","source":{"id":"29","value":"Global Social Protection"},"sourceNote":"","sourceOrganization":"The Atlas of Social Protection: Indicators of Resilience and Equity (ASPIRE)","topics":[]},{"id":"per_si_cp.adq_q4_rur","name":"Adequacy of benefits in 4th quintile (%) - Contributory Pensions -rural","source":{"id":"29","value":"Global Social Protection"},"sourceNote":"","sourceOrganization":"The Atlas of Social Protection: Indicators of Resilience and Equity (ASPIRE)","topics":[]},{"id":"per_si_cp.adq_q4_preT_tot","name":"Adequacy of benefits in 4th quintile (%) - Contributory Pensions (preT)","source":{"id":"29","value":"Global Social Protection"},"sourceNote":"","sourceOrganization":"The Atlas of Social Protection: Indicators of Resilience and Equity (ASPIRE)","topics":[{}]}]]