[{"page":121,"pages":324,"per_page":"50","total":16174},[{"id":"IC.GE.COST","name":"Cost to get electricity(% of income per capita)","source":{"id":"1","value":"Doing Business"},"sourceNote":"Cost to obtain an electricity connection (% of income per capita) ","sourceOrganization":"World Bank, Doing Business Project (http:\/\/www.doingbusiness.org\/ExploreTopics\/GettingElectricity)","topics":[]},{"id":"IC.GCON.GIFT.ZS","name":"Expected to give gifts to secure a Government contract (% of firms)","source":{"id":"11","value":"Africa Development Indicators"},"sourceNote":"Percentage of establishments that consider that firms with characteristics similar to theirs are making informal payments or giving gifts to public officials to secure government contract.  ","sourceOrganization":"World Bank, Enterprise Surveys (http:\/\/www.enterprisesurveys.org\/).","topics":[]},{"id":"IC.FRM.XQ","name":"Dealing with construction permits (rank)","source":{"id":"11","value":"Africa Development Indicators"},"sourceNote":"This index ranks economies from 1 to 181, with first place being the best.  This looks into (a) procedures (b) time and (c) cost  required for a business in the construction industry to build a standardized warehouse and gives weight to each topic.  For more information, visit http:\/\/www.doingbusiness.org\/MethodologySurveys\/.  ","sourceOrganization":"World Bank, Doing Business project (http:\/\/www.doingbusiness.org\/).","topics":[]},{"id":"IC.FRM.WTLIC.DURS","name":"Number of years firms operated without formal registration","source":{"id":"11","value":"Africa Development Indicators"},"sourceNote":"Average number of years firms operated without formal registration. This indicator is computed only for the firms that did not have a formal registration when they started their operations in the country.  ","sourceOrganization":"World Bank, Enterprise Surveys (http:\/\/www.enterprisesurveys.org\/). ","topics":[]},{"id":"IC.FRM.WRKF.WK9","name":"Percent of firms identifying labor regulations as a major constraint","source":{"id":"13","value":"Enterprise Surveys"},"sourceNote":"Percent of firms identifying labor regulations as a major constraint. The computation of the indicator is based on the rating of the obstacle as a potential constraint to the current operations of the establishment.   Source:World Bank, Enterprise Surveys Project(http:\/\/www.enterprisesurveys.org\/Data\/ExploreTopics\/workforce).","sourceOrganization":"World Bank, Enterprise Surveys Project(http:\/\/www.enterprisesurveys.org\/Data\/ExploreTopics\/workforce).","topics":[]},{"id":"IC.FRM.WRKF.WK8","name":"Years of the top manager's experience working in the firm's sector","source":{"id":"13","value":"Enterprise Surveys"},"sourceNote":"Years of the top manager's experience working in the firm's sector.   Source:World Bank, Enterprise Surveys Project(http:\/\/www.enterprisesurveys.org\/Data\/ExploreTopics\/workforce).","sourceOrganization":"World Bank, Enterprise Surveys Project(http:\/\/www.enterprisesurveys.org\/Data\/ExploreTopics\/workforce).","topics":[]},{"id":"IC.FRM.WRKF.WK7","name":"Number of permanent non-production workers","source":{"id":"13","value":"Enterprise Surveys"},"sourceNote":"Number of permanent non-production workers.   Source:World Bank, Enterprise Surveys Project(http:\/\/www.enterprisesurveys.org\/Data\/ExploreTopics\/workforce).","sourceOrganization":"World Bank, Enterprise Surveys Project(http:\/\/www.enterprisesurveys.org\/Data\/ExploreTopics\/workforce).","topics":[]},{"id":"IC.FRM.WRKF.WK6","name":"Number of permanent production workers","source":{"id":"13","value":"Enterprise Surveys"},"sourceNote":"Number of permanent production workers.   Source:World Bank, Enterprise Surveys Project(http:\/\/www.enterprisesurveys.org\/Data\/ExploreTopics\/workforce).","sourceOrganization":"World Bank, Enterprise Surveys Project(http:\/\/www.enterprisesurveys.org\/Data\/ExploreTopics\/workforce).","topics":[]},{"id":"IC.FRM.WRKF.WK4","name":"Number of permanent unskilled production workers","source":{"id":"13","value":"Enterprise Surveys"},"sourceNote":"Number of permanent unskilled production workers.   Source:World Bank, Enterprise Surveys Project(http:\/\/www.enterprisesurveys.org\/Data\/ExploreTopics\/workforce).","sourceOrganization":"World Bank, Enterprise Surveys Project(http:\/\/www.enterprisesurveys.org\/Data\/ExploreTopics\/workforce).","topics":[]},{"id":"IC.FRM.WRKF.WK3","name":"Number of permanent skilled production workers","source":{"id":"13","value":"Enterprise Surveys"},"sourceNote":"Number of permanent skilled production workers.   Source:World Bank, Enterprise Surveys Project(http:\/\/www.enterprisesurveys.org\/Data\/ExploreTopics\/workforce).","sourceOrganization":"World Bank, Enterprise Surveys Project(http:\/\/www.enterprisesurveys.org\/Data\/ExploreTopics\/workforce).","topics":[]},{"id":"IC.FRM.WRKF.WK2","name":"Proportion of workers offered formal training (%)","source":{"id":"13","value":"Enterprise Surveys"},"sourceNote":"Percentage of permanent, full-time employees that have received formal training.   Source:World Bank, Enterprise Surveys Project(http:\/\/www.enterprisesurveys.org\/Data\/ExploreTopics\/workforce).","sourceOrganization":"World Bank, Enterprise Surveys Project(http:\/\/www.enterprisesurveys.org\/Data\/ExploreTopics\/workforce).","topics":[]},{"id":"IC.FRM.WRKF.WK13","name":"Proportion of unskilled workers (out of all production workers) (%)","source":{"id":"13","value":"Enterprise Surveys"},"sourceNote":"Percentage of unskilled workers, out of all production workers.   Source:World Bank, Enterprise Surveys Project(http:\/\/www.enterprisesurveys.org\/Data\/ExploreTopics\/workforce).","sourceOrganization":"World Bank, Enterprise Surveys Project(http:\/\/www.enterprisesurveys.org\/Data\/ExploreTopics\/workforce).","topics":[]},{"id":"IC.FRM.WRKF.WK12","name":"Number of permanent full-time workers","source":{"id":"13","value":"Enterprise Surveys"},"sourceNote":"Number of permanent, full-time workers.   Source:World Bank, Enterprise Surveys Project(http:\/\/www.enterprisesurveys.org\/Data\/ExploreTopics\/workforce).","sourceOrganization":"World Bank, Enterprise Surveys Project(http:\/\/www.enterprisesurveys.org\/Data\/ExploreTopics\/workforce).","topics":[]},{"id":"IC.FRM.WRKF.WK11","name":"Number of temporary workers","source":{"id":"13","value":"Enterprise Surveys"},"sourceNote":"Number of temporary workers.   Source:World Bank, Enterprise Surveys Project(http:\/\/www.enterprisesurveys.org\/Data\/ExploreTopics\/workforce).","sourceOrganization":"World Bank, Enterprise Surveys Project(http:\/\/www.enterprisesurveys.org\/Data\/ExploreTopics\/workforce).","topics":[]},{"id":"IC.FRM.WRKF.WK10","name":"Percent of firms identifying an inadequately educated workforce as a major constraint","source":{"id":"13","value":"Enterprise Surveys"},"sourceNote":"Percent of firms identifying an inadequately educated workforce as a major constraint. The computation of the indicator is based on the rating of the obstacle as a potential constraint to the current operations of the establishment.   Source:World Bank, Enterprise Surveys Project(http:\/\/www.enterprisesurveys.org\/Data\/ExploreTopics\/workforce).","sourceOrganization":"World Bank, Enterprise Surveys Project(http:\/\/www.enterprisesurveys.org\/Data\/ExploreTopics\/workforce).","topics":[]},{"id":"IC.FRM.WRKF.WK1","name":"Percent of firms offering formal training","source":{"id":"13","value":"Enterprise Surveys"},"sourceNote":"Percent of firms offering formal training programs for its permanent, full-time employees.   Source:World Bank, Enterprise Surveys Project(http:\/\/www.enterprisesurveys.org\/Data\/ExploreTopics\/workforce).","sourceOrganization":"World Bank, Enterprise Surveys Project(http:\/\/www.enterprisesurveys.org\/Data\/ExploreTopics\/workforce).","topics":[]},{"id":"IC.FRM.WEB.ZS","name":"Firms using its own website (% of firms)","source":{"id":"11","value":"Africa Development Indicators"},"sourceNote":"Percentage of firms using the web for communication with clients or suppliers.  ","sourceOrganization":"World Bank, Enterprise Surveys (http:\/\/www.enterprisesurveys.org\/).","topics":[]},{"id":"IC.FRM.TRSP.ZS","name":"Transportation (% of firms identifying this as a major constraint)","source":{"id":"11","value":"Africa Development Indicators"},"sourceNote":"Percentage of firms identifying transport as a major constraint. The computation of the indicator is based on the rating of the obstacle as a potential constraint to the current operations of the establishment.  ","sourceOrganization":"World Bank, Enterprise Surveys (http:\/\/www.enterprisesurveys.org\/).","topics":[]},{"id":"IC.FRM.TRNG.ZS","name":"Firms offering formal training (% of firms)","source":{"id":"2","value":"World Development Indicators"},"sourceNote":"Firms offering formal training are the percentage of firms offering formal training programs for their permanent, full-time employees.","sourceOrganization":"World Bank, Enterprise Surveys (http:\/\/www.enterprisesurveys.org\/).","topics":[{"id":"12","value":"Private Sector"}]},{"id":"IC.FRM.TRD.TR9","name":"Percent of firms identifying customs and trade regulations as a major constraint","source":{"id":"13","value":"Enterprise Surveys"},"sourceNote":"Percent of firms that identifying customs and trade regulations as a major constraint. The computation of the indicator is based on the rating of the obstacle as a potential constraint to the current operations of the establishment.   Source:World Bank, Enterprise Surveys Project(http:\/\/www.enterprisesurveys.org\/Data\/ExploreTopics\/trade).","sourceOrganization":"World Bank, Enterprise Surveys Project(http:\/\/www.enterprisesurveys.org\/Data\/ExploreTopics\/trade).","topics":[]},{"id":"IC.FRM.TRD.TR8","name":"Proportion of total inputs that are of foreign origin (%)","source":{"id":"13","value":"Enterprise Surveys"},"sourceNote":"Percentage of material inputs and\/or supplies that are of foreign origin.   Source:World Bank, Enterprise Surveys Project(http:\/\/www.enterprisesurveys.org\/Data\/ExploreTopics\/trade).","sourceOrganization":"World Bank, Enterprise Surveys Project(http:\/\/www.enterprisesurveys.org\/Data\/ExploreTopics\/trade).","topics":[]},{"id":"IC.FRM.TRD.TR7","name":"Proportion of total inputs that are of domestic origin (%)","source":{"id":"13","value":"Enterprise Surveys"},"sourceNote":"Percentage of material inputs and\/or supplies that are of domestic origin.   Source:World Bank, Enterprise Surveys Project(http:\/\/www.enterprisesurveys.org\/Data\/ExploreTopics\/trade).","sourceOrganization":"World Bank, Enterprise Surveys Project(http:\/\/www.enterprisesurveys.org\/Data\/ExploreTopics\/trade).","topics":[]},{"id":"IC.FRM.TRD.TR6","name":"Proportion of total sales that are exported indirectly (%)","source":{"id":"13","value":"Enterprise Surveys"},"sourceNote":"Percentage of total annual sales that are exported indirectly.   Source:World Bank, Enterprise Surveys Project(http:\/\/www.enterprisesurveys.org\/Data\/ExploreTopics\/trade).","sourceOrganization":"World Bank, Enterprise Surveys Project(http:\/\/www.enterprisesurveys.org\/Data\/ExploreTopics\/trade).","topics":[]},{"id":"IC.FRM.TRD.TR5","name":"Proportion of total sales that are exported directly (%)","source":{"id":"13","value":"Enterprise Surveys"},"sourceNote":"Percentage of total annual sales that are exported directly.   Source:World Bank, Enterprise Surveys Project(http:\/\/www.enterprisesurveys.org\/Data\/ExploreTopics\/trade).","sourceOrganization":"World Bank, Enterprise Surveys Project(http:\/\/www.enterprisesurveys.org\/Data\/ExploreTopics\/trade).","topics":[]},{"id":"IC.FRM.TRD.TR4","name":"Proportion of total sales that are domestic sales (%)","source":{"id":"13","value":"Enterprise Surveys"},"sourceNote":"Percentage of total annual sales that are domestic sales.   Source:World Bank, Enterprise Surveys Project(http:\/\/www.enterprisesurveys.org\/Data\/ExploreTopics\/trade).","sourceOrganization":"World Bank, Enterprise Surveys Project(http:\/\/www.enterprisesurveys.org\/Data\/ExploreTopics\/trade).","topics":[]},{"id":"IC.FRM.TRD.TR2","name":"Days to clear imports from customs","source":{"id":"13","value":"Enterprise Surveys"},"sourceNote":"Number of days to clear imports from customs.   Source:World Bank, Enterprise Surveys Project(http:\/\/www.enterprisesurveys.org\/Data\/ExploreTopics\/trade).","sourceOrganization":"World Bank, Enterprise Surveys Project(http:\/\/www.enterprisesurveys.org\/Data\/ExploreTopics\/trade).","topics":[]},{"id":"IC.FRM.TRD.TR15","name":"Percent of firms exporting directly (at least 1% of sales)","source":{"id":"13","value":"Enterprise Surveys"},"sourceNote":"Percent of firms exporting directly at least 1% of their sales.   Source:World Bank, Enterprise Surveys Project(http:\/\/www.enterprisesurveys.org\/Data\/ExploreTopics\/trade).","sourceOrganization":"World Bank, Enterprise Surveys Project(http:\/\/www.enterprisesurveys.org\/Data\/ExploreTopics\/trade).","topics":[]},{"id":"IC.FRM.TRD.TR14","name":"Days of inventory of main input","source":{"id":"13","value":"Enterprise Surveys"},"sourceNote":"Days of inventory of the most important input.   Source:World Bank, Enterprise Surveys Project(http:\/\/www.enterprisesurveys.org\/Data\/ExploreTopics\/trade).","sourceOrganization":"World Bank, Enterprise Surveys Project(http:\/\/www.enterprisesurveys.org\/Data\/ExploreTopics\/trade).","topics":[]},{"id":"IC.FRM.TRD.TR11","name":"Percent of firms using material inputs and\/or supplies of foreign origin","source":{"id":"13","value":"Enterprise Surveys"},"sourceNote":"Percent of firms that use material inputs and\/or supplies of foreign origin.   Source:World Bank, Enterprise Surveys Project(http:\/\/www.enterprisesurveys.org\/Data\/ExploreTopics\/trade).","sourceOrganization":"World Bank, Enterprise Surveys Project(http:\/\/www.enterprisesurveys.org\/Data\/ExploreTopics\/trade).","topics":[]},{"id":"IC.FRM.TRD.TR10","name":"Percent of firms exporting directly or indirectly (at least 1% of sales)","source":{"id":"13","value":"Enterprise Surveys"},"sourceNote":"Percent of firms that export directly or indirectly at least 1% of their total annual sales.   Source:World Bank, Enterprise Surveys Project(http:\/\/www.enterprisesurveys.org\/Data\/ExploreTopics\/trade).","sourceOrganization":"World Bank, Enterprise Surveys Project(http:\/\/www.enterprisesurveys.org\/Data\/ExploreTopics\/trade).","topics":[]},{"id":"IC.FRM.TRD.TR1","name":"Days to clear direct exports through customs","source":{"id":"13","value":"Enterprise Surveys"},"sourceNote":"Number of days to clear direct exports through customs.   Source:World Bank, Enterprise Surveys Project(http:\/\/www.enterprisesurveys.org\/Data\/ExploreTopics\/trade).","sourceOrganization":"World Bank, Enterprise Surveys Project(http:\/\/www.enterprisesurveys.org\/Data\/ExploreTopics\/trade).","topics":[]},{"id":"IC.FRM.TIME","name":"Time required to deal with construction permits (days)","source":{"id":"11","value":"Africa Development Indicators"},"sourceNote":"The total number of days required to build a warehouse. The measure captures the median duration that local experts indicate is necessary to complete a procedure in practice.","sourceOrganization":"World Bank, Doing Business project (http:\/\/www.doingbusiness.org\/).","topics":[{"id":"12","value":"Private Sector"}]},{"id":"IC.FRM.TECH.ZS","name":"Firms using technology licensed from foreign companies (% of firms)","source":{"id":"11","value":"Africa Development Indicators"},"sourceNote":"Percentage of firms using technology licensed from foreign companies. For survey data collected in 2006 and 2007, this indicator is computed for the Manufacturing module only.  ","sourceOrganization":"World Bank, Enterprise Surveys (http:\/\/www.enterprisesurveys.org\/).","topics":[]},{"id":"IC.FRM.TAXR.ZS","name":"Tax rates (% of firms identifying this as major constraint)","source":{"id":"11","value":"Africa Development Indicators"},"sourceNote":"Percentage of firms identifying tax rates as a major constraint. The computation of the indicator is based on the rating of the obstacle as a potential constraint to the current operations of the establishment.  ","sourceOrganization":"World Bank, Enterprise Surveys (http:\/\/www.enterprisesurveys.org\/).","topics":[]},{"id":"IC.FRM.TAXAD.ZS","name":"Tax Administration (% of firms identifying this as major constraint)","source":{"id":"11","value":"Africa Development Indicators"},"sourceNote":"Percentage of firms identifying tax administration as a major constraint. The computation of the indicator is based on the rating of the obstacle as a potential constraint to the current operations of the establishment.  ","sourceOrganization":"World Bank, Enterprise Surveys (http:\/\/www.enterprisesurveys.org\/).","topics":[]},{"id":"IC.FRM.SECR.ZS","name":"Security costs (% of sales)","source":{"id":"11","value":"Africa Development Indicators"},"sourceNote":"Security costs is the average security costs as a percentage of total annual sales.","sourceOrganization":"World Bank, Enterprise Surveys (http:\/\/www.enterprisesurveys.org\/).","topics":[]},{"id":"IC.FRM.SEC.ZS","name":"Firms Paying for Security (% of firms)","source":{"id":"11","value":"Africa Development Indicators"},"sourceNote":"Percentage of firms paying for security, for example equipment, personnel, or professional security services.  ","sourceOrganization":"World Bank, Enterprise Surveys (http:\/\/www.enterprisesurveys.org\/)","topics":[]},{"id":"IC.FRM.REG.ZS","name":"Firms Formally Registered when Started Operations in the Country (% of firms)","source":{"id":"11","value":"Africa Development Indicators"},"sourceNote":"Percentage of firms formally registered when they started operations in the country.  ","sourceOrganization":"World Bank, Enterprise Surveys (http:\/\/www.enterprisesurveys.org\/). ","topics":[]},{"id":"IC.FRM.REG.REG5","name":"Percent of firms identifying tax administration as a major constraint","source":{"id":"13","value":"Enterprise Surveys"},"sourceNote":"Percent of firms identifying tax administration as a major constraint. The computation of the indicator is based on the rating of the obstacle as a potential constraint to the current operations of the establishment.   Source:World Bank, Enterprise Surveys Project(http:\/\/www.enterprisesurveys.org\/Data\/ExploreTopics\/regulations-and-taxes).","sourceOrganization":"World Bank, Enterprise Surveys Project(http:\/\/www.enterprisesurveys.org\/Data\/ExploreTopics\/regulations-and-taxes).","topics":[]},{"id":"IC.FRM.REG.REG4","name":"Percent of firms identifying tax rates as a major constraint","source":{"id":"13","value":"Enterprise Surveys"},"sourceNote":"Percent of firms identifying tax rates as a major constraint. The computation of the indicator is based on the rating of the obstacle as a potential constraint to the current operations of the establishment.   Source:World Bank, Enterprise Surveys Project(http:\/\/www.enterprisesurveys.org\/Data\/ExploreTopics\/regulations-and-taxes).","sourceOrganization":"World Bank, Enterprise Surveys Project(http:\/\/www.enterprisesurveys.org\/Data\/ExploreTopics\/regulations-and-taxes).","topics":[]},{"id":"IC.FRM.REG.REG2_C","name":"If there were visits, average number of visits or required meetings with tax officials","source":{"id":"13","value":"Enterprise Surveys"},"sourceNote":"If there were visits, average number of visits or required meetings with tax officials.   Source:World Bank, Enterprise Surveys Project(http:\/\/www.enterprisesurveys.org\/Data\/ExploreTopics\/regulations-and-taxes).","sourceOrganization":"World Bank, Enterprise Surveys Project(http:\/\/www.enterprisesurveys.org\/Data\/ExploreTopics\/regulations-and-taxes).","topics":[]},{"id":"IC.FRM.REG.REG2","name":"Number of visits or required meetings with tax officials","source":{"id":"13","value":"Enterprise Surveys"},"sourceNote":"Number of visits or required meetings with tax officials.   Source:World Bank, Enterprise Surveys Project(http:\/\/www.enterprisesurveys.org\/Data\/ExploreTopics\/regulations-and-taxes).","sourceOrganization":"World Bank, Enterprise Surveys Project(http:\/\/www.enterprisesurveys.org\/Data\/ExploreTopics\/regulations-and-taxes).","topics":[]},{"id":"IC.FRM.REG.REG1","name":"Senior management time spent dealing with the requirements of government regulation (%)","source":{"id":"13","value":"Enterprise Surveys"},"sourceNote":"Proportion of senior management’s time, in a typical week, that is spent dealing with the requirements imposed by government regulations (e.g. taxes, customs, labor regulations, licensing and registration, including dealings with officials, and completing forms).   Source:World Bank, Enterprise Surveys Project(http:\/\/www.enterprisesurveys.org\/Data\/ExploreTopics\/regulations-and-taxes).","sourceOrganization":"World Bank, Enterprise Surveys Project(http:\/\/www.enterprisesurveys.org\/Data\/ExploreTopics\/regulations-and-taxes).","topics":[]},{"id":"IC.FRM.REG.BUS5","name":"Percent of firms identifying business licensing and permits as a major constraint","source":{"id":"13","value":"Enterprise Surveys"},"sourceNote":"Percent of firms identifying business licensing and permits as a major constraint. The computation of the indicator is based on the rating of the obstacle as a potential constraint to the current operations of the establishment.   Source:World Bank, Enterprise Surveys Project(http:\/\/www.enterprisesurveys.org\/Data\/ExploreTopics\/regulations-and-taxes).","sourceOrganization":"World Bank, Enterprise Surveys Project(http:\/\/www.enterprisesurveys.org\/Data\/ExploreTopics\/regulations-and-taxes).","topics":[]},{"id":"IC.FRM.REG.BUS3","name":"Days to obtain a construction-related permit","source":{"id":"13","value":"Enterprise Surveys"},"sourceNote":"The wait, in days, experienced to obtain a construction-related permit from the day the establishment applied for it to the day it was granted.   Source:World Bank, Enterprise Surveys Project(http:\/\/www.enterprisesurveys.org\/Data\/ExploreTopics\/regulations-and-taxes).","sourceOrganization":"World Bank, Enterprise Surveys Project(http:\/\/www.enterprisesurveys.org\/Data\/ExploreTopics\/regulations-and-taxes).","topics":[]},{"id":"IC.FRM.REG.BUS2","name":"Days to obtain an operating license","source":{"id":"13","value":"Enterprise Surveys"},"sourceNote":"The wait, in days, experienced to obtain an operating license from the day the establishment applied for it to the day it was granted.   Source:World Bank, Enterprise Surveys Project(http:\/\/www.enterprisesurveys.org\/Data\/ExploreTopics\/regulations-and-taxes).","sourceOrganization":"World Bank, Enterprise Surveys Project(http:\/\/www.enterprisesurveys.org\/Data\/ExploreTopics\/regulations-and-taxes).","topics":[]},{"id":"IC.FRM.REG.BUS1","name":"Days to obtain an import license","source":{"id":"13","value":"Enterprise Surveys"},"sourceNote":"The wait, in days, experienced to obtain an import license from the day the establishment applied for it to the day it was granted.   Source:World Bank, Enterprise Surveys Project(http:\/\/www.enterprisesurveys.org\/Data\/ExploreTopics\/regulations-and-taxes).","sourceOrganization":"World Bank, Enterprise Surveys Project(http:\/\/www.enterprisesurveys.org\/Data\/ExploreTopics\/regulations-and-taxes).","topics":[]},{"id":"IC.FRM.PROC","name":"Dealing with construction, procedures (number)","source":{"id":"11","value":"Africa Development Indicators"},"sourceNote":"A procedure is any interaction of the company’s employees or managers with external parties, including government agencies, notaries, the land registry, the cadastre, utility com­panies, public and private inspectors and technical experts apart from in-house architects and engineers. Interactions between company employees, such as development of the warehouse plans and inspections conducted by employees, are not counted as procedures. Procedures that the company undergoes to connect to electricity, water, sewerage and phone services are included. All procedures that are legally or in practice required for building a warehouse are counted, even if they may be avoided in exceptional cases.  For more information, visit http:\/\/www.doingbusiness.org\/MethodologySurveys\/.  ","sourceOrganization":"World Bank, Doing Business project (http:\/\/www.doingbusiness.org\/).","topics":[]},{"id":"IC.FRM.OWN.ZS","name":"Largest shareholder ownership (%)","source":{"id":"11","value":"Africa Development Indicators"},"sourceNote":"Percentage held by largest owner or owners","sourceOrganization":"World Bank, Enterprise Surveys (http:\/\/www.enterprisesurveys.org\/).","topics":[]},{"id":"IC.FRM.OWN.PLOC.ZS","name":"Enterprise ownership - Private Domestic (%)","source":{"id":"11","value":"Africa Development Indicators"},"sourceNote":"Percentage of domestic ownership in private firms. The ownership variables represent the average ownership composition within a firm. These variables do not represent the ownership composition across firms.  ","sourceOrganization":"World Bank, Enterprise Surveys (http:\/\/www.enterprisesurveys.org\/).","topics":[{}]}]]