[{"page":101,"pages":324,"per_page":"50","total":16174},[{"id":"FCHICKEN","name":"Meat, chicken, nominal, $\/kg","source":{"id":"55","value":"Commodity Prices- History and Projections, updated quarterly"},"sourceNote":"","sourceOrganization":"","topics":[]},{"id":"FC.XPD.TOUR.CR","name":"Tourism and culture function expenditure (in IDR)","source":{"id":"45","value":"INDO-DAPOER"},"sourceNote":"","sourceOrganization":"Ministry of Finance, SIKD (Information System for Sub-National Budget)","topics":[]},{"id":"FC.XPD.RELG.CR","name":"Religious function expenditure (in IDR)","source":{"id":"45","value":"INDO-DAPOER"},"sourceNote":"","sourceOrganization":"Ministry of Finance, SIKD (Information System for Sub-National Budget)","topics":[]},{"id":"FC.XPD.PUBL.CR","name":"Public, law and order function expenditure (in IDR)","source":{"id":"45","value":"INDO-DAPOER"},"sourceNote":"","sourceOrganization":"Ministry of Finance, SIKD (Information System for Sub-National Budget)","topics":[]},{"id":"FC.XPD.PROT.CR","name":"Social protection function expenditure (in IDR)","source":{"id":"45","value":"INDO-DAPOER"},"sourceNote":"","sourceOrganization":"Ministry of Finance, SIKD (Information System for Sub-National Budget)","topics":[]},{"id":"FC.XPD.INFR.CR","name":"Infrastructure function expenditure (in IDR)","source":{"id":"45","value":"INDO-DAPOER"},"sourceNote":"","sourceOrganization":"Ministry of Finance, SIKD (Information System for Sub-National Budget)","topics":[]},{"id":"FC.XPD.HOUS.CR","name":"Housing and public facilities function expenditure (in IDR)","source":{"id":"45","value":"INDO-DAPOER"},"sourceNote":"","sourceOrganization":"Ministry of Finance, SIKD (Information System for Sub-National Budget)","topics":[]},{"id":"FC.XPD.HE.CR","name":"Health function expenditure (in IDR)","source":{"id":"45","value":"INDO-DAPOER"},"sourceNote":"","sourceOrganization":"Ministry of Finance, SIKD (Information System for Sub-National Budget)","topics":[]},{"id":"FC.XPD.ENVR.CR","name":"Environment function expenditure (in IDR)","source":{"id":"45","value":"INDO-DAPOER"},"sourceNote":"","sourceOrganization":"Ministry of Finance, SIKD (Information System for Sub-National Budget)","topics":[]},{"id":"FC.XPD.EDU.CR","name":"Education function expenditure (in IDR)","source":{"id":"45","value":"INDO-DAPOER"},"sourceNote":"","sourceOrganization":"Ministry of Finance, SIKD (Information System for Sub-National Budget)","topics":[]},{"id":"FC.XPD.ECON.CR","name":"Economy function expenditure (in IDR)","source":{"id":"45","value":"INDO-DAPOER"},"sourceNote":"","sourceOrganization":"Ministry of Finance, SIKD (Information System for Sub-National Budget)","topics":[]},{"id":"FC.XPD.AGR.CR","name":"Agriculture function expenditure (in IDR)","source":{"id":"45","value":"INDO-DAPOER"},"sourceNote":"","sourceOrganization":"Ministry of Finance, SIKD (Information System for Sub-National Budget)","topics":[]},{"id":"FC.XPD.ADMN.CR","name":"General administration function expenditure (in IDR)","source":{"id":"45","value":"INDO-DAPOER"},"sourceNote":"","sourceOrganization":"Ministry of Finance, SIKD (Information System for Sub-National Budget)","topics":[]},{"id":"FBEEF","name":"Beef, nominal, $\/kg","source":{"id":"55","value":"Commodity Prices- History and Projections, updated quarterly"},"sourceNote":"","sourceOrganization":"","topics":[]},{"id":"FBARLEY","name":"Barley, nominal, $\/mt","source":{"id":"55","value":"Commodity Prices- History and Projections, updated quarterly"},"sourceNote":"","sourceOrganization":"","topics":[]},{"id":"FBANANA_US","name":"Banana, US, nominal, $\/kg","source":{"id":"55","value":"Commodity Prices- History and Projections, updated quarterly"},"sourceNote":"","sourceOrganization":"","topics":[]},{"id":"FB.POS.TOTL.P5","name":"Point-of-sale terminals (per 100,000 adults)","source":{"id":"2","value":"World Development Indicators"},"sourceNote":"Point-of-sale terminals are the equipment used to manage the selling process by a salesperson-accessible interface in the location where a transaction takes place.","sourceOrganization":"Consultative Group to Assist the Poor and the World Bank Group’s \"Financial Access 2010.\"","topics":[{"id":"7","value":"Financial Sector "}]},{"id":"FB.CBK.DPTR.P3","name":"Depositors with commercial banks (per 1,000 adults)","source":{"id":"2","value":"World Development Indicators"},"sourceNote":"Depositors with commercial banks are the reported number of deposit account holders at commercial banks and other resident banks functioning as commercial banks that are resident nonfinancial corporations (public and private) and households. For many countries data cover the total number of deposit accounts due to lack of information on account holders. The major types of deposits are checking accounts, savings accounts, and time deposits.","sourceOrganization":"International Monetary Fund, Financial Access Survey.","topics":[{"id":"7","value":"Financial Sector "}]},{"id":"FB.CBK.BRWR.P3","name":"Borrowers from commercial banks (per 1,000 adults)","source":{"id":"2","value":"World Development Indicators"},"sourceNote":"Borrowers from commercial banks are the reported number of resident customers that are nonfinancial corporations (public and private) and households who obtained loans from commercial banks and other banks functioning as commercial banks. For many countries data cover the total number of loan accounts due to lack of information on loan account holders.","sourceOrganization":"International Monetary Fund, Financial Access Survey.","topics":[{"id":"7","value":"Financial Sector "}]},{"id":"FB.CBK.BRCH.P5","name":"Commercial bank branches (per 100,000 adults)","source":{"id":"2","value":"World Development Indicators"},"sourceNote":"Commercial bank branches are retail locations of resident commercial banks and other resident banks that function as commercial banks that provide financial services to customers and are physically separated from the main office but not organized as legally separated subsidiaries.","sourceOrganization":"International Monetary Fund, Financial Access Survey.","topics":[{"id":"7","value":"Financial Sector "}]},{"id":"FB.BNK.CAPA.ZS","name":"Bank capital to assets ratio (%)","source":{"id":"2","value":"World Development Indicators"},"sourceNote":"Bank capital to assets is the ratio of bank capital and reserves to total assets. Capital and reserves include funds contributed by owners, retained earnings, general and special reserves, provisions, and valuation adjustments. Capital includes tier 1 capital (paid-up shares and common stock), which is a common feature in all countries' banking systems, and total regulatory capital, which includes several specified types of subordinated debt instruments that need not be repaid if the funds are required to maintain minimum capital levels (these comprise tier 2 and tier 3 capital). Total assets include all nonfinancial and financial assets.","sourceOrganization":"International Monetary Fund, Global Financial Stability Report.","topics":[{"id":"7","value":"Financial Sector "}]},{"id":"FB.ATM.TOTL.P5","name":"Automated teller machines (ATMs) (per 100,000 adults)","source":{"id":"2","value":"World Development Indicators"},"sourceNote":"Automated teller machines are computerized telecommunications devices that provide clients of a financial institution with access to financial transactions in a public place.","sourceOrganization":"International Monetary Fund, Financial Access Survey.","topics":[{"id":"7","value":"Financial Sector "}]},{"id":"FB.AST.NPER.ZS","name":"Bank nonperforming loans to total gross loans (%)","source":{"id":"2","value":"World Development Indicators"},"sourceNote":"Bank nonperforming loans to total gross loans are the value of nonperforming loans divided by the total value of the loan portfolio (including nonperforming loans before the deduction of specific loan-loss provisions). The loan amount recorded as nonperforming should be the gross value of the loan as recorded on the balance sheet, not just the amount that is overdue.","sourceOrganization":"International Monetary Fund, Global Financial Stability Report.","topics":[{"id":"7","value":"Financial Sector "}]},{"id":"FB.AST.LOAN.MF.P3","name":"Loan accounts, microfinance institutions (per 1,000 adults)","source":{"id":"25","value":"Jobs for Knowledge Platform"},"sourceNote":"Microfinance institutions are institutions whose primary business model is to lend to (and possibly take deposits from) the poor, often using specialized methodologies such as group lending. The data collected using this institutional classification necessarily understate the scale of microfinance because many banks, cooperatives, and specialized state-owned institutions provide microfinance services as part of their activities.","sourceOrganization":"Consultative Group to Assist the Poor and the World Bank Group’s \"Financial Access 2010.\"","topics":[{"id":"7","value":"Financial Sector "}]},{"id":"FB.AST.LOAN.CB.P3","name":"Loan accounts, commercial banks (per 1,000 adults)","source":{"id":"25","value":"Jobs for Knowledge Platform"},"sourceNote":"Loan accounts at commercial banks include loans from banks to individuals, businesses, and others, including home mortgages, consumer loans, business loans, trade loans, student loans, emergency loans, agricultural loans, and the like. Commercial banks are banks with a full banking license. In some countries, the term \"universal banks\" or other terms may be used. Majority government- and state-owned banks are included in this category to the extent that they perform a broad set of retail banking functions and are regulated and supervised in the same manner as privately owned banks.","sourceOrganization":"Consultative Group to Assist the Poor and the World Bank Group’s \"Financial Access 2010.\"","topics":[{"id":"7","value":"Financial Sector "}]},{"id":"FALUMINUM","name":"Aluminum, nominal, $\/mt","source":{"id":"55","value":"Commodity Prices- History and Projections, updated quarterly"},"sourceNote":"","sourceOrganization":"","topics":[]},{"id":"exp_sa_sp_spe_tot","name":"Total spending as percent of GDP - Social Pension","source":{"id":"29","value":"Global Social Protection"},"sourceNote":"","sourceOrganization":"The Atlas of Social Protection: Indicators of Resilience and Equity (ASPIRE)","topics":[]},{"id":"exp_sa_sf_spe_tot","name":"Total spending as percent of GDP - School Feeding","source":{"id":"29","value":"Global Social Protection"},"sourceNote":"","sourceOrganization":"The Atlas of Social Protection: Indicators of Resilience and Equity (ASPIRE)","topics":[]},{"id":"exp_sa_pw_spe_tot","name":"Total spending as percent of GDP - Public Works","source":{"id":"29","value":"Global Social Protection"},"sourceNote":"","sourceOrganization":"The Atlas of Social Protection: Indicators of Resilience and Equity (ASPIRE)","topics":[]},{"id":"exp_sa_os_spe_tot","name":"Total spending as percent of GDP - Other Social Assistance","source":{"id":"29","value":"Global Social Protection"},"sourceNote":"","sourceOrganization":"The Atlas of Social Protection: Indicators of Resilience and Equity (ASPIRE)","topics":[]},{"id":"exp_sa_ik_spe_tot","name":"Total spending as percent of GDP - In-Kind","source":{"id":"29","value":"Global Social Protection"},"sourceNote":"","sourceOrganization":"The Atlas of Social Protection: Indicators of Resilience and Equity (ASPIRE)","topics":[]},{"id":"exp_sa_fw_spe_tot","name":"Total spending as percent of GDP - Fee Waivers","source":{"id":"29","value":"Global Social Protection"},"sourceNote":"","sourceOrganization":"The Atlas of Social Protection: Indicators of Resilience and Equity (ASPIRE)","topics":[]},{"id":"exp_sa_ct_spe_tot","name":"Total spending as percent of GDP - Cash Transfers","source":{"id":"29","value":"Global Social Protection"},"sourceNote":"","sourceOrganization":"The Atlas of Social Protection: Indicators of Resilience and Equity (ASPIRE)","topics":[]},{"id":"exp_sa_cc_spe_tot","name":"Total spending as percent of GDP - Conditional Cash Transfers","source":{"id":"29","value":"Global Social Protection"},"sourceNote":"","sourceOrganization":"The Atlas of Social Protection: Indicators of Resilience and Equity (ASPIRE)","topics":[]},{"id":"exp_sa_allsa_spe_tot","name":"Total spending as percent of GDP - All Social Assistance","source":{"id":"29","value":"Global Social Protection"},"sourceNote":"","sourceOrganization":"The Atlas of Social Protection: Indicators of Resilience and Equity (ASPIRE)","topics":[]},{"id":"ER.PTD.TOTL.ZS","name":"Terrestrial and marine protected areas (% of total territorial area)","source":{"id":"2","value":"World Development Indicators"},"sourceNote":"Terrestrial protected areas are totally or partially protected areas of at least 1,000 hectares that are designated by national authorities as scientific reserves with limited public access, national parks, natural monuments, nature reserves or wildlife sanctuaries, protected landscapes, and areas managed mainly for sustainable use. Marine protected areas are areas of intertidal or subtidal terrain--and overlying water and associated flora and fauna and historical and cultural features--that have been reserved by law or other effective means to protect part or all of the enclosed environment. Sites protected under local or provincial law are excluded.","sourceOrganization":"United Nations Environmental Program and the World Conservation Monitoring Centre, as compiled by the World Resources Institute, based on data from national authorities, national legislation and international agreements.","topics":[{"id":"19","value":"Climate Change"},{"id":"6","value":"Environment "}]},{"id":"ER.MRN.PTMR.ZS","name":"Marine protected areas (% of territorial waters)","source":{"id":"2","value":"World Development Indicators"},"sourceNote":"Marine protected areas are areas of intertidal or subtidal terrain--and overlying water and associated flora and fauna and historical and cultural features--that have been reserved by law or other effective means to protect part or all of the enclosed environment.","sourceOrganization":"United Nations Environmental Program and the World Conservation Monitoring Centre, as compiled by the World Resources Institute, based on data from national authorities, national legislation and international agreements.","topics":[{"id":"19","value":"Climate Change"},{"id":"6","value":"Environment "}]},{"id":"ER.MRN.PTMR.K2","name":"Marine protected areas (sq. km)","source":{"id":"11","value":"Africa Development Indicators"},"sourceNote":"Marine protected areas are areas of intertidal or subtidal terrain--and overlying water and associated flora and fauna and historical and cultural features--that have been reserved by law or other effective means to protect part or all of the enclosed environment.","sourceOrganization":"United Nations Environmental Program and the World Conservation Monitoring Centre, as compiled by the World Resources Institute, based on data from national authorities, national legislation and international agreements.","topics":[]},{"id":"ER.LND.PTLD.ZS","name":"Terrestrial protected areas (% of total land area)","source":{"id":"2","value":"World Development Indicators"},"sourceNote":"Terrestrial protected areas are totally or partially protected areas of at least 1,000 hectares that are designated by national authorities as scientific reserves with limited public access, national parks, natural monuments, nature reserves or wildlife sanctuaries, protected landscapes, and areas managed mainly for sustainable use. Marine areas, unclassified areas, littoral (intertidal) areas, and sites protected under local or provincial law are excluded.","sourceOrganization":"United Nations Environmental Program and the World Conservation Monitoring Centre, as compiled by the World Resources Institute, based on data from national authorities, national legislation and international agreements.","topics":[{"id":"19","value":"Climate Change"},{"id":"6","value":"Environment "}]},{"id":"ER.LND.PTLD.K2","name":"Terrestrial protected areas  (sq. km)","source":{"id":"11","value":"Africa Development Indicators"},"sourceNote":"Nationally protected areas are totally or partially protected areas of at least 1,000 hectares that are designated as scientific reserves with limited public access, national parks, natural monuments, nature reserves or wildlife sanctuaries, protected landscapes, and areas managed mainly for sustainable use. Marine areas, unclassified areas, and litoral (intertidal) areas are not included. The data also do not include sites protected under local or provincial law.","sourceOrganization":"United Nations Environmental Program and the World Conservation Monitoring Centre, as compiled by the World Resources Institute, based on data from national authorities, national legislation and international agreements.","topics":[]},{"id":"ER.H2O.INTR.PC","name":"Renewable internal freshwater resources per capita (cubic meters)","source":{"id":"2","value":"World Development Indicators"},"sourceNote":"Renewable internal freshwater resources flows refer to internal renewable resources (internal river flows and groundwater from rainfall) in the country. Renewable internal freshwater resources per capita are calculated using the World Bank's population estimates.","sourceOrganization":"Food and Agriculture Organization, AQUASTAT data.","topics":[{"id":"9","value":"Infrastructure "},{"id":"6","value":"Environment "}]},{"id":"ER.H2O.INTR.K3","name":"Renewable internal freshwater resources, total (billion cubic meters)","source":{"id":"2","value":"World Development Indicators"},"sourceNote":"Renewable internal freshwater resources flows refer to internal renewable resources (internal river flows and groundwater from rainfall) in the country.","sourceOrganization":"Food and Agriculture Organization, AQUASTAT data.","topics":[{"id":"9","value":"Infrastructure "},{"id":"6","value":"Environment "}]},{"id":"ER.H2O.FWTL.ZS","name":"Annual freshwater withdrawals, total (% of internal resources)","source":{"id":"2","value":"World Development Indicators"},"sourceNote":"Annual freshwater withdrawals refer to total water withdrawals, not counting evaporation losses from storage basins. Withdrawals also include water from desalination plants in countries where they are a significant source. Withdrawals can exceed 100 percent of total renewable resources where extraction from nonrenewable aquifers or desalination plants is considerable or where there is significant water reuse. Withdrawals for agriculture and industry are total withdrawals for irrigation and livestock production and for direct industrial use (including withdrawals for cooling thermoelectric plants). Withdrawals for domestic uses include drinking water, municipal use or supply, and use for public services, commercial establishments, and homes. Data are for the most recent year available for 1987-2002.","sourceOrganization":"Food and Agriculture Organization, AQUASTAT data.","topics":[{"id":"19","value":"Climate Change"},{"id":"9","value":"Infrastructure "},{"id":"6","value":"Environment "}]},{"id":"ER.H2O.FWTL.K3","name":"Annual freshwater withdrawals, total (billion cubic meters)","source":{"id":"2","value":"World Development Indicators"},"sourceNote":"Annual freshwater withdrawals refer to total water withdrawals, not counting evaporation losses from storage basins. Withdrawals also include water from desalination plants in countries where they are a significant source. Withdrawals can exceed 100 percent of total renewable resources where extraction from nonrenewable aquifers or desalination plants is considerable or where there is significant water reuse. Withdrawals for agriculture and industry are total withdrawals for irrigation and livestock production and for direct industrial use (including withdrawals for cooling thermoelectric plants). Withdrawals for domestic uses include drinking water, municipal use or supply, and use for public services, commercial establishments, and homes. Data are for the most recent year available for 1987-2002.","sourceOrganization":"Food and Agriculture Organization, AQUASTAT data.","topics":[{"id":"19","value":"Climate Change"},{"id":"9","value":"Infrastructure "},{"id":"6","value":"Environment "}]},{"id":"ER.H2O.FWIN.ZS","name":"Annual freshwater withdrawals, industry (% of total freshwater withdrawal)","source":{"id":"2","value":"World Development Indicators"},"sourceNote":"Annual freshwater withdrawals refer to total water withdrawals, not counting evaporation losses from storage basins. Withdrawals also include water from desalination plants in countries where they are a significant source. Withdrawals can exceed 100 percent of total renewable resources where extraction from nonrenewable aquifers or desalination plants is considerable or where there is significant water reuse. Withdrawals for industry are total withdrawals for direct industrial use (including withdrawals for cooling thermoelectric plants). Data are for the most recent year available for 1987-2002.","sourceOrganization":"Food and Agriculture Organization, AQUASTAT data.","topics":[{"id":"9","value":"Infrastructure "},{"id":"6","value":"Environment "}]},{"id":"ER.H2O.FWDM.ZS","name":"Annual freshwater withdrawals, domestic (% of total freshwater withdrawal)","source":{"id":"2","value":"World Development Indicators"},"sourceNote":"Annual freshwater withdrawals refer to total water withdrawals, not counting evaporation losses from storage basins. Withdrawals also include water from desalination plants in countries where they are a significant source. Withdrawals can exceed 100 percent of total renewable resources where extraction from nonrenewable aquifers or desalination plants is considerable or where there is significant water reuse. Withdrawals for domestic uses include drinking water, municipal use or supply, and use for public services, commercial establishments, and homes. Data are for the most recent year available for 1987-2002.","sourceOrganization":"Food and Agriculture Organization, AQUASTAT data.","topics":[{"id":"9","value":"Infrastructure "},{"id":"6","value":"Environment "}]},{"id":"ER.H2O.FWAG.ZS","name":"Annual freshwater withdrawals, agriculture (% of total freshwater withdrawal)","source":{"id":"2","value":"World Development Indicators"},"sourceNote":"Annual freshwater withdrawals refer to total water withdrawals, not counting evaporation losses from storage basins. Withdrawals also include water from desalination plants in countries where they are a significant source. Withdrawals can exceed 100 percent of total renewable resources where extraction from nonrenewable aquifers or desalination plants is considerable or where there is significant water reuse. Withdrawals for agriculture are total withdrawals for irrigation and livestock production. Data are for the most recent year available for 1987-2002.","sourceOrganization":"Food and Agriculture Organization, AQUASTAT data.","topics":[{"id":"1","value":"Agriculture & Rural Development  "},{"id":"9","value":"Infrastructure "},{"id":"6","value":"Environment "}]},{"id":"ER.GDP.FWTL.M3.KD","name":"Water productivity, total (constant 2010 US$ GDP per cubic meter of total freshwater withdrawal)","source":{"id":"2","value":"World Development Indicators"},"sourceNote":"Water productivity is calculated as GDP in constant prices divided by annual total water withdrawal.","sourceOrganization":"Food and Agriculture Organization, AQUASTAT data, and World Bank and OECD GDP estimates.","topics":[{"id":"6","value":"Environment "}]},{"id":"ER.FST.DFST.ZG","name":"Annual deforestation (% of change)","source":{"id":"26","value":"Corporate Scorecard"},"sourceNote":"Average annual deforestation refers to the permanent conversion of natural forest area to other uses, including shifting cultivation, permanent agriculture, ranching, settlements, and infrastructure development. Deforested areas do not include areas logged but intended for regeneration or areas degraded by fuelwood gathering, acid precipitation, or forest fires. Negative numbers indicate an increase in forest area.","sourceOrganization":"Food and Agriculture Organization, Global Forest Resources Assessment.","topics":[]},{"id":"ER.FSH.PROD.MT","name":"Total fisheries production (metric tons)","source":{"id":"2","value":"World Development Indicators"},"sourceNote":"Total fisheries production measures the volume of aquatic species caught by a country for all commercial, industrial, recreational and subsistence purposes. The harvest from mariculture, aquaculture and other kinds of fish farming is also included.","sourceOrganization":"Food and Agriculture Organization.","topics":[{"id":"6","value":"Environment "}]}]]