[{"page":75,"pages":324,"per_page":"50","total":16174},[{"id":"DT.DOD.PROD.LT.AR.US","name":"Publicly Guar. Private Sector Ext. Debt Pos., Long-term, Other debt liabilities, USD","source":{"id":"23","value":"Quarterly External Debt Statistics\/GDDS (New)"},"sourceNote":"","sourceOrganization":"","topics":[]},{"id":"DT.DOD.PRMU.CD.US","name":"Publicly Guar. Private Sector Ext. Debt Pos., Multilateral creditors, All maturities, All instruments, USD","source":{"id":"23","value":"Quarterly External Debt Statistics\/GDDS (New)"},"sourceNote":"","sourceOrganization":"","topics":[]},{"id":"DT.DOD.PRMU.CD.ST.US","name":"Publicly Guar. Private Sector Ext. Debt Pos., Multilateral creditors, Short-term, All instruments, USD","source":{"id":"23","value":"Quarterly External Debt Statistics\/GDDS (New)"},"sourceNote":"","sourceOrganization":"","topics":[]},{"id":"DT.DOD.PRMU.CD.LT.US","name":"Publicly Guar. Private Sector Ext. Debt Pos., Multilateral creditors, Long-term, All instruments, USD","source":{"id":"23","value":"Quarterly External Debt Statistics\/GDDS (New)"},"sourceNote":"","sourceOrganization":"","topics":[]},{"id":"DT.DOD.PRMM.ST.AR.US","name":"Publicly Guar. Private Sector Ext. Debt Pos., Short-term, Debt securities, USD","source":{"id":"23","value":"Quarterly External Debt Statistics\/GDDS (New)"},"sourceNote":"","sourceOrganization":"","topics":[]},{"id":"DT.DOD.PRLT.CD.PR.AR.US","name":"Gross Ext. Debt Pos., Publicly Guar. Private Sector Ext. Debt, Long-term, All instruments, USD","source":{"id":"22","value":"Quarterly External Debt Statistics\/SDDS (New)"},"sourceNote":"","sourceOrganization":"","topics":[]},{"id":"DT.DOD.PRLO.ST.AR.US","name":"Publicly Guar. Private Sector Ext. Debt Pos., Short-term, Loans, USD","source":{"id":"23","value":"Quarterly External Debt Statistics\/GDDS (New)"},"sourceNote":"","sourceOrganization":"","topics":[]},{"id":"DT.DOD.PRLO.LT.AR.US","name":"Publicly Guar. Private Sector Ext. Debt Pos., Long-term, Loans, USD","source":{"id":"23","value":"Quarterly External Debt Statistics\/GDDS (New)"},"sourceNote":"","sourceOrganization":"","topics":[]},{"id":"DT.DOD.PRFE.IL.US","name":"Publicly Guar. Private Sector Ext. Debt Pos., All maturities, Debt liab. to fellow ent., USD","source":{"id":"23","value":"Quarterly External Debt Statistics\/GDDS (New)"},"sourceNote":"","sourceOrganization":"","topics":[]},{"id":"DT.DOD.PRDI.IL.US","name":"Publicly Guar. Private Sector Ext. Debt Pos., All maturities, Debt liab. of DI ent. to dir. investors, USD","source":{"id":"23","value":"Quarterly External Debt Statistics\/GDDS (New)"},"sourceNote":"","sourceOrganization":"","topics":[]},{"id":"DT.DOD.PRCD.ST.AR.US","name":"Publicly Guar. Private Sector Ext. Debt Pos., Short-term, Currency and deposits , USD","source":{"id":"23","value":"Quarterly External Debt Statistics\/GDDS (New)"},"sourceNote":"","sourceOrganization":"","topics":[]},{"id":"DT.DOD.PRCD.LT.AR.US","name":"Publicly Guar. Private Sector Ext. Debt Pos., Long-term, Currency and deposits , USD","source":{"id":"23","value":"Quarterly External Debt Statistics\/GDDS (New)"},"sourceNote":"","sourceOrganization":"","topics":[]},{"id":"DT.DOD.PRBN.LT.AR.US","name":"Publicly Guar. Private Sector Ext. Debt Pos., Long-term, Debt securities, USD","source":{"id":"23","value":"Quarterly External Debt Statistics\/GDDS (New)"},"sourceNote":"","sourceOrganization":"","topics":[]},{"id":"DT.DOD.PRBL.CD.US","name":"Publicly Guar. Private Sector Ext. Debt Pos., Official bilateral creditors, All maturities, All instruments, USD","source":{"id":"23","value":"Quarterly External Debt Statistics\/GDDS (New)"},"sourceNote":"","sourceOrganization":"","topics":[]},{"id":"DT.DOD.PRBL.CD.ST.US","name":"Publicly Guar. Private Sector Ext. Debt Pos., Official bilateral creditors, Short-term, All instruments, USD","source":{"id":"23","value":"Quarterly External Debt Statistics\/GDDS (New)"},"sourceNote":"","sourceOrganization":"","topics":[]},{"id":"DT.DOD.PRBL.CD.LT.US","name":"Publicly Guar. Private Sector Ext. Debt Pos., Official bilateral creditors, Long-term, All instruments, USD","source":{"id":"23","value":"Quarterly External Debt Statistics\/GDDS (New)"},"sourceNote":"","sourceOrganization":"","topics":[]},{"id":"DT.DOD.PRBA.CD.US","name":"Publicly Guar. Private Sector Ext. Debt Pos., Deposit-Taking Corp., exc. CB, creditors, All maturities, All instruments, USD","source":{"id":"23","value":"Quarterly External Debt Statistics\/GDDS (New)"},"sourceNote":"","sourceOrganization":"","topics":[]},{"id":"DT.DOD.PRBA.CD.ST.US","name":"Publicly Guar. Private Sector Ext. Debt Pos., Deposit-Taking Corp., exc. CB, creditors, Short-term, All instruments, USD","source":{"id":"23","value":"Quarterly External Debt Statistics\/GDDS (New)"},"sourceNote":"","sourceOrganization":"","topics":[]},{"id":"DT.DOD.PRBA.CD.LT.US","name":"Publicly Guar. Private Sector Ext. Debt Pos., Deposit-Taking Corp., exc. CB, creditors, Long-term, All instruments, USD","source":{"id":"23","value":"Quarterly External Debt Statistics\/GDDS (New)"},"sourceNote":"","sourceOrganization":"","topics":[]},{"id":"DT.DOD.PRAE.IL.US","name":"Publicly Guar. Private Sector Ext. Debt Pos., All maturities, Debt liab. of dir. investors to DI ent., USD","source":{"id":"23","value":"Quarterly External Debt Statistics\/GDDS (New)"},"sourceNote":"","sourceOrganization":"","topics":[]},{"id":"DT.DOD.PNGC.CD","name":"PNG, commercial banks and other creditors (DOD, current US$)","source":{"id":"2","value":"World Development Indicators"},"sourceNote":"Nonguaranteed long-term commercial bank loans from private banks and other private financial institutions. Private nonguaranteed long-term debt outstanding and disbursed is an external obligation of a private debtor that is not guaranteed for repayment by a public entity. Data are in current U.S. dollars.","sourceOrganization":"World Bank, International Debt Statistics.","topics":[{"id":"20","value":"External Debt"}]},{"id":"DT.DOD.PNGB.CD","name":"PNG, bonds (DOD, current US$)","source":{"id":"2","value":"World Development Indicators"},"sourceNote":"Nonguaranteed long-term debt from bonds that are privately placed. Private nonguaranteed long-term debt outstanding and disbursed is an external obligation of a private debtor that is not guaranteed for repayment by a public entity. Data are in current U.S. dollars.","sourceOrganization":"World Bank, International Debt Statistics.","topics":[{"id":"20","value":"External Debt"}]},{"id":"DT.DOD.PGNG.CD","name":"Debt outstanding and disbursed, PPG and PNG private creditors (DOD, current US$)","source":{"id":"11","value":"Africa Development Indicators"},"sourceNote":"Public and publicly guaranteed debt from private creditors include bonds that are either publicly issued or privately placed; commercial bank loans from private banks and other private financial institutions; and other private credits from manufacturers, exporters, and other suppliers of goods, and bank credits covered by a guarantee of an export credit agency. Long-term debt outstanding and disbursed (LDOD) is the total outstanding long-term debt at year end.  Private nonguaranteed long-term debt outstanding and disbursed (LDOD) is an external obligation of a private debtor that is not guaranteed for repayment by a public entity. Long-term debt outstanding and disbursed (LDOD) is the total outstanding long-term debt at year end. Long-term external debt is defined as debt that has an original or extended maturity of more than one year and that is owed to nonresidents and repayable in currency, goods, or services.  ","sourceOrganization":"World Bank, Global Development Finance.","topics":[]},{"id":"DT.DOD.PCPU.US","name":"Public Sector Ext. Debt Pos., Paris Club member creditors, All maturities, All instruments, USD","source":{"id":"23","value":"Quarterly External Debt Statistics\/GDDS (New)"},"sourceNote":"","sourceOrganization":"","topics":[]},{"id":"DT.DOD.PCPU.ST.US","name":"Public Sector Ext. Debt Pos., Paris Club member creditors, Short-term, All instruments, USD","source":{"id":"23","value":"Quarterly External Debt Statistics\/GDDS (New)"},"sourceNote":"","sourceOrganization":"","topics":[]},{"id":"DT.DOD.PCPU.LT.US","name":"Public Sector Ext. Debt Pos., Paris Club member creditors, Long-term, All instruments, USD","source":{"id":"23","value":"Quarterly External Debt Statistics\/GDDS (New)"},"sourceNote":"","sourceOrganization":"","topics":[]},{"id":"DT.DOD.PCPR.US","name":"Publicly Guar. Private Sector Ext. Debt Pos., Paris Club member creditors, All maturities, All instruments, USD","source":{"id":"23","value":"Quarterly External Debt Statistics\/GDDS (New)"},"sourceNote":"","sourceOrganization":"","topics":[]},{"id":"DT.DOD.PCPR.ST.US","name":"Publicly Guar. Private Sector Ext. Debt Pos., Paris Club member creditors, Short-term, All instruments, USD","source":{"id":"23","value":"Quarterly External Debt Statistics\/GDDS (New)"},"sourceNote":"","sourceOrganization":"","topics":[]},{"id":"DT.DOD.PCPR.LT.US","name":"Publicly Guar. Private Sector Ext. Debt Pos., Paris Club member creditors, Long-term, All instruments, USD","source":{"id":"23","value":"Quarterly External Debt Statistics\/GDDS (New)"},"sourceNote":"","sourceOrganization":"","topics":[]},{"id":"DT.DOD.PCCR.US","name":"Public and Publicly Guar. Private Sector Ext. Debt Pos., Paris Club member creditors, All maturities, All instruments, USD","source":{"id":"23","value":"Quarterly External Debt Statistics\/GDDS (New)"},"sourceNote":"","sourceOrganization":"","topics":[]},{"id":"DT.DOD.PCBK.CD","name":"PPG, commercial banks (DOD, current US$)","source":{"id":"2","value":"World Development Indicators"},"sourceNote":"Public and publicly guaranteed commercial bank loans from private banks and other private financial institutions. Data are in current U.S. dollars.","sourceOrganization":"World Bank, International Debt Statistics.","topics":[{"id":"20","value":"External Debt"}]},{"id":"DT.DOD.PBND.CD","name":"PPG, bonds (DOD, current US$)","source":{"id":"2","value":"World Development Indicators"},"sourceNote":"Public and publicly guaranteed debt from bonds that are either publicly issued or privately placed. Data are in current U.S. dollars.","sourceOrganization":"World Bank, International Debt Statistics.","topics":[{"id":"20","value":"External Debt"}]},{"id":"DT.DOD.OOST.CD.PU.AR.US","name":"Gross Ext. Debt Pos., Public Sector Ext. Debt, Short-term, Other debt liabilities, USD","source":{"id":"22","value":"Quarterly External Debt Statistics\/SDDS (New)"},"sourceNote":"","sourceOrganization":"","topics":[]},{"id":"DT.DOD.OOST.CD.PR.AR.US","name":"Gross Ext. Debt Pos., Publicly Guar. Private Sector Ext. Debt, Short-term, Other debt liabilities, USD","source":{"id":"22","value":"Quarterly External Debt Statistics\/SDDS (New)"},"sourceNote":"","sourceOrganization":"","topics":[]},{"id":"DT.DOD.OLLT.CD.PU.AR.US","name":"Gross Ext. Debt Pos., Public Sector Ext. Debt, Long-term, Other debt liabilities, USD","source":{"id":"22","value":"Quarterly External Debt Statistics\/SDDS (New)"},"sourceNote":"","sourceOrganization":"","topics":[]},{"id":"DT.DOD.OLLT.CD.PR.AR.US","name":"Gross Ext. Debt Pos., Publicly Guar. Private Sector Ext. Debt, Long-term, Other debt liabilities, USD","source":{"id":"22","value":"Quarterly External Debt Statistics\/SDDS (New)"},"sourceNote":"","sourceOrganization":"","topics":[]},{"id":"DT.DOD.OFFT.PU.PR.AR.US","name":"Gross Ext. Debt Pos., Public Sector Ext. Debt, All maturities, Arrears, Principal, USD","source":{"id":"22","value":"Quarterly External Debt Statistics\/SDDS (New)"},"sourceNote":"","sourceOrganization":"","topics":[]},{"id":"DT.DOD.OFFT.PU.IN.AR.US","name":"Gross Ext. Debt Pos., Public Sector Ext. Debt, All maturities, Arrears, Interest, USD","source":{"id":"22","value":"Quarterly External Debt Statistics\/SDDS (New)"},"sourceNote":"","sourceOrganization":"","topics":[]},{"id":"DT.DOD.OFFT.PU.DS.US","name":"Gross Ext. Debt Pos., Public Sector Ext. Debt, All maturities, Debt securities, Memo item, USD","source":{"id":"22","value":"Quarterly External Debt Statistics\/SDDS (New)"},"sourceNote":"","sourceOrganization":"","topics":[]},{"id":"DT.DOD.OFFT.PU.AR.US","name":"Gross Ext. Debt Pos., Public Sector Ext. Debt, All maturities, Arrears, Prin. and Int., USD","source":{"id":"22","value":"Quarterly External Debt Statistics\/SDDS (New)"},"sourceNote":"","sourceOrganization":"","topics":[]},{"id":"DT.DOD.OFFT.PR.PR.AR.US","name":"Gross Ext. Debt Pos., Publicly Guar. Private Sector Ext. Debt, All maturities, Arrears, Principal, USD","source":{"id":"22","value":"Quarterly External Debt Statistics\/SDDS (New)"},"sourceNote":"","sourceOrganization":"","topics":[]},{"id":"DT.DOD.OFFT.PR.IN.AR.US","name":"Gross Ext. Debt Pos., Publicly Guar. Private Sector Ext. Debt, All maturities, Arrears, Interest, USD","source":{"id":"22","value":"Quarterly External Debt Statistics\/SDDS (New)"},"sourceNote":"","sourceOrganization":"","topics":[]},{"id":"DT.DOD.OFFT.PR.DS.US","name":"Gross Ext. Debt Pos., Publicly Guar. Private Sector Ext. Debt, All maturities, Debt securities, Memo item, USD","source":{"id":"22","value":"Quarterly External Debt Statistics\/SDDS (New)"},"sourceNote":"","sourceOrganization":"","topics":[]},{"id":"DT.DOD.OFFT.PR.AR.US","name":"Gross Ext. Debt Pos., Publicly Guar. Private Sector Ext. Debt, All maturities, Arrears, Prin. and Int., USD","source":{"id":"22","value":"Quarterly External Debt Statistics\/SDDS (New)"},"sourceNote":"","sourceOrganization":"","topics":[]},{"id":"DT.DOD.OFFT.CD.PU.AR.US","name":"Gross Ext. Debt Pos., Public Sector Ext. Debt, All maturities, All instruments, USD","source":{"id":"22","value":"Quarterly External Debt Statistics\/SDDS (New)"},"sourceNote":"","sourceOrganization":"","topics":[]},{"id":"DT.DOD.OFFT.CD.PR.AR.US","name":"Gross Ext. Debt Pos., Publicly Guar. Private Sector Ext. Debt, All maturities, All instruments, USD","source":{"id":"22","value":"Quarterly External Debt Statistics\/SDDS (New)"},"sourceNote":"","sourceOrganization":"","topics":[]},{"id":"DT.DOD.OFFT.CD","name":"PPG, official creditors (DOD, current US$)","source":{"id":"2","value":"World Development Indicators"},"sourceNote":"Public and publicly guaranteed debt from official creditors includes loans from international organizations (multilateral loans) and loans from governments (bilateral loans). Loans from international organization include loans and credits from the World Bank, regional development banks, and other multilateral and intergovernmental agencies. Excluded are loans from funds administered by an international organization on behalf of a single donor government; these are classified as loans from governments. Government loans include loans from governments and their agencies (including central banks), loans from autonomous bodies, and direct loans from official export credit agencies. Data are in current U.S. dollars.","sourceOrganization":"World Bank, International Debt Statistics.","topics":[{"id":"20","value":"External Debt"}]},{"id":"DT.DOD.MWBG.CD","name":"IBRD loans and IDA credits (DOD, current US$)","source":{"id":"2","value":"World Development Indicators"},"sourceNote":"IBRD loans and IDA credits are public and publicly guaranteed debt extended by the World Bank Group. The International Bank for Reconstruction and Development (IBRD) lends at market rates. Credits from the International Development Association (IDA) are at concessional rates. Data are in current U.S. dollars.","sourceOrganization":"World Bank, International Debt Statistics.","topics":[{"id":"20","value":"External Debt"}]},{"id":"DT.DOD.MMST.CD.PU.AR.US","name":"Gross Ext. Debt Pos., Public Sector Ext. Debt, Short-term, Debt securities, USD","source":{"id":"22","value":"Quarterly External Debt Statistics\/SDDS (New)"},"sourceNote":"","sourceOrganization":"","topics":[]},{"id":"DT.DOD.MMST.CD.PR.AR.US","name":"Gross Ext. Debt Pos., Publicly Guar. Private Sector Ext. Debt, Short-term, Debt securities, USD","source":{"id":"22","value":"Quarterly External Debt Statistics\/SDDS (New)"},"sourceNote":"","sourceOrganization":"","topics":[{}]}]]