[{"page":40,"pages":324,"per_page":"50","total":16174},[{"id":"DP.DOD.DLCD.CR.CG.Z1","name":"503.Currency and deposits (PSDCG)(% of GDP)","source":{"id":"20","value":"Quarterly Public Sector Debt"},"sourceNote":"The source of non-seasonally adjusted Gross Domestic Product (GDP) data in national currency, at current prices, is the International Finance Statistics quarterly database of the IMF, annualized by the World Bank, unless otherwise specified","sourceOrganization":"","topics":[]},{"id":"DP.DOD.DLCD.CR.CG.CD","name":"055.Currency and deposits (PSDCG) US$","source":{"id":"20","value":"Quarterly Public Sector Debt"},"sourceNote":"Member Country","sourceOrganization":"World Bank.","topics":[]},{"id":"DP.DOD.DLCD.CR.CG","name":"279.Currency and deposits (PSDCG)","source":{"id":"20","value":"Quarterly Public Sector Debt"},"sourceNote":"","sourceOrganization":"","topics":[]},{"id":"DP.DOD.DLCD.CR.BC.Z1","name":"535.Currency and deposits (PSDCGGB)(% of GDP)","source":{"id":"20","value":"Quarterly Public Sector Debt"},"sourceNote":"The source of non-seasonally adjusted Gross Domestic Product (GDP) data in national currency, at current prices, is the International Finance Statistics quarterly database of the IMF, annualized by the World Bank, unless otherwise specified","sourceOrganization":"","topics":[]},{"id":"DP.DOD.DLCD.CR.BC.CD","name":"087.Currency and deposits (PSDCGGB) US$","source":{"id":"20","value":"Quarterly Public Sector Debt"},"sourceNote":"Member Country","sourceOrganization":"World Bank.","topics":[]},{"id":"DP.DOD.DLCD.CR.BC","name":"311.Currency and deposits (PSDCGGB)","source":{"id":"20","value":"Quarterly Public Sector Debt"},"sourceNote":"","sourceOrganization":"","topics":[]},{"id":"DP.DOD.DECX.CR.PS.CD","name":"189.Gross Public Sector Debt, External creditors  US$","source":{"id":"20","value":"Quarterly Public Sector Debt"},"sourceNote":"Member Country","sourceOrganization":"World Bank.","topics":[]},{"id":"DP.DOD.DECX.CR.PS","name":"413.Gross Public Sector Debt, External creditors","source":{"id":"20","value":"Quarterly Public Sector Debt"},"sourceNote":"","sourceOrganization":"","topics":[]},{"id":"DP.DOD.DECX.CR.NF.Z1","name":"573.Gross Nonfinancial Public Corporations Debt, External creditors(% of GDP)","source":{"id":"20","value":"Quarterly Public Sector Debt"},"sourceNote":"The source of non-seasonally adjusted Gross Domestic Product (GDP) data in national currency, at current prices, is the International Finance Statistics quarterly database of the IMF, annualized by the World Bank, unless otherwise specified","sourceOrganization":"","topics":[]},{"id":"DP.DOD.DECX.CR.NF.CD","name":"125.Gross Nonfinancial Public Corporations Debt, External creditors  US$","source":{"id":"20","value":"Quarterly Public Sector Debt"},"sourceNote":"Member Country","sourceOrganization":"World Bank.","topics":[]},{"id":"DP.DOD.DECX.CR.NF","name":"349.Gross Nonfinancial Public Corporations Debt, External creditors","source":{"id":"20","value":"Quarterly Public Sector Debt"},"sourceNote":"","sourceOrganization":"","topics":[]},{"id":"DP.DOD.DECX.CR.GG.Z1","name":"477.General Govt. Public Sector Debt, External creditors(% of GDP)","source":{"id":"20","value":"Quarterly Public Sector Debt"},"sourceNote":"The source of non-seasonally adjusted Gross Domestic Product (GDP) data in national currency, at current prices, is the International Finance Statistics quarterly database of the IMF, annualized by the World Bank, unless otherwise specified","sourceOrganization":"","topics":[]},{"id":"DP.DOD.DECX.CR.GG.CD","name":"029.General Govt. Public Sector Debt, External creditors US$","source":{"id":"20","value":"Quarterly Public Sector Debt"},"sourceNote":"Member Country","sourceOrganization":"World Bank.","topics":[]},{"id":"DP.DOD.DECX.CR.GG","name":"253.General Govt. Public Sector Debt, External creditors","source":{"id":"20","value":"Quarterly Public Sector Debt"},"sourceNote":"","sourceOrganization":"","topics":[]},{"id":"DP.DOD.DECX.CR.FC.Z1","name":"605.Gross Financial Public Corporations Debt, External creditors(% of GDP)","source":{"id":"20","value":"Quarterly Public Sector Debt"},"sourceNote":"The source of non-seasonally adjusted Gross Domestic Product (GDP) data in national currency, at current prices, is the International Finance Statistics quarterly database of the IMF, annualized by the World Bank, unless otherwise specified","sourceOrganization":"","topics":[]},{"id":"DP.DOD.DECX.CR.FC.CD","name":"157.Gross Financial Public Corporations Debt, External creditors  US$","source":{"id":"20","value":"Quarterly Public Sector Debt"},"sourceNote":"Member Country","sourceOrganization":"World Bank.","topics":[]},{"id":"DP.DOD.DECX.CR.FC","name":"381.Gross Financial Public Corporations Debt, External creditors","source":{"id":"20","value":"Quarterly Public Sector Debt"},"sourceNote":"","sourceOrganization":"","topics":[]},{"id":"DP.DOD.DECX.CR.CG.Z1","name":"509.Central Govt. Public Sector Debt, External creditors(% of GDP)","source":{"id":"20","value":"Quarterly Public Sector Debt"},"sourceNote":"The source of non-seasonally adjusted Gross Domestic Product (GDP) data in national currency, at current prices, is the International Finance Statistics quarterly database of the IMF, annualized by the World Bank, unless otherwise specified","sourceOrganization":"","topics":[]},{"id":"DP.DOD.DECX.CR.CG.CD","name":"061.Central Govt. Public Sector Debt, External creditors US$","source":{"id":"20","value":"Quarterly Public Sector Debt"},"sourceNote":"Member Country","sourceOrganization":"World Bank.","topics":[]},{"id":"DP.DOD.DECX.CR.CG","name":"285.Central Govt. Public Sector Debt, External creditors","source":{"id":"20","value":"Quarterly Public Sector Debt"},"sourceNote":"","sourceOrganization":"","topics":[]},{"id":"DP.DOD.DECX.CR.BC.Z1","name":"541.Gross Budg. Central Govt. Public Sector Debt, External creditors(% of GDP)","source":{"id":"20","value":"Quarterly Public Sector Debt"},"sourceNote":"The source of non-seasonally adjusted Gross Domestic Product (GDP) data in national currency, at current prices, is the International Finance Statistics quarterly database of the IMF, annualized by the World Bank, unless otherwise specified","sourceOrganization":"","topics":[]},{"id":"DP.DOD.DECX.CR.BC.CD","name":"093.Gross Budg. Central Govt. Public Sector Debt, External creditors US$","source":{"id":"20","value":"Quarterly Public Sector Debt"},"sourceNote":"Member Country","sourceOrganization":"World Bank.","topics":[]},{"id":"DP.DOD.DECX.CR.BC","name":"317.Gross Budg. Central Govt. Public Sector Debt, External creditors","source":{"id":"20","value":"Quarterly Public Sector Debt"},"sourceNote":"","sourceOrganization":"","topics":[]},{"id":"DP.DOD.DECT.CR.PS.CD","name":"161.Gross Public Sector Debt (PSDT) US$","source":{"id":"20","value":"Quarterly Public Sector Debt"},"sourceNote":"Member Country","sourceOrganization":"World Bank.","topics":[]},{"id":"DP.DOD.DECT.CR.PS","name":"385.Gross Public Sector Debt (PSDT)","source":{"id":"20","value":"Quarterly Public Sector Debt"},"sourceNote":"","sourceOrganization":"","topics":[]},{"id":"DP.DOD.DECT.CR.NF.Z1","name":"545.Gross Nonfinancial Public Corporations Debt (PSDNFPC)(% of GDP)","source":{"id":"20","value":"Quarterly Public Sector Debt"},"sourceNote":"The source of non-seasonally adjusted Gross Domestic Product (GDP) data in national currency, at current prices, is the International Finance Statistics quarterly database of the IMF, annualized by the World Bank, unless otherwise specified","sourceOrganization":"","topics":[]},{"id":"DP.DOD.DECT.CR.NF.CD","name":"097.Gross Nonfinancial Public Corporations Debt (PSDNFPC) US$","source":{"id":"20","value":"Quarterly Public Sector Debt"},"sourceNote":"Member Country","sourceOrganization":"World Bank.","topics":[]},{"id":"DP.DOD.DECT.CR.NF","name":"321.Gross Nonfinancial Public Corporations Debt (PSDNFPC)","source":{"id":"20","value":"Quarterly Public Sector Debt"},"sourceNote":"","sourceOrganization":"","topics":[]},{"id":"DP.DOD.DECT.CR.GG.Z1","name":"449.General Govt. Public Sector Debt (PSDGG)(% of GDP)","source":{"id":"20","value":"Quarterly Public Sector Debt"},"sourceNote":"The source of non-seasonally adjusted Gross Domestic Product (GDP) data in national currency, at current prices, is the International Finance Statistics quarterly database of the IMF, annualized by the World Bank, unless otherwise specified","sourceOrganization":"","topics":[]},{"id":"DP.DOD.DECT.CR.GG.CD","name":"001.General Govt. Public Sector Debt (PSDGG) US$","source":{"id":"20","value":"Quarterly Public Sector Debt"},"sourceNote":"Member Country","sourceOrganization":"World Bank.","topics":[]},{"id":"DP.DOD.DECT.CR.GG","name":"225.General Govt. Public Sector Debt (PSDGG)","source":{"id":"20","value":"Quarterly Public Sector Debt"},"sourceNote":"","sourceOrganization":"","topics":[]},{"id":"DP.DOD.DECT.CR.FC.Z1","name":"577.Gross Financial Public Corporations Debt (PSDFPC, LT, >1yr)(% of GDP)","source":{"id":"20","value":"Quarterly Public Sector Debt"},"sourceNote":"The source of non-seasonally adjusted Gross Domestic Product (GDP) data in national currency, at current prices, is the International Finance Statistics quarterly database of the IMF, annualized by the World Bank, unless otherwise specified","sourceOrganization":"","topics":[]},{"id":"DP.DOD.DECT.CR.FC.CD","name":"129.Gross Financial Public Corporations Debt (PSDFPC) US$","source":{"id":"20","value":"Quarterly Public Sector Debt"},"sourceNote":"Member Country","sourceOrganization":"World Bank.","topics":[]},{"id":"DP.DOD.DECT.CR.FC","name":"353.Gross Financial Public Corporations Debt (PSDFPC, LT, >1yr)","source":{"id":"20","value":"Quarterly Public Sector Debt"},"sourceNote":"","sourceOrganization":"","topics":[]},{"id":"DP.DOD.DECT.CR.CG.Z1","name":"481.Gross Central Government Debt (PSDCG)(% of GDP)","source":{"id":"20","value":"Quarterly Public Sector Debt"},"sourceNote":"The source of non-seasonally adjusted Gross Domestic Product (GDP) data in national currency, at current prices, is the International Finance Statistics quarterly database of the IMF, annualized by the World Bank, unless otherwise specified","sourceOrganization":"","topics":[]},{"id":"DP.DOD.DECT.CR.CG.CD","name":"033.Gross Central Government Debt (PSDCG) US$","source":{"id":"20","value":"Quarterly Public Sector Debt"},"sourceNote":"Member Country","sourceOrganization":"World Bank.","topics":[]},{"id":"DP.DOD.DECT.CR.CG","name":"257.Gross Central Government Debt (PSDCG)","source":{"id":"20","value":"Quarterly Public Sector Debt"},"sourceNote":"","sourceOrganization":"","topics":[]},{"id":"DP.DOD.DECT.CR.BC.Z1","name":"513.Gross Budgetary Central Government Debt (PSDCGGB)(% of GDP)","source":{"id":"20","value":"Quarterly Public Sector Debt"},"sourceNote":"The source of non-seasonally adjusted Gross Domestic Product (GDP) data in national currency, at current prices, is the International Finance Statistics quarterly database of the IMF, annualized by the World Bank, unless otherwise specified","sourceOrganization":"","topics":[]},{"id":"DP.DOD.DECT.CR.BC.CD","name":"065.Gross Budgetary Central Government Debt (PSDCGGB) US$","source":{"id":"20","value":"Quarterly Public Sector Debt"},"sourceNote":"Member Country","sourceOrganization":"World Bank.","topics":[]},{"id":"DP.DOD.DECT.CR.BC","name":"289.Gross Budgetary Central Government Debt (PSDCGGB)","source":{"id":"20","value":"Quarterly Public Sector Debt"},"sourceNote":"","sourceOrganization":"","topics":[]},{"id":"DP.DOD.DECN.CR.PS.CD","name":"190.Gross Public Sector Debt, Domestic currency  US$","source":{"id":"20","value":"Quarterly Public Sector Debt"},"sourceNote":"Member Country","sourceOrganization":"World Bank.","topics":[]},{"id":"DP.DOD.DECN.CR.PS","name":"414.Gross Public Sector Debt, Domestic currency","source":{"id":"20","value":"Quarterly Public Sector Debt"},"sourceNote":"","sourceOrganization":"","topics":[]},{"id":"DP.DOD.DECN.CR.NF.Z1","name":"574.Gross Nonfinancial Public Corporations Debt, Domestic currency(% of GDP)","source":{"id":"20","value":"Quarterly Public Sector Debt"},"sourceNote":"The source of non-seasonally adjusted Gross Domestic Product (GDP) data in national currency, at current prices, is the International Finance Statistics quarterly database of the IMF, annualized by the World Bank, unless otherwise specified","sourceOrganization":"","topics":[]},{"id":"DP.DOD.DECN.CR.NF.CD","name":"126.Gross Nonfinancial Public Corporations Debt, Domestic currency  US$","source":{"id":"20","value":"Quarterly Public Sector Debt"},"sourceNote":"Member Country","sourceOrganization":"World Bank.","topics":[]},{"id":"DP.DOD.DECN.CR.NF","name":"350.Gross Nonfinancial Public Corporations Debt, Domestic currency","source":{"id":"20","value":"Quarterly Public Sector Debt"},"sourceNote":"","sourceOrganization":"","topics":[]},{"id":"DP.DOD.DECN.CR.GG.Z1","name":"478.General Govt. Public Sector Debt, Domestic currency(% of GDP)","source":{"id":"20","value":"Quarterly Public Sector Debt"},"sourceNote":"The source of non-seasonally adjusted Gross Domestic Product (GDP) data in national currency, at current prices, is the International Finance Statistics quarterly database of the IMF, annualized by the World Bank, unless otherwise specified","sourceOrganization":"","topics":[]},{"id":"DP.DOD.DECN.CR.GG.CD","name":"030.General Govt. Public Sector Debt, Domestic currency US$","source":{"id":"20","value":"Quarterly Public Sector Debt"},"sourceNote":"Member Country","sourceOrganization":"World Bank.","topics":[]},{"id":"DP.DOD.DECN.CR.GG","name":"254.General Govt. Public Sector Debt, Domestic currency","source":{"id":"20","value":"Quarterly Public Sector Debt"},"sourceNote":"","sourceOrganization":"","topics":[]},{"id":"DP.DOD.DECN.CR.FC.Z1","name":"606.Gross Financial Public Corporations Debt, Domestic currency(% of GDP)","source":{"id":"20","value":"Quarterly Public Sector Debt"},"sourceNote":"The source of non-seasonally adjusted Gross Domestic Product (GDP) data in national currency, at current prices, is the International Finance Statistics quarterly database of the IMF, annualized by the World Bank, unless otherwise specified","sourceOrganization":"","topics":[]},{"id":"DP.DOD.DECN.CR.FC.CD","name":"158.Gross Financial Public Corporations Debt, Domestic currency  US$","source":{"id":"20","value":"Quarterly Public Sector Debt"},"sourceNote":"Member Country","sourceOrganization":"World Bank.","topics":[{}]}]]