[{"page":221,"pages":324,"per_page":"50","total":16174},[{"id":"per_sa_su.bry_q1_urb","name":"Beneficiary incidence in poorest quintile (%) - Subsidies -urban","source":{"id":"29","value":"Global Social Protection"},"sourceNote":"Percentage of program beneficiaries in a quintile relative to the total number of beneficiaries in the population","sourceOrganization":"ASPIRE","topics":[{"id":"10","value":"Social Protection & Labor"}]},{"id":"per_sa_su.bry_q1_tot","name":"Beneficiary incidence in poorest quintile (%) - Subsidies","source":{"id":"29","value":"Global Social Protection"},"sourceNote":"Percentage of program beneficiaries in a quintile relative to the total number of beneficiaries in the population","sourceOrganization":"ASPIRE","topics":[{"id":"10","value":"Social Protection & Labor"}]},{"id":"per_sa_su.bry_q1_rur","name":"Beneficiary incidence in poorest quintile (%) - Subsidies -rural","source":{"id":"29","value":"Global Social Protection"},"sourceNote":"Percentage of program beneficiaries in a quintile relative to the total number of beneficiaries in the population","sourceOrganization":"ASPIRE","topics":[{"id":"10","value":"Social Protection & Labor"}]},{"id":"per_sa_su.bry_q1_preT_tot","name":"Beneficiary incidence in poorest quintile (%) - Subsidies (preT)","source":{"id":"29","value":"Global Social Protection"},"sourceNote":"Percentage of program beneficiaries in a quintile relative to the total number of beneficiaries in the population","sourceOrganization":"ASPIRE","topics":[{"id":"10","value":"Social Protection & Labor"}]},{"id":"per_sa_su.bry_ep_tot","name":"Beneficiary incidence in extreme poor (<$1.25 a day) (%) - Subsidies","source":{"id":"29","value":"Global Social Protection"},"sourceNote":"Percentage of program beneficiaries in a quintile relative to the total number of beneficiaries in the population","sourceOrganization":"ASPIRE","topics":[{"id":"10","value":"Social Protection & Labor"}]},{"id":"per_sa_su.bry_ep_preT_tot","name":"Beneficiary incidence in extreme poor (<$1.25 a day) (%) - Subsidies (preT)","source":{"id":"29","value":"Global Social Protection"},"sourceNote":"Percentage of program beneficiaries in a quintile relative to the total number of beneficiaries in the population","sourceOrganization":"ASPIRE","topics":[{"id":"10","value":"Social Protection & Labor"}]},{"id":"per_sa_su.ben_q5_urb","name":"Benefits incidence in richest quintile (%) - Subsidies -urban","source":{"id":"29","value":"Global Social Protection"},"sourceNote":"Percentage of benefits going to the richestquintile  relative to the total benefits going to the population","sourceOrganization":"ASPIRE","topics":[{"id":"10","value":"Social Protection & Labor"}]},{"id":"per_sa_su.ben_q5_tot","name":"Benefits incidence in richest quintile (%) - Subsidies","source":{"id":"29","value":"Global Social Protection"},"sourceNote":"Percentage of benefits going to the richestquintile  relative to the total benefits going to the population","sourceOrganization":"ASPIRE","topics":[{"id":"10","value":"Social Protection & Labor"}]},{"id":"per_sa_su.ben_q5_rur","name":"Benefits incidence in richest quintile (%) - Subsidies -rural","source":{"id":"29","value":"Global Social Protection"},"sourceNote":"Percentage of benefits going to the richestquintile  relative to the total benefits going to the population","sourceOrganization":"ASPIRE","topics":[{"id":"10","value":"Social Protection & Labor"}]},{"id":"per_sa_su.ben_q5_preT_tot","name":"Benefits incidence in richest quintile (%) - Subsidies (preT)","source":{"id":"29","value":"Global Social Protection"},"sourceNote":"Percentage of benefits going to the richestquintile  relative to the total benefits going to the population","sourceOrganization":"ASPIRE","topics":[{"id":"10","value":"Social Protection & Labor"}]},{"id":"per_sa_su.ben_q4_urb","name":"Benefits incidence in 4th quintile (%) - Subsidies -urban","source":{"id":"29","value":"Global Social Protection"},"sourceNote":"Percentage of benefits going to the fourth quintile  relative to the total benefits going to the population","sourceOrganization":"ASPIRE","topics":[{"id":"10","value":"Social Protection & Labor"}]},{"id":"per_sa_su.ben_q4_tot","name":"Benefits incidence in 4th quintile (%) - Subsidies","source":{"id":"29","value":"Global Social Protection"},"sourceNote":"Percentage of benefits going to the fourth quintile  relative to the total benefits going to the population","sourceOrganization":"ASPIRE","topics":[{"id":"10","value":"Social Protection & Labor"}]},{"id":"per_sa_su.ben_q4_rur","name":"Benefits incidence in 4th quintile (%) - Subsidies -rural","source":{"id":"29","value":"Global Social Protection"},"sourceNote":"Percentage of benefits going to the fourth quintile  relative to the total benefits going to the population","sourceOrganization":"ASPIRE","topics":[{"id":"10","value":"Social Protection & Labor"}]},{"id":"per_sa_su.ben_q4_preT_tot","name":"Benefits incidence in 4th quintile (%) - Subsidies (preT)","source":{"id":"29","value":"Global Social Protection"},"sourceNote":"Percentage of benefits going to the fourth quintile  relative to the total benefits going to the population","sourceOrganization":"ASPIRE","topics":[{"id":"10","value":"Social Protection & Labor"}]},{"id":"per_sa_su.ben_q3_urb","name":"Benefits incidence in 3rd quintile (%) - Subsidies -urban","source":{"id":"29","value":"Global Social Protection"},"sourceNote":"Percentage of benefits going to the third quintile  relative to the total benefits going to the population","sourceOrganization":"ASPIRE","topics":[{"id":"10","value":"Social Protection & Labor"}]},{"id":"per_sa_su.ben_q3_tot","name":"Benefits incidence in 3rd quintile (%) - Subsidies","source":{"id":"29","value":"Global Social Protection"},"sourceNote":"Percentage of benefits going to the third quintile  relative to the total benefits going to the population","sourceOrganization":"ASPIRE","topics":[{"id":"10","value":"Social Protection & Labor"}]},{"id":"per_sa_su.ben_q3_rur","name":"Benefits incidence in 3rd quintile (%) - Subsidies -rural","source":{"id":"29","value":"Global Social Protection"},"sourceNote":"Percentage of benefits going to the third quintile  relative to the total benefits going to the population","sourceOrganization":"ASPIRE","topics":[{"id":"10","value":"Social Protection & Labor"}]},{"id":"per_sa_su.ben_q3_preT_tot","name":"Benefits incidence in 3rd quintile (%) - Subsidies (preT)","source":{"id":"29","value":"Global Social Protection"},"sourceNote":"Percentage of benefits going to the third quintile  relative to the total benefits going to the population","sourceOrganization":"ASPIRE","topics":[{"id":"10","value":"Social Protection & Labor"}]},{"id":"per_sa_su.ben_q2_urb","name":"Benefits incidence in 2nd quintile (%) - Subsidies -urban","source":{"id":"29","value":"Global Social Protection"},"sourceNote":"Percentage of benefits going to the second quintile  relative to the total benefits going to the population","sourceOrganization":"ASPIRE","topics":[{"id":"10","value":"Social Protection & Labor"}]},{"id":"per_sa_su.ben_q2_tot","name":"Benefits incidence in 2nd quintile (%) - Subsidies","source":{"id":"29","value":"Global Social Protection"},"sourceNote":"Percentage of benefits going to the second quintile  relative to the total benefits going to the population","sourceOrganization":"ASPIRE","topics":[{"id":"10","value":"Social Protection & Labor"}]},{"id":"per_sa_su.ben_q2_rur","name":"Benefits incidence in 2nd quintile (%) - Subsidies -rural","source":{"id":"29","value":"Global Social Protection"},"sourceNote":"Percentage of benefits going to the second quintile  relative to the total benefits going to the population","sourceOrganization":"ASPIRE","topics":[{"id":"10","value":"Social Protection & Labor"}]},{"id":"per_sa_su.ben_q2_preT_tot","name":"Benefits incidence in 2nd quintile (%) - Subsidies (preT)","source":{"id":"29","value":"Global Social Protection"},"sourceNote":"Percentage of benefits going to the second quintile  relative to the total benefits going to the population","sourceOrganization":"ASPIRE","topics":[{"id":"10","value":"Social Protection & Labor"}]},{"id":"per_sa_su.ben_q1_urb","name":"Benefits incidence in poorest quintile (%) - Subsidies -urban","source":{"id":"29","value":"Global Social Protection"},"sourceNote":"Percentage of benefits going to the poorest quintile  relative to the total benefits going to the population","sourceOrganization":"ASPIRE","topics":[{"id":"10","value":"Social Protection & Labor"}]},{"id":"per_sa_su.ben_q1_tot","name":"Benefits incidence in poorest quintile (%) - Subsidies","source":{"id":"29","value":"Global Social Protection"},"sourceNote":"Percentage of benefits going to the poorest quintile  relative to the total benefits going to the population","sourceOrganization":"ASPIRE","topics":[{"id":"10","value":"Social Protection & Labor"}]},{"id":"per_sa_su.ben_q1_rur","name":"Benefits incidence in poorest quintile (%) - Subsidies -rural","source":{"id":"29","value":"Global Social Protection"},"sourceNote":"Percentage of benefits going to the poorest quintile  relative to the total benefits going to the population","sourceOrganization":"ASPIRE","topics":[{"id":"10","value":"Social Protection & Labor"}]},{"id":"per_sa_su.ben_q1_preT_tot","name":"Benefits incidence in poorest quintile (%) - Subsidies (preT)","source":{"id":"29","value":"Global Social Protection"},"sourceNote":"Percentage of benefits going to the poorest quintile  relative to the total benefits going to the population","sourceOrganization":"ASPIRE","topics":[{"id":"10","value":"Social Protection & Labor"}]},{"id":"per_sa_su.ben_ep_tot","name":"Benefits incidence in extreme poor (<$1.25 a day) (%) - Subsidies","source":{"id":"29","value":"Global Social Protection"},"sourceNote":"Percentage of benefits going to the extreme poor (those below $125 a day)  relative to the total benefits going to the population","sourceOrganization":"ASPIRE","topics":[{"id":"10","value":"Social Protection & Labor"}]},{"id":"per_sa_su.ben_ep_preT_tot","name":"Benefits incidence in extreme poor (<$1.25 a day) (%) - Subsidies (preT)","source":{"id":"29","value":"Global Social Protection"},"sourceNote":"Percentage of benefits going to the extreme poor (those below $125 a day)  relative to the total benefits going to the population","sourceOrganization":"ASPIRE","topics":[{"id":"10","value":"Social Protection & Labor"}]},{"id":"per_sa_su.avt_q5_urb","name":"Average per capita transfer held by richest quintile - Subsidies -urban","source":{"id":"29","value":"Global Social Protection"},"sourceNote":"Average transfer amount of  Social Protection and Labor programs among program beneficiaries (per capita, daily $ppp)","sourceOrganization":"ASPIRE","topics":[{"id":"10","value":"Social Protection & Labor"}]},{"id":"per_sa_su.avt_q5_tot","name":"Average per capita transfer held by richest quintile - Subsidies","source":{"id":"29","value":"Global Social Protection"},"sourceNote":"Average transfer amount of  Social Protection and Labor programs among program beneficiaries (per capita, daily $ppp)","sourceOrganization":"ASPIRE","topics":[{"id":"10","value":"Social Protection & Labor"}]},{"id":"per_sa_su.avt_q5_rur","name":"Average per capita transfer held by richest quintile - Subsidies -rural","source":{"id":"29","value":"Global Social Protection"},"sourceNote":"Average transfer amount of  Social Protection and Labor programs among program beneficiaries (per capita, daily $ppp)","sourceOrganization":"ASPIRE","topics":[{"id":"10","value":"Social Protection & Labor"}]},{"id":"per_sa_su.avt_q5_preT_tot","name":"Average per capita transfer held by richest quintile - Subsidies (preT)","source":{"id":"29","value":"Global Social Protection"},"sourceNote":"Average transfer amount of  Social Protection and Labor programs among program beneficiaries (per capita, daily $ppp)","sourceOrganization":"ASPIRE","topics":[{"id":"10","value":"Social Protection & Labor"}]},{"id":"per_sa_su.avt_q4_urb","name":"Average per capita transfer held by 4th quintile - Subsidies -urban","source":{"id":"29","value":"Global Social Protection"},"sourceNote":"Average transfer amount of  Social Protection and Labor programs among program beneficiaries (per capita, daily $ppp)","sourceOrganization":"ASPIRE","topics":[{"id":"10","value":"Social Protection & Labor"}]},{"id":"per_sa_su.avt_q4_tot","name":"Average per capita transfer held by 4th quintile - Subsidies","source":{"id":"29","value":"Global Social Protection"},"sourceNote":"Average transfer amount of  Social Protection and Labor programs among program beneficiaries (per capita, daily $ppp)","sourceOrganization":"ASPIRE","topics":[{"id":"10","value":"Social Protection & Labor"}]},{"id":"per_sa_su.avt_q4_rur","name":"Average per capita transfer held by 4th quintile - Subsidies -rural","source":{"id":"29","value":"Global Social Protection"},"sourceNote":"Average transfer amount of  Social Protection and Labor programs among program beneficiaries (per capita, daily $ppp)","sourceOrganization":"ASPIRE","topics":[{"id":"10","value":"Social Protection & Labor"}]},{"id":"per_sa_su.avt_q4_preT_tot","name":"Average per capita transfer held by 4th quintile - Subsidies (preT)","source":{"id":"29","value":"Global Social Protection"},"sourceNote":"Average transfer amount of  Social Protection and Labor programs among program beneficiaries (per capita, daily $ppp)","sourceOrganization":"ASPIRE","topics":[{"id":"10","value":"Social Protection & Labor"}]},{"id":"per_sa_su.avt_q3_urb","name":"Average per capita transfer held by 3rd quintile - Subsidies -urban","source":{"id":"29","value":"Global Social Protection"},"sourceNote":"Average transfer amount of  Social Protection and Labor programs among program beneficiaries (per capita, daily $ppp)","sourceOrganization":"ASPIRE","topics":[{"id":"10","value":"Social Protection & Labor"}]},{"id":"per_sa_su.avt_q3_tot","name":"Average per capita transfer held by 3rd quintile - Subsidies","source":{"id":"29","value":"Global Social Protection"},"sourceNote":"Average transfer amount of  Social Protection and Labor programs among program beneficiaries (per capita, daily $ppp)","sourceOrganization":"ASPIRE","topics":[{"id":"10","value":"Social Protection & Labor"}]},{"id":"per_sa_su.avt_q3_rur","name":"Average per capita transfer held by 3rd quintile - Subsidies -rural","source":{"id":"29","value":"Global Social Protection"},"sourceNote":"Average transfer amount of  Social Protection and Labor programs among program beneficiaries (per capita, daily $ppp)","sourceOrganization":"ASPIRE","topics":[{"id":"10","value":"Social Protection & Labor"}]},{"id":"per_sa_su.avt_q3_preT_tot","name":"Average per capita transfer held by 3rd quintile - Subsidies (preT)","source":{"id":"29","value":"Global Social Protection"},"sourceNote":"Average transfer amount of  Social Protection and Labor programs among program beneficiaries (per capita, daily $ppp)","sourceOrganization":"ASPIRE","topics":[{"id":"10","value":"Social Protection & Labor"}]},{"id":"per_sa_su.avt_q2_urb","name":"Average per capita transfer held by 2nd quintile - Subsidies -urban","source":{"id":"29","value":"Global Social Protection"},"sourceNote":"Average transfer amount of  Social Protection and Labor programs among program beneficiaries (per capita, daily $ppp)","sourceOrganization":"ASPIRE","topics":[{"id":"10","value":"Social Protection & Labor"}]},{"id":"per_sa_su.avt_q2_tot","name":"Average per capita transfer held by 2nd quintile - Subsidies","source":{"id":"29","value":"Global Social Protection"},"sourceNote":"Average transfer amount of  Social Protection and Labor programs among program beneficiaries (per capita, daily $ppp)","sourceOrganization":"ASPIRE","topics":[{"id":"10","value":"Social Protection & Labor"}]},{"id":"per_sa_su.avt_q2_rur","name":"Average per capita transfer held by 2nd quintile - Subsidies -rural","source":{"id":"29","value":"Global Social Protection"},"sourceNote":"Average transfer amount of  Social Protection and Labor programs among program beneficiaries (per capita, daily $ppp)","sourceOrganization":"ASPIRE","topics":[{"id":"10","value":"Social Protection & Labor"}]},{"id":"per_sa_su.avt_q2_preT_tot","name":"Average per capita transfer held by 2nd quintile - Subsidies (preT)","source":{"id":"29","value":"Global Social Protection"},"sourceNote":"Average transfer amount of  Social Protection and Labor programs among program beneficiaries (per capita, daily $ppp)","sourceOrganization":"ASPIRE","topics":[{"id":"10","value":"Social Protection & Labor"}]},{"id":"per_sa_su.avt_q1_urb","name":"Average per capita transfer held by poorest quintile - Subsidies -urban","source":{"id":"29","value":"Global Social Protection"},"sourceNote":"Average transfer amount of  Social Protection and Labor programs among program beneficiaries (per capita, daily $ppp)","sourceOrganization":"ASPIRE","topics":[{"id":"10","value":"Social Protection & Labor"}]},{"id":"per_sa_su.avt_q1_tot","name":"Average per capita transfer held by poorest quintile - Subsidies","source":{"id":"29","value":"Global Social Protection"},"sourceNote":"Average transfer amount of  Social Protection and Labor programs among program beneficiaries (per capita, daily $ppp)","sourceOrganization":"ASPIRE","topics":[{"id":"10","value":"Social Protection & Labor"}]},{"id":"per_sa_su.avt_q1_rur","name":"Average per capita transfer held by poorest quintile - Subsidies -rural","source":{"id":"29","value":"Global Social Protection"},"sourceNote":"Average transfer amount of  Social Protection and Labor programs among program beneficiaries (per capita, daily $ppp)","sourceOrganization":"ASPIRE","topics":[{"id":"10","value":"Social Protection & Labor"}]},{"id":"per_sa_su.avt_q1_preT_tot","name":"Average per capita transfer held by poorest quintile - Subsidies (preT)","source":{"id":"29","value":"Global Social Protection"},"sourceNote":"Average transfer amount of  Social Protection and Labor programs among program beneficiaries (per capita, daily $ppp)","sourceOrganization":"ASPIRE","topics":[{"id":"10","value":"Social Protection & Labor"}]},{"id":"per_sa_su.avt_pop_urb","name":"Average per capita transfer - Subsidies -urban","source":{"id":"29","value":"Global Social Protection"},"sourceNote":"Average transfer amount of  Social Protection and Labor programs among program beneficiaries (per capita, daily $ppp)","sourceOrganization":"ASPIRE","topics":[{"id":"10","value":"Social Protection & Labor"}]},{"id":"per_sa_su.avt_pop_tot","name":"Average per capita transfer - Subsidies","source":{"id":"29","value":"Global Social Protection"},"sourceNote":"Average transfer amount of  Social Protection and Labor programs among program beneficiaries (per capita, daily $ppp)","sourceOrganization":"ASPIRE","topics":[{"id":"10","value":"Social Protection & Labor"}]}]]