[{"page":223,"pages":324,"per_page":"50","total":16174},[{"id":"per_si_allsi.adq_q2_urb","name":"Adequacy of benefits in 2nd quintile (%) - All Social Insurance -urban","source":{"id":"29","value":"Global Social Protection"},"sourceNote":"NULL","sourceOrganization":"The Atlas of Social Protection: Indicators of Resilience and Equity (ASPIRE)","topics":[{"id":"10","value":"Social Protection & Labor"}]},{"id":"per_si_allsi.adq_q2_tot","name":"Adequacy of benefits in 2nd quintile (%) - All Social Insurance ","source":{"id":"29","value":"Global Social Protection"},"sourceNote":"NULL","sourceOrganization":"The Atlas of Social Protection: Indicators of Resilience and Equity (ASPIRE)","topics":[{"id":"10","value":"Social Protection & Labor"}]},{"id":"per_si_allsi.adq_q2_rur","name":"Adequacy of benefits in 2nd quintile (%) - All Social Insurance -rural","source":{"id":"29","value":"Global Social Protection"},"sourceNote":"NULL","sourceOrganization":"The Atlas of Social Protection: Indicators of Resilience and Equity (ASPIRE)","topics":[{"id":"10","value":"Social Protection & Labor"}]},{"id":"per_si_allsi.adq_q2_preT_tot","name":"Adequacy of benefits in 2nd quintile (%) - All Social Insurance (preT)","source":{"id":"29","value":"Global Social Protection"},"sourceNote":"NULL","sourceOrganization":"The Atlas of Social Protection: Indicators of Resilience and Equity (ASPIRE)","topics":[{"id":"10","value":"Social Protection & Labor"}]},{"id":"per_si_allsi.adq_q1_urb","name":"Adequacy of benefits in poorest quintile (%) - All Social Insurance -urban","source":{"id":"29","value":"Global Social Protection"},"sourceNote":"NULL","sourceOrganization":"The Atlas of Social Protection: Indicators of Resilience and Equity (ASPIRE)","topics":[{"id":"10","value":"Social Protection & Labor"}]},{"id":"per_si_allsi.adq_q1_tot","name":"Adequacy of benefits in poorest quintile (%) - All Social Insurance ","source":{"id":"29","value":"Global Social Protection"},"sourceNote":"NULL","sourceOrganization":"The Atlas of Social Protection: Indicators of Resilience and Equity (ASPIRE)","topics":[{"id":"10","value":"Social Protection & Labor"}]},{"id":"per_si_allsi.adq_q1_rur","name":"Adequacy of benefits in poorest quintile (%) - All Social Insurance -rural","source":{"id":"29","value":"Global Social Protection"},"sourceNote":"NULL","sourceOrganization":"The Atlas of Social Protection: Indicators of Resilience and Equity (ASPIRE)","topics":[{"id":"10","value":"Social Protection & Labor"}]},{"id":"per_si_allsi.adq_q1_preT_tot","name":"Adequacy of benefits in poorest quintile (%) - All Social Insurance (preT)","source":{"id":"29","value":"Global Social Protection"},"sourceNote":"NULL","sourceOrganization":"The Atlas of Social Protection: Indicators of Resilience and Equity (ASPIRE)","topics":[{"id":"10","value":"Social Protection & Labor"}]},{"id":"per_si_allsi.adq_pop_urb","name":"Adequacy of benefits (%) - All Social Insurance -urban","source":{"id":"29","value":"Global Social Protection"},"sourceNote":"NULL","sourceOrganization":"The Atlas of Social Protection: Indicators of Resilience and Equity (ASPIRE)","topics":[{"id":"10","value":"Social Protection & Labor"}]},{"id":"per_si_allsi.adq_pop_tot","name":"Adequacy of social insurance programs (% of total welfare of beneficiary households)","source":{"id":"2","value":"World Development Indicators"},"sourceNote":"Adequacy of social insurance programs is measured by the total transfer amount received by the population participating in social insurance programs as a share of their total welfare. Welfare is defined as the total income or total expenditure of beneficiary households. Social insurance programs include old age contributory pensions (including survivors and disability) and social security and health insurance benefits (including occupational injury benefits, paid sick leave, maternity and other social insurance). Estimates include both direct and indirect beneficiaries.","sourceOrganization":"The Atlas of Social Protection: Indicators of Resilience and Equity (ASPIRE)","topics":[{"id":"10","value":"Social Protection & Labor"}]},{"id":"per_si_allsi.adq_pop_rur","name":"Adequacy of benefits (%) - All Social Insurance -rural","source":{"id":"29","value":"Global Social Protection"},"sourceNote":"NULL","sourceOrganization":"The Atlas of Social Protection: Indicators of Resilience and Equity (ASPIRE)","topics":[{"id":"10","value":"Social Protection & Labor"}]},{"id":"per_si_allsi.adq_pop_preT_tot","name":"Adequacy of benefits (%) - All Social Insurance (preT)","source":{"id":"29","value":"Global Social Protection"},"sourceNote":"NULL","sourceOrganization":"The Atlas of Social Protection: Indicators of Resilience and Equity (ASPIRE)","topics":[{"id":"10","value":"Social Protection & Labor"}]},{"id":"per_si_allsi.adq_ep_tot","name":"Adequacy of benefits in extreme poor (<$1.25 a day) (%) - All Social Insurance ","source":{"id":"29","value":"Global Social Protection"},"sourceNote":"NULL","sourceOrganization":"The Atlas of Social Protection: Indicators of Resilience and Equity (ASPIRE)","topics":[{"id":"10","value":"Social Protection & Labor"}]},{"id":"per_si_allsi.adq_ep_preT_tot","name":"Adequacy of benefits in extreme poor (<$1.25 a day) (%) - All Social Insurance  (preT)","source":{"id":"29","value":"Global Social Protection"},"sourceNote":"NULL","sourceOrganization":"The Atlas of Social Protection: Indicators of Resilience and Equity (ASPIRE)","topics":[{"id":"10","value":"Social Protection & Labor"}]},{"id":"per_saoth.overlap_q1_urb","name":"Population in the poorest quintile receiving Social Assistance and Other (%) -urban","source":{"id":"29","value":"Global Social Protection"},"sourceNote":"NULL","sourceOrganization":"The Atlas of Social Protection: Indicators of Resilience and Equity (ASPIRE)","topics":[{"id":"10","value":"Social Protection & Labor"}]},{"id":"per_saoth.overlap_q1_tot","name":"Population in the poorest quintile receiving Social Assistance and Other (%)","source":{"id":"29","value":"Global Social Protection"},"sourceNote":"NULL","sourceOrganization":"The Atlas of Social Protection: Indicators of Resilience and Equity (ASPIRE)","topics":[{"id":"10","value":"Social Protection & Labor"}]},{"id":"per_saoth.overlap_q1_rur","name":"Population in the poorest quintile receiving Social Assistance and Other (%) -rural","source":{"id":"29","value":"Global Social Protection"},"sourceNote":"NULL","sourceOrganization":"The Atlas of Social Protection: Indicators of Resilience and Equity (ASPIRE)","topics":[{"id":"10","value":"Social Protection & Labor"}]},{"id":"per_saoth.overlap_q1_preT_tot","name":"Population in the poorest quintile receiving Social Assistance and Other (%, preT)","source":{"id":"29","value":"Global Social Protection"},"sourceNote":"NULL","sourceOrganization":"The Atlas of Social Protection: Indicators of Resilience and Equity (ASPIRE)","topics":[{"id":"10","value":"Social Protection & Labor"}]},{"id":"per_saoth.overlap_pop_urb","name":"Population receiving Social Assistance and Other (%) -urban","source":{"id":"29","value":"Global Social Protection"},"sourceNote":"NULL","sourceOrganization":"The Atlas of Social Protection: Indicators of Resilience and Equity (ASPIRE)","topics":[{"id":"10","value":"Social Protection & Labor"}]},{"id":"per_saoth.overlap_pop_tot","name":"Population receiving Social Assistance and Other (%)","source":{"id":"29","value":"Global Social Protection"},"sourceNote":"NULL","sourceOrganization":"The Atlas of Social Protection: Indicators of Resilience and Equity (ASPIRE)","topics":[{"id":"10","value":"Social Protection & Labor"}]},{"id":"per_saoth.overlap_pop_rur","name":"Population receiving Social Assistance and Other (%) -rural","source":{"id":"29","value":"Global Social Protection"},"sourceNote":"NULL","sourceOrganization":"The Atlas of Social Protection: Indicators of Resilience and Equity (ASPIRE)","topics":[{"id":"10","value":"Social Protection & Labor"}]},{"id":"per_saoth.overlap_pop_preT_tot","name":"Population receiving Social Assistance and Other (%, preT)","source":{"id":"29","value":"Global Social Protection"},"sourceNote":"NULL","sourceOrganization":"The Atlas of Social Protection: Indicators of Resilience and Equity (ASPIRE)","topics":[{"id":"10","value":"Social Protection & Labor"}]},{"id":"per_saoth.overlap_ep_tot","name":"Population in extreme poor (<$1.25 a day) receiving Social Assistance and Other (%)","source":{"id":"29","value":"Global Social Protection"},"sourceNote":"NULL","sourceOrganization":"The Atlas of Social Protection: Indicators of Resilience and Equity (ASPIRE)","topics":[{"id":"10","value":"Social Protection & Labor"}]},{"id":"per_saoth.overlap_ep_preT_tot","name":"Population in extreme poor (<$1.25 a day) receiving Social Assistance and Other (%, preT)","source":{"id":"29","value":"Global Social Protection"},"sourceNote":"NULL","sourceOrganization":"The Atlas of Social Protection: Indicators of Resilience and Equity (ASPIRE)","topics":[{"id":"10","value":"Social Protection & Labor"}]},{"id":"per_saonl.overlap_q1_urb","name":"Population in the poorest quintile only receiving All Social Assistance (%) -urban","source":{"id":"29","value":"Global Social Protection"},"sourceNote":"NULL","sourceOrganization":"The Atlas of Social Protection: Indicators of Resilience and Equity (ASPIRE)","topics":[{"id":"10","value":"Social Protection & Labor"}]},{"id":"per_saonl.overlap_q1_tot","name":"Population in the poorest quintile only receiving All Social Assistance (%)","source":{"id":"29","value":"Global Social Protection"},"sourceNote":"NULL","sourceOrganization":"The Atlas of Social Protection: Indicators of Resilience and Equity (ASPIRE)","topics":[{"id":"10","value":"Social Protection & Labor"}]},{"id":"per_saonl.overlap_q1_rur","name":"Population in the poorest quintile only receiving All Social Assistance (%) -rural","source":{"id":"29","value":"Global Social Protection"},"sourceNote":"NULL","sourceOrganization":"The Atlas of Social Protection: Indicators of Resilience and Equity (ASPIRE)","topics":[{"id":"10","value":"Social Protection & Labor"}]},{"id":"per_saonl.overlap_q1_preT_tot","name":"Population in the poorest quintile only receiving All Social Assistance (%, preT)","source":{"id":"29","value":"Global Social Protection"},"sourceNote":"NULL","sourceOrganization":"The Atlas of Social Protection: Indicators of Resilience and Equity (ASPIRE)","topics":[{"id":"10","value":"Social Protection & Labor"}]},{"id":"per_saonl.overlap_pop_urb","name":"Population only receiving All Social Assistance (%) -urban","source":{"id":"29","value":"Global Social Protection"},"sourceNote":"NULL","sourceOrganization":"The Atlas of Social Protection: Indicators of Resilience and Equity (ASPIRE)","topics":[{"id":"10","value":"Social Protection & Labor"}]},{"id":"per_saonl.overlap_pop_tot","name":"Population only receiving All Social Assistance (%)","source":{"id":"29","value":"Global Social Protection"},"sourceNote":"NULL","sourceOrganization":"The Atlas of Social Protection: Indicators of Resilience and Equity (ASPIRE)","topics":[{"id":"10","value":"Social Protection & Labor"}]},{"id":"per_saonl.overlap_pop_rur","name":"Population only receiving All Social Assistance (%) -rural","source":{"id":"29","value":"Global Social Protection"},"sourceNote":"NULL","sourceOrganization":"The Atlas of Social Protection: Indicators of Resilience and Equity (ASPIRE)","topics":[{"id":"10","value":"Social Protection & Labor"}]},{"id":"per_saonl.overlap_pop_preT_tot","name":"Population only receiving All Social Assistance (%, preT)","source":{"id":"29","value":"Global Social Protection"},"sourceNote":"NULL","sourceOrganization":"The Atlas of Social Protection: Indicators of Resilience and Equity (ASPIRE)","topics":[{"id":"10","value":"Social Protection & Labor"}]},{"id":"per_saonl.overlap_ep_tot","name":"Population in extreme poor (<$1.25 a day) only receiving All Social Assistance (%)","source":{"id":"29","value":"Global Social Protection"},"sourceNote":"NULL","sourceOrganization":"The Atlas of Social Protection: Indicators of Resilience and Equity (ASPIRE)","topics":[{"id":"10","value":"Social Protection & Labor"}]},{"id":"per_saonl.overlap_ep_preT_tot","name":"Population in extreme poor (<$1.25 a day) only receiving All Social Assistance (%, preT)","source":{"id":"29","value":"Global Social Protection"},"sourceNote":"NULL","sourceOrganization":"The Atlas of Social Protection: Indicators of Resilience and Equity (ASPIRE)","topics":[{"id":"10","value":"Social Protection & Labor"}]},{"id":"per_sa_su_p1_urb","name":"Poverty Gap reduction (%) -  Subsidies - poorest quintile -urban","source":{"id":"29","value":"Global Social Protection"},"sourceNote":"Poverty gap reduction due to SPL programs as % of pre-transfer poverty gap","sourceOrganization":"ASPIRE","topics":[{"id":"10","value":"Social Protection & Labor"}]},{"id":"per_sa_su_p1_tot","name":"Poverty Gap reduction (%) -  Subsidies -poorest quintile","source":{"id":"29","value":"Global Social Protection"},"sourceNote":"Poverty gap reduction due to SPL programs as % of pre-transfer poverty gap","sourceOrganization":"ASPIRE","topics":[{"id":"10","value":"Social Protection & Labor"}]},{"id":"per_sa_su_p1_rur","name":"Poverty Gap reduction (%) -  Subsidies -poorest quintile -rural","source":{"id":"29","value":"Global Social Protection"},"sourceNote":"Poverty gap reduction due to SPL programs as % of pre-transfer poverty gap","sourceOrganization":"ASPIRE","topics":[{"id":"10","value":"Social Protection & Labor"}]},{"id":"per_sa_su_p1_preT_tot","name":"Poverty Gap reduction (%) -  Subsidies -poorest quintile (preT)","source":{"id":"29","value":"Global Social Protection"},"sourceNote":"Poverty gap reduction due to SPL programs as % of pre-transfer poverty gap","sourceOrganization":"ASPIRE","topics":[{"id":"10","value":"Social Protection & Labor"}]},{"id":"per_sa_su_p1_ep_tot","name":"Poverty Gap reduction (%) -  Subsidies -extreme poor (<$1.25 a day)","source":{"id":"29","value":"Global Social Protection"},"sourceNote":"Poverty gap reduction due to SPL programs as % of pre-transfer poverty gap","sourceOrganization":"ASPIRE","topics":[{"id":"10","value":"Social Protection & Labor"}]},{"id":"per_sa_su_p1_ep_preT_tot","name":"Poverty Gap reduction (%) -  Subsidies -extreme poor (<$1.25 a day) (preT)","source":{"id":"29","value":"Global Social Protection"},"sourceNote":"Poverty gap reduction due to SPL programs as % of pre-transfer poverty gap","sourceOrganization":"ASPIRE","topics":[{"id":"10","value":"Social Protection & Labor"}]},{"id":"per_sa_su_p0_urb","name":"Poverty Headcount reduction (%) -  Subsidies - poorest quintile -urban","source":{"id":"29","value":"Global Social Protection"},"sourceNote":"Poverty headcount reduction due to SPL programs as % of pre-transfer poverty headcount","sourceOrganization":"ASPIRE","topics":[{"id":"10","value":"Social Protection & Labor"}]},{"id":"per_sa_su_p0_tot","name":"Poverty Headcount reduction (%) -  Subsidies -poorest quintile","source":{"id":"29","value":"Global Social Protection"},"sourceNote":"Poverty headcount reduction due to SPL programs as % of pre-transfer poverty headcount","sourceOrganization":"ASPIRE","topics":[{"id":"10","value":"Social Protection & Labor"}]},{"id":"per_sa_su_p0_rur","name":"Poverty Headcount reduction (%) -  Subsidies -poorest quintile -rural","source":{"id":"29","value":"Global Social Protection"},"sourceNote":"Poverty headcount reduction due to SPL programs as % of pre-transfer poverty headcount","sourceOrganization":"ASPIRE","topics":[{"id":"10","value":"Social Protection & Labor"}]},{"id":"per_sa_su_p0_preT_tot","name":"Poverty Headcount reduction (%) -  Subsidies -poorest quintile (preT)","source":{"id":"29","value":"Global Social Protection"},"sourceNote":"Poverty headcount reduction due to SPL programs as % of pre-transfer poverty headcount","sourceOrganization":"ASPIRE","topics":[{"id":"10","value":"Social Protection & Labor"}]},{"id":"per_sa_su_p0_ep_tot","name":"Poverty Headcount reduction (%) -  Subsidies -extreme poor (<$1.25 a day)","source":{"id":"29","value":"Global Social Protection"},"sourceNote":"Poverty headcount reduction due to SPL programs as % of pre-transfer poverty headcount","sourceOrganization":"ASPIRE","topics":[{"id":"10","value":"Social Protection & Labor"}]},{"id":"per_sa_su_p0_ep_preT_tot","name":"Poverty Headcount reduction (%) -  Subsidies -extreme poor (<$1.25 a day) (preT)","source":{"id":"29","value":"Global Social Protection"},"sourceNote":"Poverty headcount reduction due to SPL programs as % of pre-transfer poverty headcount","sourceOrganization":"ASPIRE","topics":[{"id":"10","value":"Social Protection & Labor"}]},{"id":"per_sa_su_gini_urb","name":"Gini inequality reduction (%) -  Subsidies - poorest quintile -urban","source":{"id":"29","value":"Global Social Protection"},"sourceNote":"Gini inequality index reduction due to SPL programs as % of pre-transfer Gini index","sourceOrganization":"ASPIRE","topics":[{"id":"10","value":"Social Protection & Labor"}]},{"id":"per_sa_su_gini_tot","name":"Gini inequality reduction (%) -  Subsidies -poorest quintile","source":{"id":"29","value":"Global Social Protection"},"sourceNote":"Gini inequality index reduction due to SPL programs as % of pre-transfer Gini index","sourceOrganization":"ASPIRE","topics":[{"id":"10","value":"Social Protection & Labor"}]},{"id":"per_sa_su_gini_rur","name":"Gini inequality reduction (%) -  Subsidies -poorest quintile -rural","source":{"id":"29","value":"Global Social Protection"},"sourceNote":"Gini inequality index reduction due to SPL programs as % of pre-transfer Gini index","sourceOrganization":"ASPIRE","topics":[{"id":"10","value":"Social Protection & Labor"}]},{"id":"per_sa_su_gini_preT_tot","name":"Gini inequality reduction (%) -  Subsidies -poorest quintile (preT)","source":{"id":"29","value":"Global Social Protection"},"sourceNote":"Gini inequality index reduction due to SPL programs as % of pre-transfer Gini index","sourceOrganization":"ASPIRE","topics":[{"id":"10","value":"Social Protection & Labor"}]}]]