[{"page":124,"pages":324,"per_page":"50","total":16174},[{"id":"IN.HLTH.HLTHSTAFF.NUM","name":"Health visitors & Health supervisors","source":{"id":"41","value":"Country Partnership Strategy for India "},"sourceNote":"Typically in a State in India, health visitors and supervisors include a number of job titles such as Female Health Supervisor, Block Health Visitor, District Public Health Officer, State Public Health Nursing Supervisor, Directors, Additional Directors, Deputy Directors and other officials in the State's Public Health System. \u000aSource: http:\/\/www.iimahd.ernet.in\/publications\/data\/2010-02-04Sharma.pdf","sourceOrganization":"Indian Nursing Council, Pharmacy Council of India.\u000aDirectorate General of Health Services(C.B.H.I.)\u000ahttp:\/\/mospi.nic.in\/Mospi_New\/Upload\/SYB2014\/CH-30-HEALTH AND FAMILY WELFARE\/TABLE 30.9.xlsx","topics":[]},{"id":"IN.HLTH.HIVINFECTION.EST","name":"HIV Infection Estimates","source":{"id":"41","value":"Country Partnership Strategy for India "},"sourceNote":"State\/UT-wise Annual New HIV Infection among Adults (15+ Years) With Uncertainty Bounds","sourceOrganization":"Source: DATA.GOV.IN under Ministry of Health and Family Welfare, Department of AIDS Control, India\u000ahttp:\/\/data.gov.in\/catalogs#sort_by=changed&sort_order=DESC&items_per_page=20&path=group_name\/hiv-estimates-14175\/ministry_department\/ministry-health-and-fa","topics":[]},{"id":"IN.HLTH.HIVDEATH.EST","name":"HIV\/AIDS Related Death Estimates","source":{"id":"41","value":"Country Partnership Strategy for India "},"sourceNote":"State\/UT-wise HIV\/AIDS Related Death Estimates with Uncertainty Bounds","sourceOrganization":"Source: DATA.GOV.IN under Ministry of Health and Family Welfare, Department of AIDS Control, India\u000ahttp:\/\/data.gov.in\/catalogs#sort_by=changed&sort_order=DESC&items_per_page=20&path=group_name\/hiv-estimates-14175\/ministry_department\/ministry-health-and-fa","topics":[]},{"id":"IN.HLTH.GOVHOSPTL.PER100K","name":"Government Hospitals (Number) Per 100,000 Population","source":{"id":"41","value":"Country Partnership Strategy for India "},"sourceNote":"Health infrastructure indicator  - Number of government hospitals (public) per 100,000 population","sourceOrganization":"Ministry of Health and Family Welfare, India.\u000ahttp:\/\/mospi.nic.in\/Mospi_New\/Upload\/SYB2014\/CH-30-HEALTH AND FAMILY WELFARE\/TABLE 30.1.xlsx","topics":[]},{"id":"IN.HLTH.GOVHOSPTL.NUM","name":"Government Hospitals (Number)","source":{"id":"41","value":"Country Partnership Strategy for India "},"sourceNote":"Health infrastructure indicator  -- Number of Government Hospitals ","sourceOrganization":"Ministry of Health and Family Welfare, India.\u000ahttp:\/\/mospi.nic.in\/Mospi_New\/Upload\/SYB2014\/CH-30-HEALTH AND FAMILY WELFARE\/TABLE 30.1.xlsx","topics":[]},{"id":"IN.HLTH.GOVHOSPTL.BEDS.PER100K","name":"Government Hospitals Number of beds Per 100,000 Population","source":{"id":"41","value":"Country Partnership Strategy for India "},"sourceNote":"Health infrastructure indicator  -- Number of beds in Government Hospitals (public) per 100,000 population","sourceOrganization":"Ministry of Health and Family Welfare, India.\u000ahttp:\/\/mospi.nic.in\/Mospi_New\/Upload\/SYB2014\/CH-30-HEALTH AND FAMILY WELFARE\/TABLE 30.1.xlsx","topics":[]},{"id":"IN.HLTH.GOVHOSPTL.BEDS.NUM","name":"Government Hospitals Number of beds","source":{"id":"41","value":"Country Partnership Strategy for India "},"sourceNote":"Health infrastructure indicator  -- Number of beds in Government Hospitals","sourceOrganization":"Ministry of Health and Family Welfare, India.\u000ahttp:\/\/mospi.nic.in\/Mospi_New\/Upload\/SYB2014\/CH-30-HEALTH AND FAMILY WELFARE\/TABLE 30.1.xlsx","topics":[]},{"id":"IN.HLTH.DOCS.PER100K","name":"Number of Government Allopathic Doctors Per 100,000 Population","source":{"id":"41","value":"Country Partnership Strategy for India "},"sourceNote":"Health infrastructure indicator  -- Number of Allopathic Doctors in Government Hospitals per 100,000 population","sourceOrganization":"Ministry of Health and Family Welfare, India.\u000ahttp:\/\/mospi.nic.in\/Mospi_New\/Upload\/SYB2014\/CH-30-HEALTH AND FAMILY WELFARE\/TABLE 30.1.xlsx","topics":[]},{"id":"IN.HLTH.DISTHOSPTL.NUM","name":"Number of District Hospitals","source":{"id":"41","value":"Country Partnership Strategy for India "},"sourceNote":"Structure for the Rural health Infastucture consists of 4 levels -- District Hospitals (DH), Community Health Centers (CHC), Primary Health Centers (PHC), and Sub-Centers (SC). The number of hospitals refer to public facilities under the National Rural Health Mission (NRHM) and the National Urban Health Mission (NUHM) (see original source)","sourceOrganization":"Ministry of Health and Family Welfare, India.\u000ahttp:\/\/mospi.nic.in\/Mospi_New\/Upload\/SYB2014\/CH-30-HEALTH AND FAMILY WELFARE\/TABLE 30.6.xlsx","topics":[]},{"id":"IN.HLTH.CHC.NUM","name":"Number of Community Health Centers (CHCs)","source":{"id":"41","value":"Country Partnership Strategy for India "},"sourceNote":"Structure for the Rural health Infastucture consists of 4 levels -- District Hospitals (DH), Community Health Centers (CHC), Primary Health Centers (PHC), and Sub-Centers (SC). The number of CHCs efer to public hospitals.  The number of CHCs  refer to CHCs under the National Rural Health Mission (NRHM) and the National Urban Health Mission (NUHM) (see original source)","sourceOrganization":"Ministry of Health and Family Welfare, India.\u000ahttp:\/\/mospi.nic.in\/Mospi_New\/Upload\/SYB2014\/CH-30-HEALTH AND FAMILY WELFARE\/TABLE 30.6.xlsx","topics":[]},{"id":"IN.HLTH.AUXNURSE.NUM","name":"Auxiliary nursing midwives","source":{"id":"41","value":"Country Partnership Strategy for India "},"sourceNote":"Auxiliary Nurse Midwives have some training in secondary school. A period of on-thejob training may be included, and sometimes formalised in apprenticeships. Like an auxiliary nurse, an auxiliary nurse midwife has basic nursing skills and no training in nursing decisionmaking. Auxiliary nurse midwives assist in the provision of maternal and newborn health care, particularly during childbirth but also in the prenatal and postpartum periods. They possess some of the competencies in midwifery but are not fully qualified as midwives. (Source WHO cadres in maternal and newborn health)","sourceOrganization":"Indian Nursing Council, Pharmacy Council of India.\u000aDirectorate General of Health Services(C.B.H.I.)\u000ahttp:\/\/mospi.nic.in\/Mospi_New\/Upload\/SYB2014\/CH-30-HEALTH AND FAMILY WELFARE\/TABLE 30.9.xlsx","topics":[]},{"id":"IN.FIN.POP.PERBANK","name":"Average Population Per Bank Office (In Thousands)","source":{"id":"41","value":"Country Partnership Strategy for India "},"sourceNote":"Average Population Per Bank Office (In Thousands)","sourceOrganization":"http:\/\/www.rbi.org.in\/scripts\/PublicationsView.aspx?id=12662","topics":[]},{"id":"IN.FIN.HH.URBN","name":"Total number of households - Urban","source":{"id":"41","value":"Country Partnership Strategy for India "},"sourceNote":"Total number of households - Urban (Source: Census 2011)","sourceOrganization":"http:\/\/data.gov.in\/catalog\/households-availing-banking-services-and-number-households-having-each-specified-assets","topics":[]},{"id":"IN.FIN.HH.TOTL","name":"Total number of households","source":{"id":"41","value":"Country Partnership Strategy for India "},"sourceNote":"Total number of households (Source: Census 2011)","sourceOrganization":"http:\/\/data.gov.in\/catalog\/households-availing-banking-services-and-number-households-having-each-specified-assets","topics":[]},{"id":"IN.FIN.HH.RURL","name":"Total number of households -Rural","source":{"id":"41","value":"Country Partnership Strategy for India "},"sourceNote":"Total number of households -Rural (Source: Census 2011)","sourceOrganization":"http:\/\/data.gov.in\/catalog\/households-availing-banking-services-and-number-households-having-each-specified-assets","topics":[]},{"id":"IN.FIN.HH.BNKG.SRVC.URBN","name":"Total number of households availing banking services - Urban","source":{"id":"41","value":"Country Partnership Strategy for India "},"sourceNote":"Total number of households availing banking services - Urban ( Source: Census 2011)","sourceOrganization":"http:\/\/data.gov.in\/catalog\/households-availing-banking-services-and-number-households-having-each-specified-assets","topics":[]},{"id":"IN.FIN.HH.BNKG.SRVC.TOTL","name":"Total number of households availing banking services","source":{"id":"41","value":"Country Partnership Strategy for India "},"sourceNote":"Total number of households availing banking services ( Source: Census 2011)","sourceOrganization":"http:\/\/data.gov.in\/catalog\/households-availing-banking-services-and-number-households-having-each-specified-assets","topics":[]},{"id":"IN.FIN.HH.BNKG.SRVC.RURL","name":"Total number of households availing banking services - Rural","source":{"id":"41","value":"Country Partnership Strategy for India "},"sourceNote":"Total number of households availing banking services - Rural (Source: Census 2011)","sourceOrganization":"http:\/\/data.gov.in\/catalog\/households-availing-banking-services-and-number-households-having-each-specified-assets","topics":[]},{"id":"IN.FIN.FININCL.INDX","name":"Financial Inclusion Index (CRISIL Method)","source":{"id":"41","value":"Country Partnership Strategy for India "},"sourceNote":"CRISIL Inclusix is a relative index that incorporates various forms of basic financial services into one single metric. CRISIL Inclusix is India’s first comprehensive measure of financial inclusion in the form of an index. It is a relative index that has a scale of 0 to 100, and combines three very critical parameters of basic banking services — branch penetration (BP), deposit penetration (DP), and credit penetration (CP) — together into one single metric. For each of these parameters, CRISIL evaluates financial inclusion at the national\/ regional\/ state\/ district level vis-à-vis a defined ideal. A CRISIL Inclusix score of 100 indicates the ideal state for each of the national\/ regional\/ state\/ district level vis-à-vis a defined ideal. A CRISIL Inclusix score of 100 indicates the ideal state for each of the three parameters.","sourceOrganization":"http:\/\/www.crisil.com\/about-crisil\/crisil-inclusix.html\u000a","topics":[]},{"id":"IN.FIN.COMMBANK.NUM","name":"Commercial Bank Offices (Total)","source":{"id":"41","value":"Country Partnership Strategy for India "},"sourceNote":"Number of commercial banks","sourceOrganization":"http:\/\/www.rbi.org.in\/scripts\/PublicationsView.aspx?id=12662","topics":[]},{"id":"IN.ENRGY.VILLAG.TOTL","name":"Number of Villages Total (Per 2001 Census)","source":{"id":"41","value":"Country Partnership Strategy for India "},"sourceNote":"Number of Villages Total (Per 2001 Census)","sourceOrganization":"Source: Central Electricity Authority, Ministry of Power, India.\u000aTABLE 16.14: NUMBER OF TOWNS AND VILLAGES ELECTRIFIED IN INDIA \u000aHttp:\/\/mospi.nic.in\/mospi_new\/upload\/SYB2014\/CH-16-ENERGY\/Table 16.14.xls\u000a","topics":[]},{"id":"IN.ENRGY.VILLAG.ELECTRFIED.PERCENT","name":"Number of Villages Electrified (Percentage)","source":{"id":"41","value":"Country Partnership Strategy for India "},"sourceNote":"Percentage of Villages Electrified in the State ","sourceOrganization":"Source: Central Electricity Authority, Ministry of Power, India.\u000aTABLE 16.14: NUMBER OF TOWNS AND VILLAGES ELECTRIFIED IN INDIA \u000aHttp:\/\/mospi.nic.in\/mospi_new\/upload\/SYB2014\/CH-16-ENERGY\/Table 16.14.xls\u000a","topics":[]},{"id":"IN.ENRGY.VILLAG.ELECTRFIED","name":"Number of Villages Electrified","source":{"id":"41","value":"Country Partnership Strategy for India "},"sourceNote":"Number of Villages Electrified","sourceOrganization":"Source: Central Electricity Authority, Ministry of Power, India.\u000aTABLE 16.14: NUMBER OF TOWNS AND VILLAGES ELECTRIFIED IN INDIA \u000aHttp:\/\/mospi.nic.in\/mospi_new\/upload\/SYB2014\/CH-16-ENERGY\/Table 16.14.xls\u000a","topics":[]},{"id":"IN.ENRGY.TOWNS.TOTL","name":"Number of Towns Total (Per 2001 Census)","source":{"id":"41","value":"Country Partnership Strategy for India "},"sourceNote":"Number of Towns Total (Per 2001 Census)","sourceOrganization":"Source: Central Electricity Authority, Ministry of Power, India.\u000aTABLE 16.14: NUMBER OF TOWNS AND VILLAGES ELECTRIFIED IN INDIA \u000aHttp:\/\/mospi.nic.in\/mospi_new\/upload\/SYB2014\/CH-16-ENERGY\/Table 16.14.xls\u000a","topics":[]},{"id":"IN.ENRGY.TOWNS.ELECTRFIED.PERCENT","name":"Number of Towns Electrified (Percentage)","source":{"id":"41","value":"Country Partnership Strategy for India "},"sourceNote":"Percentage of Towns in the State Electrified ","sourceOrganization":"Source: Central Electricity Authority, Ministry of Power, India.\u000aTABLE 16.14: NUMBER OF TOWNS AND VILLAGES ELECTRIFIED IN INDIA \u000aHttp:\/\/mospi.nic.in\/mospi_new\/upload\/SYB2014\/CH-16-ENERGY\/Table 16.14.xls\u000a","topics":[]},{"id":"IN.ENRGY.TOWNS.ELECTRFIED.NUM","name":"Number of Towns Electrified (Per 2001 Census)","source":{"id":"41","value":"Country Partnership Strategy for India "},"sourceNote":"Number of Towns Electrified (Per 2001 Census)","sourceOrganization":"Source: Central Electricity Authority, Ministry of Power, India.\u000aTABLE 16.14: NUMBER OF TOWNS AND VILLAGES ELECTRIFIED IN INDIA \u000aHttp:\/\/mospi.nic.in\/mospi_new\/upload\/SYB2014\/CH-16-ENERGY\/Table 16.14.xls\u000a","topics":[]},{"id":"IN.ENRGY.GRID.RENEW.CAP","name":"Grid interactive renewable power installed capacity (MW)","source":{"id":"41","value":"Country Partnership Strategy for India "},"sourceNote":"Grid interactive renewable power installed capacity (in MW). Includes power generated from small hydro, biomass and waste, wind and solar sources. Energy from these renewable sources is connected to the regional and state grids.","sourceOrganization":"Source: Ministry of New and Renewable Energy, India\u000aHttp:\/\/mospi.nic.in\/mospi_new\/upload\/SYB2014\/CH-16-RURAL AND URBAN DEVELOPMENT\/Table 35.12.xls\u000a","topics":[]},{"id":"IN.ENRGY.ELEC.PERCAP.CONSMPN.TOTL","name":"Total (Utilities & Non-Utilities) Per Capita Consumption (KWh)","source":{"id":"41","value":"Country Partnership Strategy for India "},"sourceNote":"Total (Utilities & Non-Utilities) Per Capita Consumption (in KWh). Uses net electricity consumption after excluding  consumption by power station auxiliaries. Non-utilities are power stations for railways and similar entities.","sourceOrganization":"Source: Central Electricity Authority, Ministry of Power, India.\u000aHttp:\/\/mospi.nic.in\/mospi_new\/upload\/SYB2014\/CH-16-ENERGY\/Table 16.12.xls","topics":[]},{"id":"IN.ENRGY.ELEC.PERCAP.CONSMPN.NONUTLTS","name":"Non Utilities Per Capita Consumption (KWh)","source":{"id":"41","value":"Country Partnership Strategy for India "},"sourceNote":"Non Utilities  Per Capita Consumption (in KWh)","sourceOrganization":"Source: Central Electricity Authority, Ministry of Power, India.\u000aHttp:\/\/mospi.nic.in\/mospi_new\/upload\/SYB2014\/CH-16-ENERGY\/Table 16.12.xls","topics":[]},{"id":"IN.ENRGY.ELEC.PERCAP.CONSMPN","name":"Utilities\/Non Utilities Per Capita Consumption (KWh)","source":{"id":"41","value":"Country Partnership Strategy for India "},"sourceNote":"Utilities\/Non Utilities  Per Capita Consumption (in KWh).  Uses net electricity consumption after excluding  consumption by power station auxiliaries. Non-utilities are power stations for railways and similar entities.","sourceOrganization":"Source: Central Electricity Authority, Ministry of Power, India.\u000aHttp:\/\/mospi.nic.in\/mospi_new\/upload\/SYB2014\/CH-16-ENERGY\/Table 16.12.xls","topics":[]},{"id":"IN.ENRGY.ELEC.GEN","name":"Total-Electricity Generated Gross (GWh)","source":{"id":"41","value":"Country Partnership Strategy for India "},"sourceNote":"Total-Electricity Generated Gross (GWh). Includes hydro, diesel and wind, steam, gas and nuclear energy.","sourceOrganization":"Source: Central Electricity Authority, Ministry of Power, India.\u000aHttp:\/\/mospi.nic.in\/mospi_new\/upload\/SYB2014\/CH-16-ENERGY\/Table 16.12.xls","topics":[]},{"id":"IN.ENRGY.ELEC.CAP","name":"Total- Installed Capacity (MW)","source":{"id":"41","value":"Country Partnership Strategy for India "},"sourceNote":"Total- Installed Capacity (MW). Includes hydro, diesel and wind, steam, gas and nuclear energy.","sourceOrganization":"Source: Central Electricity Authority, Ministry of Power, India.\u000aHttp:\/\/mospi.nic.in\/mospi_new\/upload\/SYB2014\/CH-16-ENERGY\/Table 16.12.xls","topics":[]},{"id":"IN.EDU.TCHRTRNG.NUM","name":"Teacher Education Institutes (DIETs, CTEs, IASEs)","source":{"id":"41","value":"Country Partnership Strategy for India "},"sourceNote":"Numbers of Teacher Education Institutes sponsored and funded by the Central Government for elementary and secondary schools-- District Institutes of Education and Trainin(DIETs), Colleges of Teacher Education (CTEs),  Institutes of Advanced Study in Education (IASEs) ","sourceOrganization":"teacher Education, Department of School Education and Literacy, Min. of Human resource Development, Gov't of India.\u000ahttp:\/\/www.teindia.nic.in\/Institutions.aspx","topics":[]},{"id":"IN.EDU.TCHR.NUM","name":"Teachers (Number)","source":{"id":"41","value":"Country Partnership Strategy for India "},"sourceNote":"Total number of Teachers in secondary and higher secondary schools. Thes include regular and on-contract teachers.","sourceOrganization":"Secondary Education in India: Progress towards universalization, Flash Statistics 2012-13, National University of Educational Planning and Adminsitration; SEMIS-FLASH-STASTICS.pdf","topics":[]},{"id":"IN.EDU.PUPIL.TCHR","name":"Pupil-Teacher Ratio","source":{"id":"41","value":"Country Partnership Strategy for India "},"sourceNote":"Average number of Pupils per Teacher for all schools (Secondary and Higher Secondary schools).","sourceOrganization":"Secondary Education in India: Progress towards universalization, Flash Statistics 2012-13, National University of Educational Planning and Adminsitration; SEMIS-FLASH-STASTICS.pdf","topics":[]},{"id":"IN.EDU.NET.ENRL.RATIO","name":"Net Enrolment Ratio (%)","source":{"id":"41","value":"Country Partnership Strategy for India "},"sourceNote":"Enrolment in secondary and higher secondary education of the official age for that group expressed as a percentage of the corresponding population in that age group","sourceOrganization":"Secondary Education in India: Progress towards universalization, Flash Statistics 2012-13, National University of Educational Planning and Adminsitration; SEMIS-FLASH-STASTICS.pdf","topics":[]},{"id":"IN.EDU.GR.ENRL.RATIO","name":"Gross Enrolment Ratio (%)","source":{"id":"41","value":"Country Partnership Strategy for India "},"sourceNote":"Total enrolment in secondary and higher secondary education, regardless of age, expressed as a percentage of the eligible official secondary and higher secondary school-age population in a given school-year ","sourceOrganization":"Secondary Education in India: Progress towards universalization, Flash Statistics 2012-13, National University of Educational Planning and Adminsitration; SEMIS-FLASH-STASTICS.pdf","topics":[]},{"id":"IN.EDU.ENROL.ST","name":"Enrolment by Caste-ST (%)","source":{"id":"41","value":"Country Partnership Strategy for India "},"sourceNote":"Percent pupils not in the General category and belonging to the Scheduled Tribe (ST) category","sourceOrganization":"Secondary Education in India: Progress towards universalization, Flash Statistics 2012-13, National University of Educational Planning and Adminsitration; SEMIS-FLASH-STASTICS.pdf","topics":[]},{"id":"IN.EDU.ENROL.SC","name":"Enrolment by Caste-SC (%)","source":{"id":"41","value":"Country Partnership Strategy for India "},"sourceNote":"Percent pupils not in the General category and belonging to the Scheduled Caste (SC) category","sourceOrganization":"Secondary Education in India: Progress towards universalization, Flash Statistics 2012-13, National University of Educational Planning and Adminsitration; SEMIS-FLASH-STASTICS.pdf","topics":[]},{"id":"IN.EDU.ENROL.OBC","name":"Enrolment by Caste-OBC (%)","source":{"id":"41","value":"Country Partnership Strategy for India "},"sourceNote":"Percent pupils not in the General category and belonging to the Other Backward Class (OBC) category","sourceOrganization":"Secondary Education in India: Progress towards universalization, Flash Statistics 2012-13, National University of Educational Planning and Adminsitration; SEMIS-FLASH-STASTICS.pdf","topics":[]},{"id":"IN.EDU.ENROL.MSLM","name":"Enrolment by Caste-Muslim (%)","source":{"id":"41","value":"Country Partnership Strategy for India "},"sourceNote":"Percent of Secondary and Higher Secondary pupils in the General category and belonging to the Muslim community","sourceOrganization":"Secondary Education in India: Progress towards universalization, Flash Statistics 2012-13, National University of Educational Planning and Adminsitration; SEMIS-FLASH-STASTICS.pdf","topics":[]},{"id":"IN.EDU.ENROL.GEN","name":"Enrolment by Caste-General (%)","source":{"id":"41","value":"Country Partnership Strategy for India "},"sourceNote":"Percent pupils in General category: not belonging to the Scheduled Caste (SC), Scheduled Tribe (ST) or Other Backward Class (OBC) category. Muslims and other minorities are included in the General Category.","sourceOrganization":"Secondary Education in India: Progress towards universalization, Flash Statistics 2012-13, National University of Educational Planning and Adminsitration; SEMIS-FLASH-STASTICS.pdf","topics":[]},{"id":"IN.EC.POP.TOTL","name":"Population (Thousands)","source":{"id":"41","value":"Country Partnership Strategy for India "},"sourceNote":"","sourceOrganization":"Source:\u000aCompiled from the statistics released by : Tenth Five Year Plan 2002-07, Volume-III, Planning Commission, Gov't of India","topics":[]},{"id":"IN.EC.POP.GRWTHRAT.","name":"Decadal Growth of Population (%)","source":{"id":"41","value":"Country Partnership Strategy for India "},"sourceNote":"Population growth rate over the 10 year period.  This is simple growth rate calculation between two population observations that are 10 year apart.","sourceOrganization":"Source: Provisional Population Tables & Annexures, Census of India 2011","topics":[]},{"id":"IN.EC.GSDP.PERCAP.REAL.USD.GRWTHRAT","name":"Real GSDP Per Capita (USD) Growth Rate","source":{"id":"41","value":"Country Partnership Strategy for India "},"sourceNote":"Gross state domestic product (GSDP), or gross regional product (GRP), is a measurement of the per capita growth rate  of the economic output in real terms of a state or province (i.e., of a subnational entity). It is the sum of all value added by industries and services within the state and serves as a counterpart to the gross domestic product (GDP). \u000aState Domestic Product (SDP) in common parlance known as “State Income” is a measure in monetary terms of the volume of all goods and services produced during a given period of time within the geographical boundaries of the state, accounted for\u000awithout duplication.\u000a","sourceOrganization":"Source : Central Statistics Office (CSO), Ministry of Statistics and Prgramme Implementation, Gov't of India website as on 01.08.13","topics":[]},{"id":"IN.EC.GSDP.PERCAP.REAL.USD","name":"Real GSDP Per Capita (USD)","source":{"id":"41","value":"Country Partnership Strategy for India "},"sourceNote":"Real Gross state domestic product (GSDP) per capita, or gross regional product (GRP) per capita, is a measurement of the per capita economic output in real terms of a state or province (i.e., of a subnational entity). It is the sum of all value added by industries and services within the state and serves as a counterpart to the gross domestic product (GDP). \u000aState Domestic Product (SDP) in common parlance known as “State Income” is a measure in monetary terms of the volume of all goods and services produced during a given period of time within the geographical boundaries of the state, accounted for\u000awithout duplication.\u000a","sourceOrganization":"Source : Central Statistics Office (CSO), Ministry of Statistics and Prgramme Implementation, Gov't of India website as on 01.08.13","topics":[]},{"id":"IN.EC.GSDP.PERCAP.REAL.INR.GRWTHRAT","name":"Real GSDP Per Capita (INR) Growth Rate","source":{"id":"41","value":"Country Partnership Strategy for India "},"sourceNote":"Real Gross state domestic product (GSDP) [per capita, or gross regional product (GRP) per capita, is a measurement of the per capita growth rate of economic output in real terms of a state or province (i.e., of a subnational entity). It is the sum of all value added by industries and services within the state and serves as a counterpart to the gross domestic product (GDP). \u000aState Domestic Product (SDP) in common parlance known as “State Income” is a measure in monetary terms of the volume of all goods and services produced during a given period of time within the geographical boundaries of the state, accounted for\u000awithout duplication.\u000a","sourceOrganization":"Source : Central Statistics Office (CSO), Ministry of Statistics and Prgramme Implementation, Gov't of India website as on 01.08.13","topics":[]},{"id":"IN.EC.GSDP.PERCAP.REAL.INR","name":"Real GSDP Per Capita (INR)","source":{"id":"41","value":"Country Partnership Strategy for India "},"sourceNote":"Real Gross state domestic product (GSDP), or gross regional product (GRP), is a measurement of the per capita economic output in real terms of a state or province (i.e., of a subnational entity). It is the sum of all value added by industries and services within the state and serves as a counterpart to the gross domestic product (GDP). \u000aState Domestic Product (SDP) in common parlance known as “State Income” is a measure in monetary terms of the volume of all goods and services produced during a given period of time within the geographical boundaries of the state, accounted for\u000awithout duplication.\u000a","sourceOrganization":"Source : Central Statistics Office (CSO), Ministry of Statistics and Prgramme Implementation, Gov't of India website as on 01.08.13","topics":[]},{"id":"IN.EC.GSDP.PERCAP.NOM.USD","name":"Nominal GSDP Per Capita (USD)","source":{"id":"41","value":"Country Partnership Strategy for India "},"sourceNote":"Nominal Gross state domestic product (GSDP) per capita, or gross regional product (GRP) per capita, is a measurement of the per capita economic output in nominal terms of a state or province (i.e., of a subnational entity). It is the sum of all value added by industries and services within the state and serves as a counterpart to the gross domestic product (GDP). \u000aState Domestic Product (SDP) in common parlance known as “State Income” is a measure in monetary terms of the volume of all goods and services produced during a given period of time within the geographical boundaries of the state, accounted for\u000awithout duplication.\u000a","sourceOrganization":"Source : Central Statistics Office (CSO), Ministry of Statistics and Prgramme Implementation, Gov't of India website as on 01.08.13","topics":[]},{"id":"IN.EC.GSDP.PERCAP.NOM.INR","name":"Nominal GSDP Per Capita (INR)","source":{"id":"41","value":"Country Partnership Strategy for India "},"sourceNote":"Nominal Gross state domestic product (GSDP) per capita, or gross regional product (GRP) per capita, is a measurement of the per capita economic output in nominal terms of a state or province (i.e., of a subnational entity). It is the sum of all value added by industries and services within the state and serves as a counterpart to the gross domestic product (GDP). \u000aState Domestic Product (SDP) in common parlance known as “State Income” is a measure in monetary terms of the volume of all goods and services produced during a given period of time within the geographical boundaries of the state, accounted for\u000awithout duplication.\u000a","sourceOrganization":"Source : Central Statistics Office (CSO), Ministry of Statistics and Prgramme Implementation, Gov't of India website as on 01.08.13","topics":[{}]}]]