[{"page":163,"pages":324,"per_page":"50","total":16174},[{"id":"per_lm_ac.adq_q2_urb","name":"Adequacy of benefits in 2nd quintile (%) - Active Labor Market -urban","source":{"id":"29","value":"Global Social Protection"},"sourceNote":"Total transfer amount received by all beneficiaries in a population group as a share of the total welfare of beneficiaries in that group","sourceOrganization":"ASPIRE","topics":[{"id":"10","value":"Social Protection & Labor"}]},{"id":"per_lm_ac.adq_q2_tot","name":"Adequacy of benefits in 2nd quintile (%) - Active Labor Market","source":{"id":"29","value":"Global Social Protection"},"sourceNote":"Total transfer amount received by all beneficiaries in a population group as a share of the total welfare of beneficiaries in that group","sourceOrganization":"ASPIRE","topics":[{"id":"10","value":"Social Protection & Labor"}]},{"id":"per_lm_ac.adq_q2_rur","name":"Adequacy of benefits in 2nd quintile (%) - Active Labor Market -rural","source":{"id":"29","value":"Global Social Protection"},"sourceNote":"Total transfer amount received by all beneficiaries in a population group as a share of the total welfare of beneficiaries in that group","sourceOrganization":"ASPIRE","topics":[{"id":"10","value":"Social Protection & Labor"}]},{"id":"per_lm_ac.adq_q2_preT_tot","name":"Adequacy of benefits in 2nd quintile (%) - Active Labor Market (preT)","source":{"id":"29","value":"Global Social Protection"},"sourceNote":"Total transfer amount received by all beneficiaries in a population group as a share of the total welfare of beneficiaries in that group","sourceOrganization":"ASPIRE","topics":[{"id":"10","value":"Social Protection & Labor"}]},{"id":"per_lm_ac.adq_q1_urb","name":"Adequacy of benefits in poorest quintile (%) - Active Labor Market -urban","source":{"id":"29","value":"Global Social Protection"},"sourceNote":"Total transfer amount received by all beneficiaries in a population group as a share of the total welfare of beneficiaries in that group","sourceOrganization":"ASPIRE","topics":[{"id":"10","value":"Social Protection & Labor"}]},{"id":"per_lm_ac.adq_q1_tot","name":"Adequacy of benefits in poorest quintile (%) - Active Labor Market","source":{"id":"29","value":"Global Social Protection"},"sourceNote":"Total transfer amount received by all beneficiaries in a population group as a share of the total welfare of beneficiaries in that group","sourceOrganization":"ASPIRE","topics":[{"id":"10","value":"Social Protection & Labor"}]},{"id":"per_lm_ac.adq_q1_rur","name":"Adequacy of benefits in poorest quintile (%) - Active Labor Market -rural","source":{"id":"29","value":"Global Social Protection"},"sourceNote":"Total transfer amount received by all beneficiaries in a population group as a share of the total welfare of beneficiaries in that group","sourceOrganization":"ASPIRE","topics":[{"id":"10","value":"Social Protection & Labor"}]},{"id":"per_lm_ac.adq_q1_preT_tot","name":"Adequacy of benefits in poorest quintile (%) - Active Labor Market (preT)","source":{"id":"29","value":"Global Social Protection"},"sourceNote":"Total transfer amount received by all beneficiaries in a population group as a share of the total welfare of beneficiaries in that group","sourceOrganization":"ASPIRE","topics":[{"id":"10","value":"Social Protection & Labor"}]},{"id":"per_lm_ac.adq_pop_urb","name":"Adequacy of benefits (%) - Active Labor Market -urban","source":{"id":"29","value":"Global Social Protection"},"sourceNote":"Total transfer amount received by all beneficiaries in a population group as a share of the total welfare of beneficiaries in that group","sourceOrganization":"ASPIRE","topics":[{"id":"10","value":"Social Protection & Labor"}]},{"id":"per_lm_ac.adq_pop_tot","name":"Adequacy of benefits (%) - Active Labor Market","source":{"id":"29","value":"Global Social Protection"},"sourceNote":"Total transfer amount received by all beneficiaries in a population group as a share of the total welfare of beneficiaries in that group","sourceOrganization":"ASPIRE","topics":[{"id":"10","value":"Social Protection & Labor"}]},{"id":"per_lm_ac.adq_pop_rur","name":"Adequacy of benefits (%) - Active Labor Market -rural","source":{"id":"29","value":"Global Social Protection"},"sourceNote":"Total transfer amount received by all beneficiaries in a population group as a share of the total welfare of beneficiaries in that group","sourceOrganization":"ASPIRE","topics":[{"id":"10","value":"Social Protection & Labor"}]},{"id":"per_lm_ac.adq_pop_preT_tot","name":"Adequacy of benefits (%) - Active Labor Market (preT)","source":{"id":"29","value":"Global Social Protection"},"sourceNote":"Total transfer amount received by all beneficiaries in a population group as a share of the total welfare of beneficiaries in that group","sourceOrganization":"ASPIRE","topics":[{"id":"10","value":"Social Protection & Labor"}]},{"id":"per_lm_ac.adq_ep_tot","name":"Adequacy of benefits in extreme poor (<$1.25 a day) (%) - Active Labor Market","source":{"id":"29","value":"Global Social Protection"},"sourceNote":"Total transfer amount received by all beneficiaries in a population group as a share of the total welfare of beneficiaries in that group","sourceOrganization":"ASPIRE","topics":[{"id":"10","value":"Social Protection & Labor"}]},{"id":"per_lm_ac.adq_ep_preT_tot","name":"Adequacy of benefits in extreme poor (<$1.25 a day) (%) - Active Labor Market  (preT)","source":{"id":"29","value":"Global Social Protection"},"sourceNote":"Total transfer amount received by all beneficiaries in a population group as a share of the total welfare of beneficiaries in that group","sourceOrganization":"ASPIRE","topics":[{"id":"10","value":"Social Protection & Labor"}]},{"id":"per_allsp_p1_urb","name":"Poverty Gap reduction (%) - All Social Protection and Labor - poorest quintile -urban","source":{"id":"29","value":"Global Social Protection"},"sourceNote":"NULL","sourceOrganization":"The Atlas of Social Protection: Indicators of Resilience and Equity (ASPIRE)","topics":[{"id":"10","value":"Social Protection & Labor"}]},{"id":"per_allsp_p1_tot","name":"Poverty Gap reduction (%) - All Social Protection and Labor -poorest quintile","source":{"id":"29","value":"Global Social Protection"},"sourceNote":"NULL","sourceOrganization":"The Atlas of Social Protection: Indicators of Resilience and Equity (ASPIRE)","topics":[{"id":"10","value":"Social Protection & Labor"}]},{"id":"per_allsp_p1_rur","name":"Poverty Gap reduction (%) - All Social Protection and Labor -poorest quintile -rural","source":{"id":"29","value":"Global Social Protection"},"sourceNote":"NULL","sourceOrganization":"The Atlas of Social Protection: Indicators of Resilience and Equity (ASPIRE)","topics":[{"id":"10","value":"Social Protection & Labor"}]},{"id":"per_allsp_p1_preT_tot","name":"Poverty Gap reduction (%) - All Social Protection and Labor -poorest quintile (preT)","source":{"id":"29","value":"Global Social Protection"},"sourceNote":"NULL","sourceOrganization":"The Atlas of Social Protection: Indicators of Resilience and Equity (ASPIRE)","topics":[{"id":"10","value":"Social Protection & Labor"}]},{"id":"per_allsp_p1_ep_tot","name":"Poverty Gap reduction (%) - All Social Protection and Labor -extreme poor (<$1.25 a day)","source":{"id":"29","value":"Global Social Protection"},"sourceNote":"NULL","sourceOrganization":"The Atlas of Social Protection: Indicators of Resilience and Equity (ASPIRE)","topics":[{"id":"10","value":"Social Protection & Labor"}]},{"id":"per_allsp_p1_ep_preT_tot","name":"Poverty Gap reduction (%) - All Social Protection and Labor -extreme poor (<$1.25 a day) (preT)","source":{"id":"29","value":"Global Social Protection"},"sourceNote":"NULL","sourceOrganization":"The Atlas of Social Protection: Indicators of Resilience and Equity (ASPIRE)","topics":[{"id":"10","value":"Social Protection & Labor"}]},{"id":"per_allsp_p0_urb","name":"Poverty Headcount reduction (%) - All Social Protection and Labor - poorest quintile -urban","source":{"id":"29","value":"Global Social Protection"},"sourceNote":"NULL","sourceOrganization":"The Atlas of Social Protection: Indicators of Resilience and Equity (ASPIRE)","topics":[{"id":"10","value":"Social Protection & Labor"}]},{"id":"per_allsp_p0_tot","name":"Poverty Headcount reduction (%) - All Social Protection and Labor -poorest quintile","source":{"id":"29","value":"Global Social Protection"},"sourceNote":"NULL","sourceOrganization":"The Atlas of Social Protection: Indicators of Resilience and Equity (ASPIRE)","topics":[{"id":"10","value":"Social Protection & Labor"}]},{"id":"per_allsp_p0_rur","name":"Poverty Headcount reduction (%) - All Social Protection and Labor -poorest quintile -rural","source":{"id":"29","value":"Global Social Protection"},"sourceNote":"NULL","sourceOrganization":"The Atlas of Social Protection: Indicators of Resilience and Equity (ASPIRE)","topics":[{"id":"10","value":"Social Protection & Labor"}]},{"id":"per_allsp_p0_preT_tot","name":"Poverty Headcount reduction (%) - All Social Protection and Labor -poorest quintile (preT)","source":{"id":"29","value":"Global Social Protection"},"sourceNote":"NULL","sourceOrganization":"The Atlas of Social Protection: Indicators of Resilience and Equity (ASPIRE)","topics":[{"id":"10","value":"Social Protection & Labor"}]},{"id":"per_allsp_p0_ep_tot","name":"Poverty Headcount reduction (%) - All Social Protection and Labor -extreme poor (<$1.25 a day)","source":{"id":"29","value":"Global Social Protection"},"sourceNote":"NULL","sourceOrganization":"The Atlas of Social Protection: Indicators of Resilience and Equity (ASPIRE)","topics":[{"id":"10","value":"Social Protection & Labor"}]},{"id":"per_allsp_p0_ep_preT_tot","name":"Poverty Headcount reduction (%) - All Social Protection and Labor -extreme poor (<$1.25 a day) (preT)","source":{"id":"29","value":"Global Social Protection"},"sourceNote":"NULL","sourceOrganization":"The Atlas of Social Protection: Indicators of Resilience and Equity (ASPIRE)","topics":[{"id":"10","value":"Social Protection & Labor"}]},{"id":"per_allsp_gini_urb","name":"Gini inequality reduction (%) - All Social Protection and Labor - poorest quintile -urban","source":{"id":"29","value":"Global Social Protection"},"sourceNote":"NULL","sourceOrganization":"The Atlas of Social Protection: Indicators of Resilience and Equity (ASPIRE)","topics":[{"id":"10","value":"Social Protection & Labor"}]},{"id":"per_allsp_gini_tot","name":"Gini inequality reduction (%) - All Social Protection and Labor -poorest quintile","source":{"id":"29","value":"Global Social Protection"},"sourceNote":"NULL","sourceOrganization":"The Atlas of Social Protection: Indicators of Resilience and Equity (ASPIRE)","topics":[{"id":"10","value":"Social Protection & Labor"}]},{"id":"per_allsp_gini_rur","name":"Gini inequality reduction (%) - All Social Protection and Labor -poorest quintile -rural","source":{"id":"29","value":"Global Social Protection"},"sourceNote":"NULL","sourceOrganization":"The Atlas of Social Protection: Indicators of Resilience and Equity (ASPIRE)","topics":[{"id":"10","value":"Social Protection & Labor"}]},{"id":"per_allsp_gini_preT_tot","name":"Gini inequality reduction (%) - All Social Protection and Labor -poorest quintile (preT)","source":{"id":"29","value":"Global Social Protection"},"sourceNote":"NULL","sourceOrganization":"The Atlas of Social Protection: Indicators of Resilience and Equity (ASPIRE)","topics":[{"id":"10","value":"Social Protection & Labor"}]},{"id":"per_allsp_gini_ep_tot","name":"Gini inequality reduction (%) - All Social Protection and Labor -extreme poor (<$1.25 a day)","source":{"id":"29","value":"Global Social Protection"},"sourceNote":"NULL","sourceOrganization":"The Atlas of Social Protection: Indicators of Resilience and Equity (ASPIRE)","topics":[{"id":"10","value":"Social Protection & Labor"}]},{"id":"per_allsp_gini_ep_preT_tot","name":"Gini inequality reduction (%) - All Social Protection and Labor -extreme poor (<$1.25 a day) (preT)","source":{"id":"29","value":"Global Social Protection"},"sourceNote":"NULL","sourceOrganization":"The Atlas of Social Protection: Indicators of Resilience and Equity (ASPIRE)","topics":[{"id":"10","value":"Social Protection & Labor"}]},{"id":"per_allsp.cov_q5_urb","name":"Coverage in richest quintile (%) -All Social Protection and Labor -urban","source":{"id":"29","value":"Global Social Protection"},"sourceNote":"NULL","sourceOrganization":"The Atlas of Social Protection: Indicators of Resilience and Equity (ASPIRE)","topics":[{"id":"10","value":"Social Protection & Labor"}]},{"id":"per_allsp.cov_q5_tot","name":"Coverage in richest quintile (%) -All Social Protection and Labor ","source":{"id":"29","value":"Global Social Protection"},"sourceNote":"NULL","sourceOrganization":"The Atlas of Social Protection: Indicators of Resilience and Equity (ASPIRE)","topics":[{"id":"10","value":"Social Protection & Labor"}]},{"id":"per_allsp.cov_q5_rur","name":"Coverage in richest quintile (%) -All Social Protection and Labor -rural","source":{"id":"29","value":"Global Social Protection"},"sourceNote":"NULL","sourceOrganization":"The Atlas of Social Protection: Indicators of Resilience and Equity (ASPIRE)","topics":[{"id":"10","value":"Social Protection & Labor"}]},{"id":"per_allsp.cov_q5_preT_tot","name":"Coverage in richest quintile (%) -All Social Protection and Labor (preT)","source":{"id":"29","value":"Global Social Protection"},"sourceNote":"NULL","sourceOrganization":"The Atlas of Social Protection: Indicators of Resilience and Equity (ASPIRE)","topics":[{"id":"10","value":"Social Protection & Labor"}]},{"id":"per_allsp.cov_q4_urb","name":"Coverage in 4th quintile (%) -All Social Protection and Labor -urban","source":{"id":"29","value":"Global Social Protection"},"sourceNote":"NULL","sourceOrganization":"The Atlas of Social Protection: Indicators of Resilience and Equity (ASPIRE)","topics":[{"id":"10","value":"Social Protection & Labor"}]},{"id":"per_allsp.cov_q4_tot","name":"Coverage in 4th quintile (%) -All Social Protection and Labor ","source":{"id":"29","value":"Global Social Protection"},"sourceNote":"NULL","sourceOrganization":"The Atlas of Social Protection: Indicators of Resilience and Equity (ASPIRE)","topics":[{"id":"10","value":"Social Protection & Labor"}]},{"id":"per_allsp.cov_q4_rur","name":"Coverage in 4th quintile (%) -All Social Protection and Labor -rural","source":{"id":"29","value":"Global Social Protection"},"sourceNote":"NULL","sourceOrganization":"The Atlas of Social Protection: Indicators of Resilience and Equity (ASPIRE)","topics":[{"id":"10","value":"Social Protection & Labor"}]},{"id":"per_allsp.cov_q4_preT_tot","name":"Coverage in 4th quintile (%) -All Social Protection and Labor (preT)","source":{"id":"29","value":"Global Social Protection"},"sourceNote":"NULL","sourceOrganization":"The Atlas of Social Protection: Indicators of Resilience and Equity (ASPIRE)","topics":[{"id":"10","value":"Social Protection & Labor"}]},{"id":"per_allsp.cov_q3_urb","name":"Coverage in 3rd quintile (%) -All Social Protection and Labor -urban","source":{"id":"29","value":"Global Social Protection"},"sourceNote":"NULL","sourceOrganization":"The Atlas of Social Protection: Indicators of Resilience and Equity (ASPIRE)","topics":[{"id":"10","value":"Social Protection & Labor"}]},{"id":"per_allsp.cov_q3_tot","name":"Coverage in 3rd quintile (%) -All Social Protection and Labor ","source":{"id":"29","value":"Global Social Protection"},"sourceNote":"NULL","sourceOrganization":"The Atlas of Social Protection: Indicators of Resilience and Equity (ASPIRE)","topics":[{"id":"10","value":"Social Protection & Labor"}]},{"id":"per_allsp.cov_q3_rur","name":"Coverage in 3rd quintile (%) -All Social Protection and Labor -rural","source":{"id":"29","value":"Global Social Protection"},"sourceNote":"NULL","sourceOrganization":"The Atlas of Social Protection: Indicators of Resilience and Equity (ASPIRE)","topics":[{"id":"10","value":"Social Protection & Labor"}]},{"id":"per_allsp.cov_q3_preT_tot","name":"Coverage in 3rd quintile (%) -All Social Protection and Labor (preT)","source":{"id":"29","value":"Global Social Protection"},"sourceNote":"NULL","sourceOrganization":"The Atlas of Social Protection: Indicators of Resilience and Equity (ASPIRE)","topics":[{"id":"10","value":"Social Protection & Labor"}]},{"id":"per_allsp.cov_q2_urb","name":"Coverage in 2nd quintile (%) -All Social Protection and Labor -urban","source":{"id":"29","value":"Global Social Protection"},"sourceNote":"NULL","sourceOrganization":"The Atlas of Social Protection: Indicators of Resilience and Equity (ASPIRE)","topics":[{"id":"10","value":"Social Protection & Labor"}]},{"id":"per_allsp.cov_q2_tot","name":"Coverage in 2nd quintile (%) -All Social Protection and Labor ","source":{"id":"29","value":"Global Social Protection"},"sourceNote":"NULL","sourceOrganization":"The Atlas of Social Protection: Indicators of Resilience and Equity (ASPIRE)","topics":[{"id":"10","value":"Social Protection & Labor"}]},{"id":"per_allsp.cov_q2_rur","name":"Coverage in 2nd quintile (%) -All Social Protection and Labor -rural","source":{"id":"29","value":"Global Social Protection"},"sourceNote":"NULL","sourceOrganization":"The Atlas of Social Protection: Indicators of Resilience and Equity (ASPIRE)","topics":[{"id":"10","value":"Social Protection & Labor"}]},{"id":"per_allsp.cov_q2_preT_tot","name":"Coverage in 2nd quintile (%) -All Social Protection and Labor (preT)","source":{"id":"29","value":"Global Social Protection"},"sourceNote":"NULL","sourceOrganization":"The Atlas of Social Protection: Indicators of Resilience and Equity (ASPIRE)","topics":[{"id":"10","value":"Social Protection & Labor"}]},{"id":"per_allsp.cov_q1_urb","name":"Coverage in poorest quintile (%) -All Social Protection and Labor -urban","source":{"id":"29","value":"Global Social Protection"},"sourceNote":"NULL","sourceOrganization":"The Atlas of Social Protection: Indicators of Resilience and Equity (ASPIRE)","topics":[{"id":"10","value":"Social Protection & Labor"}]},{"id":"per_allsp.cov_q1_tot","name":"Coverage in poorest quintile (%) -All Social Protection and Labor ","source":{"id":"29","value":"Global Social Protection"},"sourceNote":"NULL","sourceOrganization":"The Atlas of Social Protection: Indicators of Resilience and Equity (ASPIRE)","topics":[{"id":"10","value":"Social Protection & Labor"}]}]]