[{"page":192,"pages":324,"per_page":"50","total":16174},[{"id":"per_sa_cc.bry_q4_rur","name":"Beneficiary incidence in 4th quintile (%) - Conditional Cash Transfers -rural","source":{"id":"29","value":"Global Social Protection"},"sourceNote":"","sourceOrganization":"The Atlas of Social Protection: Indicators of Resilience and Equity (ASPIRE)","topics":[]},{"id":"per_sa_cc.bry_q4_preT_tot","name":"Beneficiary incidence in 4th quintile (%) - Conditional Cash Transfers (preT)","source":{"id":"29","value":"Global Social Protection"},"sourceNote":"","sourceOrganization":"The Atlas of Social Protection: Indicators of Resilience and Equity (ASPIRE)","topics":[]},{"id":"per_sa_cc.bry_q3_urb","name":"Beneficiary incidence in 3rd quintile (%) - Conditional Cash Transfers -urban","source":{"id":"29","value":"Global Social Protection"},"sourceNote":"","sourceOrganization":"The Atlas of Social Protection: Indicators of Resilience and Equity (ASPIRE)","topics":[]},{"id":"per_sa_cc.bry_q3_tot","name":"Beneficiary incidence in 3rd quintile (%) - Conditional Cash Transfers  ","source":{"id":"29","value":"Global Social Protection"},"sourceNote":"","sourceOrganization":"The Atlas of Social Protection: Indicators of Resilience and Equity (ASPIRE)","topics":[]},{"id":"per_sa_cc.bry_q3_rur","name":"Beneficiary incidence in 3rd quintile (%) - Conditional Cash Transfers -rural","source":{"id":"29","value":"Global Social Protection"},"sourceNote":"","sourceOrganization":"The Atlas of Social Protection: Indicators of Resilience and Equity (ASPIRE)","topics":[]},{"id":"per_sa_cc.bry_q3_preT_tot","name":"Beneficiary incidence in 3rd quintile (%) - Conditional Cash Transfers (preT)","source":{"id":"29","value":"Global Social Protection"},"sourceNote":"","sourceOrganization":"The Atlas of Social Protection: Indicators of Resilience and Equity (ASPIRE)","topics":[]},{"id":"per_sa_cc.bry_q2_urb","name":"Beneficiary incidence in 2nd quintile (%) - Conditional Cash Transfers -urban","source":{"id":"29","value":"Global Social Protection"},"sourceNote":"","sourceOrganization":"The Atlas of Social Protection: Indicators of Resilience and Equity (ASPIRE)","topics":[]},{"id":"per_sa_cc.bry_q2_tot","name":"Beneficiary incidence in 2nd quintile (%) - Conditional Cash Transfers  ","source":{"id":"29","value":"Global Social Protection"},"sourceNote":"","sourceOrganization":"The Atlas of Social Protection: Indicators of Resilience and Equity (ASPIRE)","topics":[]},{"id":"per_sa_cc.bry_q2_rur","name":"Beneficiary incidence in 2nd quintile (%) - Conditional Cash Transfers -rural","source":{"id":"29","value":"Global Social Protection"},"sourceNote":"","sourceOrganization":"The Atlas of Social Protection: Indicators of Resilience and Equity (ASPIRE)","topics":[]},{"id":"per_sa_cc.bry_q2_preT_tot","name":"Beneficiary incidence in 2nd quintile (%) - Conditional Cash Transfers (preT)","source":{"id":"29","value":"Global Social Protection"},"sourceNote":"","sourceOrganization":"The Atlas of Social Protection: Indicators of Resilience and Equity (ASPIRE)","topics":[]},{"id":"per_sa_cc.bry_q1_urb","name":"Beneficiary incidence in poorest quintile (%) - Conditional Cash Transfers -urban","source":{"id":"29","value":"Global Social Protection"},"sourceNote":"","sourceOrganization":"The Atlas of Social Protection: Indicators of Resilience and Equity (ASPIRE)","topics":[]},{"id":"per_sa_cc.bry_q1_tot","name":"Beneficiary incidence in poorest quintile (%) - Conditional Cash Transfers  ","source":{"id":"29","value":"Global Social Protection"},"sourceNote":"","sourceOrganization":"The Atlas of Social Protection: Indicators of Resilience and Equity (ASPIRE)","topics":[]},{"id":"per_sa_cc.bry_q1_rur","name":"Beneficiary incidence in poorest quintile (%) - Conditional Cash Transfers -rural","source":{"id":"29","value":"Global Social Protection"},"sourceNote":"","sourceOrganization":"The Atlas of Social Protection: Indicators of Resilience and Equity (ASPIRE)","topics":[]},{"id":"per_sa_cc.bry_q1_preT_tot","name":"Beneficiary incidence in poorest quintile (%) - Conditional Cash Transfers (preT)","source":{"id":"29","value":"Global Social Protection"},"sourceNote":"","sourceOrganization":"The Atlas of Social Protection: Indicators of Resilience and Equity (ASPIRE)","topics":[]},{"id":"per_sa_cc.bry_ep_tot","name":"Beneficiary incidence in extreme poor (<$1.25 a day) (%) - Conditional Cash Transfers  ","source":{"id":"29","value":"Global Social Protection"},"sourceNote":"","sourceOrganization":"The Atlas of Social Protection: Indicators of Resilience and Equity (ASPIRE)","topics":[]},{"id":"per_sa_cc.bry_ep_preT_tot","name":"Beneficiary incidence in extreme poor (<$1.25 a day) (%) - Conditional Cash Transfers (preT)","source":{"id":"29","value":"Global Social Protection"},"sourceNote":"","sourceOrganization":"The Atlas of Social Protection: Indicators of Resilience and Equity (ASPIRE)","topics":[]},{"id":"per_sa_cc.ben_q5_urb","name":"Benefits incidence in richest quintile (%) - Conditional Cash Transfers -urban","source":{"id":"29","value":"Global Social Protection"},"sourceNote":"","sourceOrganization":"The Atlas of Social Protection: Indicators of Resilience and Equity (ASPIRE)","topics":[]},{"id":"per_sa_cc.ben_q5_tot","name":"Benefits incidence in richest quintile (%) - Conditional Cash Transfers  ","source":{"id":"29","value":"Global Social Protection"},"sourceNote":"","sourceOrganization":"The Atlas of Social Protection: Indicators of Resilience and Equity (ASPIRE)","topics":[]},{"id":"per_sa_cc.ben_q5_rur","name":"Benefits incidence in richest quintile (%) - Conditional Cash Transfers -rural","source":{"id":"29","value":"Global Social Protection"},"sourceNote":"","sourceOrganization":"The Atlas of Social Protection: Indicators of Resilience and Equity (ASPIRE)","topics":[]},{"id":"per_sa_cc.ben_q5_preT_tot","name":"Benefits incidence in richest quintile (%) - Conditional Cash Transfers (preT)","source":{"id":"29","value":"Global Social Protection"},"sourceNote":"","sourceOrganization":"The Atlas of Social Protection: Indicators of Resilience and Equity (ASPIRE)","topics":[]},{"id":"per_sa_cc.ben_q4_urb","name":"Benefits incidence in 4th quintile (%) - Conditional Cash Transfers -urban","source":{"id":"29","value":"Global Social Protection"},"sourceNote":"","sourceOrganization":"The Atlas of Social Protection: Indicators of Resilience and Equity (ASPIRE)","topics":[]},{"id":"per_sa_cc.ben_q4_tot","name":"Benefits incidence in 4th quintile (%) - Conditional Cash Transfers  ","source":{"id":"29","value":"Global Social Protection"},"sourceNote":"","sourceOrganization":"The Atlas of Social Protection: Indicators of Resilience and Equity (ASPIRE)","topics":[]},{"id":"per_sa_cc.ben_q4_rur","name":"Benefits incidence in 4th quintile (%) - Conditional Cash Transfers -rural","source":{"id":"29","value":"Global Social Protection"},"sourceNote":"","sourceOrganization":"The Atlas of Social Protection: Indicators of Resilience and Equity (ASPIRE)","topics":[]},{"id":"per_sa_cc.ben_q4_preT_tot","name":"Benefits incidence in 4th quintile (%) - Conditional Cash Transfers (preT)","source":{"id":"29","value":"Global Social Protection"},"sourceNote":"","sourceOrganization":"The Atlas of Social Protection: Indicators of Resilience and Equity (ASPIRE)","topics":[]},{"id":"per_sa_cc.ben_q3_urb","name":"Benefits incidence in 3rd quintile (%) - Conditional Cash Transfers -urban","source":{"id":"29","value":"Global Social Protection"},"sourceNote":"","sourceOrganization":"The Atlas of Social Protection: Indicators of Resilience and Equity (ASPIRE)","topics":[]},{"id":"per_sa_cc.ben_q3_tot","name":"Benefits incidence in 3rd quintile (%) - Conditional Cash Transfers  ","source":{"id":"29","value":"Global Social Protection"},"sourceNote":"","sourceOrganization":"The Atlas of Social Protection: Indicators of Resilience and Equity (ASPIRE)","topics":[]},{"id":"per_sa_cc.ben_q3_rur","name":"Benefits incidence in 3rd quintile (%) - Conditional Cash Transfers -rural","source":{"id":"29","value":"Global Social Protection"},"sourceNote":"","sourceOrganization":"The Atlas of Social Protection: Indicators of Resilience and Equity (ASPIRE)","topics":[]},{"id":"per_sa_cc.ben_q3_preT_tot","name":"Benefits incidence in 3rd quintile (%) - Conditional Cash Transfers (preT)","source":{"id":"29","value":"Global Social Protection"},"sourceNote":"","sourceOrganization":"The Atlas of Social Protection: Indicators of Resilience and Equity (ASPIRE)","topics":[]},{"id":"per_sa_cc.ben_q2_urb","name":"Benefits incidence in 2nd quintile (%) - Conditional Cash Transfers -urban","source":{"id":"29","value":"Global Social Protection"},"sourceNote":"","sourceOrganization":"The Atlas of Social Protection: Indicators of Resilience and Equity (ASPIRE)","topics":[]},{"id":"per_sa_cc.ben_q2_tot","name":"Benefits incidence in 2nd quintile (%) - Conditional Cash Transfers  ","source":{"id":"29","value":"Global Social Protection"},"sourceNote":"","sourceOrganization":"The Atlas of Social Protection: Indicators of Resilience and Equity (ASPIRE)","topics":[]},{"id":"per_sa_cc.ben_q2_rur","name":"Benefits incidence in 2nd quintile (%) - Conditional Cash Transfers -rural","source":{"id":"29","value":"Global Social Protection"},"sourceNote":"","sourceOrganization":"The Atlas of Social Protection: Indicators of Resilience and Equity (ASPIRE)","topics":[]},{"id":"per_sa_cc.ben_q2_preT_tot","name":"Benefits incidence in 2nd quintile (%) - Conditional Cash Transfers (preT)","source":{"id":"29","value":"Global Social Protection"},"sourceNote":"","sourceOrganization":"The Atlas of Social Protection: Indicators of Resilience and Equity (ASPIRE)","topics":[]},{"id":"per_sa_cc.ben_q1_urb","name":"Benefits incidence in poorest quintile (%) - Conditional Cash Transfers -urban","source":{"id":"29","value":"Global Social Protection"},"sourceNote":"","sourceOrganization":"The Atlas of Social Protection: Indicators of Resilience and Equity (ASPIRE)","topics":[]},{"id":"per_sa_cc.ben_q1_tot","name":"Benefits incidence in poorest quintile (%) - Conditional Cash Transfers  ","source":{"id":"29","value":"Global Social Protection"},"sourceNote":"","sourceOrganization":"The Atlas of Social Protection: Indicators of Resilience and Equity (ASPIRE)","topics":[]},{"id":"per_sa_cc.ben_q1_rur","name":"Benefits incidence in poorest quintile (%) - Conditional Cash Transfers -rural","source":{"id":"29","value":"Global Social Protection"},"sourceNote":"","sourceOrganization":"The Atlas of Social Protection: Indicators of Resilience and Equity (ASPIRE)","topics":[]},{"id":"per_sa_cc.ben_q1_preT_tot","name":"Benefits incidence in poorest quintile (%) - Conditional Cash Transfers (preT)","source":{"id":"29","value":"Global Social Protection"},"sourceNote":"","sourceOrganization":"The Atlas of Social Protection: Indicators of Resilience and Equity (ASPIRE)","topics":[]},{"id":"per_sa_cc.ben_ep_tot","name":"Benefits incidence in extreme poor (<$1.25 a day) (%) - Conditional Cash Transfers  ","source":{"id":"29","value":"Global Social Protection"},"sourceNote":"","sourceOrganization":"The Atlas of Social Protection: Indicators of Resilience and Equity (ASPIRE)","topics":[]},{"id":"per_sa_cc.ben_ep_preT_tot","name":"Benefits incidence in extreme poor (<$1.25 a day) (%) - Conditional Cash Transfers (preT)","source":{"id":"29","value":"Global Social Protection"},"sourceNote":"","sourceOrganization":"The Atlas of Social Protection: Indicators of Resilience and Equity (ASPIRE)","topics":[]},{"id":"per_sa_cc.avt_q5_urb","name":"Average per capita transfer held by richest quintile - Conditional Cash Transfers -urban","source":{"id":"29","value":"Global Social Protection"},"sourceNote":"","sourceOrganization":"The Atlas of Social Protection: Indicators of Resilience and Equity (ASPIRE)","topics":[]},{"id":"per_sa_cc.avt_q5_tot","name":"Average per capita transfer held by richest quintile - Conditional Cash Transfers  ","source":{"id":"29","value":"Global Social Protection"},"sourceNote":"","sourceOrganization":"The Atlas of Social Protection: Indicators of Resilience and Equity (ASPIRE)","topics":[]},{"id":"per_sa_cc.avt_q5_rur","name":"Average per capita transfer held by richest quintile - Conditional Cash Transfers -rural","source":{"id":"29","value":"Global Social Protection"},"sourceNote":"","sourceOrganization":"The Atlas of Social Protection: Indicators of Resilience and Equity (ASPIRE)","topics":[]},{"id":"per_sa_cc.avt_q5_preT_tot","name":"Average per capita transfer held by richest quintile - Conditional Cash Transfers (preT)","source":{"id":"29","value":"Global Social Protection"},"sourceNote":"","sourceOrganization":"The Atlas of Social Protection: Indicators of Resilience and Equity (ASPIRE)","topics":[]},{"id":"per_sa_cc.avt_q4_urb","name":"Average per capita transfer held by 4th quintile - Conditional Cash Transfers -urban","source":{"id":"29","value":"Global Social Protection"},"sourceNote":"","sourceOrganization":"The Atlas of Social Protection: Indicators of Resilience and Equity (ASPIRE)","topics":[]},{"id":"per_sa_cc.avt_q4_tot","name":"Average per capita transfer held by 4th quintile - Conditional Cash Transfers  ","source":{"id":"29","value":"Global Social Protection"},"sourceNote":"","sourceOrganization":"The Atlas of Social Protection: Indicators of Resilience and Equity (ASPIRE)","topics":[]},{"id":"per_sa_cc.avt_q4_rur","name":"Average per capita transfer held by 4th quintile - Conditional Cash Transfers -rural","source":{"id":"29","value":"Global Social Protection"},"sourceNote":"","sourceOrganization":"The Atlas of Social Protection: Indicators of Resilience and Equity (ASPIRE)","topics":[]},{"id":"per_sa_cc.avt_q4_preT_tot","name":"Average per capita transfer held by 4th quintile - Conditional Cash Transfers (preT)","source":{"id":"29","value":"Global Social Protection"},"sourceNote":"","sourceOrganization":"The Atlas of Social Protection: Indicators of Resilience and Equity (ASPIRE)","topics":[]},{"id":"per_sa_cc.avt_q3_urb","name":"Average per capita transfer held by 3rd quintile - Conditional Cash Transfers -urban","source":{"id":"29","value":"Global Social Protection"},"sourceNote":"","sourceOrganization":"The Atlas of Social Protection: Indicators of Resilience and Equity (ASPIRE)","topics":[]},{"id":"per_sa_cc.avt_q3_tot","name":"Average per capita transfer held by 3rd quintile - Conditional Cash Transfers  ","source":{"id":"29","value":"Global Social Protection"},"sourceNote":"","sourceOrganization":"The Atlas of Social Protection: Indicators of Resilience and Equity (ASPIRE)","topics":[]},{"id":"per_sa_cc.avt_q3_rur","name":"Average per capita transfer held by 3rd quintile - Conditional Cash Transfers -rural","source":{"id":"29","value":"Global Social Protection"},"sourceNote":"","sourceOrganization":"The Atlas of Social Protection: Indicators of Resilience and Equity (ASPIRE)","topics":[]},{"id":"per_sa_cc.avt_q3_preT_tot","name":"Average per capita transfer held by 3rd quintile - Conditional Cash Transfers (preT)","source":{"id":"29","value":"Global Social Protection"},"sourceNote":"","sourceOrganization":"The Atlas of Social Protection: Indicators of Resilience and Equity (ASPIRE)","topics":[{}]}]]