[{"page":284,"pages":324,"per_page":"50","total":16174},[{"id":"TRAD.EXPT.MANF.OTHR","name":"Export: Miscellaneous manufactures articles (province Level, in USD)","source":{"id":"45","value":"INDO-DAPOER"},"sourceNote":"","sourceOrganization":"BADAN PUSAT STATISTIK - Statistics Indonesia, Unpublished statistics on Sub-National Trade","topics":[]},{"id":"TRAD.EXPT.MANF","name":"Export: Manufactured goods, classified chiefly by material (province Level, in USD)","source":{"id":"45","value":"INDO-DAPOER"},"sourceNote":"","sourceOrganization":"BADAN PUSAT STATISTIK - Statistics Indonesia, Unpublished statistics on Sub-National Trade","topics":[]},{"id":"TRAD.EXPT.FUEL","name":"Export: Mineral fuels, lubricants and related materials (province Level, in USD)","source":{"id":"45","value":"INDO-DAPOER"},"sourceNote":"","sourceOrganization":"BADAN PUSAT STATISTIK - Statistics Indonesia, Unpublished statistics on Sub-National Trade","topics":[]},{"id":"TRAD.EXPT.FLVSK","name":"Export: Food and Live Animals (province Level, in USD)","source":{"id":"45","value":"INDO-DAPOER"},"sourceNote":"","sourceOrganization":"BADAN PUSAT STATISTIK - Statistics Indonesia, Unpublished statistics on Sub-National Trade","topics":[]},{"id":"TRAD.EXPT.CRUD","name":"Export: Crude materials, inedible, except fuels (province Level, in USD)","source":{"id":"45","value":"INDO-DAPOER"},"sourceNote":"","sourceOrganization":"BADAN PUSAT STATISTIK - Statistics Indonesia, Unpublished statistics on Sub-National Trade","topics":[]},{"id":"TRAD.EXPT.CHEM","name":"Export: Chemical and related products, nes (province Level, in USD)","source":{"id":"45","value":"INDO-DAPOER"},"sourceNote":"","sourceOrganization":"BADAN PUSAT STATISTIK - Statistics Indonesia, Unpublished statistics on Sub-National Trade","topics":[]},{"id":"TRAD.EXPT.BVTO","name":"Export: Beverages and tobacco (province Level, in USD)","source":{"id":"45","value":"INDO-DAPOER"},"sourceNote":"","sourceOrganization":"BADAN PUSAT STATISTIK - Statistics Indonesia, Unpublished statistics on Sub-National Trade","topics":[]},{"id":"TOTRESV","name":"Total Reserves","source":{"id":"15","value":"Global Economic Monitor"},"sourceNote":"Total reserves comprise holdings of monetary gold, special drawing rights, reserves of IMF members held by the IMF, and holdings of foreign exchange under the control of monetary authorities. ","sourceOrganization":"World Bank staff calculations based on Datastream data.","topics":[]},{"id":"TOBAC_US","name":"Tobacco, $\/mt, current$","source":{"id":"21","value":"Global Economic Monitor (GEM) Commodities"},"sourceNote":"Tobacco (any origin), unmanufactured, general import , cif, US","sourceOrganization":"US Department of Agriculture, World Bank.","topics":[]},{"id":"TM.VAL.TRVL.ZS.WT","name":"Travel services (% of commercial service imports)","source":{"id":"2","value":"World Development Indicators"},"sourceNote":"Travel services (% of commercial service imports) covers goods and services acquired from an economy by travelers in that economy for their own use during visits of less than one year for business or personal purposes. Travel services include the goods and services consumed by travelers, such as lodging, meals, and transport (within the economy visited).","sourceOrganization":"International Monetary Fund, Balance of Payments Statistics Yearbook and data files.","topics":[{"id":"12","value":"Private Sector"},{"id":"21","value":"Trade"}]},{"id":"TM.VAL.TRAN.ZS.WT","name":"Transport services (% of commercial service imports)","source":{"id":"2","value":"World Development Indicators"},"sourceNote":"Transport services (% of commercial service imports) covers all transport services (sea, air, land, internal waterway, space, and pipeline) performed by residents of one economy for those of another and involving the carriage of passengers, movement of goods (freight), rental of carriers with crew, and related support and auxiliary services. Excluded are freight insurance, which is included in insurance services; goods procured in ports by nonresident carriers and repairs of transport equipment, which are included in goods; repairs of railway facilities, harbors, and airfield facilities, which are included in construction services; and rental of carriers without crew, which is included in other services.","sourceOrganization":"International Monetary Fund, Balance of Payments Statistics Yearbook and data files.","topics":[{"id":"12","value":"Private Sector"},{"id":"21","value":"Trade"}]},{"id":"TM.VAL.SERV.CD.WT","name":"Commercial service imports (current US$)","source":{"id":"2","value":"World Development Indicators"},"sourceNote":"Commercial service imports are total service imports minus imports of government services not included elsewhere. International transactions in services are defined by the IMF's Balance of Payments Manual (1993) as the economic output of intangible commodities that may be produced, transferred, and consumed at the same time. Definitions may vary among reporting economies.","sourceOrganization":"International Monetary Fund, Balance of Payments Statistics Yearbook and data files.","topics":[{"id":"12","value":"Private Sector"},{"id":"21","value":"Trade"}]},{"id":"TM.VAL.RAWT.KD.WB","name":"Intermediate goods imports, total (constant US$)","source":{"id":"11","value":"Africa Development Indicators"},"sourceNote":"Intermediate goods imports, cif (includes freight and insurance costs) in 1987 constant US dollars. ","sourceOrganization":"World Bank country economists.","topics":[]},{"id":"TM.VAL.RAWT.CD.WB","name":"Intermediate goods imports, total (current US$)","source":{"id":"11","value":"Africa Development Indicators"},"sourceNote":"Intermediate goods imports, cif (includes freight and insurance costs) current US dollars. ","sourceOrganization":"World Bank country economists.","topics":[]},{"id":"TM.VAL.RAWP.KD.WB","name":"Intermediate goods imports, primary (constant US$)","source":{"id":"11","value":"Africa Development Indicators"},"sourceNote":"Primary goods imports, cif (includes freight and insurance costs) in 1987 constant US dollars. ","sourceOrganization":"World Bank country economists.","topics":[]},{"id":"TM.VAL.RAWP.CD.WB","name":"Intermediate goods imports, primary (current US$)","source":{"id":"11","value":"Africa Development Indicators"},"sourceNote":"Primary goods imports, cif (includes freight and insurance costs) in current US dollars. ","sourceOrganization":"World Bank country economists.","topics":[]},{"id":"TM.VAL.RAWM.KD.WB","name":"Intermediate goods imports, manufactures (constant US$)","source":{"id":"11","value":"Africa Development Indicators"},"sourceNote":"Imports of manufactures (SITC 5 through 9 excluding 68) in 1987 constant US dollars. ","sourceOrganization":"World Bank country economists.","topics":[]},{"id":"TM.VAL.RAWM.CD.WB","name":"Intermediate goods imports, manufactures (current US$)","source":{"id":"11","value":"Africa Development Indicators"},"sourceNote":"Imports of manufactures (SITC 5 through 9 excluding 68) in current US dollars. Values are on c.i.f. basis. ","sourceOrganization":"World Bank country economists.","topics":[]},{"id":"TM.VAL.OTHR.ZS.WT","name":"Computer, communications and other services (% of commercial service imports)","source":{"id":"2","value":"World Development Indicators"},"sourceNote":"Computer, communications and other services (% of commercial service imports) include such activities as international telecommunications, and postal and courier services; computer data; news-related service transactions between residents and nonresidents; construction services; royalties and license fees; miscellaneous business, professional, and technical services; and personal, cultural, and recreational services.","sourceOrganization":"International Monetary Fund, Balance of Payments Statistics Yearbook and data files.","topics":[{"id":"12","value":"Private Sector"},{"id":"21","value":"Trade"}]},{"id":"TM.VAL.NFCG.KD.WB","name":"Other consumer goods imports (constant US$)","source":{"id":"11","value":"Africa Development Indicators"},"sourceNote":"Consumer goods imports, cif (includes freight and insurance costs) in 1987 constant US dollars. ","sourceOrganization":"World Bank country economists.","topics":[]},{"id":"TM.VAL.NFCG.CD.WB","name":"Other consumer goods imports (current US$)","source":{"id":"11","value":"Africa Development Indicators"},"sourceNote":"Consumer goods imports, cif (includes freight and insurance costs) in current dollars. ","sourceOrganization":"World Bank country economists.","topics":[]},{"id":"TM.VAL.MRCH.XD.WD","name":"Import value index (2000 = 100)","source":{"id":"2","value":"World Development Indicators"},"sourceNote":"Import value indexes are the current value of imports (c.i.f.) converted to U.S. dollars and expressed as a percentage of the average for the base period (2000). UNCTAD's import value indexes are reported for most economies. For selected economies for which UNCTAD does not publish data, the import value indexes are derived from import volume indexes (line 73) and corresponding unit value indexes of imports (line 75) in the IMF's International Financial Statistics.","sourceOrganization":"United Nations Conference on Trade and Development, Handbook of Statistics and data files, and International Monetary Fund, International Financial Statistics.","topics":[{"id":"12","value":"Private Sector"},{"id":"21","value":"Trade"}]},{"id":"TM.VAL.MRCH.WR.ZS","name":"Merchandise imports from low- and middle-income economies within region (% of total merchandise imports)","source":{"id":"2","value":"World Development Indicators"},"sourceNote":"Merchandise imports from low- and middle-income economies within region are the sum of merchandise imports by the reporting economy from other low- and middle-income economies in the same World Bank region according to the World Bank classification of economies. Data are as a percentage of total merchandise imports by the economy. Data are computed only if at least half of the economies in the partner country group had non-missing data. No figures are shown for high-income economies, because they are a separate category in the World Bank classification of economies.","sourceOrganization":"World Bank staff estimates based data from International Monetary Fund's Direction of Trade database.","topics":[{"id":"12","value":"Private Sector"},{"id":"21","value":"Trade"}]},{"id":"TM.VAL.MRCH.WL.CD","name":"Merchandise imports by the reporting economy (current US$)","source":{"id":"2","value":"World Development Indicators"},"sourceNote":"Merchandise imports by the reporting economy are the total merchandise imports by the reporting economy from the rest of the world, as reported in the IMF's Direction of trade database. Data are in current U.S. dollars.","sourceOrganization":"World Bank staff estimates based data from International Monetary Fund's Direction of Trade database.","topics":[{"id":"12","value":"Private Sector"},{"id":"21","value":"Trade"}]},{"id":"TM.VAL.MRCH.RS.ZS","name":"Merchandise imports by the reporting economy, residual (% of total merchandise imports)","source":{"id":"2","value":"World Development Indicators"},"sourceNote":"Merchandise imports by the reporting economy residuals are the total merchandise imports by the reporting economy from the rest of the world as reported in the IMF's Direction of trade database, less the sum of imports by the reporting economy from high-, low-, and middle-income economies according to the World Bank classification of economies. Includes trade with unspecified partners or with economies not covered by World Bank classification. Data are as a percentage of total merchandise imports by the economy.","sourceOrganization":"World Bank staff estimates based data from International Monetary Fund's Direction of Trade database.","topics":[{"id":"12","value":"Private Sector"},{"id":"21","value":"Trade"}]},{"id":"TM.VAL.MRCH.R6.ZS","name":"Merchandise imports from low- and middle-income economies in Sub-Saharan Africa (% of total merchandise imports)","source":{"id":"2","value":"World Development Indicators"},"sourceNote":"Merchandise imports from low- and middle-income economies in Sub-Saharan Africa are the sum of merchandise imports by the reporting economy from low- and middle-income economies in the Sub-Saharan Africa region according to the World Bank classification of economies. Data are expressed as a percentage of total merchandise imports by the economy. Data are computed only if at least half of the economies in the partner country group had non-missing data.","sourceOrganization":"World Bank staff estimates based data from International Monetary Fund's Direction of Trade database.","topics":[{"id":"12","value":"Private Sector"},{"id":"21","value":"Trade"}]},{"id":"TM.VAL.MRCH.R5.ZS","name":"Merchandise imports from low- and middle-income economies in South Asia (% of total merchandise imports)","source":{"id":"2","value":"World Development Indicators"},"sourceNote":"Merchandise imports from low- and middle-income economies in South Asia are the sum of merchandise imports by the reporting economy from low- and middle-income economies in the South Asia region according to the World Bank classification of economies. Data are expressed as a percentage of total merchandise imports by the economy. Data are computed only if at least half of the economies in the partner country group had non-missing data.","sourceOrganization":"World Bank staff estimates based data from International Monetary Fund's Direction of Trade database.","topics":[{"id":"12","value":"Private Sector"},{"id":"21","value":"Trade"}]},{"id":"TM.VAL.MRCH.R4.ZS","name":"Merchandise imports from low- and middle-income economies in Middle East & North Africa (% of total merchandise imports)","source":{"id":"2","value":"World Development Indicators"},"sourceNote":"Merchandise imports from low- and middle-income economies in Middle East and North Africa are the sum of merchandise imports by the reporting economy from low- and middle-income economies in the Middle East and North Africa region according to the World Bank classification of economies. Data are expressed as a percentage of total merchandise imports by the economy. Data are computed only if at least half of the economies in the partner country group had non-missing data.","sourceOrganization":"World Bank staff estimates based data from International Monetary Fund's Direction of Trade database.","topics":[{"id":"12","value":"Private Sector"},{"id":"21","value":"Trade"}]},{"id":"TM.VAL.MRCH.R3.ZS","name":"Merchandise imports from low- and middle-income economies in Latin America & the Caribbean (% of total merchandise imports)","source":{"id":"2","value":"World Development Indicators"},"sourceNote":"Merchandise imports from low- and middle-income economies in Latin America and the Caribbean are the sum of merchandise imports by the reporting economy from low- and middle-income economies in the Latin America and the Caribbean region according to the World Bank classification of economies. Data are expressed as a percentage of total merchandise imports by the economy. Data are computed only if at least half of the economies in the partner country group had non-missing data.","sourceOrganization":"World Bank staff estimates based data from International Monetary Fund's Direction of Trade database.","topics":[{"id":"12","value":"Private Sector"},{"id":"21","value":"Trade"}]},{"id":"TM.VAL.MRCH.R2.ZS","name":"Merchandise imports from low- and middle-income economies in Europe & Central Asia (% of total merchandise imports)","source":{"id":"2","value":"World Development Indicators"},"sourceNote":"Merchandise imports from low- and middle-income economies in Europe and Central Asia are the sum of merchandise imports by the reporting economy from low- and middle-income economies in the Europe and Central Asia region according to the World Bank classification of economies. Data are expressed as a percentage of total merchandise imports by the economy. Data are computed only if at least half of the economies in the partner country group had non-missing data.","sourceOrganization":"World Bank staff estimates based data from International Monetary Fund's Direction of Trade database.","topics":[{"id":"12","value":"Private Sector"},{"id":"21","value":"Trade"}]},{"id":"TM.VAL.MRCH.R1.ZS","name":"Merchandise imports from low- and middle-income economies in East Asia & Pacific (% of total merchandise imports)","source":{"id":"2","value":"World Development Indicators"},"sourceNote":"Merchandise imports from low- and middle-income economies in East Asia and Pacific are the sum of merchandise imports by the reporting economy from low- and middle-income economies in the East Asia and Pacific region according to the World Bank classification of economies. Data are expressed as a percentage of total merchandise imports by the economy. Data are computed only if at least half of the economies in the partner country group had non-missing data.","sourceOrganization":"World Bank staff estimates based data from International Monetary Fund's Direction of Trade database.","topics":[{"id":"12","value":"Private Sector"},{"id":"21","value":"Trade"}]},{"id":"TM.VAL.MRCH.OR.ZS","name":"Merchandise imports from low- and middle-income economies outside region (% of total merchandise imports)","source":{"id":"2","value":"World Development Indicators"},"sourceNote":"Merchandise imports from low- and middle-income economies outside region are the sum of merchandise imports by the reporting economy from other low- and middle-income economies in other World Bank regions according to the World Bank classification of economies. Data are expressed as a percentage of total merchandise imports by the economy. Data are computed only if at least half of the economies in the partner country group had non-missing data.","sourceOrganization":"World Bank staff estimates based data from International Monetary Fund's Direction of Trade database.","topics":[{"id":"12","value":"Private Sector"},{"id":"21","value":"Trade"}]},{"id":"TM.VAL.MRCH.KD.WB","name":"Merchandise imports (constant US$)","source":{"id":"11","value":"Africa Development Indicators"},"sourceNote":"Total merchandise imports, cif (includes freight and insurance costs) in 1987 constant US dollars. ","sourceOrganization":"World Bank country economists. ","topics":[]},{"id":"TM.VAL.MRCH.HI.ZS","name":"Merchandise imports from high-income economies (% of total merchandise imports)","source":{"id":"2","value":"World Development Indicators"},"sourceNote":"Merchandise imports from high-income economies are the sum of merchandise imports by the reporting economy from high-income economies according to the World Bank classification of economies. Data are expressed as a percentage of total merchandise imports by the economy. Data are computed only if at least half of the economies in the partner country group had non-missing data.","sourceOrganization":"World Bank staff estimates based data from International Monetary Fund's Direction of Trade database.","topics":[{"id":"12","value":"Private Sector"},{"id":"21","value":"Trade"}]},{"id":"TM.VAL.MRCH.CD.WT","name":"Merchandise imports (current US$)","source":{"id":"2","value":"World Development Indicators"},"sourceNote":"Merchandise imports show the c.i.f. value of goods received from the rest of the world valued in current U.S. dollars.","sourceOrganization":"World Trade Organization.","topics":[{"id":"12","value":"Private Sector"},{"id":"21","value":"Trade"}]},{"id":"TM.VAL.MRCH.CD.WB","name":"Merchandise imports, WB (current US$)","source":{"id":"11","value":"Africa Development Indicators"},"sourceNote":"Total merchandise imports, cif (includes freight and insurance costs) in current US dollars. ","sourceOrganization":"World Bank country economists.","topics":[]},{"id":"TM.VAL.MRCH.AL.ZS","name":"Merchandise imports from economies in the Arab World (% of total merchandise imports)","source":{"id":"2","value":"World Development Indicators"},"sourceNote":"Merchandise imports from economies in the Arab World are the sum of merchandise imports by the reporting economy from economies in the Arab World. Data are expressed as a percentage of total merchandise imports by the economy. Data are computed only if at least half of the economies in the partner country group had non-missing data.","sourceOrganization":"World Bank staff estimates based data from International Monetary Fund's Direction of Trade database.","topics":[{"id":"12","value":"Private Sector"},{"id":"21","value":"Trade"}]},{"id":"TM.VAL.MMTL.ZS.UN","name":"Ores and metals imports (% of merchandise imports)","source":{"id":"2","value":"World Development Indicators"},"sourceNote":"Ores and metals comprise commodities in SITC sections 27 (crude fertilizer, minerals nes); 28 (metalliferous ores, scrap); and 68 (non-ferrous metals).","sourceOrganization":"World Bank staff estimates through the WITS platform from the Comtrade database maintained by the United Nations Statistics Division.","topics":[{"id":"5","value":"Energy & Mining "},{"id":"12","value":"Private Sector"},{"id":"21","value":"Trade"}]},{"id":"TM.VAL.MANF.ZS.UN","name":"Manufactures imports (% of merchandise imports)","source":{"id":"2","value":"World Development Indicators"},"sourceNote":"Manufactures comprise the commodities in SITC sections 5 (chemicals), 6 (basic manufactures), 7 (machinery and transport equipment), and 8 (miscellaneous manufactured goods), excluding division 68 (nonferrous metals).","sourceOrganization":"World Bank staff estimates through the WITS platform from the Comtrade database maintained by the United Nations Statistics Division.","topics":[{"id":"12","value":"Private Sector"},{"id":"21","value":"Trade"}]},{"id":"TM.VAL.KGDS.KD.WB","name":"Capital goods imports (constant US$)","source":{"id":"11","value":"Africa Development Indicators"},"sourceNote":"Imports of capital goods, cif (includes freight and insurance costs) in 1987 constant US dollars. ","sourceOrganization":"World Bank country economists.","topics":[]},{"id":"TM.VAL.KGDS.CD.WB","name":"Capital goods imports (current US$)","source":{"id":"11","value":"Africa Development Indicators"},"sourceNote":"Imports of capital goods in current US dollars. Values are on cif (includes freight and insurance costs). ","sourceOrganization":"World Bank country economists.","topics":[]},{"id":"TM.VAL.INSF.ZS.WT","name":"Insurance and financial services (% of commercial service imports)","source":{"id":"2","value":"World Development Indicators"},"sourceNote":"Insurance and financial services cover freight insurance on goods imported and other direct insurance such as life insurance; financial intermediation services such as commissions, foreign exchange transactions, and brokerage services; and auxiliary services such as financial market operational and regulatory services.","sourceOrganization":"International Monetary Fund, Balance of Payments Statistics Yearbook and data files.","topics":[{"id":"12","value":"Private Sector"},{"id":"21","value":"Trade"}]},{"id":"TM.VAL.ICTG.ZS.UN","name":"ICT goods imports (% total goods imports)","source":{"id":"2","value":"World Development Indicators"},"sourceNote":"Information and communication technology goods imports include computers and peripheral equipment, communication equipment, consumer electronic equipment, electronic components, and other information and technology goods (miscellaneous).","sourceOrganization":"United Nations Conference on Trade and Development's UNCTADstat database at http:\/\/unctadstat.unctad.org\/ReportFolders\/reportFolders.aspx.","topics":[{"id":"9","value":"Infrastructure "},{"id":"12","value":"Private Sector"},{"id":"21","value":"Trade"}]},{"id":"TM.VAL.FUEL.ZS.UN","name":"Fuel imports (% of merchandise imports)","source":{"id":"2","value":"World Development Indicators"},"sourceNote":"Fuels comprise the commodities in SITC section 3 (mineral fuels, lubricants and related materials).","sourceOrganization":"World Bank staff estimates through the WITS platform from the Comtrade database maintained by the United Nations Statistics Division.","topics":[{"id":"5","value":"Energy & Mining "},{"id":"12","value":"Private Sector"},{"id":"21","value":"Trade"}]},{"id":"TM.VAL.FOOD.ZS.UN","name":"Food imports (% of merchandise imports)","source":{"id":"2","value":"World Development Indicators"},"sourceNote":"Food comprises the commodities in SITC sections 0 (food and live animals), 1 (beverages and tobacco), and 4 (animal and vegetable oils and fats) and SITC division 22 (oil seeds, oil nuts, and oil kernels).","sourceOrganization":"World Bank staff estimates through the WITS platform from the Comtrade database maintained by the United Nations Statistics Division.","topics":[{"id":"12","value":"Private Sector"},{"id":"21","value":"Trade"}]},{"id":"TM.VAL.FOOD.KD.WB","name":"Food imports (constant US$)","source":{"id":"11","value":"Africa Development Indicators"},"sourceNote":"Food imports, cif (includes freight and insurance costs) in 1987 constant US dollars. ","sourceOrganization":"World Bank country economists.","topics":[]},{"id":"TM.VAL.FOOD.CD.WB","name":"Food imports (current US$)","source":{"id":"11","value":"Africa Development Indicators"},"sourceNote":"Food imports, cif (includes freight and insurance costs) in current US dollars.  ","sourceOrganization":"World Bank country economists.","topics":[]},{"id":"TM.VAL.ENGY.KD.WB","name":"POL and other energy imports (constant US$)","source":{"id":"11","value":"Africa Development Indicators"},"sourceNote":"Petroleum and energy products imports, cif (includes freight and insurance costs) in 1987 constant US dollars. ","sourceOrganization":"\"World Bank country economists.\u000d\"","topics":[]},{"id":"TM.VAL.ENGY.CD.WB","name":"POL and other energy imports (current US$)","source":{"id":"11","value":"Africa Development Indicators"},"sourceNote":"Petroleum and energy products imports in current US dollars. Values are on cif (includes freight and insurance costs). ","sourceOrganization":"World Bank country economists.","topics":[]},{"id":"TM.VAL.AGRI.ZS.UN","name":"Agricultural raw materials imports (% of merchandise imports)","source":{"id":"2","value":"World Development Indicators"},"sourceNote":"Agricultural raw materials comprise SITC section 2 (crude materials except fuels) excluding divisions 22, 27 (crude fertilizers and minerals excluding coal, petroleum, and precious stones), and 28 (metalliferous ores and scrap).","sourceOrganization":"World Bank staff estimates through the WITS platform from the Comtrade database maintained by the United Nations Statistics Division.","topics":[{"id":"1","value":"Agriculture & Rural Development  "},{"id":"12","value":"Private Sector"},{"id":"21","value":"Trade"}]}]]