[{"page":120,"pages":324,"per_page":"50","total":16174},[{"id":"IC.FRM.OWN.PFOR.ZS","name":"Enterprise ownership - Private Foreign (%)","source":{"id":"11","value":"Africa Development Indicators"},"sourceNote":"Percentage of foreign ownership in private firms.  The ownership variables represent the average ownership composition within a firm. These variables do not represent the ownership composition across firms.  ","sourceOrganization":"World Bank, Enterprise Surveys (http:\/\/www.enterprisesurveys.org\/).","topics":[]},{"id":"IC.FRM.OWN.GOV.ZS","name":"Enterprise ownership - Government\/state (%)","source":{"id":"11","value":"Africa Development Indicators"},"sourceNote":"Percentage of government or state ownership in private firms.  The ownership variables represent the average ownership composition within a firm. These variables do not represent the ownership composition across firms. ","sourceOrganization":"World Bank, Enterprise Surveys (http:\/\/www.enterprisesurveys.org\/).","topics":[]},{"id":"IC.FRM.OUTG.ZS","name":"Value lost due to electrical outages (% of sales)","source":{"id":"2","value":"World Development Indicators"},"sourceNote":"Value lost due to electrical outages is the percentage of sales lost due to power outages.","sourceOrganization":"World Bank, Enterprise Surveys (http:\/\/www.enterprisesurveys.org\/).","topics":[{"id":"5","value":"Energy & Mining "},{"id":"12","value":"Private Sector"}]},{"id":"IC.FRM.OBS.OBST9","name":"Percent of firms choosing inadequately educated workforce as their biggest obstacle","source":{"id":"13","value":"Enterprise Surveys"},"sourceNote":"Percent of firms that chose inadequately educated workforce as the biggest obstacle faced by this establishment.  (Survey respondents were presented with a list of 15 potential obstacles.)   Source:World Bank, Enterprise Surveys Project(http:\/\/www.enterprisesurveys.org\/CustomQuery).","sourceOrganization":"World Bank, Enterprise Surveys Project(http:\/\/www.enterprisesurveys.org\/CustomQuery).","topics":[]},{"id":"IC.FRM.OBS.OBST8","name":"Percent of firms choosing electricity as their biggest obstacle","source":{"id":"13","value":"Enterprise Surveys"},"sourceNote":"Percent of firms that chose electricity as the biggest obstacle faced by this establishment.  (Survey respondents were presented with a list of 15 potential obstacles.)   Source:World Bank, Enterprise Surveys Project(http:\/\/www.enterprisesurveys.org\/CustomQuery).","sourceOrganization":"World Bank, Enterprise Surveys Project(http:\/\/www.enterprisesurveys.org\/CustomQuery).","topics":[]},{"id":"IC.FRM.OBS.OBST7","name":"Percent of firms choosing customs and trade regulations as their biggest obstacle","source":{"id":"13","value":"Enterprise Surveys"},"sourceNote":"Percent of firms that chose customs and trade regulations as the biggest obstacle faced by this establishment.  (Survey respondents were presented with a list of 15 potential obstacles.)   Source:World Bank, Enterprise Surveys Project(http:\/\/www.enterprisesurveys.org\/CustomQuery).","sourceOrganization":"World Bank, Enterprise Surveys Project(http:\/\/www.enterprisesurveys.org\/CustomQuery).","topics":[]},{"id":"IC.FRM.OBS.OBST6","name":"Percent of firms choosing crime, theft and disorder as their biggest obstacle","source":{"id":"13","value":"Enterprise Surveys"},"sourceNote":"Percent of firms that chose crime, theft and disorder as the biggest obstacle faced by this establishment.  (Survey respondents were presented with a list of 15 potential obstacles.)   Source:World Bank, Enterprise Surveys Project(http:\/\/www.enterprisesurveys.org\/CustomQuery).","sourceOrganization":"World Bank, Enterprise Surveys Project(http:\/\/www.enterprisesurveys.org\/CustomQuery).","topics":[]},{"id":"IC.FRM.OBS.OBST5","name":"Percent of firms choosing courts as their biggest obstacle","source":{"id":"13","value":"Enterprise Surveys"},"sourceNote":"Percent of firms that chose courts as the biggest obstacle faced by this establishment.  (Survey respondents were presented with a list of 15 potential obstacles.)   Source:World Bank, Enterprise Surveys Project(http:\/\/www.enterprisesurveys.org\/CustomQuery).","sourceOrganization":"World Bank, Enterprise Surveys Project(http:\/\/www.enterprisesurveys.org\/CustomQuery).","topics":[]},{"id":"IC.FRM.OBS.OBST4","name":"Percent of firms choosing corruption as their biggest obstacle","source":{"id":"13","value":"Enterprise Surveys"},"sourceNote":"Percent of firms that chose corruption as the biggest obstacle faced by this establishment.  (Survey respondents were presented with a list of 15 potential obstacles.)   Source:World Bank, Enterprise Surveys Project(http:\/\/www.enterprisesurveys.org\/CustomQuery).","sourceOrganization":"World Bank, Enterprise Surveys Project(http:\/\/www.enterprisesurveys.org\/CustomQuery).","topics":[]},{"id":"IC.FRM.OBS.OBST3","name":"Percent of firms choosing business licensing and permits as their biggest obstacle","source":{"id":"13","value":"Enterprise Surveys"},"sourceNote":"Percent of firms that chose business licensing and permits as the biggest obstacle faced by this establishment.  (Survey respondents were presented with a list of 15 potential obstacles.)   Source:World Bank, Enterprise Surveys Project(http:\/\/www.enterprisesurveys.org\/CustomQuery).","sourceOrganization":"World Bank, Enterprise Surveys Project(http:\/\/www.enterprisesurveys.org\/CustomQuery).","topics":[]},{"id":"IC.FRM.OBS.OBST2","name":"Percent of firms choosing access to land as their biggest obstacle","source":{"id":"13","value":"Enterprise Surveys"},"sourceNote":"Percent of firms that chose access to land as the biggest obstacle faced by this establishment.  (Survey respondents were presented with a list of 15 potential obstacles.)   Source:World Bank, Enterprise Surveys Project(http:\/\/www.enterprisesurveys.org\/CustomQuery).","sourceOrganization":"World Bank, Enterprise Surveys Project(http:\/\/www.enterprisesurveys.org\/CustomQuery).","topics":[]},{"id":"IC.FRM.OBS.OBST15","name":"Percent of firms choosing transportation as their biggest obstacle","source":{"id":"13","value":"Enterprise Surveys"},"sourceNote":"Percent of firms that chose transportation as the biggest obstacle faced by this establishment.  (Survey respondents were presented with a list of 15 potential obstacles.)   Source:World Bank, Enterprise Surveys Project(http:\/\/www.enterprisesurveys.org\/CustomQuery).","sourceOrganization":"World Bank, Enterprise Surveys Project(http:\/\/www.enterprisesurveys.org\/CustomQuery).","topics":[]},{"id":"IC.FRM.OBS.OBST14","name":"Percent of firms choosing tax rates as their biggest obstacle","source":{"id":"13","value":"Enterprise Surveys"},"sourceNote":"Percent of firms that chose tax rates as the biggest obstacle faced by this establishment.  (Survey respondents were presented with a list of 15 potential obstacles.)   Source:World Bank, Enterprise Surveys Project(http:\/\/www.enterprisesurveys.org\/CustomQuery).","sourceOrganization":"World Bank, Enterprise Surveys Project(http:\/\/www.enterprisesurveys.org\/CustomQuery).","topics":[]},{"id":"IC.FRM.OBS.OBST13","name":"Percent of firms choosing tax administration as their biggest obstacle","source":{"id":"13","value":"Enterprise Surveys"},"sourceNote":"Percent of firms that chose tax administration as the biggest obstacle faced by this establishment.  (Survey respondents were presented with a list of 15 potential obstacles.)   Source:World Bank, Enterprise Surveys Project(http:\/\/www.enterprisesurveys.org\/CustomQuery).","sourceOrganization":"World Bank, Enterprise Surveys Project(http:\/\/www.enterprisesurveys.org\/CustomQuery).","topics":[]},{"id":"IC.FRM.OBS.OBST12","name":"Percent of firms choosing practices of the informal sector as their biggest obstacle","source":{"id":"13","value":"Enterprise Surveys"},"sourceNote":"Percent of firms that chose practices of the informal sector as the biggest obstacle faced by this establishment.  (Survey respondents were presented with a list of 15 potential obstacles.)   Source:World Bank, Enterprise Surveys Project(http:\/\/www.enterprisesurveys.org\/CustomQuery).","sourceOrganization":"World Bank, Enterprise Surveys Project(http:\/\/www.enterprisesurveys.org\/CustomQuery).","topics":[]},{"id":"IC.FRM.OBS.OBST11","name":"Percent of firms choosing political instability as their biggest obstacle","source":{"id":"13","value":"Enterprise Surveys"},"sourceNote":"Percent of firms that chose political instability as the biggest obstacle faced by this establishment.  (Survey respondents were presented with a list of 15 potential obstacles.)   Source:World Bank, Enterprise Surveys Project(http:\/\/www.enterprisesurveys.org\/CustomQuery).","sourceOrganization":"World Bank, Enterprise Surveys Project(http:\/\/www.enterprisesurveys.org\/CustomQuery).","topics":[]},{"id":"IC.FRM.OBS.OBST10","name":"Percent of firms choosing labor regulations as their biggest obstacle","source":{"id":"13","value":"Enterprise Surveys"},"sourceNote":"Percent of firms that chose labor regulations as the biggest obstacle faced by this establishment.  (Survey respondents were presented with a list of 15 potential obstacles.)   Source:World Bank, Enterprise Surveys Project(http:\/\/www.enterprisesurveys.org\/CustomQuery).","sourceOrganization":"World Bank, Enterprise Surveys Project(http:\/\/www.enterprisesurveys.org\/CustomQuery).","topics":[]},{"id":"IC.FRM.OBS.OBST1","name":"Percent of firms choosing access to finance as their biggest obstacle","source":{"id":"13","value":"Enterprise Surveys"},"sourceNote":"Percent of firms that chose access to finance as the biggest obstacle faced by this establishment.  (Survey respondents were presented with a list of 15 potential obstacles.)   Source:World Bank, Enterprise Surveys Project(http:\/\/www.enterprisesurveys.org\/CustomQuery).","sourceOrganization":"World Bank, Enterprise Surveys Project(http:\/\/www.enterprisesurveys.org\/CustomQuery).","topics":[]},{"id":"IC.FRM.MGR.EXP","name":"Years of experience of the Top Manager working in the firm's sector","source":{"id":"11","value":"Africa Development Indicators"},"sourceNote":"Years of experience of the top manager working in the firm's sector.","sourceOrganization":"World Bank, Enterprise Surveys (http:\/\/www.enterprisesurveys.org\/).","topics":[]},{"id":"IC.FRM.LIC.ZS","name":"Business Licensing and Permits (% of firms Identifying this as major constraint)","source":{"id":"11","value":"Africa Development Indicators"},"sourceNote":"Percentage of firms identifying business licensing and permits as major constraint. The computation of the indicator is based on the rating of the obstacle as a potential constraint to the current operations of the establishment.  ","sourceOrganization":"World Bank, Enterprise Surveys (http:\/\/www.enterprisesurveys.org\/).","topics":[]},{"id":"IC.FRM.LBSK.ZS","name":"Labor skill level (% of firms identifying this as a major constraint)","source":{"id":"11","value":"Africa Development Indicators"},"sourceNote":"Percentage of firms identifying labor skills as a major constraint. The computation of the indicator is based on the rating of the obstacle as a potential constraint to the current operations of the establishment.  ","sourceOrganization":"World Bank, Enterprise Surveys (http:\/\/www.enterprisesurveys.org\/).","topics":[]},{"id":"IC.FRM.LBRG.ZS","name":"Labor regulations (% of firms identifying this as a major constraint)","source":{"id":"11","value":"Africa Development Indicators"},"sourceNote":"Percentage of firms identifying labor regulations as a major constraint. The computation of the indicator is based on the rating of the obstacle as a potential constraint to the current operations of the establishment.  ","sourceOrganization":"World Bank, Enterprise Surveys (http:\/\/www.enterprisesurveys.org\/).","topics":[]},{"id":"IC.FRM.ISOC.ZS","name":"Internationally-recognized quality certification (% of firms)","source":{"id":"2","value":"World Development Indicators"},"sourceNote":"Internationally-recognized quality certification is the percentage of firms having an internationally-recognized quality certification, i.e., International Organization for Standardization (ISO) 9000, 9002 or 14000.","sourceOrganization":"World Bank, Enterprise Surveys (http:\/\/www.enterprisesurveys.org\/).","topics":[{"id":"12","value":"Private Sector"}]},{"id":"IC.FRM.INNOV.T6","name":"Percent of firms using e-mail to interact with clients\/suppliers","source":{"id":"13","value":"Enterprise Surveys"},"sourceNote":"Percent of firms using e-mail to interact with clients\/suppliers.   Source:World Bank, Enterprise Surveys Project(http:\/\/www.enterprisesurveys.org\/Data\/ExploreTopics\/innovation-and-technology).","sourceOrganization":"World Bank, Enterprise Surveys Project(http:\/\/www.enterprisesurveys.org\/Data\/ExploreTopics\/innovation-and-technology).","topics":[]},{"id":"IC.FRM.INNOV.T5","name":"Percent of firms having their own Web site","source":{"id":"13","value":"Enterprise Surveys"},"sourceNote":"Percent of firms having their own Web site.   Source:World Bank, Enterprise Surveys Project(http:\/\/www.enterprisesurveys.org\/Data\/ExploreTopics\/innovation-and-technology).","sourceOrganization":"World Bank, Enterprise Surveys Project(http:\/\/www.enterprisesurveys.org\/Data\/ExploreTopics\/innovation-and-technology).","topics":[]},{"id":"IC.FRM.INNOV.T4","name":"Percent of firms using technology licensed from foreign companies","source":{"id":"13","value":"Enterprise Surveys"},"sourceNote":"Percent of firms using technology licensed from foreign companies.   Source:World Bank, Enterprise Surveys Project(http:\/\/www.enterprisesurveys.org\/Data\/ExploreTopics\/innovation-and-technology).","sourceOrganization":"World Bank, Enterprise Surveys Project(http:\/\/www.enterprisesurveys.org\/Data\/ExploreTopics\/innovation-and-technology).","topics":[]},{"id":"IC.FRM.INNOV.T3","name":"Capacity utilization (%)","source":{"id":"13","value":"Enterprise Surveys"},"sourceNote":"Capacity utilization based on the comparison of the current output with the maximum output possible using all the resources available.   Source:World Bank, Enterprise Surveys Project(http:\/\/www.enterprisesurveys.org\/Data\/ExploreTopics\/innovation-and-technology).","sourceOrganization":"World Bank, Enterprise Surveys Project(http:\/\/www.enterprisesurveys.org\/Data\/ExploreTopics\/innovation-and-technology).","topics":[]},{"id":"IC.FRM.INNOV.T2","name":"Percent of firms with an annual financial statement reviewed by external auditors ","source":{"id":"13","value":"Enterprise Surveys"},"sourceNote":"Percent of firms with an annual financial statement reviewed by external auditors.   Source:World Bank, Enterprise Surveys Project(http:\/\/www.enterprisesurveys.org\/Data\/ExploreTopics\/innovation-and-technology).","sourceOrganization":"World Bank, Enterprise Surveys Project(http:\/\/www.enterprisesurveys.org\/Data\/ExploreTopics\/innovation-and-technology).","topics":[]},{"id":"IC.FRM.INNOV.T1","name":"Percent of firms with an internationally-recognized quality certification","source":{"id":"13","value":"Enterprise Surveys"},"sourceNote":"Percent of firms having an internationally-recognized quality certification, i.e. ISO 9000, 9002 or 14000.   Source:World Bank, Enterprise Surveys Project(http:\/\/www.enterprisesurveys.org\/Data\/ExploreTopics\/innovation-and-technology).","sourceOrganization":"World Bank, Enterprise Surveys Project(http:\/\/www.enterprisesurveys.org\/Data\/ExploreTopics\/innovation-and-technology).","topics":[]},{"id":"IC.FRM.INFRM.ZS","name":"Services firms competing against unregistered or informal firms (% of service firms)","source":{"id":"11","value":"Africa Development Indicators"},"sourceNote":"Percentage of services firms competing against unregistered or informal firms.  ","sourceOrganization":"World Bank, Enterprise Surveys (http:\/\/www.enterprisesurveys.org\/). ","topics":[]},{"id":"IC.FRM.INFRA.IN9","name":"Percent of firms owning or sharing  a generator","source":{"id":"13","value":"Enterprise Surveys"},"sourceNote":"Percent of firms owning or sharing a generator.   Source:World Bank, Enterprise Surveys Project(http:\/\/www.enterprisesurveys.org\/Data\/ExploreTopics\/infrastructure).","sourceOrganization":"World Bank, Enterprise Surveys Project(http:\/\/www.enterprisesurveys.org\/Data\/ExploreTopics\/infrastructure).","topics":[]},{"id":"IC.FRM.INFRA.IN6","name":"Number of water insufficiencies in a typical month","source":{"id":"13","value":"Enterprise Surveys"},"sourceNote":"Number of water shortages in a typical month.   Source:World Bank, Enterprise Surveys Project(http:\/\/www.enterprisesurveys.org\/Data\/ExploreTopics\/infrastructure).","sourceOrganization":"World Bank, Enterprise Surveys Project(http:\/\/www.enterprisesurveys.org\/Data\/ExploreTopics\/infrastructure).","topics":[]},{"id":"IC.FRM.INFRA.IN4","name":"Losses due to electrical outages (% of annual sales)","source":{"id":"13","value":"Enterprise Surveys"},"sourceNote":"Losses due to electrical outages, as percentage of total annual sales.   Source:World Bank, Enterprise Surveys Project(http:\/\/www.enterprisesurveys.org\/Data\/ExploreTopics\/infrastructure).","sourceOrganization":"World Bank, Enterprise Surveys Project(http:\/\/www.enterprisesurveys.org\/Data\/ExploreTopics\/infrastructure).","topics":[]},{"id":"IC.FRM.INFRA.IN3_C","name":"If there were outages, average duration of a typical electrical outage (hours)","source":{"id":"13","value":"Enterprise Surveys"},"sourceNote":"If there were outages, duration of a typical power outage, in hours.   Source:World Bank, Enterprise Surveys Project(http:\/\/www.enterprisesurveys.org\/Data\/ExploreTopics\/infrastructure).","sourceOrganization":"World Bank, Enterprise Surveys Project(http:\/\/www.enterprisesurveys.org\/Data\/ExploreTopics\/infrastructure).","topics":[]},{"id":"IC.FRM.INFRA.IN3","name":"Duration of a typical electrical outage (hours)","source":{"id":"13","value":"Enterprise Surveys"},"sourceNote":"Duration of a typical power outage, in hours.   Source:World Bank, Enterprise Surveys Project(http:\/\/www.enterprisesurveys.org\/Data\/ExploreTopics\/infrastructure).","sourceOrganization":"World Bank, Enterprise Surveys Project(http:\/\/www.enterprisesurveys.org\/Data\/ExploreTopics\/infrastructure).","topics":[]},{"id":"IC.FRM.INFRA.IN2","name":"Number of electrical outages in a typical month","source":{"id":"13","value":"Enterprise Surveys"},"sourceNote":"Number of power outages in a typical month.   Source:World Bank, Enterprise Surveys Project(http:\/\/www.enterprisesurveys.org\/Data\/ExploreTopics\/infrastructure).","sourceOrganization":"World Bank, Enterprise Surveys Project(http:\/\/www.enterprisesurveys.org\/Data\/ExploreTopics\/infrastructure).","topics":[]},{"id":"IC.FRM.INFRA.IN14","name":"Proportion of products lost to breakage or spoilage during shipping to domestic markets (%)","source":{"id":"13","value":"Enterprise Surveys"},"sourceNote":"Products lost to breakage or spoilage during shipping to domestic markets, as a percentage of total product value.   Source:World Bank, Enterprise Surveys Project(http:\/\/www.enterprisesurveys.org\/Data\/ExploreTopics\/infrastructure).","sourceOrganization":"World Bank, Enterprise Surveys Project(http:\/\/www.enterprisesurveys.org\/Data\/ExploreTopics\/infrastructure).","topics":[]},{"id":"IC.FRM.INFRA.IN12","name":"Percent of firms identifying electricity as a major constraint","source":{"id":"13","value":"Enterprise Surveys"},"sourceNote":"Percent of firms identifying electricity as a major constraint. The computation of the indicator is based on the rating of the obstacle as a potential constraint to the current operations of the establishment.   Source:World Bank, Enterprise Surveys Project(http:\/\/www.enterprisesurveys.org\/Data\/ExploreTopics\/infrastructure).","sourceOrganization":"World Bank, Enterprise Surveys Project(http:\/\/www.enterprisesurveys.org\/Data\/ExploreTopics\/infrastructure).","topics":[]},{"id":"IC.FRM.INFRA.IN11","name":"Percent of firms identifying transportation as a major constraint","source":{"id":"13","value":"Enterprise Surveys"},"sourceNote":"Percent of firms identifying transportation as a major constraint. The computation of the indicator is based on the rating of the obstacle as a potential constraint to the current operations of the establishment.   Source:World Bank, Enterprise Surveys Project(http:\/\/www.enterprisesurveys.org\/Data\/ExploreTopics\/infrastructure).","sourceOrganization":"World Bank, Enterprise Surveys Project(http:\/\/www.enterprisesurveys.org\/Data\/ExploreTopics\/infrastructure).","topics":[]},{"id":"IC.FRM.INFRA.IN10_C","name":"If a generator is used, average proportion of electricity from a generator (%)","source":{"id":"13","value":"Enterprise Surveys"},"sourceNote":"If a generator is used, the average proportion of electricity from a generator.   Source:World Bank, Enterprise Surveys Project(http:\/\/www.enterprisesurveys.org\/Data\/ExploreTopics\/infrastructure).","sourceOrganization":"World Bank, Enterprise Surveys Project(http:\/\/www.enterprisesurveys.org\/Data\/ExploreTopics\/infrastructure).","topics":[]},{"id":"IC.FRM.INFRA.IN10","name":"Proportion of electricity from a generator (%)","source":{"id":"13","value":"Enterprise Surveys"},"sourceNote":"Percentage of electricity supplied from a generator(s) that the establishment owned or shared.   Source:World Bank, Enterprise Surveys Project(http:\/\/www.enterprisesurveys.org\/Data\/ExploreTopics\/infrastructure).","sourceOrganization":"World Bank, Enterprise Surveys Project(http:\/\/www.enterprisesurveys.org\/Data\/ExploreTopics\/infrastructure).","topics":[]},{"id":"IC.FRM.INFRA.IN1","name":"Days to obtain an electrical connection (upon application)","source":{"id":"13","value":"Enterprise Surveys"},"sourceNote":"The wait, in days, experienced to obtain electrical connection from the day this establishment applied for it to the day it received the service.   Source:World Bank, Enterprise Surveys Project(http:\/\/www.enterprisesurveys.org\/Data\/ExploreTopics\/infrastructure).","sourceOrganization":"World Bank, Enterprise Surveys Project(http:\/\/www.enterprisesurveys.org\/Data\/ExploreTopics\/infrastructure).","topics":[]},{"id":"IC.FRM.INFOR.INFOR5","name":"Number of years firm operated without formal registration","source":{"id":"13","value":"Enterprise Surveys"},"sourceNote":"Number of years firm operated without formal registration. This indicator is computed only for the firms that did not have a formal registration when they started their operations in the country.   Source:World Bank, Enterprise Surveys Project(http:\/\/www.enterprisesurveys.org\/Data\/ExploreTopics\/informality).","sourceOrganization":"World Bank, Enterprise Surveys Project(http:\/\/www.enterprisesurveys.org\/Data\/ExploreTopics\/informality).","topics":[]},{"id":"IC.FRM.INFOR.INFOR4","name":"Percent of firms formally registered when they started operations in the country","source":{"id":"13","value":"Enterprise Surveys"},"sourceNote":"Percent of firms formally registered when they started operations in the country.   Source:World Bank, Enterprise Surveys Project(http:\/\/www.enterprisesurveys.org\/Data\/ExploreTopics\/informality).","sourceOrganization":"World Bank, Enterprise Surveys Project(http:\/\/www.enterprisesurveys.org\/Data\/ExploreTopics\/informality).","topics":[]},{"id":"IC.FRM.INFOR.INFOR2","name":"Percent of firms identifying practices of competitors in the informal sector as a major constraint  ","source":{"id":"13","value":"Enterprise Surveys"},"sourceNote":"Percent of firms identifying practices of competitors in the informal sector as a major constraint. The computation of the indicator is based on the rating of the obstacle as a potential constraint to the current operations of the establishment.   Source:World Bank, Enterprise Surveys Project(http:\/\/www.enterprisesurveys.org\/Data\/ExploreTopics\/informality).","sourceOrganization":"World Bank, Enterprise Surveys Project(http:\/\/www.enterprisesurveys.org\/Data\/ExploreTopics\/informality).","topics":[]},{"id":"IC.FRM.INFOR.INFOR1","name":"Percent of firms competing against unregistered or informal firms","source":{"id":"13","value":"Enterprise Surveys"},"sourceNote":"Percent of firms competing against unregistered or informal firms.   Source:World Bank, Enterprise Surveys Project(http:\/\/www.enterprisesurveys.org\/Data\/ExploreTopics\/informality).","sourceOrganization":"World Bank, Enterprise Surveys Project(http:\/\/www.enterprisesurveys.org\/Data\/ExploreTopics\/informality).","topics":[]},{"id":"IC.FRM.INFM.ZS","name":"Firms that do not report all sales for tax purposes (% of firms)","source":{"id":"2","value":"World Development Indicators"},"sourceNote":"Firms that do not report all sales for tax purposes are the percentage of firms that expressed that a typical firm reports less than 100 percent of sales for tax purposes; such firms are termed \"informal firms.\"","sourceOrganization":"World Bank, Enterprise Surveys (http:\/\/www.enterprisesurveys.org\/).","topics":[{"id":"12","value":"Private Sector"}]},{"id":"IC.FRM.GEN.GEND4","name":"Percent of firms with a female top manager","source":{"id":"13","value":"Enterprise Surveys"},"sourceNote":"Percent of firms with a female top manager.   Source:World Bank, Enterprise Surveys Project(http:\/\/www.enterprisesurveys.org\/Data\/ExploreTopics\/gender).","sourceOrganization":"World Bank, Enterprise Surveys Project(http:\/\/www.enterprisesurveys.org\/Data\/ExploreTopics\/gender).","topics":[]},{"id":"IC.FRM.GEN.GEND3","name":"Proportion of permanent full-time non-production workers that are female (%)","source":{"id":"13","value":"Enterprise Surveys"},"sourceNote":"Percentage of permanent full-time non-production workers that are female.   Source:World Bank, Enterprise Surveys Project(http:\/\/www.enterprisesurveys.org\/Data\/ExploreTopics\/gender).","sourceOrganization":"World Bank, Enterprise Surveys Project(http:\/\/www.enterprisesurveys.org\/Data\/ExploreTopics\/gender).","topics":[]},{"id":"IC.FRM.GEN.GEND2","name":"Proportion of permanent full-time workers that are female (%)","source":{"id":"13","value":"Enterprise Surveys"},"sourceNote":"Percentage of permanent full-time workers that are female.   Source:World Bank, Enterprise Surveys Project(http:\/\/www.enterprisesurveys.org\/Data\/ExploreTopics\/gender).","sourceOrganization":"World Bank, Enterprise Surveys Project(http:\/\/www.enterprisesurveys.org\/Data\/ExploreTopics\/gender).","topics":[{}]}]]