[{"page":23,"pages":324,"per_page":"50","total":16174},[{"id":"BAR.NOED.4044.ZS","name":"Barro-Lee: Percentage of population age 40-44 with no education","source":{"id":"12","value":"Education Statistics"},"sourceNote":"Percentage of population age 40-44 with no education","sourceOrganization":"Robert J. Barro and Jong-Wha Lee: http:\/\/www.barrolee.com\/","topics":[{"id":"4","value":"Education "}]},{"id":"BAR.NOED.4044.FE.ZS","name":"Barro-Lee: Percentage of female population age 40-44 with no education","source":{"id":"12","value":"Education Statistics"},"sourceNote":"Percentage of female population age 40-44 with no education","sourceOrganization":"Robert J. Barro and Jong-Wha Lee: http:\/\/www.barrolee.com\/","topics":[{"id":"4","value":"Education "}]},{"id":"BAR.NOED.3539.ZS","name":"Barro-Lee: Percentage of population age 35-39 with no education","source":{"id":"12","value":"Education Statistics"},"sourceNote":"Percentage of population age 35-39 with no education","sourceOrganization":"Robert J. Barro and Jong-Wha Lee: http:\/\/www.barrolee.com\/","topics":[{"id":"4","value":"Education "}]},{"id":"BAR.NOED.3539.FE.ZS","name":"Barro-Lee: Percentage of female population age 35-39 with no education","source":{"id":"12","value":"Education Statistics"},"sourceNote":"Percentage of female population age 35-39 with no education","sourceOrganization":"Robert J. Barro and Jong-Wha Lee: http:\/\/www.barrolee.com\/","topics":[{"id":"4","value":"Education "}]},{"id":"BAR.NOED.3034.ZS","name":"Barro-Lee: Percentage of population age 30-34 with no education","source":{"id":"12","value":"Education Statistics"},"sourceNote":"Percentage of population age 30-34 with no education","sourceOrganization":"Robert J. Barro and Jong-Wha Lee: http:\/\/www.barrolee.com\/","topics":[{"id":"4","value":"Education "}]},{"id":"BAR.NOED.3034.FE.ZS","name":"Barro-Lee: Percentage of female population age 30-34 with no education","source":{"id":"12","value":"Education Statistics"},"sourceNote":"Percentage of female population age 30-34 with no education","sourceOrganization":"Robert J. Barro and Jong-Wha Lee: http:\/\/www.barrolee.com\/","topics":[{"id":"4","value":"Education "}]},{"id":"BAR.NOED.25UP.ZS","name":"Barro-Lee: Percentage of population age 25+ with no education","source":{"id":"12","value":"Education Statistics"},"sourceNote":"Percentage of population age 25+ with no education","sourceOrganization":"Robert J. Barro and Jong-Wha Lee: http:\/\/www.barrolee.com\/","topics":[{"id":"4","value":"Education "}]},{"id":"BAR.NOED.25UP.FE.ZS","name":"Barro-Lee: Percentage of female population age 25+ with no education","source":{"id":"12","value":"Education Statistics"},"sourceNote":"Percentage of female population age 25+ with no education","sourceOrganization":"Robert J. Barro and Jong-Wha Lee: http:\/\/www.barrolee.com\/","topics":[{"id":"4","value":"Education "}]},{"id":"BAR.NOED.2529.ZS","name":"Barro-Lee: Percentage of population age 25-29 with no education","source":{"id":"12","value":"Education Statistics"},"sourceNote":"Percentage of population age 25-29 with no education","sourceOrganization":"Robert J. Barro and Jong-Wha Lee: http:\/\/www.barrolee.com\/","topics":[{"id":"4","value":"Education "}]},{"id":"BAR.NOED.2529.FE.ZS","name":"Barro-Lee: Percentage of female population age 25-29 with no education","source":{"id":"12","value":"Education Statistics"},"sourceNote":"Percentage of female population age 25-29 with no education","sourceOrganization":"Robert J. Barro and Jong-Wha Lee: http:\/\/www.barrolee.com\/","topics":[{"id":"4","value":"Education "}]},{"id":"BAR.NOED.2024.ZS","name":"Barro-Lee: Percentage of population age 20-24 with no education","source":{"id":"12","value":"Education Statistics"},"sourceNote":"Percentage of population age 20-24 with no education","sourceOrganization":"Robert J. Barro and Jong-Wha Lee: http:\/\/www.barrolee.com\/","topics":[{"id":"4","value":"Education "}]},{"id":"BAR.NOED.2024.FE.ZS","name":"Barro-Lee: Percentage of female population age 20-24 with no education","source":{"id":"12","value":"Education Statistics"},"sourceNote":"Percentage of female population age 20-24 with no education","sourceOrganization":"Robert J. Barro and Jong-Wha Lee: http:\/\/www.barrolee.com\/","topics":[{"id":"4","value":"Education "}]},{"id":"BAR.NOED.15UP.ZS","name":"Barro-Lee: Percentage of population age 15+ with no education","source":{"id":"12","value":"Education Statistics"},"sourceNote":"Percentage of population age 15+ with no education","sourceOrganization":"Robert J. Barro and Jong-Wha Lee: http:\/\/www.barrolee.com\/","topics":[{"id":"4","value":"Education "}]},{"id":"BAR.NOED.15UP.FE.ZS","name":"Barro-Lee: Percentage of female population age 15+ with no education","source":{"id":"12","value":"Education Statistics"},"sourceNote":"Percentage of female population age 15+ with no education","sourceOrganization":"Robert J. Barro and Jong-Wha Lee: http:\/\/www.barrolee.com\/","topics":[{"id":"4","value":"Education "}]},{"id":"BAR.NOED.1519.ZS","name":"Barro-Lee: Percentage of population age 15-19 with no education","source":{"id":"12","value":"Education Statistics"},"sourceNote":"Percentage of population age 15-19 with no education","sourceOrganization":"Robert J. Barro and Jong-Wha Lee: http:\/\/www.barrolee.com\/","topics":[{"id":"4","value":"Education "}]},{"id":"BAR.NOED.1519.FE.ZS","name":"Barro-Lee: Percentage of female population age 15-19 with no education","source":{"id":"12","value":"Education Statistics"},"sourceNote":"Percentage of female population age 15-19 with no education","sourceOrganization":"Robert J. Barro and Jong-Wha Lee: http:\/\/www.barrolee.com\/","topics":[{"id":"4","value":"Education "}]},{"id":"BANANA_US","name":"Bananas, US, $\/mt, current$","source":{"id":"21","value":"Global Economic Monitor (GEM) Commodities"},"sourceNote":"Bananas (Central & South America), major brands, US import price, free on truck (f.o.t.) US Gulf ports","sourceOrganization":"Sopisco News; Union of Banana-Exporting Countries (UPEB); Food and Agricultural Organization; US Bureau of Labor Statistics; World Bank.","topics":[]},{"id":"BANANA_EU","name":"Bananas, EU, $\/mt, current$","source":{"id":"21","value":"Global Economic Monitor (GEM) Commodities"},"sourceNote":"Bananas (Central & South America), major brands, c.i.f. Hamburg","sourceOrganization":"Sopisco News; Union of Banana-Exporting Countries (UPEB); Food and Agricultural Organization; US Bureau of Labor Statistics; World Bank.","topics":[]},{"id":"B6iii","name":"56.Number of Exporters per Destination: StDev","source":{"id":"30","value":"Exporter Dynamics Database: Country-Year"},"sourceNote":"Exporter-level information on export transactions - Customs","sourceOrganization":"","topics":[]},{"id":"B6ii","name":"55.Number of Exporters per Destination: Median","source":{"id":"30","value":"Exporter Dynamics Database: Country-Year"},"sourceNote":"Exporter-level information on export transactions - Customs","sourceOrganization":"","topics":[]},{"id":"B6i","name":"54.Number of Exporters per Destination: Mean","source":{"id":"30","value":"Exporter Dynamics Database: Country-Year"},"sourceNote":"Exporter-level information on export transactions - Customs","sourceOrganization":"","topics":[]},{"id":"B5iii","name":"53.Number of Exporters per HS6 Product: StDev","source":{"id":"30","value":"Exporter Dynamics Database: Country-Year"},"sourceNote":"Exporter-level information on export transactions - Customs","sourceOrganization":"","topics":[]},{"id":"B5ii","name":"52.Number of Exporters per HS6 Product: Median","source":{"id":"30","value":"Exporter Dynamics Database: Country-Year"},"sourceNote":"Exporter-level information on export transactions - Customs","sourceOrganization":"","topics":[]},{"id":"B5i","name":"51.Number of Exporters per HS6 Product: Mean","source":{"id":"30","value":"Exporter Dynamics Database: Country-Year"},"sourceNote":"Exporter-level information on export transactions - Customs","sourceOrganization":"","topics":[]},{"id":"B4iii","name":"50.Number of Destinations per Exporter: StDev","source":{"id":"30","value":"Exporter Dynamics Database: Country-Year"},"sourceNote":"Exporter-level information on export transactions - Customs","sourceOrganization":"","topics":[]},{"id":"B4ii","name":"49.Number of Destinations per Exporter: Median","source":{"id":"30","value":"Exporter Dynamics Database: Country-Year"},"sourceNote":"Exporter-level information on export transactions - Customs","sourceOrganization":"","topics":[]},{"id":"B4i","name":"48.Number of Destinations per Exporter: Mean","source":{"id":"30","value":"Exporter Dynamics Database: Country-Year"},"sourceNote":"Exporter-level information on export transactions - Customs","sourceOrganization":"","topics":[]},{"id":"B3iii","name":"47.Number of HS6 Products per Exporter: StDev","source":{"id":"30","value":"Exporter Dynamics Database: Country-Year"},"sourceNote":"Exporter-level information on export transactions - Customs","sourceOrganization":"","topics":[]},{"id":"B3ii","name":"46.Number of HS6 Products per Exporter: Median","source":{"id":"30","value":"Exporter Dynamics Database: Country-Year"},"sourceNote":"Exporter-level information on export transactions - Customs","sourceOrganization":"","topics":[]},{"id":"B3i","name":"45.Number of HS6 Products per Exporter: Mean","source":{"id":"30","value":"Exporter Dynamics Database: Country-Year"},"sourceNote":"Exporter-level information on export transactions - Customs","sourceOrganization":"","topics":[]},{"id":"B2iii","name":"44.Share of top 25% Exporters in TEV (Total Export Value)","source":{"id":"30","value":"Exporter Dynamics Database: Country-Year"},"sourceNote":"Exporter-level information on export transactions - Customs","sourceOrganization":"","topics":[]},{"id":"B2ii","name":"43.Share of top 5% Exporters in TEV (Total Export Value)","source":{"id":"30","value":"Exporter Dynamics Database: Country-Year"},"sourceNote":"Exporter-level information on export transactions - Customs","sourceOrganization":"","topics":[]},{"id":"B2i","name":"42.Share of top 1% Exporters in TEV (Total Export Value)","source":{"id":"30","value":"Exporter Dynamics Database: Country-Year"},"sourceNote":"Exporter-level information on export transactions - Customs","sourceOrganization":"","topics":[]},{"id":"B1","name":"41.Herfindahl-Hirschman Index","source":{"id":"30","value":"Exporter Dynamics Database: Country-Year"},"sourceNote":"Exporter-level information on export transactions - Customs","sourceOrganization":"","topics":[]},{"id":"ALUMINUM","name":"Aluminum, $\/mt, current$","source":{"id":"21","value":"Global Economic Monitor (GEM) Commodities"},"sourceNote":"Aluminum (LME) London Metal Exchange, unalloyed primary ingots, high grade, minimum 99.7% purity, settlement price beginning 2005; previously cash price","sourceOrganization":"Platts Metals Week, Thomson Reuters Datastream; World Bank.","topics":[]},{"id":"AG.YLD.WHT.KG","name":"Wheat yield (kg per hectare)","source":{"id":"11","value":"Africa Development Indicators"},"sourceNote":"Wheat yield, measured as kilograms per hectare of harvested land. Production data on  relate to crops harvested for dry grain only. Crop harvested for hay or harvested green for food, feed, or silage and those used for grazing are excluded.","sourceOrganization":"Food and Agriculture Organization, electronic files and web site.","topics":[]},{"id":"AG.YLD.SGM.KG","name":"Sorghum yield (kg per hectare)","source":{"id":"11","value":"Africa Development Indicators"},"sourceNote":"Sorghum yield, measured as kilograms per hectare of harvested land. Production data on  relate to crops harvested for dry grain only. Crop harvested for hay or harvested green for food, feed, or silage and those used for grazing are excluded.","sourceOrganization":"Food and Agriculture Organization, electronic files and web site.","topics":[]},{"id":"AG.YLD.RICE.KG","name":"Rice yield (kg per hectare)","source":{"id":"11","value":"Africa Development Indicators"},"sourceNote":"Rice yield, measured as kilograms per hectare of harvested land. Production data on  relate to crops harvested for dry grain only. Crop harvested for hay or harvested green for food, feed, or silage and those used for grazing are excluded.","sourceOrganization":"Food and Agriculture Organization, electronic files and web site.","topics":[]},{"id":"AG.YLD.MZE.KG","name":"Maize yield (kg per hectare)","source":{"id":"11","value":"Africa Development Indicators"},"sourceNote":"Maize yield, measured as kilograms per hectare of harvested land. Production data on  relate to crops harvested for dry grain only. Crop harvested for hay or harvested green for food, feed, or silage and those used for grazing are excluded.","sourceOrganization":"Food and Agriculture Organization, electronic files and web site.","topics":[]},{"id":"AG.YLD.MLT.KG","name":"Millet yield (kg per hectare)","source":{"id":"11","value":"Africa Development Indicators"},"sourceNote":"Millet yield, measured as kilograms per hectare of harvested land. Production data on  relate to crops harvested for dry grain only. Crop harvested for hay or harvested green for food, feed, or silage and those used for grazing are excluded.","sourceOrganization":"Food and Agriculture Organization, electronic files and web site.","topics":[]},{"id":"AG.YLD.FNO.KG","name":"Fonio yield (kg per hectare)","source":{"id":"11","value":"Africa Development Indicators"},"sourceNote":"Fonio yield, measured as kilograms per hectare of harvested land. Production data on  relate to crops harvested for dry grain only. Crop harvested for hay or harvested green for food, feed, or silage and those used for grazing are excluded.","sourceOrganization":"Food and Agriculture Organization, electronic files and web site.","topics":[]},{"id":"AG.YLD.CREL.KG","name":"Cereal yield (kg per hectare)","source":{"id":"2","value":"World Development Indicators"},"sourceNote":"Cereal yield, measured as kilograms per hectare of harvested land, includes wheat, rice, maize, barley, oats, rye, millet, sorghum, buckwheat, and mixed grains. Production data on cereals relate to crops harvested for dry grain only. Cereal crops harvested for hay or harvested green for food, feed, or silage and those used for grazing are excluded. The FAO allocates production data to the calendar year in which the bulk of the harvest took place. Most of a crop harvested near the end of a year will be used in the following year.","sourceOrganization":"Food and Agriculture Organization, electronic files and web site.","topics":[{"id":"1","value":"Agriculture & Rural Development  "},{"id":"19","value":"Climate Change"}]},{"id":"AG.YLD.BLY.KG","name":"Barley yield (kg per hectare)","source":{"id":"11","value":"Africa Development Indicators"},"sourceNote":"Barley yield, measured as kilograms per hectare of harvested land. Production data on  relate to crops harvested for dry grain only. Crop harvested for hay or harvested green for food, feed, or silage and those used for grazing are excluded.","sourceOrganization":"Food and Agriculture Organization, electronic files and web site.","topics":[]},{"id":"AG.SRF.TOTL.K2","name":"Surface area (sq. km)","source":{"id":"2","value":"World Development Indicators"},"sourceNote":"Surface area is a country's total area, including areas under inland bodies of water and some coastal waterways.","sourceOrganization":"Food and Agriculture Organization, electronic files and web site.","topics":[{"id":"1","value":"Agriculture & Rural Development  "},{"id":"6","value":"Environment "}]},{"id":"AG.SRF.TOTL.HA","name":"Surface area (ha)","source":{"id":"11","value":"Africa Development Indicators"},"sourceNote":"Surface area is a country's total area, including areas under inland bodies of water and some coastal waterways.","sourceOrganization":"Food and Agriculture Organization, electronic files and web site.","topics":[]},{"id":"AG.SED.WHT.MT","name":"Wheat seed quantity (FAO, metric tonnes)","source":{"id":"11","value":"Africa Development Indicators"},"sourceNote":"Data include the amounts of the commodity in question set aside for sowing or planting (or generally for reproduction purposes, e.g. sugar cane planted, potatoes for seed, eggs for hatching and fish for bait, whether domestically produced or imported) during the reference period. Account is taken of double or successive sowing or planting whenever it occurs. The data of seed include also, when it is the case, the quantities necessary for sowing or planting the area relating to crops harvested green for fodder or for food.(e.g. green peas, green beans, maize for forage) Data for seed element are stored in tonnes (t). Whenever official data were not available, seed figures have been estimated either as a percentage of supply (e.g. eggs for hatching) or by multiplying a seed rate with the area under the crop of the subsequent year.","sourceOrganization":"Food and Agriculture Organization, electronic files and web site.","topics":[]},{"id":"AG.SED.SGM.MT","name":"Sorghum seed quantity (FAO, metric tonnes)","source":{"id":"11","value":"Africa Development Indicators"},"sourceNote":"Data include the amounts of the commodity in question set aside for sowing or planting (or generally for reproduction purposes, e.g. sugar cane planted, potatoes for seed, eggs for hatching and fish for bait, whether domestically produced or imported) during the reference period. Account is taken of double or successive sowing or planting whenever it occurs. The data of seed include also, when it is the case, the quantities necessary for sowing or planting the area relating to crops harvested green for fodder or for food.(e.g. green peas, green beans, maize for forage) Data for seed element are stored in tonnes (t). Whenever official data were not available, seed figures have been estimated either as a percentage of supply (e.g. eggs for hatching) or by multiplying a seed rate with the area under the crop of the subsequent year.","sourceOrganization":"Food and Agriculture Organization, electronic files and web site.","topics":[]},{"id":"AG.SED.RICE.MT","name":"Rice seed quantity (FAO, metric tonnes)","source":{"id":"11","value":"Africa Development Indicators"},"sourceNote":"Data include the amounts of the commodity in question set aside for sowing or planting (or generally for reproduction purposes, e.g. sugar cane planted, potatoes for seed, eggs for hatching and fish for bait, whether domestically produced or imported) during the reference period. Account is taken of double or successive sowing or planting whenever it occurs. The data of seed include also, when it is the case, the quantities necessary for sowing or planting the area relating to crops harvested green for fodder or for food.(e.g. green peas, green beans, maize for forage) Data for seed element are stored in tonnes (t). Whenever official data were not available, seed figures have been estimated either as a percentage of supply (e.g. eggs for hatching) or by multiplying a seed rate with the area under the crop of the subsequent year.","sourceOrganization":"Food and Agriculture Organization, electronic files and web site.","topics":[]},{"id":"AG.SED.MZE.MT","name":"Maize seed quantity (FAO, metric tonnes)","source":{"id":"11","value":"Africa Development Indicators"},"sourceNote":"Data include the amounts of the commodity in question set aside for sowing or planting (or generally for reproduction purposes, e.g. sugar cane planted, potatoes for seed, eggs for hatching and fish for bait, whether domestically produced or imported) during the reference period. Account is taken of double or successive sowing or planting whenever it occurs. The data of seed include also, when it is the case, the quantities necessary for sowing or planting the area relating to crops harvested green for fodder or for food.(e.g. green peas, green beans, maize for forage) Data for seed element are stored in tonnes (t). Whenever official data were not available, seed figures have been estimated either as a percentage of supply (e.g. eggs for hatching) or by multiplying a seed rate with the area under the crop of the subsequent year.","sourceOrganization":"Food and Agriculture Organization, electronic files and web site.","topics":[]},{"id":"AG.SED.MLT.MT","name":"Millet seed quantity (FAO, metric tonnes)","source":{"id":"11","value":"Africa Development Indicators"},"sourceNote":"Data include the amounts of the commodity in question set aside for sowing or planting (or generally for reproduction purposes, e.g. sugar cane planted, potatoes for seed, eggs for hatching and fish for bait, whether domestically produced or imported) during the reference period. Account is taken of double or successive sowing or planting whenever it occurs. The data of seed include also, when it is the case, the quantities necessary for sowing or planting the area relating to crops harvested green for fodder or for food.(e.g. green peas, green beans, maize for forage) Data for seed element are stored in tonnes (t). Whenever official data were not available, seed figures have been estimated either as a percentage of supply (e.g. eggs for hatching) or by multiplying a seed rate with the area under the crop of the subsequent year.","sourceOrganization":"Food and Agriculture Organization, electronic files and web site.","topics":[{}]}]]