[{"page":41,"pages":324,"per_page":"50","total":16174},[{"id":"DP.DOD.DLDS.CR.CG.CD","name":"056.Debt securities (PSDCG) US$","source":{"id":"20","value":"Quarterly Public Sector Debt"},"sourceNote":"Member Country","sourceOrganization":"World Bank.","topics":[]},{"id":"DP.DOD.DLDS.CR.CG","name":"280.Debt securities (PSDCG)","source":{"id":"20","value":"Quarterly Public Sector Debt"},"sourceNote":"","sourceOrganization":"","topics":[]},{"id":"DP.DOD.DLDS.CR.BC.Z1","name":"536.Debt securities (PSDCGGB)(% of GDP)","source":{"id":"20","value":"Quarterly Public Sector Debt"},"sourceNote":"The source of non-seasonally adjusted Gross Domestic Product (GDP) data in national currency, at current prices, is the International Finance Statistics quarterly database of the IMF, annualized by the World Bank, unless otherwise specified","sourceOrganization":"","topics":[]},{"id":"DP.DOD.DLDS.CR.BC.CD","name":"088.Debt securities (PSDCGGB) US$","source":{"id":"20","value":"Quarterly Public Sector Debt"},"sourceNote":"Member Country","sourceOrganization":"World Bank.","topics":[]},{"id":"DP.DOD.DLDS.CR.BC","name":"312.Debt securities (PSDCGGB)","source":{"id":"20","value":"Quarterly Public Sector Debt"},"sourceNote":"","sourceOrganization":"","topics":[]},{"id":"DP.DOD.DLCD.CR.PS.CD","name":"183.Currency and deposits (PSDT) US$","source":{"id":"20","value":"Quarterly Public Sector Debt"},"sourceNote":"Member Country","sourceOrganization":"World Bank.","topics":[]},{"id":"DP.DOD.DLCD.CR.PS","name":"407.Currency and deposits (PSDT, LT)","source":{"id":"20","value":"Quarterly Public Sector Debt"},"sourceNote":"","sourceOrganization":"","topics":[]},{"id":"DP.DOD.DLCD.CR.NF.Z1","name":"567.Currency and deposits (PSDNFPC)(% of GDP)","source":{"id":"20","value":"Quarterly Public Sector Debt"},"sourceNote":"The source of non-seasonally adjusted Gross Domestic Product (GDP) data in national currency, at current prices, is the International Finance Statistics quarterly database of the IMF, annualized by the World Bank, unless otherwise specified","sourceOrganization":"","topics":[]},{"id":"DP.DOD.DLCD.CR.NF.CD","name":"119.Currency and deposits (PSDNFPC) US$","source":{"id":"20","value":"Quarterly Public Sector Debt"},"sourceNote":"Member Country","sourceOrganization":"World Bank.","topics":[]},{"id":"DP.DOD.DLCD.CR.NF","name":"343.Currency and deposits (PSDNFPC)","source":{"id":"20","value":"Quarterly Public Sector Debt"},"sourceNote":"","sourceOrganization":"","topics":[]},{"id":"DP.DOD.DLCD.CR.M1.PS.CD","name":"177.Currency and deposits (PSDT, LT, >1yr) US$","source":{"id":"20","value":"Quarterly Public Sector Debt"},"sourceNote":"Member Country","sourceOrganization":"World Bank.","topics":[]},{"id":"DP.DOD.DLCD.CR.M1.PS","name":"401.Currency and deposits (PSDT, LT, >1yr)","source":{"id":"20","value":"Quarterly Public Sector Debt"},"sourceNote":"","sourceOrganization":"","topics":[]},{"id":"DP.DOD.DLCD.CR.M1.NF.Z1","name":"561.Currency and deposits (PSDNFPC, LT, >1yr)(% of GDP)","source":{"id":"20","value":"Quarterly Public Sector Debt"},"sourceNote":"The source of non-seasonally adjusted Gross Domestic Product (GDP) data in national currency, at current prices, is the International Finance Statistics quarterly database of the IMF, annualized by the World Bank, unless otherwise specified","sourceOrganization":"","topics":[]},{"id":"DP.DOD.DLCD.CR.M1.NF.CD","name":"113.Currency and deposits (PSDNFPC, LT, >1yr) US$","source":{"id":"20","value":"Quarterly Public Sector Debt"},"sourceNote":"Member Country","sourceOrganization":"World Bank.","topics":[]},{"id":"DP.DOD.DLCD.CR.M1.NF","name":"337.Currency and deposits (PSDNFPC, LT, >1yr)","source":{"id":"20","value":"Quarterly Public Sector Debt"},"sourceNote":"","sourceOrganization":"","topics":[]},{"id":"DP.DOD.DLCD.CR.M1.GG.Z1","name":"465.Currency and deposits (PSDGG, LT, >1yr)(% of GDP)","source":{"id":"20","value":"Quarterly Public Sector Debt"},"sourceNote":"The source of non-seasonally adjusted Gross Domestic Product (GDP) data in national currency, at current prices, is the International Finance Statistics quarterly database of the IMF, annualized by the World Bank, unless otherwise specified","sourceOrganization":"","topics":[]},{"id":"DP.DOD.DLCD.CR.M1.GG.CD","name":"017.Currency and deposits (PSDGG, LT, >1yr) US$","source":{"id":"20","value":"Quarterly Public Sector Debt"},"sourceNote":"Member Country","sourceOrganization":"World Bank.","topics":[]},{"id":"DP.DOD.DLCD.CR.M1.GG","name":"241.Currency and deposits (PSDGG, LT, >1yr)","source":{"id":"20","value":"Quarterly Public Sector Debt"},"sourceNote":"","sourceOrganization":"","topics":[]},{"id":"DP.DOD.DLCD.CR.M1.FC.Z1","name":"593.Currency and deposits (PSDFPC, LT, >1yr)(% of GDP)","source":{"id":"20","value":"Quarterly Public Sector Debt"},"sourceNote":"The source of non-seasonally adjusted Gross Domestic Product (GDP) data in national currency, at current prices, is the International Finance Statistics quarterly database of the IMF, annualized by the World Bank, unless otherwise specified","sourceOrganization":"","topics":[]},{"id":"DP.DOD.DLCD.CR.M1.FC.CD","name":"145.Currency and deposits (PSDFPC, LT, >1yr) US$","source":{"id":"20","value":"Quarterly Public Sector Debt"},"sourceNote":"Member Country","sourceOrganization":"World Bank.","topics":[]},{"id":"DP.DOD.DLCD.CR.M1.FC","name":"369.Currency and deposits (PSDFPC, LT, >1yr)","source":{"id":"20","value":"Quarterly Public Sector Debt"},"sourceNote":"","sourceOrganization":"","topics":[]},{"id":"DP.DOD.DLCD.CR.M1.CG.Z1","name":"497.Currency and deposits (PSDCG, LT, >1yr)(% of GDP)","source":{"id":"20","value":"Quarterly Public Sector Debt"},"sourceNote":"The source of non-seasonally adjusted Gross Domestic Product (GDP) data in national currency, at current prices, is the International Finance Statistics quarterly database of the IMF, annualized by the World Bank, unless otherwise specified","sourceOrganization":"","topics":[]},{"id":"DP.DOD.DLCD.CR.M1.CG.CD","name":"049.Currency and deposits (PSDCG, LT, >1yr) US$","source":{"id":"20","value":"Quarterly Public Sector Debt"},"sourceNote":"Member Country","sourceOrganization":"World Bank.","topics":[]},{"id":"DP.DOD.DLCD.CR.M1.CG","name":"273.Currency and deposits (PSDCG, LT, >1yr)","source":{"id":"20","value":"Quarterly Public Sector Debt"},"sourceNote":"","sourceOrganization":"","topics":[]},{"id":"DP.DOD.DLCD.CR.M1.BC.Z1","name":"529.Currency and deposits (PSDCGGB, LT, >1yr)(% of GDP)","source":{"id":"20","value":"Quarterly Public Sector Debt"},"sourceNote":"The source of non-seasonally adjusted Gross Domestic Product (GDP) data in national currency, at current prices, is the International Finance Statistics quarterly database of the IMF, annualized by the World Bank, unless otherwise specified","sourceOrganization":"","topics":[]},{"id":"DP.DOD.DLCD.CR.M1.BC.CD","name":"081.Currency and deposits (PSDCGGB, LT, >1yr) US$","source":{"id":"20","value":"Quarterly Public Sector Debt"},"sourceNote":"Member Country","sourceOrganization":"World Bank.","topics":[]},{"id":"DP.DOD.DLCD.CR.M1.BC","name":"305.Currency and deposits (PSDCGGB, LT, >1yr)","source":{"id":"20","value":"Quarterly Public Sector Debt"},"sourceNote":"","sourceOrganization":"","topics":[]},{"id":"DP.DOD.DLCD.CR.L1.PS.CD","name":"170.Currency and deposits (PSDT, LT,<1yr) US$","source":{"id":"20","value":"Quarterly Public Sector Debt"},"sourceNote":"Member Country","sourceOrganization":"World Bank.","topics":[]},{"id":"DP.DOD.DLCD.CR.L1.PS","name":"394.Currency and deposits (PSDT, LT,<1yr)","source":{"id":"20","value":"Quarterly Public Sector Debt"},"sourceNote":"","sourceOrganization":"","topics":[]},{"id":"DP.DOD.DLCD.CR.L1.NF.Z1","name":"554.Currency and deposits (PSDNFPC, LT, <1yr)(% of GDP)","source":{"id":"20","value":"Quarterly Public Sector Debt"},"sourceNote":"The source of non-seasonally adjusted Gross Domestic Product (GDP) data in national currency, at current prices, is the International Finance Statistics quarterly database of the IMF, annualized by the World Bank, unless otherwise specified","sourceOrganization":"","topics":[]},{"id":"DP.DOD.DLCD.CR.L1.NF.CD","name":"106.Currency and deposits (PSDNFPC, LT, <1yr) US$","source":{"id":"20","value":"Quarterly Public Sector Debt"},"sourceNote":"Member Country","sourceOrganization":"World Bank.","topics":[]},{"id":"DP.DOD.DLCD.CR.L1.NF","name":"330.Currency and deposits (PSDNFPC, LT, <1yr)","source":{"id":"20","value":"Quarterly Public Sector Debt"},"sourceNote":"","sourceOrganization":"","topics":[]},{"id":"DP.DOD.DLCD.CR.L1.GG.Z1","name":"458.Currency and deposits (PSDGG, LT, <1yr)(% of GDP)","source":{"id":"20","value":"Quarterly Public Sector Debt"},"sourceNote":"The source of non-seasonally adjusted Gross Domestic Product (GDP) data in national currency, at current prices, is the International Finance Statistics quarterly database of the IMF, annualized by the World Bank, unless otherwise specified","sourceOrganization":"","topics":[]},{"id":"DP.DOD.DLCD.CR.L1.GG.CD","name":"010.Currency and deposits (PSDGG, LT, <1yr) US$","source":{"id":"20","value":"Quarterly Public Sector Debt"},"sourceNote":"Member Country","sourceOrganization":"World Bank.","topics":[]},{"id":"DP.DOD.DLCD.CR.L1.GG","name":"234.Currency and deposits (PSDGG, LT, <1yr)","source":{"id":"20","value":"Quarterly Public Sector Debt"},"sourceNote":"","sourceOrganization":"","topics":[]},{"id":"DP.DOD.DLCD.CR.L1.FC.Z1","name":"586.Currency and deposits (PSDFPC, LT, <1yr)(% of GDP)","source":{"id":"20","value":"Quarterly Public Sector Debt"},"sourceNote":"The source of non-seasonally adjusted Gross Domestic Product (GDP) data in national currency, at current prices, is the International Finance Statistics quarterly database of the IMF, annualized by the World Bank, unless otherwise specified","sourceOrganization":"","topics":[]},{"id":"DP.DOD.DLCD.CR.L1.FC.CD","name":"138.Currency and deposits (PSDFPC, LT, <1yr) US$","source":{"id":"20","value":"Quarterly Public Sector Debt"},"sourceNote":"Member Country","sourceOrganization":"World Bank.","topics":[]},{"id":"DP.DOD.DLCD.CR.L1.FC","name":"362.Currency and deposits (PSDFPC, LT, <1yr)","source":{"id":"20","value":"Quarterly Public Sector Debt"},"sourceNote":"","sourceOrganization":"","topics":[]},{"id":"DP.DOD.DLCD.CR.L1.CG.Z1","name":"490.Currency and deposits (PSDCG, LT, <1yr)(% of GDP)","source":{"id":"20","value":"Quarterly Public Sector Debt"},"sourceNote":"The source of non-seasonally adjusted Gross Domestic Product (GDP) data in national currency, at current prices, is the International Finance Statistics quarterly database of the IMF, annualized by the World Bank, unless otherwise specified","sourceOrganization":"","topics":[]},{"id":"DP.DOD.DLCD.CR.L1.CG.CD","name":"042.Currency and deposits (PSDCG, LT, <1yr) US$","source":{"id":"20","value":"Quarterly Public Sector Debt"},"sourceNote":"Member Country","sourceOrganization":"World Bank.","topics":[]},{"id":"DP.DOD.DLCD.CR.L1.CG","name":"266.Currency and deposits (PSDCG, LT, <1yr)","source":{"id":"20","value":"Quarterly Public Sector Debt"},"sourceNote":"","sourceOrganization":"","topics":[]},{"id":"DP.DOD.DLCD.CR.L1.BC.Z1","name":"522.Currency and deposits (PSDCGGB, LT, <1yr)(% of GDP)","source":{"id":"20","value":"Quarterly Public Sector Debt"},"sourceNote":"The source of non-seasonally adjusted Gross Domestic Product (GDP) data in national currency, at current prices, is the International Finance Statistics quarterly database of the IMF, annualized by the World Bank, unless otherwise specified","sourceOrganization":"","topics":[]},{"id":"DP.DOD.DLCD.CR.L1.BC.CD","name":"074.Currency and deposits (PSDCGGB, LT, <1yr) US$","source":{"id":"20","value":"Quarterly Public Sector Debt"},"sourceNote":"Member Country","sourceOrganization":"World Bank.","topics":[]},{"id":"DP.DOD.DLCD.CR.L1.BC","name":"298.Currency and deposits (PSDCGGB, LT, <1yr)","source":{"id":"20","value":"Quarterly Public Sector Debt"},"sourceNote":"","sourceOrganization":"","topics":[]},{"id":"DP.DOD.DLCD.CR.GG.Z1","name":"471.Currency and deposits (PSDGG, LT)(% of GDP)","source":{"id":"20","value":"Quarterly Public Sector Debt"},"sourceNote":"The source of non-seasonally adjusted Gross Domestic Product (GDP) data in national currency, at current prices, is the International Finance Statistics quarterly database of the IMF, annualized by the World Bank, unless otherwise specified","sourceOrganization":"","topics":[]},{"id":"DP.DOD.DLCD.CR.GG.CD","name":"023.Currency and deposits (PSDGG) US$","source":{"id":"20","value":"Quarterly Public Sector Debt"},"sourceNote":"Member Country","sourceOrganization":"World Bank.","topics":[]},{"id":"DP.DOD.DLCD.CR.GG","name":"247.Currency and deposits (PSDGG, LT)","source":{"id":"20","value":"Quarterly Public Sector Debt"},"sourceNote":"","sourceOrganization":"","topics":[]},{"id":"DP.DOD.DLCD.CR.FC.Z1","name":"599.Currency and deposits (PSDFPC)(% of GDP)","source":{"id":"20","value":"Quarterly Public Sector Debt"},"sourceNote":"The source of non-seasonally adjusted Gross Domestic Product (GDP) data in national currency, at current prices, is the International Finance Statistics quarterly database of the IMF, annualized by the World Bank, unless otherwise specified","sourceOrganization":"","topics":[]},{"id":"DP.DOD.DLCD.CR.FC.CD","name":"151.Currency and deposits (PSDFPC) US$","source":{"id":"20","value":"Quarterly Public Sector Debt"},"sourceNote":"Member Country","sourceOrganization":"World Bank.","topics":[]},{"id":"DP.DOD.DLCD.CR.FC","name":"375.Currency and deposits (PSDFPC)","source":{"id":"20","value":"Quarterly Public Sector Debt"},"sourceNote":"","sourceOrganization":"","topics":[{}]}]]