[{"page":322,"pages":324,"per_page":"50","total":16174},[{"id":"WP15172_3.5","name":"Used an account at a financial institution to pay for school fees, older adults (% ages 25+) [w2]","source":{"id":"28","value":"Global Findex ( Global Financial Inclusion database)"},"sourceNote":"Denotes the percentage of respondents who report making a payment for school fees directly from an account at a bank or another type of financial institution in the past 12 months (% age 25+). [w2: data are available for wave 2].","sourceOrganization":"Demirguc-Kunt et al., 2015","topics":[{"id":"7","value":"Financial Sector "}]},{"id":"WP15172_3.4","name":"Used an account at a financial institution to pay for school fees, young adults (% ages 15-24) [w2]","source":{"id":"28","value":"Global Findex ( Global Financial Inclusion database)"},"sourceNote":"Denotes the percentage of respondents who report making a payment for school fees directly from an account at a bank or another type of financial institution in the past 12 months (% ages 15-24). [w2: data are available for wave 2].","sourceOrganization":"Demirguc-Kunt et al., 2015","topics":[{"id":"7","value":"Financial Sector "}]},{"id":"WP15172_3.3","name":"Used an account at a financial institution to pay for school fees, female (% age 15+) [w2]","source":{"id":"28","value":"Global Findex ( Global Financial Inclusion database)"},"sourceNote":"Denotes the percentage of respondents who report making a payment for school fees directly from an account at a bank or another type of financial institution in the past 12 months (female, % age 15+). [w2: data are available for wave 2].","sourceOrganization":"Demirguc-Kunt et al., 2015","topics":[{"id":"7","value":"Financial Sector "}]},{"id":"WP15172_3.2","name":"Used an account at a financial institution to pay for school fees, male (% age 15+) [w2]","source":{"id":"28","value":"Global Findex ( Global Financial Inclusion database)"},"sourceNote":"Denotes the percentage of respondents who report making a payment for school fees directly from an account at a bank or another type of financial institution in the past 12 months (male, % age 15+). [w2: data are available for wave 2].","sourceOrganization":"Demirguc-Kunt et al., 2015","topics":[{"id":"7","value":"Financial Sector "}]},{"id":"WP15172_3.10","name":"Used an account at a financial institution to pay for school fees, rural (% age 15+) [w2]","source":{"id":"28","value":"Global Findex ( Global Financial Inclusion database)"},"sourceNote":"Denotes the percentage of respondents who report making a payment for school fees directly from an account at a bank or another type of financial institution in the past 12 months (rural, % age 15+). [w2: data are available for wave 2].","sourceOrganization":"Demirguc-Kunt et al., 2015","topics":[{"id":"7","value":"Financial Sector "}]},{"id":"WP15172_3.1","name":"Used an account at a financial institution to pay for school fees (% age 15+) [w2]","source":{"id":"28","value":"Global Findex ( Global Financial Inclusion database)"},"sourceNote":"Denotes the percentage of respondents who report making a payment for school fees directly from an account at a bank or another type of financial institution in the past 12 months (% age 15+). [w2: data are available for wave 2].","sourceOrganization":"Demirguc-Kunt et al., 2015","topics":[{"id":"7","value":"Financial Sector "}]},{"id":"WP15172.9","name":"Paid school fees in the past year, income, richest 60% (% ages 15+) [w2]","source":{"id":"28","value":"Global Findex ( Global Financial Inclusion database)"},"sourceNote":"Denotes the percentage of respondents who report personally making regular payments for school fees in the past 12 months (income, richest 60%, % age 15+). [w2: data are available for wave 2].","sourceOrganization":"Demirguc-Kunt et al., 2015","topics":[{"id":"7","value":"Financial Sector "}]},{"id":"WP15172.8","name":"Paid school fees in the past year, income, poorest 40% (% ages 15+) [w2]","source":{"id":"28","value":"Global Findex ( Global Financial Inclusion database)"},"sourceNote":"Denotes the percentage of respondents who report personally making regular payments for school fees in the past 12 months (income, poorest 40%, % age 15+). [w2: data are available for wave 2].","sourceOrganization":"Demirguc-Kunt et al., 2015","topics":[{"id":"7","value":"Financial Sector "}]},{"id":"WP15172.7","name":"Paid school fees in the past year, secondary education or more (% ages 15+) [w2]","source":{"id":"28","value":"Global Findex ( Global Financial Inclusion database)"},"sourceNote":"Denotes the percentage of respondents who report personally making regular payments for school fees in the past 12 months (secondary education or more, % age 15+). [w2: data are available for wave 2].","sourceOrganization":"Demirguc-Kunt et al., 2015","topics":[{"id":"7","value":"Financial Sector "}]},{"id":"WP15172.6","name":"Paid school fees in the past year, primary education or less (% ages 15+) [w2]","source":{"id":"28","value":"Global Findex ( Global Financial Inclusion database)"},"sourceNote":"Denotes the percentage of respondents who report personally making regular payments for school fees in the past 12 months (primary education or less, % age 15+). [w2: data are available for wave 2].","sourceOrganization":"Demirguc-Kunt et al., 2015","topics":[{"id":"7","value":"Financial Sector "}]},{"id":"WP15172.5","name":"Paid school fees in the past year, older adults (% ages 25+) [w2]","source":{"id":"28","value":"Global Findex ( Global Financial Inclusion database)"},"sourceNote":"Denotes the percentage of respondents who report personally making regular payments for school fees in the past 12 months (% age 25+). [w2: data are available for wave 2].","sourceOrganization":"Demirguc-Kunt et al., 2015","topics":[{"id":"7","value":"Financial Sector "}]},{"id":"WP15172.4","name":"Paid school fees in the past year, young adults (% ages 15-24) [w2]","source":{"id":"28","value":"Global Findex ( Global Financial Inclusion database)"},"sourceNote":"Denotes the percentage of respondents who report personally making regular payments for school fees in the past 12 months (% ages 15-24). [w2: data are available for wave 2].","sourceOrganization":"Demirguc-Kunt et al., 2015","topics":[{"id":"7","value":"Financial Sector "}]},{"id":"WP15172.3","name":"Paid school fees in the past year, female (% age 15+) [w2]","source":{"id":"28","value":"Global Findex ( Global Financial Inclusion database)"},"sourceNote":"Denotes the percentage of respondents who report personally making regular payments for school fees in the past 12 months (female, % age 15+). [w2: data are available for wave 2].","sourceOrganization":"Demirguc-Kunt et al., 2015","topics":[{"id":"7","value":"Financial Sector "}]},{"id":"WP15172.2","name":"Paid school fees in the past year, male (% age 15+) [w2]","source":{"id":"28","value":"Global Findex ( Global Financial Inclusion database)"},"sourceNote":"Denotes the percentage of respondents who report personally making regular payments for school fees in the past 12 months (male, % age 15+). [w2: data are available for wave 2].","sourceOrganization":"Demirguc-Kunt et al., 2015","topics":[{"id":"7","value":"Financial Sector "}]},{"id":"WP15172.10","name":"Paid school fees in the past year, rural (% age 15+) [w2]","source":{"id":"28","value":"Global Findex ( Global Financial Inclusion database)"},"sourceNote":"Denotes the percentage of respondents who report personally making regular payments for school fees in the past 12 months (rural, % age 15+). [w2: data are available for wave 2].","sourceOrganization":"Demirguc-Kunt et al., 2015","topics":[{"id":"7","value":"Financial Sector "}]},{"id":"WP15172.1","name":"Paid school fees in the past year (% age 15+) [w2]","source":{"id":"28","value":"Global Findex ( Global Financial Inclusion database)"},"sourceNote":"Denotes the percentage of respondents who report personally making regular payments for school fees in the past 12 months (% age 15+). [w2: data are available for wave 2].","sourceOrganization":"Demirguc-Kunt et al., 2015","topics":[{"id":"7","value":"Financial Sector "}]},{"id":"WP15171.1","name":"Sent domestic remittances: through a money transfer operator (% senders, age 15+) [w2]","source":{"id":"28","value":"Global Findex ( Global Financial Inclusion database)"},"sourceNote":"Denotes, among respondents reporting personally giving or sending any of their money in the past 12 months to a relative or friend living in a different area of their country, the percentage who sent it through a money transfer operator (% senders, age 15+). [w2: data are available for wave 2].","sourceOrganization":"Demirguc-Kunt et al., 2015","topics":[{"id":"7","value":"Financial Sector "}]},{"id":"WP15170.1","name":"Sent domestic remittances: through a mobile phone (% senders, age 15+) [w2]","source":{"id":"28","value":"Global Findex ( Global Financial Inclusion database)"},"sourceNote":"Denotes, among respondents reporting personally giving or sending any of their money in the past 12 months to a relative or friend living in a different area of their country, the percentage who sent it through a mobile phone, using their own account or someone else's (% senders, age 15+). [w2: data are available for wave 2].","sourceOrganization":"Demirguc-Kunt et al., 2015","topics":[{"id":"7","value":"Financial Sector "}]},{"id":"WP15169.1","name":"Sent domestic remittances: through a financial institution (% senders, age 15+) [w2]","source":{"id":"28","value":"Global Findex ( Global Financial Inclusion database)"},"sourceNote":"Denotes, among respondents reporting personally giving or sending any of their money in the past 12 months to a relative or friend living in a different area of their country, the percentage who sent it through a bank or another type of financial institution. This includes at a branch, at an ATM, or through direct deposit into an account, using their own account or someone else's (% senders, age 15+). [w2: data are available for wave 2].","sourceOrganization":"Demirguc-Kunt et al., 2015","topics":[{"id":"7","value":"Financial Sector "}]},{"id":"WP15168.1","name":"Sent domestic remittances: in person and in cash (% senders, age 15+) [w2]","source":{"id":"28","value":"Global Findex ( Global Financial Inclusion database)"},"sourceNote":"Denotes, among respondents reporting personally giving or sending any of their money in the past 12 months to a relative or friend living in a different area of their country, the percentage who did so by handing cash to the recipient or sending it through someone they know (% senders, age 15+). [w2: data are available for wave 2].","sourceOrganization":"Demirguc-Kunt et al., 2015","topics":[{"id":"7","value":"Financial Sector "}]},{"id":"WP15167.9","name":"Outstanding mortgage, income, richest 60% (% ages 15+) [w2]","source":{"id":"28","value":"Global Findex ( Global Financial Inclusion database)"},"sourceNote":"Denotes the percentage of respondents who report having an outstanding loan (by themselves or together with someone else) from a bank or another type of financial institution to purchase a home, an apartment, or land (income, richest 60%, % age 15+). [w2: data are available for wave 2].","sourceOrganization":"Demirguc-Kunt et al., 2015","topics":[{"id":"7","value":"Financial Sector "}]},{"id":"WP15167.8","name":"Outstanding mortgage, income, poorest 40% (% ages 15+) [w2]","source":{"id":"28","value":"Global Findex ( Global Financial Inclusion database)"},"sourceNote":"Denotes the percentage of respondents who report having an outstanding loan (by themselves or together with someone else) from a bank or another type of financial institution to purchase a home, an apartment, or land (income, poorest 40%, % age 15+). [w2: data are available for wave 2].","sourceOrganization":"Demirguc-Kunt et al., 2015","topics":[{"id":"7","value":"Financial Sector "}]},{"id":"WP15167.7","name":"Outstanding mortgage, secondary education or more (% ages 15+) [w2]","source":{"id":"28","value":"Global Findex ( Global Financial Inclusion database)"},"sourceNote":"Denotes the percentage of respondents who report having an outstanding loan (by themselves or together with someone else) from a bank or another type of financial institution to purchase a home, an apartment, or land (secondary education or more, % age 15+). [w2: data are available for wave 2].","sourceOrganization":"Demirguc-Kunt et al., 2015","topics":[{"id":"7","value":"Financial Sector "}]},{"id":"WP15167.6","name":"Outstanding mortgage, primary education or less (% ages 15+) [w2]","source":{"id":"28","value":"Global Findex ( Global Financial Inclusion database)"},"sourceNote":"Denotes the percentage of respondents who report having an outstanding loan (by themselves or together with someone else) from a bank or another type of financial institution to purchase a home, an apartment, or land (primary education or less, % age 15+). [w2: data are available for wave 2].","sourceOrganization":"Demirguc-Kunt et al., 2015","topics":[{"id":"7","value":"Financial Sector "}]},{"id":"WP15167.5","name":"Outstanding mortgage, older adults (% ages 25+) [w2]","source":{"id":"28","value":"Global Findex ( Global Financial Inclusion database)"},"sourceNote":"Denotes the percentage of respondents who report having an outstanding loan (by themselves or together with someone else) from a bank or another type of financial institution to purchase a home, an apartment, or land (% age 25+). [w2: data are available for wave 2].","sourceOrganization":"Demirguc-Kunt et al., 2015","topics":[{"id":"7","value":"Financial Sector "}]},{"id":"WP15167.4","name":"Outstanding mortgage, young adults (% ages 15-24) [w2]","source":{"id":"28","value":"Global Findex ( Global Financial Inclusion database)"},"sourceNote":"Denotes the percentage of respondents who report having an outstanding loan (by themselves or together with someone else) from a bank or another type of financial institution to purchase a home, an apartment, or land (% ages 15-24). [w2: data are available for wave 2].","sourceOrganization":"Demirguc-Kunt et al., 2015","topics":[{"id":"7","value":"Financial Sector "}]},{"id":"WP15167.3","name":"Outstanding mortgage, female (% age 15+) [w2]","source":{"id":"28","value":"Global Findex ( Global Financial Inclusion database)"},"sourceNote":"Denotes the percentage of respondents who report having an outstanding loan (by themselves or together with someone else) from a bank or another type of financial institution to purchase a home, an apartment, or land (female, % age 15+). [w2: data are available for wave 2].","sourceOrganization":"Demirguc-Kunt et al., 2015","topics":[{"id":"7","value":"Financial Sector "}]},{"id":"WP15167.2","name":"Outstanding mortgage, male (% age 15+) [w2]","source":{"id":"28","value":"Global Findex ( Global Financial Inclusion database)"},"sourceNote":"Denotes the percentage of respondents who report having an outstanding loan (by themselves or together with someone else) from a bank or another type of financial institution to purchase a home, an apartment, or land (male, % age 15+). [w2: data are available for wave 2].","sourceOrganization":"Demirguc-Kunt et al., 2015","topics":[{"id":"7","value":"Financial Sector "}]},{"id":"WP15167.10","name":"Outstanding mortgage, rural (% age 15+) [w2]","source":{"id":"28","value":"Global Findex ( Global Financial Inclusion database)"},"sourceNote":"Denotes the percentage of respondents who report having an outstanding loan (by themselves or together with someone else) from a bank or another type of financial institution to purchase a home, an apartment, or land (rural, % age 15+). [w2: data are available for wave 2].","sourceOrganization":"Demirguc-Kunt et al., 2015","topics":[{"id":"7","value":"Financial Sector "}]},{"id":"WP15167.1","name":"Outstanding mortgage (% age 15+) [w2]","source":{"id":"28","value":"Global Findex ( Global Financial Inclusion database)"},"sourceNote":"Denotes the percentage of respondents who report having an outstanding loan (by themselves or together with someone else) from a bank or another type of financial institution to purchase a home, an apartment, or land (% age 15+). [w2: data are available for wave 2].","sourceOrganization":"Demirguc-Kunt et al., 2015","topics":[{"id":"7","value":"Financial Sector "}]},{"id":"WP15166.9","name":"Saved using a savings club or a person outside the family, income, richest 60% (% ages 15+) [w2]","source":{"id":"28","value":"Global Findex ( Global Financial Inclusion database)"},"sourceNote":"Denotes the percentage of respondents who report saving or setting aside any money in the past 12 months by using an informal savings club or a person outside the family (income, richest 60%, % age 15+). [w2: data are available for wave 2].","sourceOrganization":"Demirguc-Kunt et al., 2015","topics":[{"id":"7","value":"Financial Sector "}]},{"id":"WP15166.8","name":"Saved using a savings club or a person outside the family, income, poorest 40% (% ages 15+) [w2]","source":{"id":"28","value":"Global Findex ( Global Financial Inclusion database)"},"sourceNote":"Denotes the percentage of respondents who report saving or setting aside any money in the past 12 months by using an informal savings club or a person outside the family (income, poorest 40%, % age 15+). [w2: data are available for wave 2].","sourceOrganization":"Demirguc-Kunt et al., 2015","topics":[{"id":"7","value":"Financial Sector "}]},{"id":"WP15166.7","name":"Saved using a savings club or a person outside the family, secondary education or more (% ages 15+) [w2]","source":{"id":"28","value":"Global Findex ( Global Financial Inclusion database)"},"sourceNote":"Denotes the percentage of respondents who report saving or setting aside any money in the past 12 months by using an informal savings club or a person outside the family (secondary education or more, % age 15+). [w2: data are available for wave 2].","sourceOrganization":"Demirguc-Kunt et al., 2015","topics":[{"id":"7","value":"Financial Sector "}]},{"id":"WP15166.6","name":"Saved using a savings club or a person outside the family, primary education or less (% ages 15+) [w2]","source":{"id":"28","value":"Global Findex ( Global Financial Inclusion database)"},"sourceNote":"Denotes the percentage of respondents who report saving or setting aside any money in the past 12 months by using an informal savings club or a person outside the family (primary education or less, % age 15+). [w2: data are available for wave 2].","sourceOrganization":"Demirguc-Kunt et al., 2015","topics":[{"id":"7","value":"Financial Sector "}]},{"id":"WP15166.5","name":"Saved using a savings club or a person outside the family, older adults (% ages 25+) [w2]","source":{"id":"28","value":"Global Findex ( Global Financial Inclusion database)"},"sourceNote":"Denotes the percentage of respondents who report saving or setting aside any money in the past 12 months by using an informal savings club or a person outside the family (% age 25+). [w2: data are available for wave 2].","sourceOrganization":"Demirguc-Kunt et al., 2015","topics":[{"id":"7","value":"Financial Sector "}]},{"id":"WP15166.4","name":"Saved using a savings club or a person outside the family, young adults (% ages 15-24) [w2]","source":{"id":"28","value":"Global Findex ( Global Financial Inclusion database)"},"sourceNote":"Denotes the percentage of respondents who report saving or setting aside any money in the past 12 months by using an informal savings club or a person outside the family (% ages 15-24). [w2: data are available for wave 2].","sourceOrganization":"Demirguc-Kunt et al., 2015","topics":[{"id":"7","value":"Financial Sector "}]},{"id":"WP15166.3","name":"Saved using a savings club or a person outside the family, female (% age 15+) [w2]","source":{"id":"28","value":"Global Findex ( Global Financial Inclusion database)"},"sourceNote":"Denotes the percentage of respondents who report saving or setting aside any money in the past 12 months by using an informal savings club or a person outside the family (female, % age 15+). [w2: data are available for wave 2].","sourceOrganization":"Demirguc-Kunt et al., 2015","topics":[{"id":"7","value":"Financial Sector "}]},{"id":"WP15166.2","name":"Saved using a savings club or a person outside the family, male (% age 15+) [w2]","source":{"id":"28","value":"Global Findex ( Global Financial Inclusion database)"},"sourceNote":"Denotes the percentage of respondents who report saving or setting aside any money in the past 12 months by using an informal savings club or a person outside the family (male, % age 15+). [w2: data are available for wave 2].","sourceOrganization":"Demirguc-Kunt et al., 2015","topics":[{"id":"7","value":"Financial Sector "}]},{"id":"WP15166.10","name":"Saved using a savings club or a person outside the family, rural (% age 15+) [w2]","source":{"id":"28","value":"Global Findex ( Global Financial Inclusion database)"},"sourceNote":"Denotes the percentage of respondents who report saving or setting aside any money in the past 12 months by using an informal savings club or a person outside the family (rural, % age 15+). [w2: data are available for wave 2].","sourceOrganization":"Demirguc-Kunt et al., 2015","topics":[{"id":"7","value":"Financial Sector "}]},{"id":"WP15166.1","name":"Saved using a savings club or a person outside the family (% age 15+) [w2]","source":{"id":"28","value":"Global Findex ( Global Financial Inclusion database)"},"sourceNote":"Denotes the percentage of respondents who report saving or setting aside any money in the past 12 months by using an informal savings club or a person outside the family (% age 15+). [w2: data are available for wave 2].","sourceOrganization":"Demirguc-Kunt et al., 2015","topics":[{"id":"7","value":"Financial Sector "}]},{"id":"WP15165.9","name":"Saved at a financial institution, income, richest 60% (% ages 15+) [w2]","source":{"id":"28","value":"Global Findex ( Global Financial Inclusion database)"},"sourceNote":"Denotes the percentage of respondents who report saving or setting aside any money in the past 12 months by using an account at a bank or another type of financial institution (income, richest 60%, % age 15+). [w2: data are available for wave 2].","sourceOrganization":"Demirguc-Kunt et al., 2015","topics":[{"id":"7","value":"Financial Sector "}]},{"id":"WP15165.8","name":"Saved at a financial institution, income, poorest 40% (% ages 15+) [w2]","source":{"id":"28","value":"Global Findex ( Global Financial Inclusion database)"},"sourceNote":"Denotes the percentage of respondents who report saving or setting aside any money in the past 12 months by using an account at a bank or another type of financial institution (income, poorest 40%, % age 15+). [w2: data are available for wave 2].","sourceOrganization":"Demirguc-Kunt et al., 2015","topics":[{"id":"7","value":"Financial Sector "}]},{"id":"WP15165.7","name":"Saved at a financial institution, secondary education or more (% ages 15+) [w2]","source":{"id":"28","value":"Global Findex ( Global Financial Inclusion database)"},"sourceNote":"Denotes the percentage of respondents who report saving or setting aside any money in the past 12 months by using an account at a bank or another type of financial institution (secondary education or more, % age 15+). [w2: data are available for wave 2].","sourceOrganization":"Demirguc-Kunt et al., 2015","topics":[{"id":"7","value":"Financial Sector "}]},{"id":"WP15165.6","name":"Saved at a financial institution, primary education or less (% ages 15+) [w2]","source":{"id":"28","value":"Global Findex ( Global Financial Inclusion database)"},"sourceNote":"Denotes the percentage of respondents who report saving or setting aside any money in the past 12 months by using an account at a bank or another type of financial institution (primary education or less, % age 15+). [w2: data are available for wave 2].","sourceOrganization":"Demirguc-Kunt et al., 2015","topics":[{"id":"7","value":"Financial Sector "}]},{"id":"WP15165.5","name":"Saved at a financial institution, older adults (% ages 25+) [w2]","source":{"id":"28","value":"Global Findex ( Global Financial Inclusion database)"},"sourceNote":"Denotes the percentage of respondents who report saving or setting aside any money in the past 12 months by using an account at a bank or another type of financial institution (% age 25+). [w2: data are available for wave 2].","sourceOrganization":"Demirguc-Kunt et al., 2015","topics":[{"id":"7","value":"Financial Sector "}]},{"id":"WP15165.4","name":"Saved at a financial institution, young adults (% ages 15-24) [w2]","source":{"id":"28","value":"Global Findex ( Global Financial Inclusion database)"},"sourceNote":"Denotes the percentage of respondents who report saving or setting aside any money in the past 12 months by using an account at a bank or another type of financial institution (% ages 15-24). [w2: data are available for wave 2].","sourceOrganization":"Demirguc-Kunt et al., 2015","topics":[{"id":"7","value":"Financial Sector "}]},{"id":"WP15165.3","name":"Saved at a financial institution, female (% age 15+) [w2]","source":{"id":"28","value":"Global Findex ( Global Financial Inclusion database)"},"sourceNote":"Denotes the percentage of respondents who report saving or setting aside any money in the past 12 months by using an account at a bank or another type of financial institution (female, % age 15+). [w2: data are available for wave 2].","sourceOrganization":"Demirguc-Kunt et al., 2015","topics":[{"id":"7","value":"Financial Sector "}]},{"id":"WP15165.2","name":"Saved at a financial institution, male (% age 15+) [w2]","source":{"id":"28","value":"Global Findex ( Global Financial Inclusion database)"},"sourceNote":"Denotes the percentage of respondents who report saving or setting aside any money in the past 12 months by using an account at a bank or another type of financial institution (male, % age 15+). [w2: data are available for wave 2].","sourceOrganization":"Demirguc-Kunt et al., 2015","topics":[{"id":"7","value":"Financial Sector "}]},{"id":"WP15165.10","name":"Saved at a financial institution, rural (% age 15+) [w2]","source":{"id":"28","value":"Global Findex ( Global Financial Inclusion database)"},"sourceNote":"Denotes the percentage of respondents who report saving or setting aside any money in the past 12 months by using an account at a bank or another type of financial institution (rural, % age 15+). [w2: data are available for wave 2].","sourceOrganization":"Demirguc-Kunt et al., 2015","topics":[{"id":"7","value":"Financial Sector "}]},{"id":"WP15165.1","name":"Saved at a financial institution (% age 15+) [w2]","source":{"id":"28","value":"Global Findex ( Global Financial Inclusion database)"},"sourceNote":"Denotes the percentage of respondents who report saving or setting aside any money in the past 12 months by using an account at a bank or another type of financial institution (% age 15+). [w2: data are available for wave 2].","sourceOrganization":"Demirguc-Kunt et al., 2015","topics":[{"id":"7","value":"Financial Sector "}]}]]