[{"page":248,"pages":324,"per_page":"50","total":16174},[{"id":"SE.PRM.AGES","name":"Official entrance age to primary education (years)","source":{"id":"2","value":"World Development Indicators"},"sourceNote":"Age at which students would enter primary education, assuming they had started at the official entrance age for the lowest level of education, had studied full-time throughout and had progressed through the system without repeating or skipping a grade.","sourceOrganization":"UNESCO Institute for Statistics","topics":[{"id":"4","value":"Education "}]},{"id":"SE.PRE.TCHR.FE.ZS","name":"Percentage of teachers in pre-primary education who are female (%)","source":{"id":"12","value":"Education Statistics"},"sourceNote":"Number of female teachers at the pre-primary level expressed as a percentage of the total number of teachers (male and female) at the pre-primary level in a given school year. Teachers are persons employed full time or part time in an official capacity to guide and direct the learning experience of pupils and students, irrespective of their qualifications or the delivery mechanism, i.e. face-to-face and\/or at a distance. This definition excludes educational personnel who have no active teaching duties (e.g. headmasters, headmistresses or principals who do not teach) and persons who work occasionally or in a voluntary capacity in educational institutions.","sourceOrganization":"UNESCO Institute for Statistics","topics":[{"id":"4","value":"Education "}]},{"id":"SE.PRE.TCHR.FE","name":"Teachers in pre-primary education, female (number)","source":{"id":"12","value":"Education Statistics"},"sourceNote":"Total number of female teachers in public and private pre-primary education institutions. Teachers are persons employed full time or part time in an official capacity to guide and direct the learning experience of pupils and students, irrespective of their qualifications or the delivery mechanism, i.e. face-to-face and\/or at a distance. This definition excludes educational personnel who have no active teaching duties (e.g. headmasters, headmistresses or principals who do not teach) and persons who work occasionally or in a voluntary capacity in educational institutions.","sourceOrganization":"UNESCO Institute for Statistics","topics":[{"id":"4","value":"Education "}]},{"id":"SE.PRE.TCHR","name":"Teachers in pre-primary education, both sexes (number)","source":{"id":"12","value":"Education Statistics"},"sourceNote":"Total number of teachers in public and private pre-primary education institutions. Teachers are persons employed full time or part time in an official capacity to guide and direct the learning experience of pupils and students, irrespective of their qualifications or the delivery mechanism, i.e. face-to-face and\/or at a distance. This definition excludes educational personnel who have no active teaching duties (e.g. headmasters, headmistresses or principals who do not teach) and persons who work occasionally or in a voluntary capacity in educational institutions.","sourceOrganization":"UNESCO Institute for Statistics","topics":[{"id":"4","value":"Education "}]},{"id":"SE.PRE.TCAQ.ZS","name":"Trained teachers in preprimary education (% of total teachers)","source":{"id":"2","value":"World Development Indicators"},"sourceNote":"Trained teachers in preprimary education are the percentage of preprimary school teachers who have received the minimum organized teacher training (pre-service or in-service) required for teaching in a given country.","sourceOrganization":"United Nations Educational, Scientific, and Cultural Organization (UNESCO) Institute for Statistics.","topics":[{"id":"4","value":"Education "}]},{"id":"SE.PRE.TCAQ.MA.ZS","name":"Trained teachers in preprimary education, male (% of male teachers)","source":{"id":"2","value":"World Development Indicators"},"sourceNote":"Trained teachers in preprimary education are the percentage of preprimary school teachers who have received the minimum organized teacher training (pre-service or in-service) required for teaching in a given country.","sourceOrganization":"United Nations Educational, Scientific, and Cultural Organization (UNESCO) Institute for Statistics.","topics":[{"id":"4","value":"Education "}]},{"id":"SE.PRE.TCAQ.FE.ZS","name":"Trained teachers in preprimary education, female (% of female teachers)","source":{"id":"2","value":"World Development Indicators"},"sourceNote":"Trained teachers in preprimary education are the percentage of preprimary school teachers who have received the minimum organized teacher training (pre-service or in-service) required for teaching in a given country.","sourceOrganization":"United Nations Educational, Scientific, and Cultural Organization (UNESCO) Institute for Statistics.","topics":[{"id":"4","value":"Education "}]},{"id":"SE.PRE.PRIV.ZS","name":"Percentage of enrolment in pre-primary education in private institutions (%)","source":{"id":"12","value":"Education Statistics"},"sourceNote":"Total number of students in pre-primary education enrolled in institutions that are not operated by a public authority but controlled and managed, whether for profit or not, by a private body (e.g., non-governmental organisation, religious body, special interest group, foundation or business enterprise), expressed as a percentage of total number of students enrolled in pre-primary education.","sourceOrganization":"UNESCO Institute for Statistics","topics":[{"id":"4","value":"Education "}]},{"id":"SE.PRE.NENR.MA","name":"Net enrolment rate, pre-primary, male (%)","source":{"id":"12","value":"Education Statistics"},"sourceNote":"Total number of male students in the theoretical age group for pre-primary education enrolled in that level, expressed as a percentage of the total male population in that age group. Divide the number of male students enrolled who are of the official age group for pre-primary education by the male population for the same age group and multiply the result by 100. NER at each level of education should be based on enrolment of the relevant age group in all types of schools and education institutions, including public, private and all other institutions that provide organized educational programmes.","sourceOrganization":"UNESCO Institute for Statistics","topics":[{"id":"4","value":"Education "}]},{"id":"SE.PRE.NENR.FE","name":"Net enrolment rate, pre-primary, female (%)","source":{"id":"12","value":"Education Statistics"},"sourceNote":"Total number of female students in the theoretical age group for pre-primary education enrolled in that level, expressed as a percentage of the total female population in that age group. Divide the number of female students enrolled who are of the official age group for pre-primary education by the female population for the same age group and multiply the result by 100. NER at each level of education should be based on enrolment of the relevant age group in all types of schools and education institutions, including public, private and all other institutions that provide organized educational programmes.","sourceOrganization":"UNESCO Institute for Statistics","topics":[{"id":"4","value":"Education "}]},{"id":"SE.PRE.NENR","name":"Net enrolment rate, pre-primary, both sexes (%)","source":{"id":"12","value":"Education Statistics"},"sourceNote":"Total number of students in the theoretical age group for pre-primary education enrolled in that level, expressed as a percentage of the total population in that age group. Divide the number of students enrolled who are of the official age group for pre-primary education by the population for the same age group and multiply the result by 100. NER at each level of education should be based on enrolment of the relevant age group in all types of schools and education institutions, including public, private and all other institutions that provide organized educational programmes.","sourceOrganization":"UNESCO Institute for Statistics","topics":[{"id":"4","value":"Education "}]},{"id":"SE.PRE.ENRR.MA","name":"Gross enrolment ratio, pre-primary, male (%)","source":{"id":"2","value":"World Development Indicators"},"sourceNote":"Total male enrollment in pre-primary education, regardless of age, expressed as a percentage of the total male population of official pre-primary education age. GER can exceed 100% due to the inclusion of over-aged and under-aged students because of early or late school entrance and grade repetition.","sourceOrganization":"UNESCO Institute for Statistics","topics":[{"id":"4","value":"Education "},{"id":"17","value":"Gender"}]},{"id":"SE.PRE.ENRR.FE","name":"Gross enrolment ratio, pre-primary, female (%)","source":{"id":"2","value":"World Development Indicators"},"sourceNote":"Total female enrollment in pre-primary education, regardless of age, expressed as a percentage of the total female population of official pre-primary education age. GER can exceed 100% due to the inclusion of over-aged and under-aged students because of early or late school entrance and grade repetition.","sourceOrganization":"UNESCO Institute for Statistics","topics":[{"id":"4","value":"Education "},{"id":"17","value":"Gender"}]},{"id":"SE.PRE.ENRR","name":"Gross enrolment ratio, pre-primary, both sexes (%)","source":{"id":"2","value":"World Development Indicators"},"sourceNote":"Total enrollment in pre-primary education, regardless of age, expressed as a percentage of the total population of official pre-primary education age. GER can exceed 100% due to the inclusion of over-aged and under-aged students because of early or late school entrance and grade repetition.","sourceOrganization":"UNESCO Institute for Statistics","topics":[{"id":"4","value":"Education "}]},{"id":"SE.PRE.ENRL.TC.ZS","name":"Pupil-teacher ratio in pre-primary education (headcount basis)","source":{"id":"2","value":"World Development Indicators"},"sourceNote":"Average number of pupils per teacher at a given level of education, based on headcounts of both pupils and teachers. Divide the total number of pupils enrolled at the specified level of education by the number of teachers at the same level. In computing and interpreting this indicator, one should take into account the existence of part-time teaching, school-shifts, multi-grade classes and other practices that may affect the precision and meaningfulness of pupil-teacher ratios. When feasible, the number of part-time teachers is converted to ‘full-time equivalent’ teachers; a double-shift teacher is counted twice, etc. Teachers are defined as persons whose professional activity involves the transmitting of knowledge, attitudes and skills that are stipulated in a formal curriculum programme to students enrolled in a formal educational institution.","sourceOrganization":"UNESCO Institute for Statistics","topics":[{"id":"4","value":"Education "}]},{"id":"SE.PRE.ENRL.FE.ZS","name":"Percentage of students in pre-primary education who are female (%)","source":{"id":"12","value":"Education Statistics"},"sourceNote":"Total number of female students at the pre-primary level expressed as a percentage of the total number of students (male and female) at the pre-primary level in a given school year.","sourceOrganization":"UNESCO Institute for Statistics","topics":[{"id":"4","value":"Education "}]},{"id":"SE.PRE.ENRL.FE","name":"Enrolment in pre-primary education, female (number)","source":{"id":"12","value":"Education Statistics"},"sourceNote":"Total number of female students enrolled in public and private pre-primary education institutions regardless of age.","sourceOrganization":"UNESCO Institute for Statistics","topics":[{"id":"4","value":"Education "}]},{"id":"SE.PRE.ENRL","name":"Enrolment in pre-primary education, both sexes (number)","source":{"id":"12","value":"Education Statistics"},"sourceNote":"Total number of students enrolled in public and private pre-primary education institutions regardless of age.","sourceOrganization":"UNESCO Institute for Statistics","topics":[{"id":"4","value":"Education "}]},{"id":"SE.PRE.DURS","name":"Preprimary education, duration (years)","source":{"id":"2","value":"World Development Indicators"},"sourceNote":"Preprimary duration refers to the number of grades (years) in preprimary school.","sourceOrganization":"United Nations Educational, Scientific, and Cultural Organization (UNESCO) Institute for Statistics.","topics":[{"id":"4","value":"Education "}]},{"id":"SE.NEXM.SCR.SRSEC","name":"Average National Exam Score: Senior Secondary Level (out of 100, available only in district level for 2009)","source":{"id":"45","value":"INDO-DAPOER"},"sourceNote":"","sourceOrganization":"Ministry of Education","topics":[]},{"id":"SE.NEXM.SCR.PRM","name":"Average National Exam Score: Primary Level (out of 100, available only in district level for 2009)","source":{"id":"45","value":"INDO-DAPOER"},"sourceNote":"","sourceOrganization":"Ministry of Education","topics":[]},{"id":"SE.NEXM.SCR.JRSEC","name":"Average National Exam Score: Junior Secondary Level (out of 100, available only in district level for 2009)","source":{"id":"45","value":"INDO-DAPOER"},"sourceNote":"","sourceOrganization":"Ministry of Education","topics":[]},{"id":"SE.NED.HIAT.MA.ZS","name":"Educational attainment, no schooling, population 25+ years, male (%)","source":{"id":"14","value":"Gender Statistics"},"sourceNote":"The percentage of population ages 25 and over that have no education.","sourceOrganization":"United Nations Educational, Scientific, and Cultural Organization (UNESCO) Institute for Statistics.","topics":[{"id":"17","value":"Gender"}]},{"id":"SE.NED.HIAT.FE.ZS","name":"Educational attainment, no schooling, population 25+ years, female (%)","source":{"id":"14","value":"Gender Statistics"},"sourceNote":"The percentage of population ages 25 and over that have no education.","sourceOrganization":"United Nations Educational, Scientific, and Cultural Organization (UNESCO) Institute for Statistics.","topics":[{"id":"17","value":"Gender"}]},{"id":"SE.LITR.15UP.ZS","name":"Literacy Rate for Population age 15 and over (in % of total population)","source":{"id":"45","value":"INDO-DAPOER"},"sourceNote":"","sourceOrganization":"BADAN PUSAT STATISTIK - Statistics Indonesia, National Social Economic Survey (SUSENAS)","topics":[]},{"id":"SE.JRSEC.NENR.ZS","name":"Net Enrollment Ratio: Junior Secondary (in %)","source":{"id":"45","value":"INDO-DAPOER"},"sourceNote":"","sourceOrganization":"BADAN PUSAT STATISTIK - Statistics Indonesia, National Social Economic Survey (SUSENAS)","topics":[]},{"id":"SE.IPR.HIAT.ZS","name":"Educational attainment, some primary, population 25+ years, total (%)","source":{"id":"14","value":"Gender Statistics"},"sourceNote":"The percentage of population ages 25 and over that attained some primary education as the highest level of education.","sourceOrganization":"United Nations Educational, Scientific, and Cultural Organization (UNESCO) Institute for Statistics.","topics":[{"id":"17","value":"Gender"}]},{"id":"SE.IPR.HIAT.MA.ZS","name":"Educational attainment, some primary, population 25+ years, male (%)","source":{"id":"14","value":"Gender Statistics"},"sourceNote":"The percentage of population ages 25 and over that attained some primary education as the highest level of education.","sourceOrganization":"United Nations Educational, Scientific, and Cultural Organization (UNESCO) Institute for Statistics.","topics":[{"id":"17","value":"Gender"}]},{"id":"SE.IPR.HIAT.FE.ZS","name":"Educational attainment, some primary, population 25+ years, female (%)","source":{"id":"14","value":"Gender Statistics"},"sourceNote":"The percentage of population ages 25 and over that attained some primary education as the highest level of education.","sourceOrganization":"United Nations Educational, Scientific, and Cultural Organization (UNESCO) Institute for Statistics.","topics":[{"id":"17","value":"Gender"}]},{"id":"SE.ENR.TERT.FM.ZS","name":"School enrollment, tertiary (gross), gender parity index (GPI)","source":{"id":"2","value":"World Development Indicators"},"sourceNote":"Gender parity index for gross enrollment ratio in tertiary education is the ratio of women to men enrolled at tertiary level in public and private schools.","sourceOrganization":"United Nations Educational, Scientific, and Cultural Organization (UNESCO) Institute for Statistics.","topics":[{"id":"4","value":"Education "},{"id":"17","value":"Gender"},{"id":"15","value":"Social Development "}]},{"id":"SE.ENR.SECO.FM.ZS","name":"School enrollment, secondary (gross), gender parity index (GPI)","source":{"id":"2","value":"World Development Indicators"},"sourceNote":"Gender parity index for gross enrollment ratio in secondary education is the ratio of girls to boys enrolled at secondary level in public and private schools.","sourceOrganization":"United Nations Educational, Scientific, and Cultural Organization (UNESCO) Institute for Statistics.","topics":[{"id":"4","value":"Education "},{"id":"17","value":"Gender"},{"id":"15","value":"Social Development "}]},{"id":"SE.ENR.PRSC.FM.ZS.GL","name":"Ratio of girls to boys in primary and secondary education (%), path to goal","source":{"id":"19","value":"Millennium Development Goals"},"sourceNote":"This indicator is created for the use of DDP chart. Values are linear growth \"path\" to achieving the goal by 2015, given the initial value around 1990.","sourceOrganization":"World Bank staff estimates","topics":[{"id":"18","value":"Millenium development goals"}]},{"id":"SE.ENR.PRSC.FM.ZS","name":"School enrollment, primary and secondary (gross), gender parity index (GPI)","source":{"id":"2","value":"World Development Indicators"},"sourceNote":"Gender parity index for gross enrollment ratio in primary and secondary education is the ratio of girls to boys enrolled at primary and secondary levels in public and private schools.","sourceOrganization":"United Nations Educational, Scientific, and Cultural Organization (UNESCO) Institute for Statistics.","topics":[{"id":"2","value":"Aid Effectiveness "},{"id":"19","value":"Climate Change"},{"id":"4","value":"Education "},{"id":"17","value":"Gender"},{"id":"15","value":"Social Development "}]},{"id":"SE.ENR.PRIM.FM.ZS","name":"School enrollment, primary (gross), gender parity index (GPI)","source":{"id":"2","value":"World Development Indicators"},"sourceNote":"Gender parity index for gross enrollment ratio in primary education is the ratio of girls to boys enrolled at primary level in public and private schools.","sourceOrganization":"United Nations Educational, Scientific, and Cultural Organization (UNESCO) Institute for Statistics.","topics":[{"id":"4","value":"Education "},{"id":"17","value":"Gender"},{"id":"15","value":"Social Development "}]},{"id":"SE.ENR.ORPH","name":"Ratio of school attendance of orphans to school attendance of non-orphans ages 10-14","source":{"id":"16","value":"Health Nutrition and Population Statistics"},"sourceNote":"Ratio of school attendance of orphans to school attendance of non orphans is the ratio of school attendance of orphans to school attendance of non orphans ages 10-14.","sourceOrganization":"United Nations Children's Fund (UNICEF) (UN MDG site).","topics":[]},{"id":"SE.COM.DURS","name":"Duration of compulsory education (years)","source":{"id":"2","value":"World Development Indicators"},"sourceNote":"Number of years that children are legally obliged to attend school.","sourceOrganization":"UNESCO Institute for Statistics","topics":[{"id":"4","value":"Education "}]},{"id":"SE.ADT.LITR.ZS","name":"Adult literacy rate, population 15+ years, both sexes (%)","source":{"id":"2","value":"World Development Indicators"},"sourceNote":"Percentage of the population age 15 and above who can, with understanding, read and write a short, simple statement on their everyday life. Generally, ‘literacy’ also encompasses ‘numeracy’, the ability to make simple arithmetic calculations. This indicator is calculated by dividing the number of literates aged 15 years and over by the corresponding age group population and multiplying the result by 100.","sourceOrganization":"UNESCO Institute for Statistics","topics":[{"id":"4","value":"Education "}]},{"id":"SE.ADT.LITR.MA.ZS","name":"Literacy rate, adult male (% of males ages 15 and above)","source":{"id":"2","value":"World Development Indicators"},"sourceNote":"Adult literacy rate is the percentage of people ages 15 and above who can both read and write with understanding a short simple statement about their everyday life.","sourceOrganization":"United Nations Educational, Scientific, and Cultural Organization (UNESCO) Institute for Statistics.","topics":[{"id":"4","value":"Education "},{"id":"17","value":"Gender"}]},{"id":"SE.ADT.LITR.FE.ZS","name":"Literacy rate, adult female (% of females ages 15 and above)","source":{"id":"2","value":"World Development Indicators"},"sourceNote":"Adult literacy rate is the percentage of people ages 15 and above who can both read and write with understanding a short simple statement about their everyday life.","sourceOrganization":"United Nations Educational, Scientific, and Cultural Organization (UNESCO) Institute for Statistics.","topics":[{"id":"17","value":"Gender"},{"id":"4","value":"Education "}]},{"id":"SE.ADT.1524.LT.ZS","name":"Youth literacy rate, population 15-24 years, both sexes (%)","source":{"id":"2","value":"World Development Indicators"},"sourceNote":"Number of people age 15 to 24 years who can both read and write with understanding a short simple statement on their everyday life, divided by the population in that age group. Generally, ‘literacy’ also encompasses ‘numeracy’, the ability to make simple arithmetic calculations. Divide the number of people aged 15 to 24 years who are literate by the total population in the same age group and multiply the result by 100.","sourceOrganization":"UNESCO Institute for Statistics","topics":[{"id":"4","value":"Education "}]},{"id":"SE.ADT.1524.LT.MA.ZS","name":"Literacy rate, youth male (% of males ages 15-24)","source":{"id":"2","value":"World Development Indicators"},"sourceNote":"Youth literacy rate is the percentage of people ages 15-24 who can both read and write with understanding a short simple statement about their everyday life.","sourceOrganization":"United Nations Educational, Scientific, and Cultural Organization (UNESCO) Institute for Statistics.","topics":[{"id":"4","value":"Education "},{"id":"17","value":"Gender"}]},{"id":"SE.ADT.1524.LT.FM.ZS","name":"Literacy rate, youth (ages 15-24), gender parity index (GPI)","source":{"id":"2","value":"World Development Indicators"},"sourceNote":"Gender parity index for youth literacy rate is the ratio of females to males ages 15-24 who can both read and write with understanding a short simple statement about their everyday life.","sourceOrganization":"United Nations Educational, Scientific, and Cultural Organization (UNESCO) Institute for Statistics.","topics":[{"id":"4","value":"Education "},{"id":"17","value":"Gender"},{"id":"15","value":"Social Development "}]},{"id":"SE.ADT.1524.LT.FE.ZS","name":"Literacy rate, youth female (% of females ages 15-24)","source":{"id":"2","value":"World Development Indicators"},"sourceNote":"Youth literacy rate is the percentage of people ages 15-24 who can both read and write with understanding a short simple statement about their everyday life.","sourceOrganization":"United Nations Educational, Scientific, and Cultural Organization (UNESCO) Institute for Statistics.","topics":[{"id":"4","value":"Education "},{"id":"17","value":"Gender"}]},{"id":"SAWNWD_MYS","name":"Sawnwood, Malaysia, $\/cum, current$","source":{"id":"21","value":"Global Economic Monitor (GEM) Commodities"},"sourceNote":"Sawnwood (Malaysia), dark red seraya\/meranti, select and better quality, average 7 to 8 inches; length average 12 to 14 inches; thickness 1 to 2 inch(es);  kiln dry, c. & f. UK ports, with 5% agents commission including premium for products of certified sustainable forest beginning January 2005; previously excluding the premium","sourceOrganization":"International Tropical Timber Market Report; Tropical Timbers; World Bank.","topics":[]},{"id":"SAWNWD_CMR","name":"Sawnwood, Cameroon, $\/cum, current$","source":{"id":"21","value":"Global Economic Monitor (GEM) Commodities"},"sourceNote":"Sawnwood (Cameroon), sapele, width 6 inches or more, length 6 feet or more, f.a.s. Cameroonian ports","sourceOrganization":"International Tropical Timber Organization; Marches Tropicaux et Mediterraneens; World Bank.","topics":[]},{"id":"SABER.WORK.GOAL3.LVL3","name":"SABER: (Workforce Development) Policy Goal 3 Lever 3: Enhancing Evidence-based Accountability for Results","source":{"id":"12","value":"Education Statistics"},"sourceNote":"Data Read: 1=Latent; 2=Emerging; 3Established; 4=Advanced","sourceOrganization":"The Systems Approach for Better Education Results (SABER), World Bank","topics":[]},{"id":"SABER.WORK.GOAL3.LVL2","name":"SABER: (Workforce Development) Policy Goal 3 Lever 2: Fostering Relevance in Public Training Programs","source":{"id":"12","value":"Education Statistics"},"sourceNote":"Data Read: 1=Latent; 2=Emerging; 3Established; 4=Advanced","sourceOrganization":"The Systems Approach for Better Education Results (SABER), World Bank","topics":[]},{"id":"SABER.WORK.GOAL3.LVL1","name":"SABER: (Workforce Development) Policy Goal 3 Lever 1: Enabling Diversity and Excellence in Training Provision","source":{"id":"12","value":"Education Statistics"},"sourceNote":"Data Read: 1=Latent; 2=Emerging; 3Established; 4=Advanced","sourceOrganization":"The Systems Approach for Better Education Results (SABER), World Bank","topics":[]},{"id":"SABER.WORK.GOAL3","name":"SABER: (Workforce Development) Policy Goal 3: Service Delivery","source":{"id":"12","value":"Education Statistics"},"sourceNote":"Data Read: 1=Latent; 2=Emerging; 3Established; 4=Advanced","sourceOrganization":"The Systems Approach for Better Education Results (SABER), World Bank","topics":[]},{"id":"SABER.WORK.GOAL2.LVL3","name":"SABER: (Workforce Development) Policy Goal 2 Lever 3: Diversifying Pathways for Skills Acquisition","source":{"id":"12","value":"Education Statistics"},"sourceNote":"Data Read: 1=Latent; 2=Emerging; 3Established; 4=Advanced","sourceOrganization":"The Systems Approach for Better Education Results (SABER), World Bank","topics":[{}]}]]