[{"page":106,"pages":324,"per_page":"50","total":16174},[{"id":"GCI.3RDPILLAR.XQ","name":"3rd pillar: Macroeconomic stability","source":{"id":"11","value":"Africa Development Indicators"},"sourceNote":"This indicator is a derived from the following indicators: - (a) Government budget balance (b) National savings rate (c) Inflation (d) Interest rate spread (e) Government debt and (f) Country credit rating. ","sourceOrganization":"The Global Competitiveness Report: various issues (http:\/\/gcr.weforum.org\/).","topics":[]},{"id":"GCI.2NDPILLAR.XQ","name":"2nd pillar: Infrastructure","source":{"id":"11","value":"Africa Development Indicators"},"sourceNote":"This indicator is a derived from the following indicators: - (a) Quality of overall infrastructure (b) Quality of roads (c) Quality of railroad infrastructure (d) Quality of port infrastructure (e) Quality of air transport infrastructure (f) Available airline seat kilometers (g) Quality of electricity supply (h) Fixed telephone lines and (i) Mobile telephone subscriptions.","sourceOrganization":"The Global Competitiveness Report: various issues (http:\/\/gcr.weforum.org\/).","topics":[]},{"id":"GCI.1STPILLAR.XQ","name":"1st pillar: Institutions","source":{"id":"11","value":"Africa Development Indicators"},"sourceNote":"This indicator is a derived from the following indicators:  (a) Property rights (b) Intellectual property protection (c) Diversion of public funds (d) Public trust of politicians (e) Irregular payments and bribes (f) Judicial independence (g) Favoritism in decisions of government officials (h) Wastefulness of government officials (i) Burden of government regulation (j) Efficiency of legal framework in settling disputes (k) Efficiency of legal framework in challenging regulations (l) Transparency of government policymaking (m) Business costs of terrorism (n) Business costs of crime and violence (o) Organized crime (p) Reliability of police services (q) Ethical behavior of firms (r) Strength of auditing and reporting standards (s) Efficacy of corporate boards (t) Protection of minority shareholders interests and (u) Strength of investor protection.","sourceOrganization":"The Global Competitiveness Report: various issues (http:\/\/gcr.weforum.org\/).","topics":[]},{"id":"GCI.12THPILLAR.XQ","name":"12th pillar: Innovation","source":{"id":"11","value":"Africa Development Indicators"},"sourceNote":"This indicator is a derived from the following indicators:  (a) Capacity for innovation (b) Quality of scientific research institutions (c) Company spending on R&D (d) University-industry collaboration in R&D (e) Gov’t procurement of advanced tech product (f) Availability of scientist and engineers and (g) Utility patents per million population.","sourceOrganization":"The Global Competitiveness Report: various issues (http:\/\/gcr.weforum.org\/).","topics":[]},{"id":"GCI.11THPILLAR.XQ","name":"11th pillar: Business sophistication","source":{"id":"11","value":"Africa Development Indicators"},"sourceNote":"This indicator is a derived from the following indicators:  (a) Local supplier quantity (b) Local supplier quality (c) State of cluster development (d) Nature of competitive advantage (e) Value chain breadth (f)  Control of international distribution (g) Production process sophistication (h) Extent of marketing and (i) Willingness to delegate authority.","sourceOrganization":"The Global Competitiveness Report: various issues (http:\/\/gcr.weforum.org\/).","topics":[]},{"id":"GCI.10THPILLAR.XQ","name":"10th pillar: Market size","source":{"id":"11","value":"Africa Development Indicators"},"sourceNote":"This indicator is a derived from the following indicators: (a) Domestic market size index  (b) Foreign market size index.   ","sourceOrganization":"The Global Competitiveness Report: various issues (http:\/\/gcr.weforum.org\/).","topics":[]},{"id":"GC.XPN.TRFT.ZS","name":"Subsidies and other transfers (% of expense)","source":{"id":"2","value":"World Development Indicators"},"sourceNote":"Subsidies, grants, and other social benefits include all unrequited, nonrepayable transfers on current account to private and public enterprises; grants to foreign governments, international organizations, and other government units; and social security, social assistance benefits, and employer social benefits in cash and in kind.","sourceOrganization":"International Monetary Fund, Government Finance Statistics Yearbook and data files.","topics":[{"id":"13","value":"Public Sector "}]},{"id":"GC.XPN.TRFT.CN","name":"Subsidies and other transfers (current LCU)","source":{"id":"2","value":"World Development Indicators"},"sourceNote":"Subsidies, grants, and other social benefits include all unrequited, nonrepayable transfers on current account to private and public enterprises; grants to foreign governments, international organizations, and other government units; and social security, social assistance benefits, and employer social benefits in cash and in kind.","sourceOrganization":"International Monetary Fund, Government Finance Statistics Yearbook and data files.","topics":[{"id":"13","value":"Public Sector "}]},{"id":"GC.XPN.TOTL.GD.ZS","name":"Expense (% of GDP)","source":{"id":"2","value":"World Development Indicators"},"sourceNote":"Expense is cash payments for operating activities of the government in providing goods and services. It includes compensation of employees (such as wages and salaries), interest and subsidies, grants, social benefits, and other expenses such as rent and dividends.","sourceOrganization":"International Monetary Fund, Government Finance Statistics Yearbook and data files, and World Bank and OECD GDP estimates.","topics":[{"id":"3","value":"Economy & Growth"},{"id":"13","value":"Public Sector "}]},{"id":"GC.XPN.TOTL.CN","name":"Expense (current LCU)","source":{"id":"2","value":"World Development Indicators"},"sourceNote":"Expense is cash payments for operating activities of the government in providing goods and services. It includes compensation of employees (such as wages and salaries), interest and subsidies, grants, social benefits, and other expenses such as rent and dividends.","sourceOrganization":"International Monetary Fund, Government Finance Statistics Yearbook and data files.","topics":[{"id":"13","value":"Public Sector "}]},{"id":"GC.XPN.TOTL.CD","name":"Expense (current US$)","source":{"id":"11","value":"Africa Development Indicators"},"sourceNote":"Expense is cash payments for operating activities of the government in providing goods and services. It includes compensation of employees (such as wages and salaries), interest and subsidies, grants, social benefits, and other expenses such as rent and dividends. Data are in current U.S. dollars.","sourceOrganization":"International Monetary Fund, Government Finance Statistics Yearbook and data files.","topics":[]},{"id":"GC.XPN.OTHR.ZS","name":"Other expense (% of expense)","source":{"id":"2","value":"World Development Indicators"},"sourceNote":"Other expense is spending on dividends, rent, and other miscellaneous expenses, including provision for consumption of fixed capital.","sourceOrganization":"International Monetary Fund, Government Finance Statistics Yearbook and data files.","topics":[{"id":"13","value":"Public Sector "}]},{"id":"GC.XPN.OTHR.CN","name":"Other expense (current LCU)","source":{"id":"2","value":"World Development Indicators"},"sourceNote":"Other expense is spending on dividends, rent, and other miscellaneous expenses, including provision for consumption of fixed capital.","sourceOrganization":"International Monetary Fund, Government Finance Statistics Yearbook and data files.","topics":[{"id":"13","value":"Public Sector "}]},{"id":"GC.XPN.INTP.ZS","name":"Interest payments (% of expense)","source":{"id":"2","value":"World Development Indicators"},"sourceNote":"Interest payments include interest payments on government debt--including long-term bonds, long-term loans, and other debt instruments--to domestic and foreign residents.","sourceOrganization":"International Monetary Fund, Government Finance Statistics Yearbook and data files.","topics":[{"id":"13","value":"Public Sector "}]},{"id":"GC.XPN.INTP.RV.ZS","name":"Interest payments (% of revenue)","source":{"id":"2","value":"World Development Indicators"},"sourceNote":"Interest payments include interest payments on government debt--including long-term bonds, long-term loans, and other debt instruments--to domestic and foreign residents.","sourceOrganization":"International Monetary Fund, Government Finance Statistics Yearbook and data files.","topics":[{"id":"13","value":"Public Sector "}]},{"id":"GC.XPN.INTP.CN","name":"Interest payments (current LCU)","source":{"id":"2","value":"World Development Indicators"},"sourceNote":"Interest payments include interest payments on government debt--including long-term bonds, long-term loans, and other debt instruments--to domestic and foreign residents.","sourceOrganization":"International Monetary Fund, Government Finance Statistics Yearbook and data files.","topics":[{"id":"13","value":"Public Sector "}]},{"id":"GC.XPN.GSRV.ZS","name":"Goods and services expense (% of expense)","source":{"id":"2","value":"World Development Indicators"},"sourceNote":"Goods and services include all government payments in exchange for goods and services used for the production of market and nonmarket goods and services. Own-account capital formation is excluded.","sourceOrganization":"International Monetary Fund, Government Finance Statistics Yearbook and data files.","topics":[{"id":"13","value":"Public Sector "}]},{"id":"GC.XPN.GSRV.CN","name":"Goods and services expense (current LCU)","source":{"id":"2","value":"World Development Indicators"},"sourceNote":"Goods and services include all government payments in exchange for goods and services used for the production of market and nonmarket goods and services. Own-account capital formation is excluded.","sourceOrganization":"International Monetary Fund, Government Finance Statistics Yearbook and data files.","topics":[{"id":"13","value":"Public Sector "}]},{"id":"GC.XPN.COMP.ZS","name":"Compensation of employees (% of expense)","source":{"id":"2","value":"World Development Indicators"},"sourceNote":"Compensation of employees consists of all payments in cash, as well as in kind (such as food and housing), to employees in return for services rendered, and government contributions to social insurance schemes such as social security and pensions that provide benefits to employees.","sourceOrganization":"International Monetary Fund, Government Finance Statistics Yearbook and data files.","topics":[{"id":"13","value":"Public Sector "}]},{"id":"GC.XPN.COMP.CN","name":"Compensation of employees (current LCU)","source":{"id":"2","value":"World Development Indicators"},"sourceNote":"Compensation of employees consists of all payments in cash, as well as in kind (such as food and housing), to employees in return for services rendered, and government contributions to social insurance schemes such as social security and pensions that provide benefits to employees.","sourceOrganization":"International Monetary Fund, Government Finance Statistics Yearbook and data files.","topics":[{"id":"13","value":"Public Sector "}]},{"id":"GC.TAX.YPKG.ZS","name":"Taxes on income, profits and capital gains (% of total taxes)","source":{"id":"2","value":"World Development Indicators"},"sourceNote":"Taxes on income, profits, and capital gains are levied on the actual or presumptive net income of individuals, on the profits of corporations and enterprises, and on capital gains, whether realized or not, on land, securities, and other assets. Intragovernmental payments are eliminated in consolidation.","sourceOrganization":"International Monetary Fund, Government Finance Statistics Yearbook and data files.","topics":[{"id":"13","value":"Public Sector "}]},{"id":"GC.TAX.YPKG.RV.ZS","name":"Taxes on income, profits and capital gains (% of revenue)","source":{"id":"2","value":"World Development Indicators"},"sourceNote":"Taxes on income, profits, and capital gains are levied on the actual or presumptive net income of individuals, on the profits of corporations and enterprises, and on capital gains, whether realized or not, on land, securities, and other assets. Intragovernmental payments are eliminated in consolidation.","sourceOrganization":"International Monetary Fund, Government Finance Statistics Yearbook and data files.","topics":[{"id":"13","value":"Public Sector "}]},{"id":"GC.TAX.YPKG.CN","name":"Taxes on income, profits and capital gains (current LCU)","source":{"id":"2","value":"World Development Indicators"},"sourceNote":"Taxes on income, profits, and capital gains are levied on the actual or presumptive net income of individuals, on the profits of corporations and enterprises, and on capital gains, whether realized or not, on land, securities, and other assets. Intragovernmental payments are eliminated in consolidation.","sourceOrganization":"International Monetary Fund, Government Finance Statistics Yearbook and data files.","topics":[{"id":"13","value":"Public Sector "}]},{"id":"GC.TAX.TOTL.GD.ZS","name":"Tax revenue (% of GDP)","source":{"id":"2","value":"World Development Indicators"},"sourceNote":"Tax revenue refers to compulsory transfers to the central government for public purposes. Certain compulsory transfers such as fines, penalties, and most social security contributions are excluded. Refunds and corrections of erroneously collected tax revenue are treated as negative revenue.","sourceOrganization":"International Monetary Fund, Government Finance Statistics Yearbook and data files, and World Bank and OECD GDP estimates.","topics":[{"id":"13","value":"Public Sector "}]},{"id":"GC.TAX.TOTL.CN","name":"Tax revenue (current LCU)","source":{"id":"2","value":"World Development Indicators"},"sourceNote":"Tax revenue refers to compulsory transfers to the central government for public purposes. Certain compulsory transfers such as fines, penalties, and most social security contributions are excluded. Refunds and corrections of erroneously collected tax revenue are treated as negative revenue.","sourceOrganization":"International Monetary Fund, Government Finance Statistics Yearbook and data files.","topics":[{"id":"13","value":"Public Sector "}]},{"id":"GC.TAX.OTHR.RV.ZS","name":"Other taxes (% of revenue)","source":{"id":"2","value":"World Development Indicators"},"sourceNote":"Other taxes include employer payroll or labor taxes, taxes on property, and taxes not allocable to other categories, such as penalties for late payment or nonpayment of taxes.","sourceOrganization":"International Monetary Fund, Government Finance Statistics Yearbook and data files.","topics":[{"id":"13","value":"Public Sector "}]},{"id":"GC.TAX.OTHR.CN","name":"Other taxes (current LCU)","source":{"id":"2","value":"World Development Indicators"},"sourceNote":"Other taxes include employer payroll or labor taxes, taxes on property, and taxes not allocable to other categories, such as penalties for late payment or nonpayment of taxes.","sourceOrganization":"International Monetary Fund, Government Finance Statistics Yearbook and data files.","topics":[{"id":"13","value":"Public Sector "}]},{"id":"GC.TAX.INTT.RV.ZS","name":"Taxes on international trade (% of revenue)","source":{"id":"2","value":"World Development Indicators"},"sourceNote":"Taxes on international trade include import duties, export duties, profits of export or import monopolies, exchange profits, and exchange taxes.","sourceOrganization":"International Monetary Fund, Government Finance Statistics Yearbook and data files.","topics":[{"id":"13","value":"Public Sector "}]},{"id":"GC.TAX.INTT.CN","name":"Taxes on international trade (current LCU)","source":{"id":"2","value":"World Development Indicators"},"sourceNote":"Taxes on international trade include import duties, export duties, profits of export or import monopolies, exchange profits, and exchange taxes.","sourceOrganization":"International Monetary Fund, Government Finance Statistics Yearbook and data files.","topics":[{"id":"13","value":"Public Sector "}]},{"id":"GC.TAX.IMPT.ZS","name":"Customs and other import duties (% of tax revenue)","source":{"id":"2","value":"World Development Indicators"},"sourceNote":"Customs and other import duties are all levies collected on goods that are entering the country or services delivered by nonresidents to residents. They include levies imposed for revenue or protection purposes and determined on a specific or ad valorem basis as long as they are restricted to imported goods or services.","sourceOrganization":"International Monetary Fund, Government Finance Statistics Yearbook and data files.","topics":[{"id":"13","value":"Public Sector "},{"id":"21","value":"Trade"}]},{"id":"GC.TAX.IMPT.CN","name":"Customs and other import duties (current LCU)","source":{"id":"2","value":"World Development Indicators"},"sourceNote":"Customs and other import duties are all levies collected on goods that are entering the country or services delivered by nonresidents to residents. They include levies imposed for revenue or protection purposes and determined on a specific or ad valorem basis as long as they are restricted to imported goods or services.","sourceOrganization":"International Monetary Fund, Government Finance Statistics Yearbook and data files.","topics":[{"id":"13","value":"Public Sector "}]},{"id":"GC.TAX.GSRV.VA.ZS","name":"Taxes on goods and services (% value added of industry and services)","source":{"id":"2","value":"World Development Indicators"},"sourceNote":"Taxes on goods and services include general sales and turnover or value added taxes, selective excises on goods, selective taxes on services, taxes on the use of goods or property, taxes on extraction and production of minerals, and profits of fiscal monopolies.","sourceOrganization":"International Monetary Fund, Government Finance Statistics Yearbook and data files, and World Bank and OECD value added estimates.","topics":[{"id":"13","value":"Public Sector "}]},{"id":"GC.TAX.GSRV.RV.ZS","name":"Taxes on goods and services (% of revenue)","source":{"id":"2","value":"World Development Indicators"},"sourceNote":"Taxes on goods and services include general sales and turnover or value added taxes, selective excises on goods, selective taxes on services, taxes on the use of goods or property, taxes on extraction and production of minerals, and profits of fiscal monopolies.","sourceOrganization":"International Monetary Fund, Government Finance Statistics Yearbook and data files.","topics":[{"id":"13","value":"Public Sector "}]},{"id":"GC.TAX.GSRV.CN","name":"Taxes on goods and services (current LCU)","source":{"id":"2","value":"World Development Indicators"},"sourceNote":"Taxes on goods and services include general sales and turnover or value added taxes, selective excises on goods, selective taxes on services, taxes on the use of goods or property, taxes on extraction and production of minerals, and profits of fiscal monopolies.","sourceOrganization":"International Monetary Fund, Government Finance Statistics Yearbook and data files.","topics":[{"id":"13","value":"Public Sector "}]},{"id":"GC.TAX.EXPT.ZS","name":"Taxes on exports (% of tax revenue)","source":{"id":"2","value":"World Development Indicators"},"sourceNote":"Taxes on exports are all levies on goods being transported out of the country or services being delivered to nonresidents by residents. Rebates on exported goods that are repayments of previously paid general consumption taxes, excise taxes, or import duties are deducted from the gross amounts receivable from these taxes, not from amounts receivable from export taxes.","sourceOrganization":"International Monetary Fund, Government Finance Statistics Yearbook and data files.","topics":[{"id":"13","value":"Public Sector "},{"id":"21","value":"Trade"}]},{"id":"GC.TAX.EXPT.CN","name":"Taxes on exports (current LCU)","source":{"id":"2","value":"World Development Indicators"},"sourceNote":"Taxes on exports are all levies on goods being transported out of the country or services being delivered to nonresidents by residents. Rebates on exported goods that are repayments of previously paid general consumption taxes, excise taxes, or import duties are deducted from the gross amounts receivable from these taxes, not from amounts receivable from export taxes.","sourceOrganization":"International Monetary Fund, Government Finance Statistics Yearbook and data files.","topics":[{"id":"13","value":"Public Sector "}]},{"id":"GC.REV.XGRT.GD.ZS","name":"Revenue, excluding grants (% of GDP)","source":{"id":"2","value":"World Development Indicators"},"sourceNote":"Revenue is cash receipts from taxes, social contributions, and other revenues such as fines, fees, rent, and income from property or sales. Grants are also considered as revenue but are excluded here.","sourceOrganization":"International Monetary Fund, Government Finance Statistics Yearbook and data files, and World Bank and OECD GDP estimates.","topics":[{"id":"3","value":"Economy & Growth"},{"id":"13","value":"Public Sector "}]},{"id":"GC.REV.XGRT.CN","name":"Revenue, excluding grants (current LCU)","source":{"id":"2","value":"World Development Indicators"},"sourceNote":"Revenue is cash receipts from taxes, social contributions, and other revenues such as fines, fees, rent, and income from property or sales. Grants are also considered as revenue but are excluded here.","sourceOrganization":"International Monetary Fund, Government Finance Statistics Yearbook and data files.","topics":[{"id":"13","value":"Public Sector "}]},{"id":"GC.REV.XGRT.CD","name":"Revenue, excluding grants (current US$)","source":{"id":"11","value":"Africa Development Indicators"},"sourceNote":"Revenue is cash receipts from taxes, social contributions, and other revenues such as fines, fees, rent, and income from property or sales. Grants are also considered as revenue but are excluded here.  Data are in current US dollar.  ","sourceOrganization":"International Monetary Fund, Government Finance Statistics Yearbook and data files.","topics":[]},{"id":"GC.REV.TOTL.CN","name":"Total revenue (current LCU)","source":{"id":"11","value":"Africa Development Indicators"},"sourceNote":"Revenue is cash receipts from taxes, social contributions, and other revenues such as fines, fees, rent, and income from property or sales. Grants are also considered as revenue.","sourceOrganization":"International Monetary Fund, Government Finance Statistics Yearbook and data files.","topics":[]},{"id":"GC.REV.TOTL.CD","name":"Total revenue (current US$)","source":{"id":"11","value":"Africa Development Indicators"},"sourceNote":"Current revenue includes all revenue from taxes and nonrepayable receipts (other than grants) from the sale of land, intangible assets, government stocks or fixed capital assets, or from capital transfers from nongovernmental sources. It also includes inheritance taxes and nonrecurrent levies on capital. Data are in current US dollar.","sourceOrganization":"International Monetary Fund, Government Finance Statistics Yearbook and data files.","topics":[]},{"id":"GC.REV.SOCL.ZS","name":"Social contributions (% of revenue)","source":{"id":"2","value":"World Development Indicators"},"sourceNote":"Social contributions include social security contributions by employees, employers, and self-employed individuals, and other contributions whose source cannot be determined. They also include actual or imputed contributions to social insurance schemes operated by governments.","sourceOrganization":"International Monetary Fund, Government Finance Statistics Yearbook and data files.","topics":[{"id":"13","value":"Public Sector "}]},{"id":"GC.REV.SOCL.CN","name":"Social contributions (current LCU)","source":{"id":"2","value":"World Development Indicators"},"sourceNote":"Social contributions include social security contributions by employees, employers, and self-employed individuals, and other contributions whose source cannot be determined. They also include actual or imputed contributions to social insurance schemes operated by governments.","sourceOrganization":"International Monetary Fund, Government Finance Statistics Yearbook and data files.","topics":[{"id":"13","value":"Public Sector "}]},{"id":"GC.REV.GOTR.ZS","name":"Grants and other revenue (% of revenue)","source":{"id":"2","value":"World Development Indicators"},"sourceNote":"Grants and other revenue include grants from other foreign governments, international organizations, and other government units; interest; dividends; rent; requited, nonrepayable receipts for public purposes (such as fines, administrative fees, and entrepreneurial income from government owner­ship of property); and voluntary, unrequited, nonrepayable receipts other than grants.","sourceOrganization":"International Monetary Fund, Government Finance Statistics Yearbook and data files.","topics":[{"id":"13","value":"Public Sector "}]},{"id":"GC.REV.GOTR.CN","name":"Grants and other revenue (current LCU)","source":{"id":"2","value":"World Development Indicators"},"sourceNote":"Grants and other revenue include grants from other foreign governments, international organizations, and other government units; interest; dividends; rent; requited, nonrepayable receipts for public purposes (such as fines, administrative fees, and entrepreneurial income from government owner­ship of property); and voluntary, unrequited, nonrepayable receipts other than grants.","sourceOrganization":"International Monetary Fund, Government Finance Statistics Yearbook and data files.","topics":[{"id":"13","value":"Public Sector "}]},{"id":"GC.NLD.TOTL.GD.ZS","name":"Net lending (+) \/ net borrowing (-) (% of GDP)","source":{"id":"2","value":"World Development Indicators"},"sourceNote":"Net lending (+) \/ net borrowing (–) equals government revenue minus expense, minus net investment in nonfinancial assets. It is also equal to the net result of transactions in financial assets and liabilities. Net lending\/net borrowing is a summary measure indicating the extent to which government is either putting financial resources at the disposal of other sectors in the economy or abroad, or utilizing the financial resources generated by other sectors in the economy or from abroad.","sourceOrganization":"International Monetary Fund, Government Finance Statistics Yearbook and data files.","topics":[{"id":"13","value":"Public Sector "}]},{"id":"GC.NLD.TOTL.CN","name":"Net lending (+) \/ net borrowing (-) (current LCU)","source":{"id":"2","value":"World Development Indicators"},"sourceNote":"Net lending (+) \/ net borrowing (–) equals government revenue minus expense, minus net investment in nonfinancial assets. It is also equal to the net result of transactions in financial assets and liabilities. Net lending\/net borrowing is a summary measure indicating the extent to which government is either putting financial resources at the disposal of other sectors in the economy or abroad, or utilizing the financial resources generated by other sectors in the economy or from abroad.","sourceOrganization":"International Monetary Fund, Government Finance Statistics Yearbook and data files.","topics":[{"id":"13","value":"Public Sector "}]},{"id":"GC.NFN.TOTL.GD.ZS","name":"Net investment in nonfinancial assets (% of GDP)","source":{"id":"2","value":"World Development Indicators"},"sourceNote":"Net investment in government nonfinancial assets includes fixed assets, inventories, valuables, and nonproduced assets. Nonfinancial assets are stores of value and provide benefits either through their use in the production of goods and services or in the form of property income and holding gains. Net investment in nonfinancial assets also includes consumption of fixed capital.","sourceOrganization":"International Monetary Fund, Government Finance Statistics Yearbook and data files.","topics":[{"id":"13","value":"Public Sector "}]},{"id":"GC.NFN.TOTL.CN","name":"Net investment in nonfinancial assets (current LCU)","source":{"id":"2","value":"World Development Indicators"},"sourceNote":"Net investment in government nonfinancial assets includes fixed assets, inventories, valuables, and nonproduced assets. Nonfinancial assets are stores of value and provide benefits either through their use in the production of goods and services or in the form of property income and holding gains. Net investment in nonfinancial assets also includes consumption of fixed capital.","sourceOrganization":"International Monetary Fund, Government Finance Statistics Yearbook and data files.","topics":[{"id":"13","value":"Public Sector "}]},{"id":"GC.LBL.TOTL.GD.ZS","name":"Net incurrence of liabilities, total (% of GDP)","source":{"id":"2","value":"World Development Indicators"},"sourceNote":"Net incurrence of government liabilities includes foreign financing (obtained from nonresidents) and domestic financing (obtained from residents), or the means by which a government provides financial resources to cover a budget deficit or allocates financial resources arising from a budget surplus. The net incurrence of liabilities should be offset by the net acquisition of financial assets.","sourceOrganization":"International Monetary Fund, Government Finance Statistics Yearbook and data files.","topics":[{"id":"13","value":"Public Sector "}]}]]