[{"page":67,"pages":324,"per_page":"50","total":16174},[{"id":"DT.DOD.DLXF.CD.MA.AR.US","name":"Gross Ext. Debt Pos., Central Bank, Long-term, All instruments, USD","source":{"id":"22","value":"Quarterly External Debt Statistics\/SDDS (New)"},"sourceNote":"","sourceOrganization":"","topics":[]},{"id":"DT.DOD.DLXF.CD.MA.AR.TR.US","name":"Gross Ext. Debt Pos., Central Bank, Long-term, All instruments, Transactions, USD","source":{"id":"22","value":"Quarterly External Debt Statistics\/SDDS (New)"},"sourceNote":"","sourceOrganization":"","topics":[]},{"id":"DT.DOD.DLXF.CD.MA.AR.PX.US","name":"Gross Ext. Debt Pos., Central Bank, Long-term, All instruments, Other price chg, USD","source":{"id":"22","value":"Quarterly External Debt Statistics\/SDDS (New)"},"sourceNote":"","sourceOrganization":"","topics":[]},{"id":"DT.DOD.DLXF.CD.MA.AR.OC.US","name":"Gross Ext. Debt Pos., Central Bank, Long-term, All instruments, Other chg in vol., USD","source":{"id":"22","value":"Quarterly External Debt Statistics\/SDDS (New)"},"sourceNote":"","sourceOrganization":"","topics":[]},{"id":"DT.DOD.DLXF.CD.MA.AR.NE.US","name":"Net Ext. Debt Position, Central Bank, Long-term, All instruments, USD","source":{"id":"22","value":"Quarterly External Debt Statistics\/SDDS (New)"},"sourceNote":"","sourceOrganization":"","topics":[]},{"id":"DT.DOD.DLXF.CD.MA.AR.GE.US","name":"Gross Ext. Debt Pos., Central Bank, Long-term, All instruments, Beginning pos., USD","source":{"id":"22","value":"Quarterly External Debt Statistics\/SDDS (New)"},"sourceNote":"","sourceOrganization":"","topics":[]},{"id":"DT.DOD.DLXF.CD.MA.AR.EX.US","name":"Gross Ext. Debt Pos., Central Bank, Long-term, All instruments, Exchange rate chg, USD","source":{"id":"22","value":"Quarterly External Debt Statistics\/SDDS (New)"},"sourceNote":"","sourceOrganization":"","topics":[]},{"id":"DT.DOD.DLXF.CD.MA.AR.EN.US","name":"Gross Ext. Debt Pos., Central Bank, Long-term, All instruments, end of period, USD","source":{"id":"22","value":"Quarterly External Debt Statistics\/SDDS (New)"},"sourceNote":"","sourceOrganization":"","topics":[]},{"id":"DT.DOD.DLXF.CD.MA.AR.EA.US","name":"Ext. Assets in Debt Instruments, Central Bank, Long-term, All instruments, USD","source":{"id":"22","value":"Quarterly External Debt Statistics\/SDDS (New)"},"sourceNote":"","sourceOrganization":"","topics":[]},{"id":"DT.DOD.DLXF.CD.MA.AR.BE.US","name":"Gross Ext. Debt Pos., Central Bank, Long-term, All instruments, Beginning of period, USD","source":{"id":"22","value":"Quarterly External Debt Statistics\/SDDS (New)"},"sourceNote":"","sourceOrganization":"","topics":[]},{"id":"DT.DOD.DLXF.CD.HN.US","name":"Gross Ext. Debt Pos., HH and nonprofit institu. (NPISHs), Long-term, All instruments, USD","source":{"id":"22","value":"Quarterly External Debt Statistics\/SDDS (New)"},"sourceNote":"","sourceOrganization":"","topics":[]},{"id":"DT.DOD.DLXF.CD.GG.TD.NV.US","name":"Gross Ext. Debt Pos., General Government, Long-term, Debt Securities, Nominal Value, USD","source":{"id":"22","value":"Quarterly External Debt Statistics\/SDDS (New)"},"sourceNote":"","sourceOrganization":"","topics":[]},{"id":"DT.DOD.DLXF.CD.GG.TD.MV.US","name":"Gross Ext. Debt Pos., General Government, Long-term, Debt Securities, Market Value, USD","source":{"id":"22","value":"Quarterly External Debt Statistics\/SDDS (New)"},"sourceNote":"","sourceOrganization":"","topics":[]},{"id":"DT.DOD.DLXF.CD.GG.TD.MP.US","name":"Gross Ext. Debt Pos., General Government, Long-term, Debt Securities, Diff. with Market Value, USD","source":{"id":"22","value":"Quarterly External Debt Statistics\/SDDS (New)"},"sourceNote":"","sourceOrganization":"","topics":[]},{"id":"DT.DOD.DLXF.CD.GG.AR.US","name":"Gross Ext. Debt Pos., General Government, Long-term, All instruments, USD","source":{"id":"22","value":"Quarterly External Debt Statistics\/SDDS (New)"},"sourceNote":"","sourceOrganization":"","topics":[]},{"id":"DT.DOD.DLXF.CD.GG.AR.TR.US","name":"Gross Ext. Debt Pos., General Government, Long-term, All instruments, Transactions, USD","source":{"id":"22","value":"Quarterly External Debt Statistics\/SDDS (New)"},"sourceNote":"","sourceOrganization":"","topics":[]},{"id":"DT.DOD.DLXF.CD.GG.AR.PX.US","name":"Gross Ext. Debt Pos., General Government, Long-term, All instruments, Other price chg, USD","source":{"id":"22","value":"Quarterly External Debt Statistics\/SDDS (New)"},"sourceNote":"","sourceOrganization":"","topics":[]},{"id":"DT.DOD.DLXF.CD.GG.AR.OC.US","name":"Gross Ext. Debt Pos., General Government, Long-term, All instruments, Other chg in vol., USD","source":{"id":"22","value":"Quarterly External Debt Statistics\/SDDS (New)"},"sourceNote":"","sourceOrganization":"","topics":[]},{"id":"DT.DOD.DLXF.CD.GG.AR.NE.US","name":"Net Ext. Debt Position, General Government, Long-term, All instruments, USD","source":{"id":"22","value":"Quarterly External Debt Statistics\/SDDS (New)"},"sourceNote":"","sourceOrganization":"","topics":[]},{"id":"DT.DOD.DLXF.CD.GG.AR.GE.US","name":"Gross Ext. Debt Pos., General Government, Long-term, All instruments, Beginning pos., USD","source":{"id":"22","value":"Quarterly External Debt Statistics\/SDDS (New)"},"sourceNote":"","sourceOrganization":"","topics":[]},{"id":"DT.DOD.DLXF.CD.GG.AR.EX.US","name":"Gross Ext. Debt Pos., General Government, Long-term, All instruments, Exchange rate chg, USD","source":{"id":"22","value":"Quarterly External Debt Statistics\/SDDS (New)"},"sourceNote":"","sourceOrganization":"","topics":[]},{"id":"DT.DOD.DLXF.CD.GG.AR.EN.US","name":"Gross Ext. Debt Pos., General Government, Long-term, All instruments, end of period, USD","source":{"id":"22","value":"Quarterly External Debt Statistics\/SDDS (New)"},"sourceNote":"","sourceOrganization":"","topics":[]},{"id":"DT.DOD.DLXF.CD.GG.AR.EA.US","name":"Ext. Assets in Debt Instruments, General Government, Long-term, All instruments, USD","source":{"id":"22","value":"Quarterly External Debt Statistics\/SDDS (New)"},"sourceNote":"","sourceOrganization":"","topics":[]},{"id":"DT.DOD.DLXF.CD.GG.AR.BE.US","name":"Gross Ext. Debt Pos., General Government, Long-term, All instruments, Beginning of period, USD","source":{"id":"22","value":"Quarterly External Debt Statistics\/SDDS (New)"},"sourceNote":"","sourceOrganization":"","topics":[]},{"id":"DT.DOD.DLXF.CD.FC.US","name":"Gross Ext. Debt Pos., All Sectors, Long-term, All instruments, Foreign currency, USD","source":{"id":"22","value":"Quarterly External Debt Statistics\/SDDS (New)"},"sourceNote":"","sourceOrganization":"","topics":[]},{"id":"DT.DOD.DLXF.CD.FC.T5.US","name":"Public and Publicly Guar. Private Sector Ext. Debt Pos., All Sectors, Long-term, All instruments, Foreign currency, USD","source":{"id":"23","value":"Quarterly External Debt Statistics\/GDDS (New)"},"sourceNote":"","sourceOrganization":"","topics":[]},{"id":"DT.DOD.DLXF.CD.FC.OT.US.US","name":"Gross Ext. F. Curr Debt Pos., Other Sectors, Long-term, All instruments, US dollar, USD","source":{"id":"22","value":"Quarterly External Debt Statistics\/SDDS (New)"},"sourceNote":"","sourceOrganization":"","topics":[]},{"id":"DT.DOD.DLXF.CD.FC.OT.TO.US","name":"Gross Ext. F. Curr Debt Pos., Other Sectors, Long-term, All instruments, All curr., USD","source":{"id":"22","value":"Quarterly External Debt Statistics\/SDDS (New)"},"sourceNote":"","sourceOrganization":"","topics":[]},{"id":"DT.DOD.DLXF.CD.FC.OT.OT.US","name":"Gross Ext. F. Curr Debt Pos., Other Sectors, Long-term, All instruments, Other curr., USD","source":{"id":"22","value":"Quarterly External Debt Statistics\/SDDS (New)"},"sourceNote":"","sourceOrganization":"","topics":[]},{"id":"DT.DOD.DLXF.CD.FC.OT.JY.US","name":"Gross Ext. F. Curr Debt Pos., Other Sectors, Long-term, All instruments, Yen, USD","source":{"id":"22","value":"Quarterly External Debt Statistics\/SDDS (New)"},"sourceNote":"","sourceOrganization":"","topics":[]},{"id":"DT.DOD.DLXF.CD.FC.OT.EU.US","name":"Gross Ext. F. Curr Debt Pos., Other Sectors, Long-term, All instruments, Euro, USD","source":{"id":"22","value":"Quarterly External Debt Statistics\/SDDS (New)"},"sourceNote":"","sourceOrganization":"","topics":[]},{"id":"DT.DOD.DLXF.CD.FC.MA.US.US","name":"Gross Ext. F. Curr Debt Pos., Central Bank, Long-term, All instruments, US dollar, USD","source":{"id":"22","value":"Quarterly External Debt Statistics\/SDDS (New)"},"sourceNote":"","sourceOrganization":"","topics":[]},{"id":"DT.DOD.DLXF.CD.FC.MA.TO.US","name":"Gross Ext. F. Curr Debt Pos., Central Bank, Long-term, All instruments, All curr., USD","source":{"id":"22","value":"Quarterly External Debt Statistics\/SDDS (New)"},"sourceNote":"","sourceOrganization":"","topics":[]},{"id":"DT.DOD.DLXF.CD.FC.MA.OT.US","name":"Gross Ext. F. Curr Debt Pos., Central Bank, Long-term, All instruments, Other curr., USD","source":{"id":"22","value":"Quarterly External Debt Statistics\/SDDS (New)"},"sourceNote":"","sourceOrganization":"","topics":[]},{"id":"DT.DOD.DLXF.CD.FC.MA.JY.US","name":"Gross Ext. F. Curr Debt Pos., Central Bank, Long-term, All instruments, Yen, USD","source":{"id":"22","value":"Quarterly External Debt Statistics\/SDDS (New)"},"sourceNote":"","sourceOrganization":"","topics":[]},{"id":"DT.DOD.DLXF.CD.FC.MA.EU.US","name":"Gross Ext. F. Curr Debt Pos., Central Bank, Long-term, All instruments, Euro, USD","source":{"id":"22","value":"Quarterly External Debt Statistics\/SDDS (New)"},"sourceNote":"","sourceOrganization":"","topics":[]},{"id":"DT.DOD.DLXF.CD.FC.GG.US.US","name":"Gross Ext. F. Curr Debt Pos., General Government, Long-term, All instruments, US dollar, USD","source":{"id":"22","value":"Quarterly External Debt Statistics\/SDDS (New)"},"sourceNote":"","sourceOrganization":"","topics":[]},{"id":"DT.DOD.DLXF.CD.FC.GG.TO.US","name":"Gross Ext. F. Curr Debt Pos., General Government, Long-term, All instruments, All curr., USD","source":{"id":"22","value":"Quarterly External Debt Statistics\/SDDS (New)"},"sourceNote":"","sourceOrganization":"","topics":[]},{"id":"DT.DOD.DLXF.CD.FC.GG.OT.US","name":"Gross Ext. F. Curr Debt Pos., General Government, Long-term, All instruments, Other curr., USD","source":{"id":"22","value":"Quarterly External Debt Statistics\/SDDS (New)"},"sourceNote":"","sourceOrganization":"","topics":[]},{"id":"DT.DOD.DLXF.CD.FC.GG.JY.US","name":"Gross Ext. F. Curr Debt Pos., General Government, Long-term, All instruments, Yen, USD","source":{"id":"22","value":"Quarterly External Debt Statistics\/SDDS (New)"},"sourceNote":"","sourceOrganization":"","topics":[]},{"id":"DT.DOD.DLXF.CD.FC.GG.EU.US","name":"Gross Ext. F. Curr Debt Pos., General Government, Long-term, All instruments, Euro, USD","source":{"id":"22","value":"Quarterly External Debt Statistics\/SDDS (New)"},"sourceNote":"","sourceOrganization":"","topics":[]},{"id":"DT.DOD.DLXF.CD.FC.CB.US.US","name":"Gross Ext. F. Curr Debt Pos., Deposit-Taking Corp., exc. CB, Long-term, All instruments, US dollar, USD","source":{"id":"22","value":"Quarterly External Debt Statistics\/SDDS (New)"},"sourceNote":"","sourceOrganization":"","topics":[]},{"id":"DT.DOD.DLXF.CD.FC.CB.TO.US","name":"Gross Ext. F. Curr Debt Pos., Deposit-Taking Corp., exc. CB, Long-term, All instruments, All curr., USD","source":{"id":"22","value":"Quarterly External Debt Statistics\/SDDS (New)"},"sourceNote":"","sourceOrganization":"","topics":[]},{"id":"DT.DOD.DLXF.CD.FC.CB.OT.US","name":"Gross Ext. F. Curr Debt Pos., Deposit-Taking Corp., exc. CB, Long-term, All instruments, Other curr., USD","source":{"id":"22","value":"Quarterly External Debt Statistics\/SDDS (New)"},"sourceNote":"","sourceOrganization":"","topics":[]},{"id":"DT.DOD.DLXF.CD.FC.CB.JY.US","name":"Gross Ext. F. Curr Debt Pos., Deposit-Taking Corp., exc. CB, Long-term, All instruments, Yen, USD","source":{"id":"22","value":"Quarterly External Debt Statistics\/SDDS (New)"},"sourceNote":"","sourceOrganization":"","topics":[]},{"id":"DT.DOD.DLXF.CD.FC.CB.EU.US","name":"Gross Ext. F. Curr Debt Pos., Deposit-Taking Corp., exc. CB, Long-term, All instruments, Euro, USD","source":{"id":"22","value":"Quarterly External Debt Statistics\/SDDS (New)"},"sourceNote":"","sourceOrganization":"","topics":[]},{"id":"DT.DOD.DLXF.CD.DC.US","name":"Gross Ext. Debt Pos., All Sectors, Long-term, All instruments, Domestic currency, USD","source":{"id":"22","value":"Quarterly External Debt Statistics\/SDDS (New)"},"sourceNote":"","sourceOrganization":"","topics":[]},{"id":"DT.DOD.DLXF.CD.DC.T5.US","name":"Public and Publicly Guar. Private Sector Ext. Debt Pos., All Sectors, Long-term, All instruments, Domestic currency, USD","source":{"id":"23","value":"Quarterly External Debt Statistics\/GDDS (New)"},"sourceNote":"","sourceOrganization":"","topics":[]},{"id":"DT.DOD.DLXF.CD.CB.TD.NV.US","name":"Gross Ext. Debt Pos., Deposit-Taking Corp., exc. CB, Long-term, Debt Securities, Nominal Value, USD","source":{"id":"22","value":"Quarterly External Debt Statistics\/SDDS (New)"},"sourceNote":"","sourceOrganization":"","topics":[]},{"id":"DT.DOD.DLXF.CD.CB.TD.MV.US","name":"Gross Ext. Debt Pos., Deposit-Taking Corp., exc. CB, Long-term, Debt Securities, Market Value, USD","source":{"id":"22","value":"Quarterly External Debt Statistics\/SDDS (New)"},"sourceNote":"","sourceOrganization":"","topics":[{}]}]]