[{"page":235,"pages":324,"per_page":"50","total":16174},[{"id":"PRJ.ATT.1519.2.MA","name":"Projection: Percentage of the population age 15-19 by highest level of educational attainment. Lower Secondary. Male","source":{"id":"12","value":"Education Statistics"},"sourceNote":"Share of the population of the stated age group that has completed lower secondary or incomplete upper secondary education as the highest level of educational attainment. Projections are based on collected census and survey data for the base year (around 2010) and the Medium Shared Socioeconomic Pathways (SSP2) projection model. The SSP2 is a middle-of-the-road scenario that combines medium fertility with medium mortality, medium migration, and the Global Education Trend (GET) education scenario. For more information and other projection models, consult the Wittgenstein Centre for Demography and Global Human Capital's website: http:\/\/www.oeaw.ac.at\/vid\/dataexplorer\/","sourceOrganization":"Wittgenstein Centre for Demography and Global Human Capital: http:\/\/www.oeaw.ac.at\/vid\/dataexplorer\/","topics":[]},{"id":"PRJ.ATT.1519.2.FE","name":"Projection: Percentage of the population age 15-19 by highest level of educational attainment. Lower Secondary. Female","source":{"id":"12","value":"Education Statistics"},"sourceNote":"Share of the population of the stated age group that has completed lower secondary or incomplete upper secondary education as the highest level of educational attainment. Projections are based on collected census and survey data for the base year (around 2010) and the Medium Shared Socioeconomic Pathways (SSP2) projection model. The SSP2 is a middle-of-the-road scenario that combines medium fertility with medium mortality, medium migration, and the Global Education Trend (GET) education scenario. For more information and other projection models, consult the Wittgenstein Centre for Demography and Global Human Capital's website: http:\/\/www.oeaw.ac.at\/vid\/dataexplorer\/","sourceOrganization":"Wittgenstein Centre for Demography and Global Human Capital: http:\/\/www.oeaw.ac.at\/vid\/dataexplorer\/","topics":[]},{"id":"PRJ.ATT.1519.1.MF","name":"Projection: Percentage of the population age 15-19 by highest level of educational attainment. Primary. Total","source":{"id":"12","value":"Education Statistics"},"sourceNote":"Share of the population of the stated age group that has completed primary education or incomplete lower secondary education as the highest level of educational attainment. Projections are based on collected census and survey data for the base year (around 2010) and the Medium Shared Socioeconomic Pathways (SSP2) projection model. The SSP2 is a middle-of-the-road scenario that combines medium fertility with medium mortality, medium migration, and the Global Education Trend (GET) education scenario. For more information and other projection models, consult the Wittgenstein Centre for Demography and Global Human Capital's website: http:\/\/www.oeaw.ac.at\/vid\/dataexplorer\/","sourceOrganization":"Wittgenstein Centre for Demography and Global Human Capital: http:\/\/www.oeaw.ac.at\/vid\/dataexplorer\/","topics":[]},{"id":"PRJ.ATT.1519.1.MA","name":"Projection: Percentage of the population age 15-19 by highest level of educational attainment. Primary. Male","source":{"id":"12","value":"Education Statistics"},"sourceNote":"Share of the population of the stated age group that has completed primary education or incomplete lower secondary education as the highest level of educational attainment. Projections are based on collected census and survey data for the base year (around 2010) and the Medium Shared Socioeconomic Pathways (SSP2) projection model. The SSP2 is a middle-of-the-road scenario that combines medium fertility with medium mortality, medium migration, and the Global Education Trend (GET) education scenario. For more information and other projection models, consult the Wittgenstein Centre for Demography and Global Human Capital's website: http:\/\/www.oeaw.ac.at\/vid\/dataexplorer\/","sourceOrganization":"Wittgenstein Centre for Demography and Global Human Capital: http:\/\/www.oeaw.ac.at\/vid\/dataexplorer\/","topics":[]},{"id":"PRJ.ATT.1519.1.FE","name":"Projection: Percentage of the population age 15-19 by highest level of educational attainment. Primary. Female","source":{"id":"12","value":"Education Statistics"},"sourceNote":"Share of the population of the stated age group that has completed primary education or incomplete lower secondary education as the highest level of educational attainment. Projections are based on collected census and survey data for the base year (around 2010) and the Medium Shared Socioeconomic Pathways (SSP2) projection model. The SSP2 is a middle-of-the-road scenario that combines medium fertility with medium mortality, medium migration, and the Global Education Trend (GET) education scenario. For more information and other projection models, consult the Wittgenstein Centre for Demography and Global Human Capital's website: http:\/\/www.oeaw.ac.at\/vid\/dataexplorer\/","sourceOrganization":"Wittgenstein Centre for Demography and Global Human Capital: http:\/\/www.oeaw.ac.at\/vid\/dataexplorer\/","topics":[]},{"id":"POTASH","name":"Potassium Chloride, $\/mt, current$","source":{"id":"21","value":"Global Economic Monitor (GEM) Commodities"},"sourceNote":"Potassium chloride (muriate of potash), standard grade, spot, f.o.b.  Vancouver","sourceOrganization":"Fertilizer Week; Fertilizer International; World Bank.","topics":[]},{"id":"PLYWOOD","name":"Plywood, cents\/sheets, current$","source":{"id":"21","value":"Global Economic Monitor (GEM) Commodities"},"sourceNote":"Plywood (Africa and Southeast Asia), Lauan, 3-ply, extra, 91 cm x 182 cm x 4 mm,  wholesale price, spot Tokyo","sourceOrganization":"Japan Lumber Journal; International Tropical Timber Organization; Nikkei Newsletter on Commodities; World Bank.","topics":[]},{"id":"PLMKRNL_OIL","name":"Palmkernal oil, $\/mt, current$","source":{"id":"21","value":"Global Economic Monitor (GEM) Commodities"},"sourceNote":"Palmkernel Oil (Malaysia), c.I.f. Rotterdam","sourceOrganization":"ISTA Mielke GmbH, Oil World; US Department of Agriculture; World Bank.","topics":[]},{"id":"PLATINUM","name":"Platinum, $\/toz, nominal$","source":{"id":"21","value":"Global Economic Monitor (GEM) Commodities"},"sourceNote":"","sourceOrganization":"","topics":[]},{"id":"PHOSROCK","name":"Phosphate rock, $\/mt, current$","source":{"id":"21","value":"Global Economic Monitor (GEM) Commodities"},"sourceNote":"Phosphate rock (Morocco), 70% BPL, contract, f.a.s. Casablanca","sourceOrganization":"Fertilizer Week; Fertilizer International; World Bank.","topics":[]},{"id":"per_sionl.overlap_q1_urb","name":"Population in the poorest quintile only receiving All Social Insurance (%) -urban","source":{"id":"29","value":"Global Social Protection"},"sourceNote":"NULL","sourceOrganization":"The Atlas of Social Protection: Indicators of Resilience and Equity (ASPIRE)","topics":[{"id":"10","value":"Social Protection & Labor"}]},{"id":"per_sionl.overlap_q1_tot","name":"Population in the poorest quintile only receiving All Social Insurance (%)","source":{"id":"29","value":"Global Social Protection"},"sourceNote":"NULL","sourceOrganization":"The Atlas of Social Protection: Indicators of Resilience and Equity (ASPIRE)","topics":[{"id":"10","value":"Social Protection & Labor"}]},{"id":"per_sionl.overlap_q1_rur","name":"Population in the poorest quintile only receiving All Social Insurance (%) -rural","source":{"id":"29","value":"Global Social Protection"},"sourceNote":"NULL","sourceOrganization":"The Atlas of Social Protection: Indicators of Resilience and Equity (ASPIRE)","topics":[{"id":"10","value":"Social Protection & Labor"}]},{"id":"per_sionl.overlap_q1_preT_tot","name":"Population in the poorest quintile only receiving All Social Insurance (%, preT)","source":{"id":"29","value":"Global Social Protection"},"sourceNote":"NULL","sourceOrganization":"The Atlas of Social Protection: Indicators of Resilience and Equity (ASPIRE)","topics":[{"id":"10","value":"Social Protection & Labor"}]},{"id":"per_sionl.overlap_pop_urb","name":"Population only receiving All Social Insurance (%) -urban","source":{"id":"29","value":"Global Social Protection"},"sourceNote":"NULL","sourceOrganization":"The Atlas of Social Protection: Indicators of Resilience and Equity (ASPIRE)","topics":[{"id":"10","value":"Social Protection & Labor"}]},{"id":"per_sionl.overlap_pop_tot","name":"Population only receiving All Social Insurance (%)","source":{"id":"29","value":"Global Social Protection"},"sourceNote":"NULL","sourceOrganization":"The Atlas of Social Protection: Indicators of Resilience and Equity (ASPIRE)","topics":[{"id":"10","value":"Social Protection & Labor"}]},{"id":"per_sionl.overlap_pop_rur","name":"Population only receiving All Social Insurance (%) -rural","source":{"id":"29","value":"Global Social Protection"},"sourceNote":"NULL","sourceOrganization":"The Atlas of Social Protection: Indicators of Resilience and Equity (ASPIRE)","topics":[{"id":"10","value":"Social Protection & Labor"}]},{"id":"per_sionl.overlap_pop_preT_tot","name":"Population only receiving All Social Insurance (%, preT)","source":{"id":"29","value":"Global Social Protection"},"sourceNote":"NULL","sourceOrganization":"The Atlas of Social Protection: Indicators of Resilience and Equity (ASPIRE)","topics":[{"id":"10","value":"Social Protection & Labor"}]},{"id":"per_sionl.overlap_ep_tot","name":"Population in extreme poor (<$1.25 a day) only receiving All Social Insurance (%)","source":{"id":"29","value":"Global Social Protection"},"sourceNote":"NULL","sourceOrganization":"The Atlas of Social Protection: Indicators of Resilience and Equity (ASPIRE)","topics":[{"id":"10","value":"Social Protection & Labor"}]},{"id":"per_sionl.overlap_ep_preT_tot","name":"Population in extreme poor (<$1.25 a day) only receiving All Social Insurance (%, preT)","source":{"id":"29","value":"Global Social Protection"},"sourceNote":"NULL","sourceOrganization":"The Atlas of Social Protection: Indicators of Resilience and Equity (ASPIRE)","topics":[{"id":"10","value":"Social Protection & Labor"}]},{"id":"per_silm.overlap_q1_urb","name":"Population in the poorest quintile receiving All Social Insurance and Labor Market (%) -urban","source":{"id":"29","value":"Global Social Protection"},"sourceNote":"NULL","sourceOrganization":"The Atlas of Social Protection: Indicators of Resilience and Equity (ASPIRE)","topics":[{"id":"10","value":"Social Protection & Labor"}]},{"id":"per_silm.overlap_q1_tot","name":"Population in the poorest quintile receiving All Social Insurance and Labor Market (%)","source":{"id":"29","value":"Global Social Protection"},"sourceNote":"NULL","sourceOrganization":"The Atlas of Social Protection: Indicators of Resilience and Equity (ASPIRE)","topics":[{"id":"10","value":"Social Protection & Labor"}]},{"id":"per_silm.overlap_q1_rur","name":"Population in the poorest quintile receiving All Social Insurance and Labor Market (%) -rural","source":{"id":"29","value":"Global Social Protection"},"sourceNote":"NULL","sourceOrganization":"The Atlas of Social Protection: Indicators of Resilience and Equity (ASPIRE)","topics":[{"id":"10","value":"Social Protection & Labor"}]},{"id":"per_silm.overlap_q1_preT_tot","name":"Population in the poorest quintile receiving All Social Insurance and Labor Market (%, preT)","source":{"id":"29","value":"Global Social Protection"},"sourceNote":"NULL","sourceOrganization":"The Atlas of Social Protection: Indicators of Resilience and Equity (ASPIRE)","topics":[{"id":"10","value":"Social Protection & Labor"}]},{"id":"per_silm.overlap_pop_urb","name":"Population receiving All Social Insurance and Labor Market (%) -urban","source":{"id":"29","value":"Global Social Protection"},"sourceNote":"NULL","sourceOrganization":"The Atlas of Social Protection: Indicators of Resilience and Equity (ASPIRE)","topics":[{"id":"10","value":"Social Protection & Labor"}]},{"id":"per_silm.overlap_pop_tot","name":"Population receiving All Social Insurance and Labor Market (%)","source":{"id":"29","value":"Global Social Protection"},"sourceNote":"NULL","sourceOrganization":"The Atlas of Social Protection: Indicators of Resilience and Equity (ASPIRE)","topics":[{"id":"10","value":"Social Protection & Labor"}]},{"id":"per_silm.overlap_pop_rur","name":"Population receiving All Social Insurance and Labor Market (%) -rural","source":{"id":"29","value":"Global Social Protection"},"sourceNote":"NULL","sourceOrganization":"The Atlas of Social Protection: Indicators of Resilience and Equity (ASPIRE)","topics":[{"id":"10","value":"Social Protection & Labor"}]},{"id":"per_silm.overlap_pop_preT_tot","name":"Population receiving All Social Insurance and Labor Market (%, preT)","source":{"id":"29","value":"Global Social Protection"},"sourceNote":"NULL","sourceOrganization":"The Atlas of Social Protection: Indicators of Resilience and Equity (ASPIRE)","topics":[{"id":"10","value":"Social Protection & Labor"}]},{"id":"per_silm.overlap_ep_tot","name":"Population in extreme poor (<$1.25 a day) receiving All Social Insurance and Labor Market (%)","source":{"id":"29","value":"Global Social Protection"},"sourceNote":"NULL","sourceOrganization":"The Atlas of Social Protection: Indicators of Resilience and Equity (ASPIRE)","topics":[{"id":"10","value":"Social Protection & Labor"}]},{"id":"per_silm.overlap_ep_preT_tot","name":"Population in extreme poor (<$1.25 a day) receiving All Social Insurance and Labor Market (%, preT)","source":{"id":"29","value":"Global Social Protection"},"sourceNote":"NULL","sourceOrganization":"The Atlas of Social Protection: Indicators of Resilience and Equity (ASPIRE)","topics":[{"id":"10","value":"Social Protection & Labor"}]},{"id":"per_si_ss_p1_urb","name":"Poverty Gap reduction (%) -  Other Social Insurance - poorest quintile -urban","source":{"id":"29","value":"Global Social Protection"},"sourceNote":"NULL","sourceOrganization":"The Atlas of Social Protection: Indicators of Resilience and Equity (ASPIRE)","topics":[{"id":"10","value":"Social Protection & Labor"}]},{"id":"per_si_ss_p1_tot","name":"Poverty Gap reduction (%) -  Other Social Insurance -poorest quintile","source":{"id":"29","value":"Global Social Protection"},"sourceNote":"NULL","sourceOrganization":"The Atlas of Social Protection: Indicators of Resilience and Equity (ASPIRE)","topics":[{"id":"10","value":"Social Protection & Labor"}]},{"id":"per_si_ss_p1_rur","name":"Poverty Gap reduction (%) -  Other Social Insurance -poorest quintile -rural","source":{"id":"29","value":"Global Social Protection"},"sourceNote":"NULL","sourceOrganization":"The Atlas of Social Protection: Indicators of Resilience and Equity (ASPIRE)","topics":[{"id":"10","value":"Social Protection & Labor"}]},{"id":"per_si_ss_p1_preT_tot","name":"Poverty Gap reduction (%) -  Other Social Insurance -poorest quintile (preT)","source":{"id":"29","value":"Global Social Protection"},"sourceNote":"NULL","sourceOrganization":"The Atlas of Social Protection: Indicators of Resilience and Equity (ASPIRE)","topics":[{"id":"10","value":"Social Protection & Labor"}]},{"id":"per_si_ss_p1_ep_tot","name":"Poverty Gap reduction (%) -  Other Social Insurance -extreme poor (<$1.25 a day)","source":{"id":"29","value":"Global Social Protection"},"sourceNote":"NULL","sourceOrganization":"The Atlas of Social Protection: Indicators of Resilience and Equity (ASPIRE)","topics":[{"id":"10","value":"Social Protection & Labor"}]},{"id":"per_si_ss_p1_ep_preT_tot","name":"Poverty Gap reduction (%) -  Other Social Insurance -extreme poor (<$1.25 a day) (preT)","source":{"id":"29","value":"Global Social Protection"},"sourceNote":"NULL","sourceOrganization":"The Atlas of Social Protection: Indicators of Resilience and Equity (ASPIRE)","topics":[{"id":"10","value":"Social Protection & Labor"}]},{"id":"per_si_ss_p0_urb","name":"Poverty Headcount reduction (%) -  Other Social Insurance - poorest quintile -urban","source":{"id":"29","value":"Global Social Protection"},"sourceNote":"NULL","sourceOrganization":"The Atlas of Social Protection: Indicators of Resilience and Equity (ASPIRE)","topics":[{"id":"10","value":"Social Protection & Labor"}]},{"id":"per_si_ss_p0_tot","name":"Poverty Headcount reduction (%) -  Other Social Insurance -poorest quintile","source":{"id":"29","value":"Global Social Protection"},"sourceNote":"NULL","sourceOrganization":"The Atlas of Social Protection: Indicators of Resilience and Equity (ASPIRE)","topics":[{"id":"10","value":"Social Protection & Labor"}]},{"id":"per_si_ss_p0_rur","name":"Poverty Headcount reduction (%) -  Other Social Insurance -poorest quintile -rural","source":{"id":"29","value":"Global Social Protection"},"sourceNote":"NULL","sourceOrganization":"The Atlas of Social Protection: Indicators of Resilience and Equity (ASPIRE)","topics":[{"id":"10","value":"Social Protection & Labor"}]},{"id":"per_si_ss_p0_preT_tot","name":"Poverty Headcount reduction (%) -  Other Social Insurance -poorest quintile (preT)","source":{"id":"29","value":"Global Social Protection"},"sourceNote":"NULL","sourceOrganization":"The Atlas of Social Protection: Indicators of Resilience and Equity (ASPIRE)","topics":[{"id":"10","value":"Social Protection & Labor"}]},{"id":"per_si_ss_p0_ep_tot","name":"Poverty Headcount reduction (%) -  Other Social Insurance -extreme poor (<$1.25 a day)","source":{"id":"29","value":"Global Social Protection"},"sourceNote":"NULL","sourceOrganization":"The Atlas of Social Protection: Indicators of Resilience and Equity (ASPIRE)","topics":[{"id":"10","value":"Social Protection & Labor"}]},{"id":"per_si_ss_p0_ep_preT_tot","name":"Poverty Headcount reduction (%) -  Other Social Insurance -extreme poor (<$1.25 a day) (preT)","source":{"id":"29","value":"Global Social Protection"},"sourceNote":"NULL","sourceOrganization":"The Atlas of Social Protection: Indicators of Resilience and Equity (ASPIRE)","topics":[{"id":"10","value":"Social Protection & Labor"}]},{"id":"per_si_ss_gini_urb","name":"Gini inequality reduction (%) -  Other Social Insurance - poorest quintile -urban","source":{"id":"29","value":"Global Social Protection"},"sourceNote":"NULL","sourceOrganization":"The Atlas of Social Protection: Indicators of Resilience and Equity (ASPIRE)","topics":[{"id":"10","value":"Social Protection & Labor"}]},{"id":"per_si_ss_gini_tot","name":"Gini inequality reduction (%) -  Other Social Insurance -poorest quintile","source":{"id":"29","value":"Global Social Protection"},"sourceNote":"NULL","sourceOrganization":"The Atlas of Social Protection: Indicators of Resilience and Equity (ASPIRE)","topics":[{"id":"10","value":"Social Protection & Labor"}]},{"id":"per_si_ss_gini_rur","name":"Gini inequality reduction (%) -  Other Social Insurance -poorest quintile -rural","source":{"id":"29","value":"Global Social Protection"},"sourceNote":"NULL","sourceOrganization":"The Atlas of Social Protection: Indicators of Resilience and Equity (ASPIRE)","topics":[{"id":"10","value":"Social Protection & Labor"}]},{"id":"per_si_ss_gini_preT_tot","name":"Gini inequality reduction (%) -  Other Social Insurance -poorest quintile","source":{"id":"29","value":"Global Social Protection"},"sourceNote":"NULL","sourceOrganization":"The Atlas of Social Protection: Indicators of Resilience and Equity (ASPIRE)","topics":[{"id":"10","value":"Social Protection & Labor"}]},{"id":"per_si_ss_gini_ep_tot","name":"Gini inequality reduction (%) -  Other Social Insurance -extreme poor (<$1.25 a day)","source":{"id":"29","value":"Global Social Protection"},"sourceNote":"NULL","sourceOrganization":"The Atlas of Social Protection: Indicators of Resilience and Equity (ASPIRE)","topics":[{"id":"10","value":"Social Protection & Labor"}]},{"id":"per_si_ss_gini_ep_preT_tot","name":"Gini inequality reduction (%) -  Other Social Insurance -extreme poor (<$1.25 a day)","source":{"id":"29","value":"Global Social Protection"},"sourceNote":"NULL","sourceOrganization":"The Atlas of Social Protection: Indicators of Resilience and Equity (ASPIRE)","topics":[{"id":"10","value":"Social Protection & Labor"}]},{"id":"per_si_ss.cov_q5_urb","name":"Coverage in richest quintile (%) - Other Social Insurance -urban","source":{"id":"29","value":"Global Social Protection"},"sourceNote":"NULL","sourceOrganization":"The Atlas of Social Protection: Indicators of Resilience and Equity (ASPIRE)","topics":[{"id":"10","value":"Social Protection & Labor"}]},{"id":"per_si_ss.cov_q5_tot","name":"Coverage in richest quintile (%) - Other Social Insurance ","source":{"id":"29","value":"Global Social Protection"},"sourceNote":"NULL","sourceOrganization":"The Atlas of Social Protection: Indicators of Resilience and Equity (ASPIRE)","topics":[{"id":"10","value":"Social Protection & Labor"}]}]]