[{"page":260,"pages":324,"per_page":"50","total":16174},[{"id":"SH.FPL.MSTM.Q5.ZS","name":"Fertility planning status (wanted later) (% of births): Q5 (highest)","source":{"id":"39","value":"Health Nutrition and Population Statistics by Wealth Quintile"},"sourceNote":"Fertility planning status: Percentage of births in the five years preceding the survey which are planned (wanted then), mistimed (wanted later), and unplanned (wanted no more).","sourceOrganization":"Household Surveys (DHS, MICS)","topics":[{"id":"8","value":"Health "}]},{"id":"SH.FPL.MSTM.Q4.ZS","name":"Fertility planning status (wanted later) (% of births): Q4","source":{"id":"39","value":"Health Nutrition and Population Statistics by Wealth Quintile"},"sourceNote":"Fertility planning status: Percentage of births in the five years preceding the survey which are planned (wanted then), mistimed (wanted later), and unplanned (wanted no more).","sourceOrganization":"Household Surveys (DHS, MICS)","topics":[{"id":"8","value":"Health "}]},{"id":"SH.FPL.MSTM.Q3.ZS","name":"Fertility planning status (wanted later) (% of births): Q3","source":{"id":"39","value":"Health Nutrition and Population Statistics by Wealth Quintile"},"sourceNote":"Fertility planning status: Percentage of births in the five years preceding the survey which are planned (wanted then), mistimed (wanted later), and unplanned (wanted no more).","sourceOrganization":"Household Surveys (DHS, MICS)","topics":[{"id":"8","value":"Health "}]},{"id":"SH.FPL.MSTM.Q2.ZS","name":"Fertility planning status (wanted later) (% of births): Q2","source":{"id":"39","value":"Health Nutrition and Population Statistics by Wealth Quintile"},"sourceNote":"Fertility planning status: Percentage of births in the five years preceding the survey which are planned (wanted then), mistimed (wanted later), and unplanned (wanted no more).","sourceOrganization":"Household Surveys (DHS, MICS)","topics":[{"id":"8","value":"Health "}]},{"id":"SH.FPL.MSTM.Q1.ZS","name":"Fertility planning status (wanted later) (% of births): Q1 (lowest)","source":{"id":"39","value":"Health Nutrition and Population Statistics by Wealth Quintile"},"sourceNote":"Fertility planning status: Percentage of births in the five years preceding the survey which are planned (wanted then), mistimed (wanted later), and unplanned (wanted no more).","sourceOrganization":"Household Surveys (DHS, MICS)","topics":[{"id":"8","value":"Health "}]},{"id":"SH.FPL.MBRI.Q5","name":"Median birth interval (months): Q5 (highest)","source":{"id":"39","value":"Health Nutrition and Population Statistics by Wealth Quintile"},"sourceNote":"Median birth interval: Median duration of the birth interval in months for non-first births in the five years preceding the survey.","sourceOrganization":"Household Surveys (DHS, MICS)","topics":[{"id":"8","value":"Health "}]},{"id":"SH.FPL.MBRI.Q4","name":"Median birth interval (months): Q4","source":{"id":"39","value":"Health Nutrition and Population Statistics by Wealth Quintile"},"sourceNote":"Median birth interval: Median duration of the birth interval in months for non-first births in the five years preceding the survey.","sourceOrganization":"Household Surveys (DHS, MICS)","topics":[{"id":"8","value":"Health "}]},{"id":"SH.FPL.MBRI.Q3","name":"Median birth interval (months): Q3","source":{"id":"39","value":"Health Nutrition and Population Statistics by Wealth Quintile"},"sourceNote":"Median birth interval: Median duration of the birth interval in months for non-first births in the five years preceding the survey.","sourceOrganization":"Household Surveys (DHS, MICS)","topics":[{"id":"8","value":"Health "}]},{"id":"SH.FPL.MBRI.Q2","name":"Median birth interval (months): Q2","source":{"id":"39","value":"Health Nutrition and Population Statistics by Wealth Quintile"},"sourceNote":"Median birth interval: Median duration of the birth interval in months for non-first births in the five years preceding the survey.","sourceOrganization":"Household Surveys (DHS, MICS)","topics":[{"id":"8","value":"Health "}]},{"id":"SH.FPL.MBRI.Q1","name":"Median birth interval (months): Q1 (lowest)","source":{"id":"39","value":"Health Nutrition and Population Statistics by Wealth Quintile"},"sourceNote":"Median birth interval: Median duration of the birth interval in months for non-first births in the five years preceding the survey.","sourceOrganization":"Household Surveys (DHS, MICS)","topics":[{"id":"8","value":"Health "}]},{"id":"SH.FPL.LIMT.Q5.ZS","name":"Desire to stop (limit) childbearing (% of married women): Q5 (highest)","source":{"id":"39","value":"Health Nutrition and Population Statistics by Wealth Quintile"},"sourceNote":"Desire to stop (limit) childbearing: Percentage of currently married women who want no more children. Women who have been sterilized or whose spouses are sterilized, are considered to want no more children.","sourceOrganization":"Household Surveys (DHS, MICS)","topics":[{"id":"8","value":"Health "}]},{"id":"SH.FPL.LIMT.Q4.ZS","name":"Desire to stop (limit) childbearing (% of married women): Q4","source":{"id":"39","value":"Health Nutrition and Population Statistics by Wealth Quintile"},"sourceNote":"Desire to stop (limit) childbearing: Percentage of currently married women who want no more children. Women who have been sterilized or whose spouses are sterilized, are considered to want no more children.","sourceOrganization":"Household Surveys (DHS, MICS)","topics":[{"id":"8","value":"Health "}]},{"id":"SH.FPL.LIMT.Q3.ZS","name":"Desire to stop (limit) childbearing (% of married women): Q3","source":{"id":"39","value":"Health Nutrition and Population Statistics by Wealth Quintile"},"sourceNote":"Desire to stop (limit) childbearing: Percentage of currently married women who want no more children. Women who have been sterilized or whose spouses are sterilized, are considered to want no more children.","sourceOrganization":"Household Surveys (DHS, MICS)","topics":[{"id":"8","value":"Health "}]},{"id":"SH.FPL.LIMT.Q2.ZS","name":"Desire to stop (limit) childbearing (% of married women): Q2","source":{"id":"39","value":"Health Nutrition and Population Statistics by Wealth Quintile"},"sourceNote":"Desire to stop (limit) childbearing: Percentage of currently married women who want no more children. Women who have been sterilized or whose spouses are sterilized, are considered to want no more children.","sourceOrganization":"Household Surveys (DHS, MICS)","topics":[{"id":"8","value":"Health "}]},{"id":"SH.FPL.LIMT.Q1.ZS","name":"Desire to stop (limit) childbearing (% of married women): Q1 (lowest)","source":{"id":"39","value":"Health Nutrition and Population Statistics by Wealth Quintile"},"sourceNote":"Desire to stop (limit) childbearing: Percentage of currently married women who want no more children. Women who have been sterilized or whose spouses are sterilized, are considered to want no more children.","sourceOrganization":"Household Surveys (DHS, MICS)","topics":[{"id":"8","value":"Health "}]},{"id":"SH.FPL.KWMD.Q5.ZS","name":"Knowledge of contraception (modern method) (% of married women): Q5 (highest)","source":{"id":"39","value":"Health Nutrition and Population Statistics by Wealth Quintile"},"sourceNote":"Knowledge of contraception: Percentage of currently married women who know at least one contraceptive method and at least one modern contraceptive method.","sourceOrganization":"Household Surveys (DHS, MICS)","topics":[{"id":"8","value":"Health "}]},{"id":"SH.FPL.KWMD.Q4.ZS","name":"Knowledge of contraception (modern method) (% of married women): Q4","source":{"id":"39","value":"Health Nutrition and Population Statistics by Wealth Quintile"},"sourceNote":"Knowledge of contraception: Percentage of currently married women who know at least one contraceptive method and at least one modern contraceptive method.","sourceOrganization":"Household Surveys (DHS, MICS)","topics":[{"id":"8","value":"Health "}]},{"id":"SH.FPL.KWMD.Q3.ZS","name":"Knowledge of contraception (modern method) (% of married women): Q3","source":{"id":"39","value":"Health Nutrition and Population Statistics by Wealth Quintile"},"sourceNote":"Knowledge of contraception: Percentage of currently married women who know at least one contraceptive method and at least one modern contraceptive method.","sourceOrganization":"Household Surveys (DHS, MICS)","topics":[{"id":"8","value":"Health "}]},{"id":"SH.FPL.KWMD.Q2.ZS","name":"Knowledge of contraception (modern method) (% of married women): Q2","source":{"id":"39","value":"Health Nutrition and Population Statistics by Wealth Quintile"},"sourceNote":"Knowledge of contraception: Percentage of currently married women who know at least one contraceptive method and at least one modern contraceptive method.","sourceOrganization":"Household Surveys (DHS, MICS)","topics":[{"id":"8","value":"Health "}]},{"id":"SH.FPL.KWMD.Q1.ZS","name":"Knowledge of contraception (modern method) (% of married women): Q1 (lowest)","source":{"id":"39","value":"Health Nutrition and Population Statistics by Wealth Quintile"},"sourceNote":"Knowledge of contraception: Percentage of currently married women who know at least one contraceptive method and at least one modern contraceptive method.","sourceOrganization":"Household Surveys (DHS, MICS)","topics":[{"id":"8","value":"Health "}]},{"id":"SH.FPL.KNOW.Q5.ZS","name":"Knowledge of contraception (any method) (% of married women): Q5 (highest)","source":{"id":"39","value":"Health Nutrition and Population Statistics by Wealth Quintile"},"sourceNote":"Knowledge of contraception: Percentage of currently married women who know at least one contraceptive method and at least one modern contraceptive method.","sourceOrganization":"Household Surveys (DHS, MICS)","topics":[{"id":"8","value":"Health "}]},{"id":"SH.FPL.KNOW.Q4.ZS","name":"Knowledge of contraception (any method) (% of married women): Q4","source":{"id":"39","value":"Health Nutrition and Population Statistics by Wealth Quintile"},"sourceNote":"Knowledge of contraception: Percentage of currently married women who know at least one contraceptive method and at least one modern contraceptive method.","sourceOrganization":"Household Surveys (DHS, MICS)","topics":[{"id":"8","value":"Health "}]},{"id":"SH.FPL.KNOW.Q3.ZS","name":"Knowledge of contraception (any method) (% of married women): Q3","source":{"id":"39","value":"Health Nutrition and Population Statistics by Wealth Quintile"},"sourceNote":"Knowledge of contraception: Percentage of currently married women who know at least one contraceptive method and at least one modern contraceptive method.","sourceOrganization":"Household Surveys (DHS, MICS)","topics":[{"id":"8","value":"Health "}]},{"id":"SH.FPL.KNOW.Q2.ZS","name":"Knowledge of contraception (any method) (% of married women): Q2","source":{"id":"39","value":"Health Nutrition and Population Statistics by Wealth Quintile"},"sourceNote":"Knowledge of contraception: Percentage of currently married women who know at least one contraceptive method and at least one modern contraceptive method.","sourceOrganization":"Household Surveys (DHS, MICS)","topics":[{"id":"8","value":"Health "}]},{"id":"SH.FPL.KNOW.Q1.ZS","name":"Knowledge of contraception (any method) (% of married women): Q1 (lowest)","source":{"id":"39","value":"Health Nutrition and Population Statistics by Wealth Quintile"},"sourceNote":"Knowledge of contraception: Percentage of currently married women who know at least one contraceptive method and at least one modern contraceptive method.","sourceOrganization":"Household Surveys (DHS, MICS)","topics":[{"id":"8","value":"Health "}]},{"id":"SH.FPL.IDLC.Q5","name":"Mean ideal number of children (per woman): Q5 (highest)","source":{"id":"39","value":"Health Nutrition and Population Statistics by Wealth Quintile"},"sourceNote":"Mean ideal number of children: Mean ideal number of children for all women.","sourceOrganization":"Household Surveys (DHS, MICS)","topics":[{"id":"8","value":"Health "}]},{"id":"SH.FPL.IDLC.Q4","name":"Mean ideal number of children (per woman): Q4","source":{"id":"39","value":"Health Nutrition and Population Statistics by Wealth Quintile"},"sourceNote":"Mean ideal number of children: Mean ideal number of children for all women.","sourceOrganization":"Household Surveys (DHS, MICS)","topics":[{"id":"8","value":"Health "}]},{"id":"SH.FPL.IDLC.Q3","name":"Mean ideal number of children (per woman): Q3","source":{"id":"39","value":"Health Nutrition and Population Statistics by Wealth Quintile"},"sourceNote":"Mean ideal number of children: Mean ideal number of children for all women.","sourceOrganization":"Household Surveys (DHS, MICS)","topics":[{"id":"8","value":"Health "}]},{"id":"SH.FPL.IDLC.Q2","name":"Mean ideal number of children (per woman): Q2","source":{"id":"39","value":"Health Nutrition and Population Statistics by Wealth Quintile"},"sourceNote":"Mean ideal number of children: Mean ideal number of children for all women.","sourceOrganization":"Household Surveys (DHS, MICS)","topics":[{"id":"8","value":"Health "}]},{"id":"SH.FPL.IDLC.Q1","name":"Mean ideal number of children (per woman): Q1 (lowest)","source":{"id":"39","value":"Health Nutrition and Population Statistics by Wealth Quintile"},"sourceNote":"Mean ideal number of children: Mean ideal number of children for all women.","sourceOrganization":"Household Surveys (DHS, MICS)","topics":[{"id":"8","value":"Health "}]},{"id":"SH.FPL.HEAR.Q5.ZS","name":"Heard family planning on radio and television (% of women): Q5 (highest)","source":{"id":"39","value":"Health Nutrition and Population Statistics by Wealth Quintile"},"sourceNote":"Heard family planning on radio and television: Percentage of all women who have heard a radio or television message about family planning in the last few months prior to the interview.","sourceOrganization":"Household Surveys (DHS, MICS)","topics":[{"id":"8","value":"Health "}]},{"id":"SH.FPL.HEAR.Q4.ZS","name":"Heard family planning on radio and television (% of women): Q4","source":{"id":"39","value":"Health Nutrition and Population Statistics by Wealth Quintile"},"sourceNote":"Heard family planning on radio and television: Percentage of all women who have heard a radio or television message about family planning in the last few months prior to the interview.","sourceOrganization":"Household Surveys (DHS, MICS)","topics":[{"id":"8","value":"Health "}]},{"id":"SH.FPL.HEAR.Q3.ZS","name":"Heard family planning on radio and television (% of women): Q3","source":{"id":"39","value":"Health Nutrition and Population Statistics by Wealth Quintile"},"sourceNote":"Heard family planning on radio and television: Percentage of all women who have heard a radio or television message about family planning in the last few months prior to the interview.","sourceOrganization":"Household Surveys (DHS, MICS)","topics":[{"id":"8","value":"Health "}]},{"id":"SH.FPL.HEAR.Q2.ZS","name":"Heard family planning on radio and television (% of women): Q2","source":{"id":"39","value":"Health Nutrition and Population Statistics by Wealth Quintile"},"sourceNote":"Heard family planning on radio and television: Percentage of all women who have heard a radio or television message about family planning in the last few months prior to the interview.","sourceOrganization":"Household Surveys (DHS, MICS)","topics":[{"id":"8","value":"Health "}]},{"id":"SH.FPL.HEAR.Q1.ZS","name":"Heard family planning on radio and television (% of women): Q1 (lowest)","source":{"id":"39","value":"Health Nutrition and Population Statistics by Wealth Quintile"},"sourceNote":"Heard family planning on radio and television: Percentage of all women who have heard a radio or television message about family planning in the last few months prior to the interview.","sourceOrganization":"Household Surveys (DHS, MICS)","topics":[{"id":"8","value":"Health "}]},{"id":"SH.FPL.FSEX.Q5.ZS","name":"Median age at first sexual intercourse (women ages 25-49): Q5 (highest)","source":{"id":"39","value":"Health Nutrition and Population Statistics by Wealth Quintile"},"sourceNote":"Median age at first sexual intercourse: Median age at first sexual intercourse among women aged 25-49 years.","sourceOrganization":"Household Surveys (DHS, MICS)","topics":[{"id":"8","value":"Health "}]},{"id":"SH.FPL.FSEX.Q4.ZS","name":"Median age at first sexual intercourse (women ages 25-49): Q4","source":{"id":"39","value":"Health Nutrition and Population Statistics by Wealth Quintile"},"sourceNote":"Median age at first sexual intercourse: Median age at first sexual intercourse among women aged 25-49 years.","sourceOrganization":"Household Surveys (DHS, MICS)","topics":[{"id":"8","value":"Health "}]},{"id":"SH.FPL.FSEX.Q3.ZS","name":"Median age at first sexual intercourse (women ages 25-49): Q3","source":{"id":"39","value":"Health Nutrition and Population Statistics by Wealth Quintile"},"sourceNote":"Median age at first sexual intercourse: Median age at first sexual intercourse among women aged 25-49 years.","sourceOrganization":"Household Surveys (DHS, MICS)","topics":[{"id":"8","value":"Health "}]},{"id":"SH.FPL.FSEX.Q2.ZS","name":"Median age at first sexual intercourse (women ages 25-49): Q2","source":{"id":"39","value":"Health Nutrition and Population Statistics by Wealth Quintile"},"sourceNote":"Median age at first sexual intercourse: Median age at first sexual intercourse among women aged 25-49 years.","sourceOrganization":"Household Surveys (DHS, MICS)","topics":[{"id":"8","value":"Health "}]},{"id":"SH.FPL.FSEX.Q1.ZS","name":"Median age at first sexual intercourse (women ages 25-49): Q1 (lowest)","source":{"id":"39","value":"Health Nutrition and Population Statistics by Wealth Quintile"},"sourceNote":"Median age at first sexual intercourse: Median age at first sexual intercourse among women aged 25-49 years.","sourceOrganization":"Household Surveys (DHS, MICS)","topics":[{"id":"8","value":"Health "}]},{"id":"SH.FPL.FMAR.Q5.ZS","name":"Median age at first marriage (women ages 25-49): Q5 (highest)","source":{"id":"39","value":"Health Nutrition and Population Statistics by Wealth Quintile"},"sourceNote":"Median age at first marriage: Median age at first marriage among women aged 25-49 years.","sourceOrganization":"Household Surveys (DHS, MICS)","topics":[{"id":"8","value":"Health "}]},{"id":"SH.FPL.FMAR.Q4.ZS","name":"Median age at first marriage (women ages 25-49): Q4","source":{"id":"39","value":"Health Nutrition and Population Statistics by Wealth Quintile"},"sourceNote":"Median age at first marriage: Median age at first marriage among women aged 25-49 years.","sourceOrganization":"Household Surveys (DHS, MICS)","topics":[{"id":"8","value":"Health "}]},{"id":"SH.FPL.FMAR.Q3.ZS","name":"Median age at first marriage (women ages 25-49): Q3","source":{"id":"39","value":"Health Nutrition and Population Statistics by Wealth Quintile"},"sourceNote":"Median age at first marriage: Median age at first marriage among women aged 25-49 years.","sourceOrganization":"Household Surveys (DHS, MICS)","topics":[{"id":"8","value":"Health "}]},{"id":"SH.FPL.FMAR.Q2.ZS","name":"Median age at first marriage (women ages 25-49): Q2","source":{"id":"39","value":"Health Nutrition and Population Statistics by Wealth Quintile"},"sourceNote":"Median age at first marriage: Median age at first marriage among women aged 25-49 years.","sourceOrganization":"Household Surveys (DHS, MICS)","topics":[{"id":"8","value":"Health "}]},{"id":"SH.FPL.FMAR.Q1.ZS","name":"Median age at first marriage (women ages 25-49): Q1 (lowest)","source":{"id":"39","value":"Health Nutrition and Population Statistics by Wealth Quintile"},"sourceNote":"Median age at first marriage: Median age at first marriage among women aged 25-49 years.","sourceOrganization":"Household Surveys (DHS, MICS)","topics":[{"id":"8","value":"Health "}]},{"id":"SH.FPL.FBRT.Q5.ZS","name":"Median age at first birth (women ages 25-49): Q5 (highest)","source":{"id":"39","value":"Health Nutrition and Population Statistics by Wealth Quintile"},"sourceNote":"Median age at first birth: Median age at first birth among women aged 25-49 years.","sourceOrganization":"Household Surveys (DHS, MICS)","topics":[{"id":"8","value":"Health "}]},{"id":"SH.FPL.FBRT.Q4.ZS","name":"Median age at first birth (women ages 25-49): Q4","source":{"id":"39","value":"Health Nutrition and Population Statistics by Wealth Quintile"},"sourceNote":"Median age at first birth: Median age at first birth among women aged 25-49 years.","sourceOrganization":"Household Surveys (DHS, MICS)","topics":[{"id":"8","value":"Health "}]},{"id":"SH.FPL.FBRT.Q3.ZS","name":"Median age at first birth (women ages 25-49): Q3","source":{"id":"39","value":"Health Nutrition and Population Statistics by Wealth Quintile"},"sourceNote":"Median age at first birth: Median age at first birth among women aged 25-49 years.","sourceOrganization":"Household Surveys (DHS, MICS)","topics":[{"id":"8","value":"Health "}]},{"id":"SH.FPL.FBRT.Q2.ZS","name":"Median age at first birth (women ages 25-49): Q2","source":{"id":"39","value":"Health Nutrition and Population Statistics by Wealth Quintile"},"sourceNote":"Median age at first birth: Median age at first birth among women aged 25-49 years.","sourceOrganization":"Household Surveys (DHS, MICS)","topics":[{"id":"8","value":"Health "}]},{"id":"SH.FPL.FBRT.Q1.ZS","name":"Median age at first birth (women ages 25-49): Q1 (lowest)","source":{"id":"39","value":"Health Nutrition and Population Statistics by Wealth Quintile"},"sourceNote":"Median age at first birth: Median age at first birth among women aged 25-49 years.","sourceOrganization":"Household Surveys (DHS, MICS)","topics":[{"id":"8","value":"Health "}]}]]