[{"page":253,"pages":324,"per_page":"50","total":16174},[{"id":"SG.DMK.PRCH.FN.ZS","name":"Women participating in making major household purchase decisions (% of women age 15-49)","source":{"id":"14","value":"Gender Statistics"},"sourceNote":"Women participating in making major household purchase decisions is Percentage of currently married women aged 15-49 who say that they alone or jointly have the final say in making major household purchases","sourceOrganization":"Demographic and Health Surveys (DHS)","topics":[{"id":"17","value":"Gender"}]},{"id":"SG.DMK.NONE.FN.ZS","name":"Women participating in none of the three decisions (own health care, major household purchases, and visiting family) (% of women age 15-49)","source":{"id":"14","value":"Gender Statistics"},"sourceNote":"Women participating in none of the three decisions (own health care, major household purchases, and visiting family) is Percentage of currently married women aged 15-49 who say that they alone or jointly have the final say in none of the three decisions (own health care, major household purchases, and visiting family)","sourceOrganization":"Demographic and Health Surveys (DHS)","topics":[{"id":"17","value":"Gender"}]},{"id":"SG.DMK.HLTH.WH.ZS","name":"Decision maker about a woman's own health care: wife and husband jointly (% of women age 15-49)","source":{"id":"14","value":"Gender Statistics"},"sourceNote":"Decision maker about women own health care: wife and husband jointly is Percentage of currently married women aged 15-49 for whom the decision maker for their own health care is mainly the respondent and her husband","sourceOrganization":"Demographic and Health Surveys (DHS)","topics":[{"id":"17","value":"Gender"}]},{"id":"SG.DMK.HLTH.WF.ZS","name":"Decision maker about a woman's own health care: mainly wife  (% of women age 15-49)","source":{"id":"14","value":"Gender Statistics"},"sourceNote":"Decision maker about women own health care: mainly wife  is Percentage of currently married women aged 15-49 for whom the decision maker for their own health care is mainly the respondent","sourceOrganization":"Demographic and Health Surveys (DHS)","topics":[{"id":"17","value":"Gender"}]},{"id":"SG.DMK.HLTH.SE.ZS","name":"Decision maker about a woman's own health care: someone else (% of women age 15-49)","source":{"id":"14","value":"Gender Statistics"},"sourceNote":"Decision maker about women own health care: someone else is Percentage of currently married women aged 15-49 for whom the decision maker for their own health care is mainly someone else","sourceOrganization":"Demographic and Health Surveys (DHS)","topics":[{"id":"17","value":"Gender"}]},{"id":"SG.DMK.HLTH.OT.ZS","name":"Decision maker about a woman's own health care: other (% of women age 15-49)","source":{"id":"14","value":"Gender Statistics"},"sourceNote":"Decision maker about women own health care: other is Percentage of currently married women aged 15-49 for whom the decision maker for their own health care is recorded as 'other'","sourceOrganization":"Demographic and Health Surveys (DHS)","topics":[{"id":"17","value":"Gender"}]},{"id":"SG.DMK.HLTH.HB.ZS","name":"Decision maker about a woman's own health care: mainly husband (% of women age 15-49)","source":{"id":"14","value":"Gender Statistics"},"sourceNote":"Decision maker about women own health care: mainly husband is Percentage of currently married women aged 15-49 for whom the decision maker for their own health care is mainly the husband","sourceOrganization":"Demographic and Health Surveys (DHS)","topics":[{"id":"17","value":"Gender"}]},{"id":"SG.DMK.HLTH.FN.ZS","name":"Women participating in own health care decisions (% of women age 15-49)","source":{"id":"14","value":"Gender Statistics"},"sourceNote":"Women Participating in own health care decisions is Percentage of currently married women aged 15-49 who say that they alone or jointly have the final say in own health care","sourceOrganization":"Demographic and Health Surveys (DHS)","topics":[{"id":"17","value":"Gender"}]},{"id":"SG.DMK.FOOD.FN.ZS","name":"Women participating in decision of what food to cook daily (% of women age 15-49)","source":{"id":"14","value":"Gender Statistics"},"sourceNote":"Women participating in decision of what food to cook daily is Percentage of currently married women aged 15-49 who say that they alone or jointly have the final say in what food to cook daily","sourceOrganization":"Demographic and Health Surveys (DHS)","topics":[{"id":"17","value":"Gender"}]},{"id":"SG.DMK.DPCH.FN.ZS","name":"Women participating in making daily purchase decisions (% of women age 15-49)","source":{"id":"14","value":"Gender Statistics"},"sourceNote":"Women participating in making daily purchase decisions is Percentage of currently married women aged 15-49 who say that they alone or jointly have the final say in making daily purchases","sourceOrganization":"Demographic and Health Surveys (DHS)","topics":[{"id":"17","value":"Gender"}]},{"id":"SG.DMK.ALLD.FN.ZS","name":"Women participating in the three decisions (own health care, major household purchases, and visiting family) (% of women age 15-49)","source":{"id":"2","value":"World Development Indicators"},"sourceNote":"Women participating in the three decisions (own health care, major household purchases, and visiting family) is the percentage of currently married women aged 15-49 who say that they alone or jointly have the final say in all of the three decisions (own health care, large purchases and visits to family, relatives, and friends).","sourceOrganization":"Demographic and Health Surveys (DHS)","topics":[{"id":"17","value":"Gender"}]},{"id":"SG.CRT.TSTM.WT","name":"Woman's testimony carries the same evidentiary weight in court as a man's (1=yes; 0=no)","source":{"id":"14","value":"Gender Statistics"},"sourceNote":"Woman's testimony carries the same evidentiary weight in court as a man's is whether the law differentiates between the evidentiary value of a woman’s testimony in a court and that of a man. It covers all types of court cases.","sourceOrganization":"","topics":[]},{"id":"SG.COK.WOOD.ZS","name":"Main cooking fuel: wood (% of households)","source":{"id":"14","value":"Gender Statistics"},"sourceNote":"Percentage of households who use wood as thier main cooking fuel","sourceOrganization":"Demographic and Health Surveys (DHS)","topics":[{"id":"17","value":"Gender"}]},{"id":"SG.COK.STRW.ZS","name":"Main cooking fuel: straw\/shrubs\/grass (% of households)","source":{"id":"14","value":"Gender Statistics"},"sourceNote":"Percentage of households who use straw\/shrubs\/grass as thier main cooking fuel","sourceOrganization":"Demographic and Health Surveys (DHS)","topics":[{"id":"17","value":"Gender"}]},{"id":"SG.COK.SBLD.ZS","name":"Location of cooking: separate building (% of households)","source":{"id":"14","value":"Gender Statistics"},"sourceNote":"Percentage of households who do their cooking in a separate building","sourceOrganization":"Demographic and Health Surveys (DHS)","topics":[{"id":"17","value":"Gender"}]},{"id":"SG.COK.OUTD.ZS","name":"Location of cooking: outdoors (% of households)","source":{"id":"14","value":"Gender Statistics"},"sourceNote":"Percentage of households who do their cooking outdoors","sourceOrganization":"Demographic and Health Surveys (DHS)","topics":[{"id":"17","value":"Gender"}]},{"id":"SG.COK.OTHR.ZS","name":"Location of cooking: other places (% of households)","source":{"id":"14","value":"Gender Statistics"},"sourceNote":"Percentage of households who do their cooking in other places","sourceOrganization":"Demographic and Health Surveys (DHS)","topics":[{"id":"17","value":"Gender"}]},{"id":"SG.COK.LPGN.ZS","name":"Main cooking fuel: LPG\/natural gas\/biogas (% of households)","source":{"id":"14","value":"Gender Statistics"},"sourceNote":"Percentage of households who use Liquified Petroleum Gas (LPG) or natural gas or biogas as thier main cooking fuel","sourceOrganization":"Demographic and Health Surveys (DHS)","topics":[{"id":"17","value":"Gender"}]},{"id":"SG.COK.HOUS.ZS","name":"Location of cooking: inside the house (% of households)","source":{"id":"14","value":"Gender Statistics"},"sourceNote":"Percentage of households who do their cooking inside the house","sourceOrganization":"Demographic and Health Surveys (DHS)","topics":[{"id":"17","value":"Gender"}]},{"id":"SG.COK.ELEC.ZS","name":"Main cooking fuel: electricity  (% of households)","source":{"id":"14","value":"Gender Statistics"},"sourceNote":"Percentage of households who use electricity as thier main cooking fuel","sourceOrganization":"Demographic and Health Surveys (DHS)","topics":[{"id":"17","value":"Gender"}]},{"id":"SG.COK.DUNG.ZS","name":"Main cooking fuel: dung (% of households)","source":{"id":"14","value":"Gender Statistics"},"sourceNote":"Percentage of households who use dung as thier main cooking fuel","sourceOrganization":"Demographic and Health Surveys (DHS)","topics":[{"id":"17","value":"Gender"}]},{"id":"SG.COK.CROP.ZS","name":"Main cooking fuel: agricultural crop (% of households)","source":{"id":"14","value":"Gender Statistics"},"sourceNote":"Percentage of households who use agricultural crop as thier main cooking fuel","sourceOrganization":"Demographic and Health Surveys (DHS)","topics":[{"id":"17","value":"Gender"}]},{"id":"SG.COK.CHCO.ZS","name":"Main cooking fuel: charcoal (% of households)","source":{"id":"14","value":"Gender Statistics"},"sourceNote":"Percentage of households who use charcoal as thier main cooking fuel","sourceOrganization":"Demographic and Health Surveys (DHS)","topics":[{"id":"17","value":"Gender"}]},{"id":"SE.XPD.TOTL.GD.ZS","name":"Government expenditure on education, total (% of GDP)","source":{"id":"2","value":"World Development Indicators"},"sourceNote":"General government expenditure on education (current, capital, and transfers) is expressed as a percentage of GDP. It includes expenditure funded by transfers from international sources to government. General government usually refers to local, regional and central governments.","sourceOrganization":"United Nations Educational, Scientific, and Cultural Organization (UNESCO) Institute for Statistics.","topics":[{"id":"4","value":"Education "}]},{"id":"SE.XPD.TOTL.GB.ZS","name":"Expenditure on education as % of total government expenditure (%)","source":{"id":"2","value":"World Development Indicators"},"sourceNote":"Total general (local, regional and central) government expenditure on education (current, capital, and transfers), expressed as a percentage of total general government expenditure on all sectors (including health, education, social services, etc.). It includes expenditure funded by transfers from international sources to government. Public education expenditure includes spending by local\/municipal, regional and national governments (excluding household contributions) on educational institutions (both public and private), education administration, and subsidies for private entities (students\/households and other privates entities). In some instances data on total public expenditure on education refers only to the ministry of education and can exclude other ministries that spend a part of their budget on educational activities. The indicator is calculated by dividing total public expenditure on education incurred by all government agencies\/departments by the total government expenditure and multiplying by 100. For more information, consult the UNESCO Institute of Statistics website: http:\/\/www.uis.unesco.org\/Education\/","sourceOrganization":"UNESCO Institute for Statistics","topics":[{"id":"4","value":"Education "}]},{"id":"SE.XPD.TERT.ZS","name":"Expenditure on tertiary as % of government expenditure on education (%)","source":{"id":"2","value":"World Development Indicators"},"sourceNote":"Expenditure on education by level of education, expressed as a percentage of total general government expenditure on education. Divide government expenditure on a given level of education (ex. primary, secondary) by total government expenditure on education (all levels combined), and multiply by 100. A high percentage of government expenditure on education spent on a given level denotes a high priority given to that level compared to others. When interpreting this indicator, one should take into account enrolment at that level, and the relative costs per student between different levels of education. For more information, consult the UNESCO Institute of Statistics website: http:\/\/www.uis.unesco.org\/Education\/","sourceOrganization":"UNESCO Institute for Statistics","topics":[{"id":"4","value":"Education "}]},{"id":"SE.XPD.TERT.PC.ZS","name":"Government expenditure per tertiary student as % of GDP per capita (%)","source":{"id":"2","value":"World Development Indicators"},"sourceNote":"Average total (current, capital and transfers) general government expenditure per student in the given level of education, expressed as a percentage of GDP per capita. Divide total government expenditure for a given level of education (ex. primary, secondary) by total enrolment in that same level, divide again by GDP per capita, and multiply by 100. For more information, consult the UNESCO Institute of Statistics website: http:\/\/www.uis.unesco.org\/Education\/","sourceOrganization":"UNESCO Institute for Statistics","topics":[{"id":"4","value":"Education "}]},{"id":"SE.XPD.TCHR.XC.ZS","name":"Teachers' salaries (% of current education expenditure)","source":{"id":"11","value":"Africa Development Indicators"},"sourceNote":"","sourceOrganization":"","topics":[{"id":"4","value":"Education "}]},{"id":"SE.XPD.STCH.ZS","name":"Spending on teaching materials, secondary (% of secondary expenditure)","source":{"id":"11","value":"Africa Development Indicators"},"sourceNote":"","sourceOrganization":"","topics":[{"id":"4","value":"Education "}]},{"id":"SE.XPD.SECO.ZS","name":"Expenditure on secondary as % of government expenditure on education (%)","source":{"id":"2","value":"World Development Indicators"},"sourceNote":"Expenditure on education by level of education, expressed as a percentage of total general government expenditure on education. Divide government expenditure on a given level of education (ex. primary, secondary) by total government expenditure on education (all levels combined), and multiply by 100. A high percentage of government expenditure on education spent on a given level denotes a high priority given to that level compared to others. When interpreting this indicator, one should take into account enrolment at that level, and the relative costs per student between different levels of education. For more information, consult the UNESCO Institute of Statistics website: http:\/\/www.uis.unesco.org\/Education\/","sourceOrganization":"UNESCO Institute for Statistics","topics":[{"id":"4","value":"Education "}]},{"id":"SE.XPD.SECO.PC.ZS","name":"Government expenditure per student, secondary (% of GDP per capita)","source":{"id":"2","value":"World Development Indicators"},"sourceNote":"Government expenditure per student is the average general government expenditure (current, capital, and transfers) per student in the given level of education, expressed as a percentage of GDP per capita.","sourceOrganization":"United Nations Educational, Scientific, and Cultural Organization (UNESCO) Institute for Statistics.","topics":[{"id":"4","value":"Education "}]},{"id":"SE.XPD.PTCH.ZS","name":"Spending on teaching materials, primary (% of primary expenditure)","source":{"id":"11","value":"Africa Development Indicators"},"sourceNote":"","sourceOrganization":"","topics":[{"id":"4","value":"Education "}]},{"id":"SE.XPD.PRIM.ZS","name":"Expenditure on primary as % of government expenditure on education (%)","source":{"id":"2","value":"World Development Indicators"},"sourceNote":"Expenditure on education by level of education, expressed as a percentage of total general government expenditure on education. Divide government expenditure on a given level of education (ex. primary, secondary) by total government expenditure on education (all levels combined), and multiply by 100. A high percentage of government expenditure on education spent on a given level denotes a high priority given to that level compared to others. When interpreting this indicator, one should take into account enrolment at that level, and the relative costs per student between different levels of education. For more information, consult the UNESCO Institute of Statistics website: http:\/\/www.uis.unesco.org\/Education\/","sourceOrganization":"UNESCO Institute for Statistics","topics":[{"id":"4","value":"Education "}]},{"id":"SE.XPD.PRIM.PC.ZS","name":"Government expenditure per student, primary (% of GDP per capita)","source":{"id":"2","value":"World Development Indicators"},"sourceNote":"Government expenditure per student is the average general government expenditure (current, capital, and transfers) per student in the given level of education, expressed as a percentage of GDP per capita.","sourceOrganization":"United Nations Educational, Scientific, and Cultural Organization (UNESCO) Institute for Statistics.","topics":[{"id":"4","value":"Education "}]},{"id":"SE.XPD.MTOT.ZS","name":"All education staff compensation, total (% of total expenditure in public institutions)","source":{"id":"2","value":"World Development Indicators"},"sourceNote":"All staff (teacher and non-teachers) compensation is expressed as a percentage of direct expenditure in public educational institutions (instructional and non-instructional) of the specified level of education. Financial aid to students and other transfers are excluded from direct expenditure. Staff compensation includes salaries, contributions by employers for staff retirement programs, and other allowances and benefits.","sourceOrganization":"United Nations Educational, Scientific, and Cultural Organization (UNESCO) Institute for Statistics.","topics":[{"id":"4","value":"Education "}]},{"id":"SE.XPD.MTER.ZS","name":"All education staff compensation, tertiary (% of total expenditure in tertiary public institutions)","source":{"id":"2","value":"World Development Indicators"},"sourceNote":"All staff (teacher and non-teachers) compensation is expressed as a percentage of direct expenditure in public educational institutions (instructional and non-instructional) of the specified level of education. Financial aid to students and other transfers are excluded from direct expenditure. Staff compensation includes salaries, contributions by employers for staff retirement programs, and other allowances and benefits.","sourceOrganization":"United Nations Educational, Scientific, and Cultural Organization (UNESCO) Institute for Statistics.","topics":[{"id":"4","value":"Education "}]},{"id":"SE.XPD.MSEC.ZS","name":"All education staff compensation, secondary (% of total expenditure in secondary public institutions)","source":{"id":"2","value":"World Development Indicators"},"sourceNote":"All staff (teacher and non-teachers) compensation is expressed as a percentage of direct expenditure in public educational institutions (instructional and non-instructional) of the specified level of education. Financial aid to students and other transfers are excluded from direct expenditure. Staff compensation includes salaries, contributions by employers for staff retirement programs, and other allowances and benefits.","sourceOrganization":"United Nations Educational, Scientific, and Cultural Organization (UNESCO) Institute for Statistics.","topics":[{"id":"4","value":"Education "}]},{"id":"SE.XPD.MPRM.ZS","name":"All education staff compensation, primary (% of total expenditure in primary public institutions)","source":{"id":"2","value":"World Development Indicators"},"sourceNote":"All staff (teacher and non-teachers) compensation is expressed as a percentage of direct expenditure in public educational institutions (instructional and non-instructional) of the specified level of education. Financial aid to students and other transfers are excluded from direct expenditure. Staff compensation includes salaries, contributions by employers for staff retirement programs, and other allowances and benefits.","sourceOrganization":"United Nations Educational, Scientific, and Cultural Organization (UNESCO) Institute for Statistics.","topics":[{"id":"4","value":"Education "}]},{"id":"SE.XPD.CUR.TOTL.ZS","name":"Current expenditure as % of total expenditure in public institutions (%)","source":{"id":"12","value":"Education Statistics"},"sourceNote":"Current expenditure expressed as a percentage of direct expenditure in public educational institutions (instructional and non-instructional). Financial aid to students and other transfers are excluded from direct expenditure. Current expenditure is consumed within the current year and would have to be renewed if needed in the following year. It includes staff compensation and current expenditure other than for staff compensation (ex. on teaching materials, ancillary services and administration). Divide all current expenditure in public institutions by total expenditure (current and capital) in public institutions, and multiply by 100. For more information, consult the UNESCO Institute of Statistics website: http:\/\/www.uis.unesco.org\/Education\/","sourceOrganization":"UNESCO Institute for Statistics","topics":[{"id":"4","value":"Education "}]},{"id":"SE.XPD.CTOT.ZS","name":"Current education expenditure, total (% of total expenditure in public institutions)","source":{"id":"2","value":"World Development Indicators"},"sourceNote":"Current expenditure is expressed as a percentage of direct expenditure in public educational institutions (instructional and non-instructional) of the specified level of education. Financial aid to students and other transfers are excluded from direct expenditure. Current expenditure is consumed within the current year and would have to be renewed if needed in the following year. It includes staff compensation and current expenditure other than for staff compensation (ex. on teaching materials, ancillary services and administration).","sourceOrganization":"United Nations Educational, Scientific, and Cultural Organization (UNESCO) Institute for Statistics.","topics":[{"id":"4","value":"Education "}]},{"id":"SE.XPD.CTER.ZS","name":"Current education expenditure, tertiary (% of total expenditure in tertiary public institutions)","source":{"id":"2","value":"World Development Indicators"},"sourceNote":"Current expenditure is expressed as a percentage of direct expenditure in public educational institutions (instructional and non-instructional) of the specified level of education. Financial aid to students and other transfers are excluded from direct expenditure. Current expenditure is consumed within the current year and would have to be renewed if needed in the following year. It includes staff compensation and current expenditure other than for staff compensation (ex. on teaching materials, ancillary services and administration).","sourceOrganization":"United Nations Educational, Scientific, and Cultural Organization (UNESCO) Institute for Statistics.","topics":[{"id":"4","value":"Education "}]},{"id":"SE.XPD.CSEC.ZS","name":"Current education expenditure, secondary (% of total expenditure in secondary public institutions)","source":{"id":"2","value":"World Development Indicators"},"sourceNote":"Current expenditure is expressed as a percentage of direct expenditure in public educational institutions (instructional and non-instructional) of the specified level of education. Financial aid to students and other transfers are excluded from direct expenditure. Current expenditure is consumed within the current year and would have to be renewed if needed in the following year. It includes staff compensation and current expenditure other than for staff compensation (ex. on teaching materials, ancillary services and administration).","sourceOrganization":"United Nations Educational, Scientific, and Cultural Organization (UNESCO) Institute for Statistics.","topics":[{"id":"4","value":"Education "}]},{"id":"SE.XPD.CPRM.ZS","name":"Current education expenditure, primary (% of total expenditure in primary public institutions)","source":{"id":"2","value":"World Development Indicators"},"sourceNote":"Current expenditure is expressed as a percentage of direct expenditure in public educational institutions (instructional and non-instructional) of the specified level of education. Financial aid to students and other transfers are excluded from direct expenditure. Current expenditure is consumed within the current year and would have to be renewed if needed in the following year. It includes staff compensation and current expenditure other than for staff compensation (ex. on teaching materials, ancillary services and administration).","sourceOrganization":"United Nations Educational, Scientific, and Cultural Organization (UNESCO) Institute for Statistics.","topics":[{"id":"4","value":"Education "}]},{"id":"SE.TOT.ENRR","name":"Gross enrolment ratio, primary to tertiary, both sexes (%)","source":{"id":"12","value":"Education Statistics"},"sourceNote":"Total enrollment in primary, secondary and tertiary education, regardless of age, expressed as a percentage of the total population of primary school age, secondary school age, and the five-year age group following on from secondary school leaving. GER can exceed 100% due to the inclusion of over-aged and under-aged students because of early or late school entrance and grade repetition.","sourceOrganization":"UNESCO Institute for Statistics","topics":[{"id":"4","value":"Education "}]},{"id":"SE.TER.TCHR.FE.ZS","name":"Tertiary education, academic staff (% female)","source":{"id":"2","value":"World Development Indicators"},"sourceNote":"Tertiary education, academic staff (% female) is the share of female academic staff in tertiary education.","sourceOrganization":"United Nations Educational, Scientific, and Cultural Organization (UNESCO) Institute for Statistics.","topics":[{"id":"4","value":"Education "}]},{"id":"SE.TER.TCHR.FE","name":"Teachers in tertiary education programmes, female (number)","source":{"id":"12","value":"Education Statistics"},"sourceNote":"Total number of female teachers in public and private tertiary education institutions (ISCED 5-8). Teachers are persons employed full time or part time in an official capacity to guide and direct the learning experience of pupils and students, irrespective of their qualifications or the delivery mechanism, i.e. face-to-face and\/or at a distance. This definition excludes educational personnel who have no active teaching duties (e.g. headmasters, headmistresses or principals who do not teach) and persons who work occasionally or in a voluntary capacity in educational institutions.","sourceOrganization":"UNESCO Institute for Statistics","topics":[{"id":"4","value":"Education "}]},{"id":"SE.TER.TCHR","name":"Teachers in tertiary education, both sexes (number)","source":{"id":"12","value":"Education Statistics"},"sourceNote":"Total number of teachers in public and private tertiary education institutions (ISCED 5-8). Teachers are persons employed full time or part time in an official capacity to guide and direct the learning experience of pupils and students, irrespective of their qualifications or the delivery mechanism, i.e. face-to-face and\/or at a distance. This definition excludes educational personnel who have no active teaching duties (e.g. headmasters, headmistresses or principals who do not teach) and persons who work occasionally or in a voluntary capacity in educational institutions.","sourceOrganization":"UNESCO Institute for Statistics","topics":[{"id":"4","value":"Education "}]},{"id":"SE.TER.PRIV.ZS","name":"Percentage of enrolment in tertiary education in private institutions (%)","source":{"id":"12","value":"Education Statistics"},"sourceNote":"Total number of students in tertiary education enrolled in institutions that are not operated by a public authority but controlled and managed, whether for profit or not, by a private body (e.g., non-governmental organisation, religious body, special interest group, foundation or business enterprise), expressed as a percentage of total number of students enrolled in tertiary education.","sourceOrganization":"UNESCO Institute for Statistics","topics":[{"id":"4","value":"Education "}]},{"id":"SE.TER.HIAT.ST.MA.ZS","name":"Educational attainment, completed short-cycle tertiary, population 25+ years, male (%)","source":{"id":"14","value":"Gender Statistics"},"sourceNote":"The percentage of population ages 25 and over that attained or completed short-cycle tertiary education as the highest level of education.","sourceOrganization":"United Nations Educational, Scientific, and Cultural Organization (UNESCO) Institute for Statistics.","topics":[{"id":"17","value":"Gender"}]},{"id":"SE.TER.HIAT.ST.FE.ZS","name":"Educational attainment, completed short-cycle tertiary, population 25+ years, female (%)","source":{"id":"14","value":"Gender Statistics"},"sourceNote":"The percentage of population ages 25 and over that attained or completed short-cycle tertiary education as the highest level of education.","sourceOrganization":"United Nations Educational, Scientific, and Cultural Organization (UNESCO) Institute for Statistics.","topics":[{"id":"17","value":"Gender"}]}]]