[{"page":228,"pages":324,"per_page":"50","total":16174},[{"id":"per_si_cp.cov_q3_rur","name":"Coverage in 3rd quintile (%) - Contributory Pensions -rural","source":{"id":"29","value":"Global Social Protection"},"sourceNote":"","sourceOrganization":"The Atlas of Social Protection: Indicators of Resilience and Equity (ASPIRE)","topics":[]},{"id":"per_si_cp.cov_q3_preT_tot","name":"Coverage in 3rd quintile (%) - Contributory Pensions (preT)","source":{"id":"29","value":"Global Social Protection"},"sourceNote":"","sourceOrganization":"The Atlas of Social Protection: Indicators of Resilience and Equity (ASPIRE)","topics":[]},{"id":"per_si_cp.cov_q2_urb","name":"Coverage in 2nd quintile (%) - Contributory Pensions -urban","source":{"id":"29","value":"Global Social Protection"},"sourceNote":"","sourceOrganization":"The Atlas of Social Protection: Indicators of Resilience and Equity (ASPIRE)","topics":[]},{"id":"per_si_cp.cov_q2_tot","name":"Coverage in 2nd quintile (%) - Contributory Pensions ","source":{"id":"29","value":"Global Social Protection"},"sourceNote":"","sourceOrganization":"The Atlas of Social Protection: Indicators of Resilience and Equity (ASPIRE)","topics":[]},{"id":"per_si_cp.cov_q2_rur","name":"Coverage in 2nd quintile (%) - Contributory Pensions -rural","source":{"id":"29","value":"Global Social Protection"},"sourceNote":"","sourceOrganization":"The Atlas of Social Protection: Indicators of Resilience and Equity (ASPIRE)","topics":[]},{"id":"per_si_cp.cov_q2_preT_tot","name":"Coverage in 2nd quintile (%) - Contributory Pensions (preT)","source":{"id":"29","value":"Global Social Protection"},"sourceNote":"","sourceOrganization":"The Atlas of Social Protection: Indicators of Resilience and Equity (ASPIRE)","topics":[]},{"id":"per_si_cp.cov_q1_urb","name":"Coverage in poorest quintile (%) - Contributory Pensions -urban","source":{"id":"29","value":"Global Social Protection"},"sourceNote":"","sourceOrganization":"The Atlas of Social Protection: Indicators of Resilience and Equity (ASPIRE)","topics":[]},{"id":"per_si_cp.cov_q1_tot","name":"Coverage in poorest quintile (%) - Contributory Pensions ","source":{"id":"29","value":"Global Social Protection"},"sourceNote":"","sourceOrganization":"The Atlas of Social Protection: Indicators of Resilience and Equity (ASPIRE)","topics":[]},{"id":"per_si_cp.cov_q1_rur","name":"Coverage in poorest quintile (%) - Contributory Pensions -rural","source":{"id":"29","value":"Global Social Protection"},"sourceNote":"","sourceOrganization":"The Atlas of Social Protection: Indicators of Resilience and Equity (ASPIRE)","topics":[]},{"id":"per_si_cp.cov_q1_preT_tot","name":"Coverage in poorest quintile (%) - Contributory Pensions (preT)","source":{"id":"29","value":"Global Social Protection"},"sourceNote":"","sourceOrganization":"The Atlas of Social Protection: Indicators of Resilience and Equity (ASPIRE)","topics":[]},{"id":"per_si_cp.cov_pop_urb","name":"Coverage (%) - Contributory Pensions -urban","source":{"id":"29","value":"Global Social Protection"},"sourceNote":"","sourceOrganization":"The Atlas of Social Protection: Indicators of Resilience and Equity (ASPIRE)","topics":[]},{"id":"per_si_cp.cov_pop_tot","name":"Coverage (%) - Contributory Pensions ","source":{"id":"29","value":"Global Social Protection"},"sourceNote":"","sourceOrganization":"The Atlas of Social Protection: Indicators of Resilience and Equity (ASPIRE)","topics":[]},{"id":"per_si_cp.cov_pop_rur","name":"Coverage (%) - Contributory Pensions -rural","source":{"id":"29","value":"Global Social Protection"},"sourceNote":"","sourceOrganization":"The Atlas of Social Protection: Indicators of Resilience and Equity (ASPIRE)","topics":[]},{"id":"per_si_cp.cov_pop_preT_tot","name":"Coverage (%) - Contributory Pensions (preT)","source":{"id":"29","value":"Global Social Protection"},"sourceNote":"","sourceOrganization":"The Atlas of Social Protection: Indicators of Resilience and Equity (ASPIRE)","topics":[]},{"id":"per_si_cp.cov_ep_tot","name":"Coverage in extreme poor (<$1.25 a day) (%) - Contributory Pensions ","source":{"id":"29","value":"Global Social Protection"},"sourceNote":"","sourceOrganization":"The Atlas of Social Protection: Indicators of Resilience and Equity (ASPIRE)","topics":[]},{"id":"per_si_cp.cov_ep_preT_tot","name":"Coverage in extreme poor (<$1.25 a day) (%) - Contributory Pensions  (preT)","source":{"id":"29","value":"Global Social Protection"},"sourceNote":"","sourceOrganization":"The Atlas of Social Protection: Indicators of Resilience and Equity (ASPIRE)","topics":[]},{"id":"per_si_cp.cba_q1_urb","name":"Benefit-cost ratio -  Contributory Pensions - poorest quintile -urban","source":{"id":"29","value":"Global Social Protection"},"sourceNote":"","sourceOrganization":"The Atlas of Social Protection: Indicators of Resilience and Equity (ASPIRE)","topics":[]},{"id":"per_si_cp.cba_q1_tot","name":"Benefit-cost ratio -  Contributory Pensions -poorest quintile","source":{"id":"29","value":"Global Social Protection"},"sourceNote":"","sourceOrganization":"The Atlas of Social Protection: Indicators of Resilience and Equity (ASPIRE)","topics":[]},{"id":"per_si_cp.cba_q1_rur","name":"Benefit-cost ratio -  Contributory Pensions -poorest quintile -rural","source":{"id":"29","value":"Global Social Protection"},"sourceNote":"","sourceOrganization":"The Atlas of Social Protection: Indicators of Resilience and Equity (ASPIRE)","topics":[]},{"id":"per_si_cp.cba_q1_preT_tot","name":"Benefit-cost ratio -  Contributory Pensions -poorest quintile (preT)","source":{"id":"29","value":"Global Social Protection"},"sourceNote":"","sourceOrganization":"The Atlas of Social Protection: Indicators of Resilience and Equity (ASPIRE)","topics":[]},{"id":"per_si_cp.cba_ep_tot","name":"Benefit-cost ratio -  Contributory Pensions -extreme poor (<$1.25 a day)","source":{"id":"29","value":"Global Social Protection"},"sourceNote":"","sourceOrganization":"The Atlas of Social Protection: Indicators of Resilience and Equity (ASPIRE)","topics":[]},{"id":"per_si_cp.cba_ep_preT_tot","name":"Benefit-cost ratio -  Contributory Pensions -extreme poor (<$1.25 a day) (preT)","source":{"id":"29","value":"Global Social Protection"},"sourceNote":"","sourceOrganization":"The Atlas of Social Protection: Indicators of Resilience and Equity (ASPIRE)","topics":[]},{"id":"per_si_cp.bry_q5_urb","name":"Beneficiary incidence in richest quintile (%) - Contributory Pensions -urban","source":{"id":"29","value":"Global Social Protection"},"sourceNote":"","sourceOrganization":"The Atlas of Social Protection: Indicators of Resilience and Equity (ASPIRE)","topics":[]},{"id":"per_si_cp.bry_q5_tot","name":"Beneficiary incidence in richest quintile (%) - Contributory Pensions ","source":{"id":"29","value":"Global Social Protection"},"sourceNote":"","sourceOrganization":"The Atlas of Social Protection: Indicators of Resilience and Equity (ASPIRE)","topics":[]},{"id":"per_si_cp.bry_q5_rur","name":"Beneficiary incidence in richest quintile (%) - Contributory Pensions -rural","source":{"id":"29","value":"Global Social Protection"},"sourceNote":"","sourceOrganization":"The Atlas of Social Protection: Indicators of Resilience and Equity (ASPIRE)","topics":[]},{"id":"per_si_cp.bry_q5_preT_tot","name":"Beneficiary incidence in richest quintile (%) - Contributory Pensions (preT)","source":{"id":"29","value":"Global Social Protection"},"sourceNote":"","sourceOrganization":"The Atlas of Social Protection: Indicators of Resilience and Equity (ASPIRE)","topics":[]},{"id":"per_si_cp.bry_q4_urb","name":"Beneficiary incidence in 4th quintile (%) - Contributory Pensions -urban","source":{"id":"29","value":"Global Social Protection"},"sourceNote":"","sourceOrganization":"The Atlas of Social Protection: Indicators of Resilience and Equity (ASPIRE)","topics":[]},{"id":"per_si_cp.bry_q4_tot","name":"Beneficiary incidence in 4th quintile (%) - Contributory Pensions ","source":{"id":"29","value":"Global Social Protection"},"sourceNote":"","sourceOrganization":"The Atlas of Social Protection: Indicators of Resilience and Equity (ASPIRE)","topics":[]},{"id":"per_si_cp.bry_q4_rur","name":"Beneficiary incidence in 4th quintile (%) - Contributory Pensions -rural","source":{"id":"29","value":"Global Social Protection"},"sourceNote":"","sourceOrganization":"The Atlas of Social Protection: Indicators of Resilience and Equity (ASPIRE)","topics":[]},{"id":"per_si_cp.bry_q4_preT_tot","name":"Beneficiary incidence in 4th quintile (%) - Contributory Pensions (preT)","source":{"id":"29","value":"Global Social Protection"},"sourceNote":"","sourceOrganization":"The Atlas of Social Protection: Indicators of Resilience and Equity (ASPIRE)","topics":[]},{"id":"per_si_cp.bry_q3_urb","name":"Beneficiary incidence in 3rd quintile (%) - Contributory Pensions -urban","source":{"id":"29","value":"Global Social Protection"},"sourceNote":"","sourceOrganization":"The Atlas of Social Protection: Indicators of Resilience and Equity (ASPIRE)","topics":[]},{"id":"per_si_cp.bry_q3_tot","name":"Beneficiary incidence in 3rd quintile (%) - Contributory Pensions ","source":{"id":"29","value":"Global Social Protection"},"sourceNote":"","sourceOrganization":"The Atlas of Social Protection: Indicators of Resilience and Equity (ASPIRE)","topics":[]},{"id":"per_si_cp.bry_q3_rur","name":"Beneficiary incidence in 3rd quintile (%) - Contributory Pensions -rural","source":{"id":"29","value":"Global Social Protection"},"sourceNote":"","sourceOrganization":"The Atlas of Social Protection: Indicators of Resilience and Equity (ASPIRE)","topics":[]},{"id":"per_si_cp.bry_q3_preT_tot","name":"Beneficiary incidence in 3rd quintile (%) - Contributory Pensions (preT)","source":{"id":"29","value":"Global Social Protection"},"sourceNote":"","sourceOrganization":"The Atlas of Social Protection: Indicators of Resilience and Equity (ASPIRE)","topics":[]},{"id":"per_si_cp.bry_q2_urb","name":"Beneficiary incidence in 2nd quintile (%) - Contributory Pensions -urban","source":{"id":"29","value":"Global Social Protection"},"sourceNote":"","sourceOrganization":"The Atlas of Social Protection: Indicators of Resilience and Equity (ASPIRE)","topics":[]},{"id":"per_si_cp.bry_q2_tot","name":"Beneficiary incidence in 2nd quintile (%) - Contributory Pensions ","source":{"id":"29","value":"Global Social Protection"},"sourceNote":"","sourceOrganization":"The Atlas of Social Protection: Indicators of Resilience and Equity (ASPIRE)","topics":[]},{"id":"per_si_cp.bry_q2_rur","name":"Beneficiary incidence in 2nd quintile (%) - Contributory Pensions -rural","source":{"id":"29","value":"Global Social Protection"},"sourceNote":"","sourceOrganization":"The Atlas of Social Protection: Indicators of Resilience and Equity (ASPIRE)","topics":[]},{"id":"per_si_cp.bry_q2_preT_tot","name":"Beneficiary incidence in 2nd quintile (%) - Contributory Pensions (preT)","source":{"id":"29","value":"Global Social Protection"},"sourceNote":"","sourceOrganization":"The Atlas of Social Protection: Indicators of Resilience and Equity (ASPIRE)","topics":[]},{"id":"per_si_cp.bry_q1_urb","name":"Beneficiary incidence in poorest quintile (%) - Contributory Pensions -urban","source":{"id":"29","value":"Global Social Protection"},"sourceNote":"","sourceOrganization":"The Atlas of Social Protection: Indicators of Resilience and Equity (ASPIRE)","topics":[]},{"id":"per_si_cp.bry_q1_tot","name":"Beneficiary incidence in poorest quintile (%) - Contributory Pensions ","source":{"id":"29","value":"Global Social Protection"},"sourceNote":"","sourceOrganization":"The Atlas of Social Protection: Indicators of Resilience and Equity (ASPIRE)","topics":[]},{"id":"per_si_cp.bry_q1_rur","name":"Beneficiary incidence in poorest quintile (%) - Contributory Pensions -rural","source":{"id":"29","value":"Global Social Protection"},"sourceNote":"","sourceOrganization":"The Atlas of Social Protection: Indicators of Resilience and Equity (ASPIRE)","topics":[]},{"id":"per_si_cp.bry_q1_preT_tot","name":"Beneficiary incidence in poorest quintile (%) - Contributory Pensions (preT)","source":{"id":"29","value":"Global Social Protection"},"sourceNote":"","sourceOrganization":"The Atlas of Social Protection: Indicators of Resilience and Equity (ASPIRE)","topics":[]},{"id":"per_si_cp.bry_ep_tot","name":"Beneficiary incidence in extreme poor (<$1.25 a day) (%) - Contributory Pensions ","source":{"id":"29","value":"Global Social Protection"},"sourceNote":"","sourceOrganization":"The Atlas of Social Protection: Indicators of Resilience and Equity (ASPIRE)","topics":[]},{"id":"per_si_cp.bry_ep_preT_tot","name":"Beneficiary incidence in extreme poor (<$1.25 a day) (%) - Contributory Pensions  (preT)","source":{"id":"29","value":"Global Social Protection"},"sourceNote":"","sourceOrganization":"The Atlas of Social Protection: Indicators of Resilience and Equity (ASPIRE)","topics":[]},{"id":"per_si_cp.ben_q5_urb","name":"Benefits incidence in richest quintile (%) - Contributory Pensions -urban","source":{"id":"29","value":"Global Social Protection"},"sourceNote":"","sourceOrganization":"The Atlas of Social Protection: Indicators of Resilience and Equity (ASPIRE)","topics":[]},{"id":"per_si_cp.ben_q5_tot","name":"Benefits incidence in richest quintile (%) - Contributory Pensions ","source":{"id":"29","value":"Global Social Protection"},"sourceNote":"","sourceOrganization":"The Atlas of Social Protection: Indicators of Resilience and Equity (ASPIRE)","topics":[]},{"id":"per_si_cp.ben_q5_rur","name":"Benefits incidence in richest quintile (%) - Contributory Pensions -rural","source":{"id":"29","value":"Global Social Protection"},"sourceNote":"","sourceOrganization":"The Atlas of Social Protection: Indicators of Resilience and Equity (ASPIRE)","topics":[]},{"id":"per_si_cp.ben_q5_preT_tot","name":"Benefits incidence in richest quintile (%) - Contributory Pensions (preT)","source":{"id":"29","value":"Global Social Protection"},"sourceNote":"","sourceOrganization":"The Atlas of Social Protection: Indicators of Resilience and Equity (ASPIRE)","topics":[]},{"id":"per_si_cp.ben_q4_urb","name":"Benefits incidence in 4th quintile (%) - Contributory Pensions -urban","source":{"id":"29","value":"Global Social Protection"},"sourceNote":"","sourceOrganization":"The Atlas of Social Protection: Indicators of Resilience and Equity (ASPIRE)","topics":[]},{"id":"per_si_cp.ben_q4_tot","name":"Benefits incidence in 4th quintile (%) - Contributory Pensions ","source":{"id":"29","value":"Global Social Protection"},"sourceNote":"","sourceOrganization":"The Atlas of Social Protection: Indicators of Resilience and Equity (ASPIRE)","topics":[{}]}]]