[{"page":76,"pages":324,"per_page":"50","total":16174},[{"id":"DT.DOD.PUBS.LT.TO.US","name":"Public Sector Ext. Debt Pos., Long-term, All instruments, USD","source":{"id":"23","value":"Quarterly External Debt Statistics\/GDDS (New)"},"sourceNote":"","sourceOrganization":"","topics":[]},{"id":"DT.DOD.PUBS.IR.T4.US","name":"Public Sector Ext. Debt Pos., All maturities, Arrears, Interest, USD","source":{"id":"23","value":"Quarterly External Debt Statistics\/GDDS (New)"},"sourceNote":"","sourceOrganization":"","topics":[]},{"id":"DT.DOD.PUBS.DS.T4.US","name":"Public Sector Ext. Debt Pos., All maturities, Debt securities, Memo item, USD","source":{"id":"23","value":"Quarterly External Debt Statistics\/GDDS (New)"},"sourceNote":"","sourceOrganization":"","topics":[]},{"id":"DT.DOD.PUBS.DS.ST.T4.US","name":"Public Sector Ext. Debt Pos., Short-term, Debt securities, Memo item, USD","source":{"id":"23","value":"Quarterly External Debt Statistics\/GDDS (New)"},"sourceNote":"","sourceOrganization":"","topics":[]},{"id":"DT.DOD.PUBS.DS.LT.T4.US","name":"Public Sector Ext. Debt Pos., Long-term, Debt securities, Memo item, USD","source":{"id":"23","value":"Quarterly External Debt Statistics\/GDDS (New)"},"sourceNote":"","sourceOrganization":"","topics":[]},{"id":"DT.DOD.PUBS.DI.US","name":"Public Sector Ext. Debt Pos., All maturities, DI: Intercom. Lending, USD","source":{"id":"23","value":"Quarterly External Debt Statistics\/GDDS (New)"},"sourceNote":"","sourceOrganization":"","topics":[]},{"id":"DT.DOD.PUBS.CD.US","name":"Gross Ext. Debt Pos., Public Sector Ext. Debt, All maturities, All instruments, USD","source":{"id":"23","value":"Quarterly External Debt Statistics\/GDDS (New)"},"sourceNote":"","sourceOrganization":"","topics":[]},{"id":"DT.DOD.PUBS.CD.T3.US","name":"Public Sector Ext. Debt Pos., All Creditors, All maturities, All instruments, USD","source":{"id":"23","value":"Quarterly External Debt Statistics\/GDDS (New)"},"sourceNote":"","sourceOrganization":"","topics":[]},{"id":"DT.DOD.PUBS.CD.ST.US","name":"Gross Ext. Debt Pos., Public Sector Ext. Debt, Short-term, All instruments, USD","source":{"id":"23","value":"Quarterly External Debt Statistics\/GDDS (New)"},"sourceNote":"","sourceOrganization":"","topics":[]},{"id":"DT.DOD.PUBS.CD.LT.US","name":"Gross Ext. Debt Pos., Public Sector Ext. Debt, Long-term, All instruments, USD","source":{"id":"23","value":"Quarterly External Debt Statistics\/GDDS (New)"},"sourceNote":"","sourceOrganization":"","topics":[]},{"id":"DT.DOD.PUBS.CD.AR.US","name":"Gross Ext. Debt Pos., Public Sector Ext. Debt, All maturities, Arrears, USD","source":{"id":"23","value":"Quarterly External Debt Statistics\/GDDS (New)"},"sourceNote":"","sourceOrganization":"","topics":[]},{"id":"DT.DOD.PUBS.CD","name":"External debt stocks, long-term public sector (DOD, current US$)","source":{"id":"2","value":"World Development Indicators"},"sourceNote":"Long-term public sector external debt conveys information about the distribution of long-term debt for DRS countries by type of debtor (central government, state and local government, central bank, public and mixed enterprises, and official development banks). Long-term external debt is defined as debt that has an original or extended maturity of more than one year and that is owed to nonresidents by residents of an economy and repayable in currency, goods, or services. Data are in current U.S. dollars.","sourceOrganization":"World Bank, International Debt Statistics.","topics":[{"id":"20","value":"External Debt"}]},{"id":"DT.DOD.PUBS.AR.T4.US","name":"Public Sector Ext. Debt Pos., All maturities, Arrears, Prin. and Int., USD","source":{"id":"23","value":"Quarterly External Debt Statistics\/GDDS (New)"},"sourceNote":"","sourceOrganization":"","topics":[]},{"id":"DT.DOD.PUBN.LT.AR.US","name":"Public Sector Ext. Debt Pos., Long-term, Debt securities, USD","source":{"id":"23","value":"Quarterly External Debt Statistics\/GDDS (New)"},"sourceNote":"","sourceOrganization":"","topics":[]},{"id":"DT.DOD.PUBL.CD.US","name":"Public Sector Ext. Debt Pos., Official bilateral creditors, All maturities, All instruments, USD","source":{"id":"23","value":"Quarterly External Debt Statistics\/GDDS (New)"},"sourceNote":"","sourceOrganization":"","topics":[]},{"id":"DT.DOD.PUBL.CD.ST.US","name":"Public Sector Ext. Debt Pos., Official bilateral creditors, Short-term, All instruments, USD","source":{"id":"23","value":"Quarterly External Debt Statistics\/GDDS (New)"},"sourceNote":"","sourceOrganization":"","topics":[]},{"id":"DT.DOD.PUBL.CD.LT.US","name":"Public Sector Ext. Debt Pos., Official bilateral creditors, Long-term, All instruments, USD","source":{"id":"23","value":"Quarterly External Debt Statistics\/GDDS (New)"},"sourceNote":"","sourceOrganization":"","topics":[]},{"id":"DT.DOD.PUBA.CD.US","name":"Public Sector Ext. Debt Pos., Deposit-Taking Corp., exc. CB, creditors, All maturities, All instruments, USD","source":{"id":"23","value":"Quarterly External Debt Statistics\/GDDS (New)"},"sourceNote":"","sourceOrganization":"","topics":[]},{"id":"DT.DOD.PUBA.CD.ST.US","name":"Public Sector Ext. Debt Pos., Deposit-Taking Corp., exc. CB, creditors, Short-term, All instruments, USD","source":{"id":"23","value":"Quarterly External Debt Statistics\/GDDS (New)"},"sourceNote":"","sourceOrganization":"","topics":[]},{"id":"DT.DOD.PUBA.CD.LT.US","name":"Public Sector Ext. Debt Pos., Deposit-Taking Corp., exc. CB, creditors, Long-term, All instruments, USD","source":{"id":"23","value":"Quarterly External Debt Statistics\/GDDS (New)"},"sourceNote":"","sourceOrganization":"","topics":[]},{"id":"DT.DOD.PUAE.IL.US","name":"Public Sector Ext. Debt Pos., All maturities, Debt liab. of dir. investors to DI ent., USD","source":{"id":"23","value":"Quarterly External Debt Statistics\/GDDS (New)"},"sourceNote":"","sourceOrganization":"","topics":[]},{"id":"DT.DOD.PSDR.LT.AR.US","name":"Public Sector Ext. Debt Pos., Long-term, Special drawing rights (allocations), USD","source":{"id":"23","value":"Quarterly External Debt Statistics\/GDDS (New)"},"sourceNote":"","sourceOrganization":"","topics":[]},{"id":"DT.DOD.PRVT.CD","name":"PPG, private creditors (DOD, current US$)","source":{"id":"2","value":"World Development Indicators"},"sourceNote":"Public and publicly guaranteed debt from private creditors include bonds that are either publicly issued or privately placed; commercial bank loans from private banks and other private financial institutions; and other private credits from manufacturers, exporters, and other suppliers of goods, and bank credits covered by a guarantee of an export credit agency. Data are in current U.S. dollars.","sourceOrganization":"World Bank, International Debt Statistics.","topics":[{"id":"20","value":"External Debt"}]},{"id":"DT.DOD.PRVS.TO.T4.US","name":"Publicly Guar. Private Sector Ext. Debt Pos., All maturities, All instruments, USD","source":{"id":"23","value":"Quarterly External Debt Statistics\/GDDS (New)"},"sourceNote":"","sourceOrganization":"","topics":[]},{"id":"DT.DOD.PRVS.ST.AR.US","name":"Publicly Guar. Private Sector Ext. Debt Pos., Short-term, All instruments, USD","source":{"id":"23","value":"Quarterly External Debt Statistics\/GDDS (New)"},"sourceNote":"","sourceOrganization":"","topics":[]},{"id":"DT.DOD.PRVS.PR.T4.US","name":"Publicly Guar. Private Sector Ext. Debt Pos., All maturities, Arrears, Principal, USD","source":{"id":"23","value":"Quarterly External Debt Statistics\/GDDS (New)"},"sourceNote":"","sourceOrganization":"","topics":[]},{"id":"DT.DOD.PRVS.LT.TO.US","name":"Publicly Guar. Private Sector Ext. Debt Pos., Long-term, All instruments, USD","source":{"id":"23","value":"Quarterly External Debt Statistics\/GDDS (New)"},"sourceNote":"","sourceOrganization":"","topics":[]},{"id":"DT.DOD.PRVS.IR.T4.US","name":"Publicly Guar. Private Sector Ext. Debt Pos., All maturities, Arrears, Interest, USD","source":{"id":"23","value":"Quarterly External Debt Statistics\/GDDS (New)"},"sourceNote":"","sourceOrganization":"","topics":[]},{"id":"DT.DOD.PRVS.DS.T4.US","name":"Publicly Guar. Private Sector Ext. Debt Pos., All maturities, Debt securities, Memo item, USD","source":{"id":"23","value":"Quarterly External Debt Statistics\/GDDS (New)"},"sourceNote":"","sourceOrganization":"","topics":[]},{"id":"DT.DOD.PRVS.DS.ST.T4.US","name":"Publicly Guar. Private Sector Ext. Debt Pos., Short-term, Debt securities, Memo item, USD","source":{"id":"23","value":"Quarterly External Debt Statistics\/GDDS (New)"},"sourceNote":"","sourceOrganization":"","topics":[]},{"id":"DT.DOD.PRVS.DS.LT.T4.US","name":"Publicly Guar. Private Sector Ext. Debt Pos., Long-term, Debt securities, Memo item, USD","source":{"id":"23","value":"Quarterly External Debt Statistics\/GDDS (New)"},"sourceNote":"","sourceOrganization":"","topics":[]},{"id":"DT.DOD.PRVS.DI.US","name":"Publicly Guar. Private Sector Ext. Debt Pos., Long-term, DI: Intercom. Lending, USD","source":{"id":"23","value":"Quarterly External Debt Statistics\/GDDS (New)"},"sourceNote":"","sourceOrganization":"","topics":[]},{"id":"DT.DOD.PRVS.CD.US","name":"Gross Ext. Debt Pos., Publicly Guar. Private Sector Ext. Debt, All maturities, All instruments, USD","source":{"id":"23","value":"Quarterly External Debt Statistics\/GDDS (New)"},"sourceNote":"","sourceOrganization":"","topics":[]},{"id":"DT.DOD.PRVS.CD.T3.US","name":"Publicly Guar. Private Sector Ext. Debt Pos., All Creditors, All maturities, All instruments, USD","source":{"id":"23","value":"Quarterly External Debt Statistics\/GDDS (New)"},"sourceNote":"","sourceOrganization":"","topics":[]},{"id":"DT.DOD.PRVS.CD.ST.US","name":"Gross Ext. Debt Pos., Publicly Guar. Private Sector Ext. Debt, Short-term, All instruments, USD","source":{"id":"23","value":"Quarterly External Debt Statistics\/GDDS (New)"},"sourceNote":"","sourceOrganization":"","topics":[]},{"id":"DT.DOD.PRVS.CD.LT.US","name":"Gross Ext. Debt Pos., Publicly Guar. Private Sector Ext. Debt, Long-term, All instruments, USD","source":{"id":"23","value":"Quarterly External Debt Statistics\/GDDS (New)"},"sourceNote":"","sourceOrganization":"","topics":[]},{"id":"DT.DOD.PRVS.CD.AR.US","name":"Gross Ext. Debt Pos., Publicly Guar. Private Sector Ext. Debt, All maturities, Arrears, USD","source":{"id":"23","value":"Quarterly External Debt Statistics\/GDDS (New)"},"sourceNote":"","sourceOrganization":"","topics":[]},{"id":"DT.DOD.PRVS.CD","name":"External debt stocks, long-term private sector (DOD, current US$)","source":{"id":"2","value":"World Development Indicators"},"sourceNote":"Long-term private sector external debt conveys information about the distribution of long-term debt for DRS countries by type of debtor (private banks and private entities). Long-term external debt is defined as debt that has an original or extended maturity of more than one year and that is owed to nonresidents by residents of an economy and repayable in currency, goods, or services. Data are in current U.S. dollars.","sourceOrganization":"World Bank, International Debt Statistics.","topics":[{"id":"20","value":"External Debt"}]},{"id":"DT.DOD.PRVS.AR.T4.US","name":"Publicly Guar. Private Sector Ext. Debt Pos., All maturities, Arrears, Prin. and Int., USD","source":{"id":"23","value":"Quarterly External Debt Statistics\/GDDS (New)"},"sourceNote":"","sourceOrganization":"","topics":[]},{"id":"DT.DOD.PRTD.CD.US","name":"Publicly Guar. Private Sector Ext. Debt Pos., Debt securities' holders, All maturities, All instruments, USD","source":{"id":"23","value":"Quarterly External Debt Statistics\/GDDS (New)"},"sourceNote":"","sourceOrganization":"","topics":[]},{"id":"DT.DOD.PRTD.CD.ST.US","name":"Publicly Guar. Private Sector Ext. Debt Pos., Debt securities' holders, Short-term, All instruments, USD","source":{"id":"23","value":"Quarterly External Debt Statistics\/GDDS (New)"},"sourceNote":"","sourceOrganization":"","topics":[]},{"id":"DT.DOD.PRTD.CD.LT.US","name":"Publicly Guar. Private Sector Ext. Debt Pos., Debt securities' holders, Long-term, All instruments, USD","source":{"id":"23","value":"Quarterly External Debt Statistics\/GDDS (New)"},"sourceNote":"","sourceOrganization":"","topics":[]},{"id":"DT.DOD.PRTC.ST.AR.US","name":"Publicly Guar. Private Sector Ext. Debt Pos., Short-term, Trade credit and advances, USD","source":{"id":"23","value":"Quarterly External Debt Statistics\/GDDS (New)"},"sourceNote":"","sourceOrganization":"","topics":[]},{"id":"DT.DOD.PRTC.LT.AR.US","name":"Publicly Guar. Private Sector Ext. Debt Pos., Long-term, Trade credit and advances, USD","source":{"id":"23","value":"Quarterly External Debt Statistics\/GDDS (New)"},"sourceNote":"","sourceOrganization":"","topics":[]},{"id":"DT.DOD.PRST.CD.PR.AR.US","name":"Gross Ext. Debt Pos., Publicly Guar. Private Sector Ext. Debt, Short-term, All instruments, USD","source":{"id":"22","value":"Quarterly External Debt Statistics\/SDDS (New)"},"sourceNote":"","sourceOrganization":"","topics":[]},{"id":"DT.DOD.PROT.CD.US","name":"Publicly Guar. Private Sector Ext. Debt Pos., Other creditors, All maturities, All instruments, USD","source":{"id":"23","value":"Quarterly External Debt Statistics\/GDDS (New)"},"sourceNote":"","sourceOrganization":"","topics":[]},{"id":"DT.DOD.PROT.CD.ST.US","name":"Publicly Guar. Private Sector Ext. Debt Pos., Other creditors, Short-term, All instruments, USD","source":{"id":"23","value":"Quarterly External Debt Statistics\/GDDS (New)"},"sourceNote":"","sourceOrganization":"","topics":[]},{"id":"DT.DOD.PROT.CD.LT.US","name":"Publicly Guar. Private Sector Ext. Debt Pos., Other creditors, Long-term, All instruments, USD","source":{"id":"23","value":"Quarterly External Debt Statistics\/GDDS (New)"},"sourceNote":"","sourceOrganization":"","topics":[]},{"id":"DT.DOD.PROP.CD","name":"PPG, other private creditors (DOD, current US$)","source":{"id":"2","value":"World Development Indicators"},"sourceNote":"Public and publicly guaranteed other private credits from manufacturers, exporters, and other suppliers of goods, and bank credits covered by a guarantee of an export credit agency. Data are in current U.S. dollars.","sourceOrganization":"World Bank, International Debt Statistics.","topics":[{"id":"20","value":"External Debt"}]},{"id":"DT.DOD.PROD.ST.AR.US","name":"Publicly Guar. Private Sector Ext. Debt Pos., Short-term, Other debt liabilities, USD","source":{"id":"23","value":"Quarterly External Debt Statistics\/GDDS (New)"},"sourceNote":"","sourceOrganization":"","topics":[{}]}]]