[{"page":183,"pages":324,"per_page":"50","total":16174},[{"id":"per_pr_ip.bry_q1_rur","name":"Beneficiary incidence in poorest quintile (%) - International Private Transfers -rural","source":{"id":"29","value":"Global Social Protection"},"sourceNote":"Percentage of program beneficiaries in a quintile relative to the total number of beneficiaries in the population","sourceOrganization":"ASPIRE","topics":[{"id":"10","value":"Social Protection & Labor"}]},{"id":"per_pr_ip.bry_q1_preT_tot","name":"Beneficiary incidence in poorest quintile (%) - International Private Transfers (preT)","source":{"id":"29","value":"Global Social Protection"},"sourceNote":"Percentage of program beneficiaries in a quintile relative to the total number of beneficiaries in the population","sourceOrganization":"ASPIRE","topics":[{"id":"10","value":"Social Protection & Labor"}]},{"id":"per_pr_ip.bry_ep_tot","name":"Beneficiary incidence in extreme poor (<$1.25 a day) (%) - International Private Transfers","source":{"id":"29","value":"Global Social Protection"},"sourceNote":"Percentage of program beneficiaries in a quintile relative to the total number of beneficiaries in the population","sourceOrganization":"ASPIRE","topics":[{"id":"10","value":"Social Protection & Labor"}]},{"id":"per_pr_ip.bry_ep_preT_tot","name":"Beneficiary incidence in extreme poor (<$1.25 a day) (%) - International Private Transfers (preT)","source":{"id":"29","value":"Global Social Protection"},"sourceNote":"Percentage of program beneficiaries in a quintile relative to the total number of beneficiaries in the population","sourceOrganization":"ASPIRE","topics":[{"id":"10","value":"Social Protection & Labor"}]},{"id":"per_pr_ip.ben_q5_urb","name":"Benefits incidence in richest quintile (%) - International Private Transfers -urban","source":{"id":"29","value":"Global Social Protection"},"sourceNote":"Percentage of benefits going to the richestquintile  relative to the total benefits going to the population","sourceOrganization":"ASPIRE","topics":[{"id":"10","value":"Social Protection & Labor"}]},{"id":"per_pr_ip.ben_q5_tot","name":"Benefits incidence in richest quintile (%) - International Private Transfers","source":{"id":"29","value":"Global Social Protection"},"sourceNote":"Percentage of benefits going to the richestquintile  relative to the total benefits going to the population","sourceOrganization":"ASPIRE","topics":[{"id":"10","value":"Social Protection & Labor"}]},{"id":"per_pr_ip.ben_q5_rur","name":"Benefits incidence in richest quintile (%) - International Private Transfers -rural","source":{"id":"29","value":"Global Social Protection"},"sourceNote":"Percentage of benefits going to the richestquintile  relative to the total benefits going to the population","sourceOrganization":"ASPIRE","topics":[{"id":"10","value":"Social Protection & Labor"}]},{"id":"per_pr_ip.ben_q5_preT_tot","name":"Benefits incidence in richest quintile (%) - International Private Transfers (preT)","source":{"id":"29","value":"Global Social Protection"},"sourceNote":"Percentage of benefits going to the richestquintile  relative to the total benefits going to the population","sourceOrganization":"ASPIRE","topics":[{"id":"10","value":"Social Protection & Labor"}]},{"id":"per_pr_ip.ben_q4_urb","name":"Benefits incidence in 4th quintile (%) - International Private Transfers -urban","source":{"id":"29","value":"Global Social Protection"},"sourceNote":"Percentage of benefits going to the fourth quintile  relative to the total benefits going to the population","sourceOrganization":"ASPIRE","topics":[{"id":"10","value":"Social Protection & Labor"}]},{"id":"per_pr_ip.ben_q4_tot","name":"Benefits incidence in 4th quintile (%) - International Private Transfers","source":{"id":"29","value":"Global Social Protection"},"sourceNote":"Percentage of benefits going to the fourth quintile  relative to the total benefits going to the population","sourceOrganization":"ASPIRE","topics":[{"id":"10","value":"Social Protection & Labor"}]},{"id":"per_pr_ip.ben_q4_rur","name":"Benefits incidence in 4th quintile (%) - International Private Transfers -rural","source":{"id":"29","value":"Global Social Protection"},"sourceNote":"Percentage of benefits going to the fourth quintile  relative to the total benefits going to the population","sourceOrganization":"ASPIRE","topics":[{"id":"10","value":"Social Protection & Labor"}]},{"id":"per_pr_ip.ben_q4_preT_tot","name":"Benefits incidence in 4th quintile (%) - International Private Transfers (preT)","source":{"id":"29","value":"Global Social Protection"},"sourceNote":"Percentage of benefits going to the fourth quintile  relative to the total benefits going to the population","sourceOrganization":"ASPIRE","topics":[{"id":"10","value":"Social Protection & Labor"}]},{"id":"per_pr_ip.ben_q3_urb","name":"Benefits incidence in 3rd quintile (%) - International Private Transfers -urban","source":{"id":"29","value":"Global Social Protection"},"sourceNote":"Percentage of benefits going to the third quintile  relative to the total benefits going to the population","sourceOrganization":"ASPIRE","topics":[{"id":"10","value":"Social Protection & Labor"}]},{"id":"per_pr_ip.ben_q3_tot","name":"Benefits incidence in 3rd quintile (%) - International Private Transfers","source":{"id":"29","value":"Global Social Protection"},"sourceNote":"Percentage of benefits going to the third quintile  relative to the total benefits going to the population","sourceOrganization":"ASPIRE","topics":[{"id":"10","value":"Social Protection & Labor"}]},{"id":"per_pr_ip.ben_q3_rur","name":"Benefits incidence in 3rd quintile (%) - International Private Transfers -rural","source":{"id":"29","value":"Global Social Protection"},"sourceNote":"Percentage of benefits going to the third quintile  relative to the total benefits going to the population","sourceOrganization":"ASPIRE","topics":[{"id":"10","value":"Social Protection & Labor"}]},{"id":"per_pr_ip.ben_q3_preT_tot","name":"Benefits incidence in 3rd quintile (%) - International Private Transfers (preT)","source":{"id":"29","value":"Global Social Protection"},"sourceNote":"Percentage of benefits going to the third quintile  relative to the total benefits going to the population","sourceOrganization":"ASPIRE","topics":[{"id":"10","value":"Social Protection & Labor"}]},{"id":"per_pr_ip.ben_q2_urb","name":"Benefits incidence in 2nd quintile (%) - International Private Transfers -urban","source":{"id":"29","value":"Global Social Protection"},"sourceNote":"Percentage of benefits going to the second quintile  relative to the total benefits going to the population","sourceOrganization":"ASPIRE","topics":[{"id":"10","value":"Social Protection & Labor"}]},{"id":"per_pr_ip.ben_q2_tot","name":"Benefits incidence in 2nd quintile (%) - International Private Transfers","source":{"id":"29","value":"Global Social Protection"},"sourceNote":"Percentage of benefits going to the second quintile  relative to the total benefits going to the population","sourceOrganization":"ASPIRE","topics":[{"id":"10","value":"Social Protection & Labor"}]},{"id":"per_pr_ip.ben_q2_rur","name":"Benefits incidence in 2nd quintile (%) - International Private Transfers -rural","source":{"id":"29","value":"Global Social Protection"},"sourceNote":"Percentage of benefits going to the second quintile  relative to the total benefits going to the population","sourceOrganization":"ASPIRE","topics":[{"id":"10","value":"Social Protection & Labor"}]},{"id":"per_pr_ip.ben_q2_preT_tot","name":"Benefits incidence in 2nd quintile (%) - International Private Transfers (preT)","source":{"id":"29","value":"Global Social Protection"},"sourceNote":"Percentage of benefits going to the second quintile  relative to the total benefits going to the population","sourceOrganization":"ASPIRE","topics":[{"id":"10","value":"Social Protection & Labor"}]},{"id":"per_pr_ip.ben_q1_urb","name":"Benefits incidence in poorest quintile (%) - International Private Transfers -urban","source":{"id":"29","value":"Global Social Protection"},"sourceNote":"Percentage of benefits going to the poorest quintile  relative to the total benefits going to the population","sourceOrganization":"ASPIRE","topics":[{"id":"10","value":"Social Protection & Labor"}]},{"id":"per_pr_ip.ben_q1_tot","name":"Benefits incidence in poorest quintile (%) - International Private Transfers","source":{"id":"29","value":"Global Social Protection"},"sourceNote":"Percentage of benefits going to the poorest quintile  relative to the total benefits going to the population","sourceOrganization":"ASPIRE","topics":[{"id":"10","value":"Social Protection & Labor"}]},{"id":"per_pr_ip.ben_q1_rur","name":"Benefits incidence in poorest quintile (%) - International Private Transfers -rural","source":{"id":"29","value":"Global Social Protection"},"sourceNote":"Percentage of benefits going to the poorest quintile  relative to the total benefits going to the population","sourceOrganization":"ASPIRE","topics":[{"id":"10","value":"Social Protection & Labor"}]},{"id":"per_pr_ip.ben_q1_preT_tot","name":"Benefits incidence in poorest quintile (%) - International Private Transfers (preT)","source":{"id":"29","value":"Global Social Protection"},"sourceNote":"Percentage of benefits going to the poorest quintile  relative to the total benefits going to the population","sourceOrganization":"ASPIRE","topics":[{"id":"10","value":"Social Protection & Labor"}]},{"id":"per_pr_ip.ben_ep_tot","name":"Benefits incidence in extreme poor (<$1.25 a day) (%) - International Private Transfers","source":{"id":"29","value":"Global Social Protection"},"sourceNote":"Percentage of benefits going to the extreme poor (those below $125 a day)  relative to the total benefits going to the population","sourceOrganization":"ASPIRE","topics":[{"id":"10","value":"Social Protection & Labor"}]},{"id":"per_pr_ip.ben_ep_preT_tot","name":"Benefits incidence in extreme poor (<$1.25 a day) (%) - International Private Transfers (preT)","source":{"id":"29","value":"Global Social Protection"},"sourceNote":"Percentage of benefits going to the extreme poor (those below $125 a day)  relative to the total benefits going to the population","sourceOrganization":"ASPIRE","topics":[{"id":"10","value":"Social Protection & Labor"}]},{"id":"per_pr_ip.avt_q5_urb","name":"Average per capita transfer held by richest quintile - International Private Transfers -urban","source":{"id":"29","value":"Global Social Protection"},"sourceNote":"Average transfer amount of  Social Protection and Labor programs among program beneficiaries (per capita, daily $ppp)","sourceOrganization":"ASPIRE","topics":[{"id":"10","value":"Social Protection & Labor"}]},{"id":"per_pr_ip.avt_q5_tot","name":"Average per capita transfer held by richest quintile - International Private Transfers","source":{"id":"29","value":"Global Social Protection"},"sourceNote":"Average transfer amount of  Social Protection and Labor programs among program beneficiaries (per capita, daily $ppp)","sourceOrganization":"ASPIRE","topics":[{"id":"10","value":"Social Protection & Labor"}]},{"id":"per_pr_ip.avt_q5_rur","name":"Average per capita transfer held by richest quintile - International Private Transfers -rural","source":{"id":"29","value":"Global Social Protection"},"sourceNote":"Average transfer amount of  Social Protection and Labor programs among program beneficiaries (per capita, daily $ppp)","sourceOrganization":"ASPIRE","topics":[{"id":"10","value":"Social Protection & Labor"}]},{"id":"per_pr_ip.avt_q5_preT_tot","name":"Average per capita transfer held by richest quintile - International Private Transfers (preT)","source":{"id":"29","value":"Global Social Protection"},"sourceNote":"Average transfer amount of  Social Protection and Labor programs among program beneficiaries (per capita, daily $ppp)","sourceOrganization":"ASPIRE","topics":[{"id":"10","value":"Social Protection & Labor"}]},{"id":"per_pr_ip.avt_q4_urb","name":"Average per capita transfer held by 4th quintile - International Private Transfers -urban","source":{"id":"29","value":"Global Social Protection"},"sourceNote":"Average transfer amount of  Social Protection and Labor programs among program beneficiaries (per capita, daily $ppp)","sourceOrganization":"ASPIRE","topics":[{"id":"10","value":"Social Protection & Labor"}]},{"id":"per_pr_ip.avt_q4_tot","name":"Average per capita transfer held by 4th quintile - International Private Transfers","source":{"id":"29","value":"Global Social Protection"},"sourceNote":"Average transfer amount of  Social Protection and Labor programs among program beneficiaries (per capita, daily $ppp)","sourceOrganization":"ASPIRE","topics":[{"id":"10","value":"Social Protection & Labor"}]},{"id":"per_pr_ip.avt_q4_rur","name":"Average per capita transfer held by 4th quintile - International Private Transfers -rural","source":{"id":"29","value":"Global Social Protection"},"sourceNote":"Average transfer amount of  Social Protection and Labor programs among program beneficiaries (per capita, daily $ppp)","sourceOrganization":"ASPIRE","topics":[{"id":"10","value":"Social Protection & Labor"}]},{"id":"per_pr_ip.avt_q4_preT_tot","name":"Average per capita transfer held by 4th quintile - International Private Transfers (preT)","source":{"id":"29","value":"Global Social Protection"},"sourceNote":"Average transfer amount of  Social Protection and Labor programs among program beneficiaries (per capita, daily $ppp)","sourceOrganization":"ASPIRE","topics":[{"id":"10","value":"Social Protection & Labor"}]},{"id":"per_pr_ip.avt_q3_urb","name":"Average per capita transfer held by 3rd quintile - International Private Transfers -urban","source":{"id":"29","value":"Global Social Protection"},"sourceNote":"Average transfer amount of  Social Protection and Labor programs among program beneficiaries (per capita, daily $ppp)","sourceOrganization":"ASPIRE","topics":[{"id":"10","value":"Social Protection & Labor"}]},{"id":"per_pr_ip.avt_q3_tot","name":"Average per capita transfer held by 3rd quintile - International Private Transfers","source":{"id":"29","value":"Global Social Protection"},"sourceNote":"Average transfer amount of  Social Protection and Labor programs among program beneficiaries (per capita, daily $ppp)","sourceOrganization":"ASPIRE","topics":[{"id":"10","value":"Social Protection & Labor"}]},{"id":"per_pr_ip.avt_q3_rur","name":"Average per capita transfer held by 3rd quintile - International Private Transfers -rural","source":{"id":"29","value":"Global Social Protection"},"sourceNote":"Average transfer amount of  Social Protection and Labor programs among program beneficiaries (per capita, daily $ppp)","sourceOrganization":"ASPIRE","topics":[{"id":"10","value":"Social Protection & Labor"}]},{"id":"per_pr_ip.avt_q3_preT_tot","name":"Average per capita transfer held by 3rd quintile - International Private Transfers (preT)","source":{"id":"29","value":"Global Social Protection"},"sourceNote":"Average transfer amount of  Social Protection and Labor programs among program beneficiaries (per capita, daily $ppp)","sourceOrganization":"ASPIRE","topics":[{"id":"10","value":"Social Protection & Labor"}]},{"id":"per_pr_ip.avt_q2_urb","name":"Average per capita transfer held by 2nd quintile - International Private Transfers -urban","source":{"id":"29","value":"Global Social Protection"},"sourceNote":"Average transfer amount of  Social Protection and Labor programs among program beneficiaries (per capita, daily $ppp)","sourceOrganization":"ASPIRE","topics":[{"id":"10","value":"Social Protection & Labor"}]},{"id":"per_pr_ip.avt_q2_tot","name":"Average per capita transfer held by 2nd quintile - International Private Transfers","source":{"id":"29","value":"Global Social Protection"},"sourceNote":"Average transfer amount of  Social Protection and Labor programs among program beneficiaries (per capita, daily $ppp)","sourceOrganization":"ASPIRE","topics":[{"id":"10","value":"Social Protection & Labor"}]},{"id":"per_pr_ip.avt_q2_rur","name":"Average per capita transfer held by 2nd quintile - International Private Transfers -rural","source":{"id":"29","value":"Global Social Protection"},"sourceNote":"Average transfer amount of  Social Protection and Labor programs among program beneficiaries (per capita, daily $ppp)","sourceOrganization":"ASPIRE","topics":[{"id":"10","value":"Social Protection & Labor"}]},{"id":"per_pr_ip.avt_q2_preT_tot","name":"Average per capita transfer held by 2nd quintile - International Private Transfers (preT)","source":{"id":"29","value":"Global Social Protection"},"sourceNote":"Average transfer amount of  Social Protection and Labor programs among program beneficiaries (per capita, daily $ppp)","sourceOrganization":"ASPIRE","topics":[{"id":"10","value":"Social Protection & Labor"}]},{"id":"per_pr_ip.avt_q1_urb","name":"Average per capita transfer held by poorest quintile - International Private Transfers -urban","source":{"id":"29","value":"Global Social Protection"},"sourceNote":"Average transfer amount of  Social Protection and Labor programs among program beneficiaries (per capita, daily $ppp)","sourceOrganization":"ASPIRE","topics":[{"id":"10","value":"Social Protection & Labor"}]},{"id":"per_pr_ip.avt_q1_tot","name":"Average per capita transfer held by poorest quintile - International Private Transfers","source":{"id":"29","value":"Global Social Protection"},"sourceNote":"Average transfer amount of  Social Protection and Labor programs among program beneficiaries (per capita, daily $ppp)","sourceOrganization":"ASPIRE","topics":[{"id":"10","value":"Social Protection & Labor"}]},{"id":"per_pr_ip.avt_q1_rur","name":"Average per capita transfer held by poorest quintile - International Private Transfers -rural","source":{"id":"29","value":"Global Social Protection"},"sourceNote":"Average transfer amount of  Social Protection and Labor programs among program beneficiaries (per capita, daily $ppp)","sourceOrganization":"ASPIRE","topics":[{"id":"10","value":"Social Protection & Labor"}]},{"id":"per_pr_ip.avt_q1_preT_tot","name":"Average per capita transfer held by poorest quintile - International Private Transfers (preT)","source":{"id":"29","value":"Global Social Protection"},"sourceNote":"Average transfer amount of  Social Protection and Labor programs among program beneficiaries (per capita, daily $ppp)","sourceOrganization":"ASPIRE","topics":[{"id":"10","value":"Social Protection & Labor"}]},{"id":"per_pr_ip.avt_pop_urb","name":"Average per capita transfer - International Private Transfers -urban","source":{"id":"29","value":"Global Social Protection"},"sourceNote":"Average transfer amount of  Social Protection and Labor programs among program beneficiaries (per capita, daily $ppp)","sourceOrganization":"ASPIRE","topics":[{"id":"10","value":"Social Protection & Labor"}]},{"id":"per_pr_ip.avt_pop_tot","name":"Average per capita transfer - International Private Transfers","source":{"id":"29","value":"Global Social Protection"},"sourceNote":"Average transfer amount of  Social Protection and Labor programs among program beneficiaries (per capita, daily $ppp)","sourceOrganization":"ASPIRE","topics":[{"id":"10","value":"Social Protection & Labor"}]},{"id":"per_pr_ip.avt_pop_rur","name":"Average per capita transfer - International Private Transfers -rural","source":{"id":"29","value":"Global Social Protection"},"sourceNote":"Average transfer amount of  Social Protection and Labor programs among program beneficiaries (per capita, daily $ppp)","sourceOrganization":"ASPIRE","topics":[{"id":"10","value":"Social Protection & Labor"}]},{"id":"per_pr_ip.avt_pop_preT_tot","name":"Average per capita transfer - International Private Transfers (preT)","source":{"id":"29","value":"Global Social Protection"},"sourceNote":"Average transfer amount of  Social Protection and Labor programs among program beneficiaries (per capita, daily $ppp)","sourceOrganization":"ASPIRE","topics":[{"id":"10","value":"Social Protection & Labor"}]}]]