[{"page":109,"pages":324,"per_page":"50","total":16174},[{"id":"GFDD.DM.09","name":"Gross portfolio equity assets to GDP (%)","source":{"id":"32","value":"Global Financial Development"},"sourceNote":"Ratio of gross portfolio equity assets to GDP. Equity assets include shares, stocks, participation, and similar documents (such as American depository receipts) that usually denote ownership of equity. Raw data are from the electronic version of the IMF's International Financial Statistics. IFS line 79ADDZF \/ GDP. Local currency GDP is from IFS (line 99B..ZF or, if not available, line 99B.CZF). ","sourceOrganization":"International Financial Statistics (IFS), International Monetary Fund (IMF)","topics":[{"id":"7","value":"Financial Sector "}]},{"id":"GFDD.DM.08","name":"Gross portfolio equity liabilities to GDP (%)","source":{"id":"32","value":"Global Financial Development"},"sourceNote":"Ratio of gross portfolio equity liabilities to GDP. Equity liabilities include shares, stocks, participation, and similar documents (such as American depository receipts) that usually denote ownership of equity. Raw data are from the electronic version of the IMF's International Financial Statistics. IFS line 79LDDZF\/ GDP. Local currency GDP is from IFS (line 99B..ZF or, if not available, line 99B.CZF). ","sourceOrganization":"International Financial Statistics (IFS), International Monetary Fund (IMF)","topics":[{"id":"7","value":"Financial Sector "}]},{"id":"GFDD.DM.07","name":"International debt issues to GDP (%)","source":{"id":"32","value":"Global Financial Development"},"sourceNote":"Total value of outstanding international debt issues both public and private, as a share of GDP. Offshore bank loan data from BIS Statistical Appendix Table 12A (Amount Outstanding): International debt securities - all issuers.","sourceOrganization":"Bank for International Settlements (BIS)","topics":[{"id":"7","value":"Financial Sector "}]},{"id":"GFDD.DM.06","name":"Outstanding international public debt securities to GDP (%)","source":{"id":"32","value":"Global Financial Development"},"sourceNote":"Amount of public international debt securities (amounts outstanding), as a share of GDP. It covers long-term bonds and notes and money market instruments placed on international markets. Table 12D (international debt amount): governments \/ GDP. End of year data (i.e. December data) are considered for debt securities. The figures are deflated using the following methodology: {(0.5)*[Ft\/P_et + Ft-1\/P_et-1]}\/[GDPt\/P_at] where F is the level international public debt, P_e is end-of period CPI, and P_a is average annual CPI. GDP is from World Development Indicators. End-of period CPI is taken from IFS line 64M..ZF month of December (or if not available Q4). Average annual CPI is constructed from the monthly CPI figure taken from IFS line 64..ZF.","sourceOrganization":"Bank for International Settlements (BIS)","topics":[{"id":"7","value":"Financial Sector "}]},{"id":"GFDD.DM.05","name":"Outstanding international private debt securities to GDP (%)","source":{"id":"32","value":"Global Financial Development"},"sourceNote":"Amount of private international debt securities (amounts outstanding), as a share of GDP. It covers long-term bonds and notes and money market instruments placed on international markets. (Table 12A  (international debt amount: all issuers) - Table 12D (international debt amount: governments)) \/ GDP. End of year data (i.e. December data) are considered for debt securities. The figures are deflated using the following methodology: {(0.5)*[Ft\/P_et + Ft-1\/P_et-1]}\/[GDPt\/P_at] where F is the level intenational private debt, P_e is end-of period CPI, and P_a is average annual CPI. GDP is from World Development Indicators.End-of period CPI is taken from IFS line 64M..ZF month of December (or if not available Q4). Average annual CPI is constructed from the monthly CPI figure taken from IFS line 64..ZF.","sourceOrganization":"Bank for International Settlements (BIS)","topics":[{"id":"7","value":"Financial Sector "}]},{"id":"GFDD.DM.04","name":"Outstanding domestic public debt securities to GDP (%)","source":{"id":"32","value":"Global Financial Development"},"sourceNote":"Total amount of domestic public debt securities (amounts outstanding) issued in domestic markets as a share of GDP. It covers long-term bonds and notes, treasury bills, commercial paper and other short-term notes. Table 16A (domestic debt amount): governments \/ GDP. End of year data (i.e. December data) are considered for debt securities. The figures are deflated using the following methodology: {(0.5)*[Ft\/P_et + Ft-1\/P_et-1]}\/[GDPt\/P_at] where F is the level domestic public debt, P_e is end-of period CPI, and P_a is average annual CPI. GDP is from World Development Indicators. End-of period CPI is taken from IFS line 64M..ZF month of December (or if not available Q4). Average annual CPI is constructed from the monthly CPI figure taken from IFS line 64..ZF.","sourceOrganization":"Bank for International Settlements (BIS)","topics":[{"id":"7","value":"Financial Sector "}]},{"id":"GFDD.DM.03","name":"Outstanding domestic private debt securities to GDP (%)","source":{"id":"32","value":"Global Financial Development"},"sourceNote":"Total amount of domestic private debt securities (amounts outstanding) issued in domestic markets as a share of GDP. It covers data on long-term bonds and notes, commercial paper and other short-term notes. Table 16A (domestic debt amount): all issuers minus governments \/ GDP. End of year data (i.e. December data) are considered for debt securities.  The figures are deflated using the following methodology: {(0.5)*[Ft\/P_et + Ft-1\/P_et-1]}\/[GDPt\/P_at] where F is the level domestic private debt, P_e is end-of period CPI, and P_a is average annual CPI. GDP is from World Development Indicators. End-of period CPI is taken from IFS line 64M..ZF month of December (or if not available Q4). Average annual CPI is constructed from the monthly CPI figure taken from IFS line 64..ZF.","sourceOrganization":"Bank for International Settlements (BIS)","topics":[{"id":"7","value":"Financial Sector "}]},{"id":"GFDD.DM.02","name":"Stock market total value traded to GDP (%)","source":{"id":"32","value":"Global Financial Development"},"sourceNote":"Total value of all traded shares in a stock market exchange as a percentage of GDP.  Following deflation method is use:  {(0.5)*[Ft\/P_et + Ft-1\/P_et-1]}\/[GDPt\/P_at] where F is stock market capitalization, P_e is end-of period CPI, and P_a  is average annual CPI. End-of period CPI (IFS line 64M..ZF or, if not available, 64Q..ZF) and average annual CPI is calculated using the monthly CPI values (IFS line 64M..ZF).","sourceOrganization":"Global Stock Markets Factbook and supplemental S&P data, Standard & Poor's","topics":[{"id":"7","value":"Financial Sector "}]},{"id":"GFDD.DM.01","name":"Stock market capitalization to GDP (%)","source":{"id":"32","value":"Global Financial Development"},"sourceNote":"Value of listed shares to GDP, calculated using the following deflation  method:  {(0.5)*[Ft\/P_et + Ft-1\/P_et-1]}\/[GDPt\/P_at] where F is stock market capitalization, P_e is end-of period CPI, and P_a  is average annual CPI. End-of period CPI (IFS line 64M..ZF or, if not available, 64Q..ZF) and average annual CPI is calculated using the monthly CPI values (IFS line 64M..ZF).","sourceOrganization":"Global Stock Markets Factbook and supplemental S&P data, Standard & Poor's","topics":[{"id":"7","value":"Financial Sector "}]},{"id":"GFDD.DI.14","name":"Domestic credit to private sector (% of GDP)","source":{"id":"32","value":"Global Financial Development"},"sourceNote":"Domestic credit to private sector refers to financial resources provided to the private sector, such as through loans, purchases of nonequity securities, and trade credits and other accounts receivable, that establish a claim for repayment. For some countries these claims include credit to public enterprises.","sourceOrganization":"World Development Indicators (WDI), World Bank","topics":[{"id":"7","value":"Financial Sector "}]},{"id":"GFDD.DI.13","name":"Pension fund assets to GDP (%)","source":{"id":"32","value":"Global Financial Development"},"sourceNote":"Ratio of assets of pension funds to GDP. A pension fund is any plan, fund, or scheme that provides retirement income. Data taken from a variety of sources such as OECD, AIOS, FIAP and national sources.","sourceOrganization":"Nonbanking financial database, World Bank","topics":[{"id":"7","value":"Financial Sector "}]},{"id":"GFDD.DI.12","name":"Private credit by deposit money banks and other financial institutions to GDP (%)","source":{"id":"32","value":"Global Financial Development"},"sourceNote":"Private credit by deposit money banks and other financial institutions to GDP, calculated using the following deflation method:  {(0.5)*[Ft\/P_et + Ft-1\/P_et-1]}\/[GDPt\/P_at] where F is credit to the private sector, P_e is end-of period CPI, and P_a is average annual CPI. Raw data are from the electronic version of the IMF’s International Financial Statistics. Private credit by deposit money banks and other financial institutions (IFS lines 22d and 42d); GDP in local currency (IFS line 99B..ZF or, if not available, line 99B.CZF); end-of period CPI (IFS line 64M..ZF or, if not available, 64Q..ZF); and average annual CPI is calculated using the monthly CPI values (IFS line 64M..ZF)","sourceOrganization":"International Financial Statistics (IFS), International Monetary Fund (IMF)","topics":[{"id":"7","value":"Financial Sector "}]},{"id":"GFDD.DI.11","name":"Insurance company assets to GDP (%)","source":{"id":"32","value":"Global Financial Development"},"sourceNote":"Data taken from a variety of sources such as AXCO and national sources.","sourceOrganization":"Nonbanking financial database, World Bank","topics":[{"id":"7","value":"Financial Sector "}]},{"id":"GFDD.DI.10","name":"Nonlife insurance premium volume to GDP (%)","source":{"id":"32","value":"Global Financial Development"},"sourceNote":"Premium data is taken from various issues of Sigma reports (Swiss Re). Data on GDP in US dollars is from the electronic version of the World Development Indicators.","sourceOrganization":"Sigma Reports, Swiss Re","topics":[{"id":"7","value":"Financial Sector "}]},{"id":"GFDD.DI.09","name":"Life insurance premium volume to GDP (%)","source":{"id":"32","value":"Global Financial Development"},"sourceNote":"Premium data is taken from various issues of Sigma reports (Swiss Re). Data on GDP in US dollars is from the electronic version of the World Development Indicators.","sourceOrganization":"Sigma Reports, Swiss Re","topics":[{"id":"7","value":"Financial Sector "}]},{"id":"GFDD.DI.08","name":"Financial system deposits to GDP (%)","source":{"id":"32","value":"Global Financial Development"},"sourceNote":"Demand, time and saving deposits in deposit money banks and other financial institutions as a share of GDP, calculated using the following deflation method:  {(0.5)*[Ft\/P_et + Ft-1\/P_et-1]}\/[GDPt\/P_at] where F is demand and time and saving deposits, P_e is end-of period CPI, and P_a is average annual CPI. Raw data are from the electronic version of the IMF’s International Financial Statistics. Financial system deposits (IFS lines 24, 25, 44, and 45); GDP in local currency (IFS line 99B..ZF or, if not available, line 99B.CZF); end-of period CPI (IFS line 64M..ZF or, if not available, 64Q..ZF); and average annual CPI is calculated using the monthly CPI values (IFS line 64M..ZF).","sourceOrganization":"International Financial Statistics (IFS), International Monetary Fund (IMF)","topics":[{"id":"7","value":"Financial Sector "}]},{"id":"GFDD.DI.07","name":"Mutual fund assets to GDP (%)","source":{"id":"32","value":"Global Financial Development"},"sourceNote":"Data taken from a variety of sources such as Investment Company Institute and national sources.","sourceOrganization":"World Bank - Non banking financial database","topics":[{"id":"7","value":"Financial Sector "}]},{"id":"GFDD.DI.06","name":"Central bank assets to GDP (%)","source":{"id":"32","value":"Global Financial Development"},"sourceNote":"Claims on domestic real nonfinancial sector by the Central Bank as a share of GDP, calculated using the following deflation method:  {(0.5)*[Ft\/P_et + Ft-1\/P_et-1]}\/[GDPt\/P_at] where F is Central Bank claims, P_e is end-of period CPI, and P_a is average annual CPI. Raw data are from the electronic version of the IMF's International Financial Statistics. Central Bank claims (IFS lines 12, a-d); GDP in local currency (IFS line 99B..ZF or, if not available, line 99B.CZF); end-of period CPI (IFS line 64M..ZF or, if not available, 64Q..ZF); and average annual CPI is calculated using the monthly CPI values (IFS line 64M..ZF).","sourceOrganization":"International Financial Statistics (IFS), International Monetary Fund (IMF)","topics":[{"id":"7","value":"Financial Sector "}]},{"id":"GFDD.DI.05","name":"Liquid liabilities to GDP (%)","source":{"id":"32","value":"Global Financial Development"},"sourceNote":"Ratio of liquid liabilities to GDP, calculated using the following deflation method: {(0.5)*[Ft\/P_et + Ft-1\/P_et-1]}\/[GDPt\/P_at] where F is liquid liabilities, P_e is end-of period CPI, and P_a is average annual CPI. Raw data are from the electronic version of the IMF's International Financial Statistics. Liquid liabilities (IFS lines 55L or, if not available, line 35L); GDP in local currency (IFS line 99B..ZF or, if not available, line 99B.CZF); end-of period CPI (IFS line 64M..ZF or, if not available, 64Q..ZF); and average annual CPI is calculated using the monthly CPI values (IFS line 64M..ZF) For Eurocurrency  area countries liquid liabilities are estimated by summing IFS items 34A, 34B and 35.","sourceOrganization":"International Financial Statistics (IFS), International Monetary Fund (IMF)","topics":[{"id":"7","value":"Financial Sector "}]},{"id":"GFDD.DI.04","name":"Deposit money bank assets to deposit money bank assets and central bank assets (%)","source":{"id":"32","value":"Global Financial Development"},"sourceNote":"Raw data are from the electronic version of the IMF's International Financial Statistics (IFS lines 12 and 22, a-d).","sourceOrganization":"International Financial Statistics (IFS), International Monetary Fund (IMF)","topics":[{"id":"7","value":"Financial Sector "}]},{"id":"GFDD.DI.03","name":"Nonbank financial institutions’ assets to GDP (%)","source":{"id":"32","value":"Global Financial Development"},"sourceNote":"Claims on domestic real nonfinancial sector by other financial institutions as a share of GDP, calculated using the following deflation method: {(0.5)*[Ft\/P_et + Ft-1\/P_et-1]}\/[GDPt\/P_at]  where F is other financial institutions' claims, P_e is end-of period CPI, and P_a is average annual CPI. Raw data are from the electronic version of the IMF’s International Financial Statistics. Nonbank financial institutions assets (IFS lines 42, a-d, h, and s); GDP in local currency (IFS line 99B..ZF or, if not available, line 99B.CZF); end-of period CPI (IFS line 64M..ZF or, if not available, 64Q..ZF); and average annual CPI is calculated using the monthly CPI values (IFS line 64M..ZF).","sourceOrganization":"International Financial Statistics (IFS), International Monetary Fund (IMF)","topics":[{"id":"7","value":"Financial Sector "}]},{"id":"GFDD.DI.02","name":"Deposit money banks' assets to GDP (%)","source":{"id":"32","value":"Global Financial Development"},"sourceNote":"Claims on domestic real nonfinancial sector by deposit money banks as a share of GDP, calculated using the following deflation method:  {(0.5)*[Ft\/P_et + Ft-1\/P_et-1]}\/[GDPt\/P_at] where F is deposit money bank claims, P_e is end-of period CPI, and P_a is average annual CPI. Raw data are from the electronic version of the IMF’s International Financial Statistics. Deposit money bank assets (IFS lines 22, a-d); GDP in local currency (IFS line 99B..ZF or, if not available, line 99B.CZF); end-of period CPI (IFS line 64M..ZF or, if not available, 64Q..ZF); and average annual CPI is calculated using the monthly CPI values (IFS line 64M..ZF).","sourceOrganization":"International Financial Statistics (IFS), International Monetary Fund (IMF)","topics":[{"id":"7","value":"Financial Sector "}]},{"id":"GFDD.DI.01","name":"Private credit by deposit money banks to GDP (%)","source":{"id":"32","value":"Global Financial Development"},"sourceNote":"Private credit by deposit money banks and other financial institutions to GDP, calculated using the following deflation method:  {(0.5)*[Ft\/P_et + Ft-1\/P_et-1]}\/[GDPt\/P_at] where F is credit to the private sector, P_e is end-of period CPI, and P_a is average annual CPI. Raw data are from the electronic version of the IMF’s International Financial Statistics. Private credit by deposit money banks (IFS line 22d); GDP in local currency (IFS line 99B..ZF or, if not available, line 99B.CZF); end-of period CPI (IFS line 64M..ZF or, if not available, 64Q..ZF); and average annual CPI is calculated using the monthly CPI values (IFS line 64M..ZF).","sourceOrganization":"International Financial Statistics (IFS), International Monetary Fund (IMF)","topics":[{"id":"7","value":"Financial Sector "}]},{"id":"GFDD.AM.04","name":"Investments financed by equity or stock sales (%)","source":{"id":"32","value":"Global Financial Development"},"sourceNote":"Estimated proportion of purchases of fixed assets that was financed by owners’ contribution or issue of new equity shares.","sourceOrganization":"Enterprise Surveys, World Bank","topics":[{"id":"7","value":"Financial Sector "}]},{"id":"GFDD.AM.03","name":"Nonfinancial corporate bonds to total bonds and notes outstanding (%)","source":{"id":"32","value":"Global Financial Development"},"sourceNote":"Total amount of domestic nonfinancial corporate bonds and notes outstanding (BIS Table 16B) to total amount of domestic bonds and notes outstanding, both corporate and noncorporate (BIS Table 16A).","sourceOrganization":"Bank for International Settlements (BIS)","topics":[{"id":"7","value":"Financial Sector "}]},{"id":"GFDD.AM.02","name":"Market capitalization excluding top 10 companies to total market capitalization (%)","source":{"id":"32","value":"Global Financial Development"},"sourceNote":"Value of listed shares outside of the top ten largest companies to total value of all listed shares. ","sourceOrganization":"World Federation of Exchanges","topics":[{"id":"7","value":"Financial Sector "}]},{"id":"GFDD.AM.01","name":"Value traded excluding top 10 traded companies to total value traded (%)","source":{"id":"32","value":"Global Financial Development"},"sourceNote":"Value of all traded shares outside of the top ten largest traded companies as a share of total value of all traded shares in a stock market exchange. WFE provides data on the exchange level. This variable is aggregated up to the country level by taking a simple average over exchanges.","sourceOrganization":"World Federation of Exchanges","topics":[{"id":"7","value":"Financial Sector "}]},{"id":"GFDD.AI.36","name":"Firms identifying access to finance as a major constraint (%)","source":{"id":"32","value":"Global Financial Development"},"sourceNote":"Percentage of firms identifying access\/cost of finance as a \"major\" or \"very severe\" obstacle.","sourceOrganization":"Enterprise Surveys, World Bank","topics":[{"id":"7","value":"Financial Sector "}]},{"id":"GFDD.AI.35","name":"Working capital financed by banks (%)","source":{"id":"32","value":"Global Financial Development"},"sourceNote":"Proportion of the working capital that was financed by bank loans.","sourceOrganization":"Enterprise Surveys, World Bank","topics":[{"id":"7","value":"Financial Sector "}]},{"id":"GFDD.AI.34","name":"Investments financed by banks (%)","source":{"id":"32","value":"Global Financial Development"},"sourceNote":"Estimated proportion of purchases of fixed assets that was financed from bank loans.","sourceOrganization":"Enterprise Surveys, World Bank","topics":[{"id":"7","value":"Financial Sector "}]},{"id":"GFDD.AI.33","name":"Firms whose recent loan application was rejected (%)","source":{"id":"32","value":"Global Financial Development"},"sourceNote":"Percent of firms whose most recent loan application was rejected by a formal financial institution.","sourceOrganization":"Enterprise Surveys, World Bank","topics":[{"id":"7","value":"Financial Sector "}]},{"id":"GFDD.AI.32","name":"Firms not needing a loan (%)","source":{"id":"32","value":"Global Financial Development"},"sourceNote":"Percent of firms that did not apply for a loan in the last fiscal year because they did not need a loan. The denominator is the sum of all firms who applied and did not apply for a loan. The numerator is the number of firms who did not apply for a loan and also stated that they did not need a loan.","sourceOrganization":"Enterprise Surveys, World Bank","topics":[{"id":"7","value":"Financial Sector "}]},{"id":"GFDD.AI.31","name":"Value of collateral needed for a loan (% of the loan amount)","source":{"id":"32","value":"Global Financial Development"},"sourceNote":"Value of collateral needed by a formal financial institution for a loan or line of credit as a percentage of the loan value or the value of the line of credit.","sourceOrganization":"Enterprise Surveys, World Bank","topics":[{"id":"7","value":"Financial Sector "}]},{"id":"GFDD.AI.30","name":"Loans requiring collateral (%)","source":{"id":"32","value":"Global Financial Development"},"sourceNote":"Percentage of loans where a formal financial institution requires collateral in order to provide the financing.","sourceOrganization":"Enterprise Surveys, World Bank","topics":[{"id":"7","value":"Financial Sector "}]},{"id":"GFDD.AI.29","name":"Firms using banks to finance working capital (%)","source":{"id":"32","value":"Global Financial Development"},"sourceNote":"Percentage of firms using bank loans to finance working capital.","sourceOrganization":"Enterprise Surveys, World Bank","topics":[{"id":"7","value":"Financial Sector "}]},{"id":"GFDD.AI.28","name":"Firms using banks to finance investments (%)","source":{"id":"32","value":"Global Financial Development"},"sourceNote":"Percentage of firms using banks to finance purchases of fixed assets.","sourceOrganization":"Enterprise Surveys, World Bank","topics":[{"id":"7","value":"Financial Sector "}]},{"id":"GFDD.AI.27","name":"Firms with a checking or savings account (%)","source":{"id":"32","value":"Global Financial Development"},"sourceNote":"Percentage of firms with a checking or savings account.","sourceOrganization":"Enterprise Surveys, World Bank","topics":[{"id":"7","value":"Financial Sector "}]},{"id":"GFDD.AI.26","name":"Depositing\/withdrawing at least once in a typical month (% age 15+)","source":{"id":"32","value":"Global Financial Development"},"sourceNote":"Adults depositing\/withdrawing at least once in a typical month (% age 15+). It is calculated as follows: (100 - \"0 deposits\/withdrawals in typical month (% with an account,  age 15+)\" ) * (\"Account at a formal financial institution (% age 15+)\") \/ 100.  \"0 deposits\/withdrawals in typical month (% with an account,  age 15+)\" denotes the percentage of respondents with an account at a formal financial institution who report making zero deposits into or zero withdrawals from their personal account(s) in a typical month (also called “inactive account”). This includes cash or electronic deposits, or any time money is put into or removed from account(s) by self or others (% age 15+, with an account). \"Account at a formal financial institution (% age 15+)\" denotes the percentage of respondents with an account (self or together with someone else) at a bank, credit union, another financial institution (e.g., cooperative, microfinance institution), or the post office (if applicable) including respondents who reported having a debit card (% age 15+).","sourceOrganization":"Global Financial Inclusion (Global Findex) Database, World Bank","topics":[{"id":"7","value":"Financial Sector "}]},{"id":"GFDD.AI.25","name":"ATMs per 100,000 adults","source":{"id":"32","value":"Global Financial Development"},"sourceNote":"For each country calculated as: 100,000*Number of ATMs\/adult population in the reporting country.","sourceOrganization":"Financial Access Survey (FAS), International Monetary Fund (IMF)","topics":[{"id":"7","value":"Financial Sector "}]},{"id":"GFDD.AI.24","name":"Mobile phone used to send money (% age 15+)","source":{"id":"32","value":"Global Financial Development"},"sourceNote":"The percentage of respondents who report using a mobile phone to send money in the past 12 months (% age 15+).","sourceOrganization":"Global Financial Inclusion (Global Findex) Database, World Bank","topics":[{"id":"7","value":"Financial Sector "}]},{"id":"GFDD.AI.23","name":"Mobile phone used to pay bills (% age 15+)","source":{"id":"32","value":"Global Financial Development"},"sourceNote":"The percentage of respondents who report using a mobile phone to pay bills in the past 12 months (% age 15+). ","sourceOrganization":"Global Financial Inclusion (Global Findex) Database, World Bank","topics":[{"id":"7","value":"Financial Sector "}]},{"id":"GFDD.AI.22","name":"Electronic payments used to make payments (% age 15+)","source":{"id":"32","value":"Global Financial Development"},"sourceNote":"The percentage of respondents who used electronic payments (payments that one makes or that are made automatically including wire transfers or payments made online) in the past 12 months to make payments on bills or to buy things using money from their accounts (% age 15+).","sourceOrganization":"Global Financial Inclusion (Global Findex) Database, World Bank","topics":[{"id":"7","value":"Financial Sector "}]},{"id":"GFDD.AI.21","name":"Debit card (% age 15+)","source":{"id":"32","value":"Global Financial Development"},"sourceNote":"The percentage of respondents with a debit card (% age 15+).","sourceOrganization":"Global Financial Inclusion (Global Findex) Database, World Bank","topics":[{"id":"7","value":"Financial Sector "}]},{"id":"GFDD.AI.20","name":"Credit card (% age 15+)","source":{"id":"32","value":"Global Financial Development"},"sourceNote":"The percentage of respondents with a credit card (% age 15+).","sourceOrganization":"Global Financial Inclusion (Global Findex) Database, World Bank","topics":[{"id":"7","value":"Financial Sector "}]},{"id":"GFDD.AI.19","name":"Checks used to make payments (% age 15+)","source":{"id":"32","value":"Global Financial Development"},"sourceNote":"The percentage of respondents who used checks in the past 12 months to make payments on bills or to buy things using money from their accounts (% age 15+).","sourceOrganization":"Global Financial Inclusion (Global Findex) Database, World Bank","topics":[{"id":"7","value":"Financial Sector "}]},{"id":"GFDD.AI.18","name":"Loan from family or friends in the past year (% age 15+)","source":{"id":"32","value":"Global Financial Development"},"sourceNote":" The percentage of respondents who report borrowing any money from family or friends in the past 12 months (% age 15+).","sourceOrganization":"Global Financial Inclusion (Global Findex) Database, World Bank","topics":[{"id":"7","value":"Financial Sector "}]},{"id":"GFDD.AI.17","name":"Loan through store credit in the past year (% age 15+)","source":{"id":"32","value":"Global Financial Development"},"sourceNote":" The percentage of respondents who borrowed any money in the past 12 months from a store by using installment credit or buying on credit (% age 15+).","sourceOrganization":"Global Financial Inclusion (Global Findex) Database, World Bank","topics":[{"id":"7","value":"Financial Sector "}]},{"id":"GFDD.AI.16","name":"Loan from an employer in the past year (% age 15+)","source":{"id":"32","value":"Global Financial Development"},"sourceNote":" The percentage of respondents who report borrowing any money from an employer in the past 12 months (% age 15+).","sourceOrganization":"Global Financial Inclusion (Global Findex) Database, World Bank","topics":[{"id":"7","value":"Financial Sector "}]},{"id":"GFDD.AI.15","name":"Loan from a private lender in the past year (% age 15+)","source":{"id":"32","value":"Global Financial Development"},"sourceNote":" The percentage of respondents who report borrowing any money from a private lender in the past 12 months (% age 15+).","sourceOrganization":"Global Financial Inclusion (Global Findex) Database, World Bank","topics":[{"id":"7","value":"Financial Sector "}]},{"id":"GFDD.AI.14","name":"Loan in the past year (% age 15+)","source":{"id":"32","value":"Global Financial Development"},"sourceNote":" The percentage of respondents who borrowed any money in the past 12 months from any of the following sources: a formal financial institution, a store by using installment credit, family or friends, employer, or another private lender (% age 15+). (Note that getting a loan does not necessarily require having an account.)","sourceOrganization":"Global Financial Inclusion (Global Findex) Database, World Bank","topics":[{"id":"7","value":"Financial Sector "}]}]]