[{"page":252,"pages":324,"per_page":"50","total":16174},[{"id":"SE.TER.HIAT.MS.MA.ZS","name":"Educational attainment, completed Master's or equivalent, population 25+ years, male (%)","source":{"id":"14","value":"Gender Statistics"},"sourceNote":"The percentage of population ages 25 and over that attained or completed Master's or equivalent as the highest level of education.","sourceOrganization":"United Nations Educational, Scientific, and Cultural Organization (UNESCO) Institute for Statistics.","topics":[{"id":"17","value":"Gender"}]},{"id":"SE.TER.HIAT.MS.FE.ZS","name":"Educational attainment, completed Master's or equivalent, population 25+ years, female (%)","source":{"id":"14","value":"Gender Statistics"},"sourceNote":"The percentage of population ages 25 and over that attained or completed Master's or equivalent as the highest level of education.","sourceOrganization":"United Nations Educational, Scientific, and Cultural Organization (UNESCO) Institute for Statistics.","topics":[{"id":"17","value":"Gender"}]},{"id":"SE.TER.HIAT.DO.MA.ZS","name":"Educational attainment, completed Doctoral or equivalent, population 25+ years, male (%)","source":{"id":"14","value":"Gender Statistics"},"sourceNote":"The percentage of population ages 25 and over that attained or completed Doctoral or equivalent as the highest level of education.","sourceOrganization":"United Nations Educational, Scientific, and Cultural Organization (UNESCO) Institute for Statistics.","topics":[{"id":"17","value":"Gender"}]},{"id":"SE.TER.HIAT.DO.FE.ZS","name":"Educational attainment, completed Doctoral or equivalent, population 25+ years, female (%)","source":{"id":"14","value":"Gender Statistics"},"sourceNote":"The percentage of population ages 25 and over that attained or completed Doctoral or equivalent as the highest level of education.","sourceOrganization":"United Nations Educational, Scientific, and Cultural Organization (UNESCO) Institute for Statistics.","topics":[{"id":"17","value":"Gender"}]},{"id":"SE.TER.HIAT.BA.MA.ZS","name":"Educational attainment, completed Bachelor's or equivalent, population 25+ years, male (%)","source":{"id":"14","value":"Gender Statistics"},"sourceNote":"The percentage of population ages 25 and over that attained or completed Bachelor's or equivalent as the highest level of education.","sourceOrganization":"United Nations Educational, Scientific, and Cultural Organization (UNESCO) Institute for Statistics.","topics":[{"id":"17","value":"Gender"}]},{"id":"SE.TER.HIAT.BA.FE.ZS","name":"Educational attainment, completed Bachelor's or equivalent, population 25+ years, female (%)","source":{"id":"14","value":"Gender Statistics"},"sourceNote":"The percentage of population ages 25 and over that attained or completed Bachelor's or equivalent as the highest level of education.","sourceOrganization":"United Nations Educational, Scientific, and Cultural Organization (UNESCO) Institute for Statistics.","topics":[{"id":"17","value":"Gender"}]},{"id":"SE.TER.GRAD.SV.ZS","name":"Percentage of graduates from tertiary education graduating from Services programmes, both sexes (%)","source":{"id":"12","value":"Education Statistics"},"sourceNote":"Share of all tertiary graduates who completed services programmes in the reference year.","sourceOrganization":"UNESCO Institute for Statistics","topics":[{"id":"4","value":"Education "}]},{"id":"SE.TER.GRAD.SV.FE.ZS","name":"Percentage of female graduates from tertiary education graduating from Services programmes, female (%)","source":{"id":"12","value":"Education Statistics"},"sourceNote":"Share of all female tertiary graduates who completed services programmes in the reference year.","sourceOrganization":"UNESCO Institute for Statistics","topics":[{"id":"4","value":"Education "}]},{"id":"SE.TER.GRAD.SS.ZS","name":"Percentage of graduates from tertiary education graduating from Social Sciences, Business and Law programmes, both sexes (%)","source":{"id":"12","value":"Education Statistics"},"sourceNote":"Share of all tertiary graduates who completed social sciences, business and law programmes in the reference year.","sourceOrganization":"UNESCO Institute for Statistics","topics":[{"id":"4","value":"Education "}]},{"id":"SE.TER.GRAD.SS.FE.ZS","name":"Percentage of female graduates from tertiary education graduating from Social Sciences, Business and Law programmes, female (%)","source":{"id":"12","value":"Education Statistics"},"sourceNote":"Share of all female tertiary graduates who completed social sciences, business and law programmes in the reference year.","sourceOrganization":"UNESCO Institute for Statistics","topics":[{"id":"4","value":"Education "}]},{"id":"SE.TER.GRAD.SC.ZS","name":"Percentage of graduates from tertiary education graduating from Science programmes, both sexes (%)","source":{"id":"12","value":"Education Statistics"},"sourceNote":"Share of all tertiary graduates who completed science programmes in the reference year.","sourceOrganization":"UNESCO Institute for Statistics","topics":[{"id":"4","value":"Education "}]},{"id":"SE.TER.GRAD.SC.FE.ZS","name":"Percentage of female graduates from tertiary education graduating from Science programmes, female (%)","source":{"id":"12","value":"Education Statistics"},"sourceNote":"Share of all female tertiary graduates who completed science programmes in the reference year.","sourceOrganization":"UNESCO Institute for Statistics","topics":[{"id":"4","value":"Education "}]},{"id":"SE.TER.GRAD.OT.ZS","name":"Percentage of graduates from tertiary education graduating from programmes in unspecified fields, both sexes (%)","source":{"id":"12","value":"Education Statistics"},"sourceNote":"Share of all tertiary graduates who completed programmes in unspecified fields in the reference year.","sourceOrganization":"UNESCO Institute for Statistics","topics":[{"id":"4","value":"Education "}]},{"id":"SE.TER.GRAD.OT.FE.ZS","name":"Percentage of female graduates from tertiary education graduating from programmes in unspecified fields, female (%)","source":{"id":"12","value":"Education Statistics"},"sourceNote":"Share of all female tertiary graduates who completed programmes in unspecified fields in the reference year.","sourceOrganization":"UNESCO Institute for Statistics","topics":[{"id":"4","value":"Education "}]},{"id":"SE.TER.GRAD.HU.ZS","name":"Percentage of graduates from tertiary education graduating from Humanities and Arts programmes, both sexes (%)","source":{"id":"12","value":"Education Statistics"},"sourceNote":"Share of all tertiary graduates who completed humanities and arts programmes in the reference year.","sourceOrganization":"UNESCO Institute for Statistics","topics":[{"id":"4","value":"Education "}]},{"id":"SE.TER.GRAD.HU.FE.ZS","name":"Percentage of female graduates from tertiary education graduating from Humanities and Arts programmes, female (%)","source":{"id":"12","value":"Education Statistics"},"sourceNote":"Share of all female tertiary graduates who completed humanities and arts programmes in the reference year.","sourceOrganization":"UNESCO Institute for Statistics","topics":[{"id":"4","value":"Education "}]},{"id":"SE.TER.GRAD.HL.ZS","name":"Percentage of graduates from tertiary education graduating from Health and Welfare programmes, both sexes (%)","source":{"id":"12","value":"Education Statistics"},"sourceNote":"Share of all tertiary graduates who completed health and welfare programmes in the reference year.","sourceOrganization":"UNESCO Institute for Statistics","topics":[{"id":"4","value":"Education "}]},{"id":"SE.TER.GRAD.HL.FE.ZS","name":"Percentage of female graduates from tertiary education graduating from Health and Welfare programmes, female (%)","source":{"id":"12","value":"Education Statistics"},"sourceNote":"Share of all female tertiary graduates who completed health and welfare programmes in the reference year.","sourceOrganization":"UNESCO Institute for Statistics","topics":[{"id":"4","value":"Education "}]},{"id":"SE.TER.GRAD.FE.ZS","name":"Percentage of graduates from tertiary education who are female (%)","source":{"id":"12","value":"Education Statistics"},"sourceNote":"Number of females completing tertiary education programmes (ISCED 5 to 8) expressed as a percentage of the total number of students (male and female) completing tertiary education programmes (ISCED 5 to 8) in the reference year.","sourceOrganization":"UNESCO Institute for Statistics","topics":[{"id":"4","value":"Education "}]},{"id":"SE.TER.GRAD.FE.SV.ZS","name":"Female share of graduates in services (%, tertiary)","source":{"id":"12","value":"Education Statistics"},"sourceNote":"Female share of graduates in the given field of education, tertiary is the number of female graduates expressed as a percentage of the total number of graduates in the given field of education from tertiary education.","sourceOrganization":"United Nations Educational, Scientific, and Cultural Organization (UNESCO) Institute for Statistics.","topics":[{"id":"4","value":"Education "}]},{"id":"SE.TER.GRAD.FE.SS.ZS","name":"Female share of graduates in social science, business and law (%, tertiary)","source":{"id":"12","value":"Education Statistics"},"sourceNote":"Female share of graduates in the given field of education, tertiary is the number of female graduates expressed as a percentage of the total number of graduates in the given field of education from tertiary education.","sourceOrganization":"United Nations Educational, Scientific, and Cultural Organization (UNESCO) Institute for Statistics.","topics":[{"id":"4","value":"Education "}]},{"id":"SE.TER.GRAD.FE.SC.ZS","name":"Female share of graduates in science (%, tertiary)","source":{"id":"12","value":"Education Statistics"},"sourceNote":"Female share of graduates in the given field of education, tertiary is the number of female graduates expressed as a percentage of the total number of graduates in the given field of education from tertiary education.","sourceOrganization":"United Nations Educational, Scientific, and Cultural Organization (UNESCO) Institute for Statistics.","topics":[{"id":"4","value":"Education "}]},{"id":"SE.TER.GRAD.FE.OT.ZS","name":"Female share of graduates in unknown or unspecified fields (%, tertiary)","source":{"id":"12","value":"Education Statistics"},"sourceNote":"Female share of graduates in the given field of education, tertiary is the number of female graduates expressed as a percentage of the total number of graduates in the given field of education from tertiary education.","sourceOrganization":"United Nations Educational, Scientific, and Cultural Organization (UNESCO) Institute for Statistics.","topics":[{"id":"4","value":"Education "}]},{"id":"SE.TER.GRAD.FE.HU.ZS","name":"Female share of graduates in humanities and arts (%, tertiary)","source":{"id":"12","value":"Education Statistics"},"sourceNote":"Female share of graduates in the given field of education, tertiary is the number of female graduates expressed as a percentage of the total number of graduates in the given field of education from tertiary education.","sourceOrganization":"United Nations Educational, Scientific, and Cultural Organization (UNESCO) Institute for Statistics.","topics":[{"id":"4","value":"Education "}]},{"id":"SE.TER.GRAD.FE.HL.ZS","name":"Female share of graduates in health and welfare (%, tertiary)","source":{"id":"12","value":"Education Statistics"},"sourceNote":"Female share of graduates in the given field of education, tertiary is the number of female graduates expressed as a percentage of the total number of graduates in the given field of education from tertiary education.","sourceOrganization":"United Nations Educational, Scientific, and Cultural Organization (UNESCO) Institute for Statistics.","topics":[{"id":"4","value":"Education "}]},{"id":"SE.TER.GRAD.FE.EN.ZS","name":"Female share of graduates in engineering, manufacturing and construction (%, tertiary)","source":{"id":"12","value":"Education Statistics"},"sourceNote":"Female share of graduates in the given field of education, tertiary is the number of female graduates expressed as a percentage of the total number of graduates in the given field of education from tertiary education.","sourceOrganization":"United Nations Educational, Scientific, and Cultural Organization (UNESCO) Institute for Statistics.","topics":[{"id":"4","value":"Education "}]},{"id":"SE.TER.GRAD.FE.ED.ZS","name":"Female share of graduates in education (%, tertiary)","source":{"id":"12","value":"Education Statistics"},"sourceNote":"Female share of graduates in the given field of education, tertiary is the number of female graduates expressed as a percentage of the total number of graduates in the given field of education from tertiary education.","sourceOrganization":"United Nations Educational, Scientific, and Cultural Organization (UNESCO) Institute for Statistics.","topics":[{"id":"4","value":"Education "}]},{"id":"SE.TER.GRAD.FE.AG.ZS","name":"Female share of graduates in agriculture (%, tertiary)","source":{"id":"12","value":"Education Statistics"},"sourceNote":"Female share of graduates in the given field of education, tertiary is the number of female graduates expressed as a percentage of the total number of graduates in the given field of education from tertiary education.","sourceOrganization":"United Nations Educational, Scientific, and Cultural Organization (UNESCO) Institute for Statistics.","topics":[{"id":"4","value":"Education "}]},{"id":"SE.TER.GRAD.FE","name":"Graduates from tertiary education, female (number)","source":{"id":"12","value":"Education Statistics"},"sourceNote":"Total number of female students successfully completing tertiary education programmes (ISCED 5 to 8) in public and private tertiary education institutions during the reference academic year.","sourceOrganization":"UNESCO Institute for Statistics","topics":[{"id":"4","value":"Education "}]},{"id":"SE.TER.GRAD.EN.ZS","name":"Percentage of graduates from tertiary education graduating from Engineering, Manufacturing and Construction programmes, both sexes (%)","source":{"id":"12","value":"Education Statistics"},"sourceNote":"Share of all tertiary graduates who completed engineering, manufacturing and construction programmes in the reference year.","sourceOrganization":"UNESCO Institute for Statistics","topics":[{"id":"4","value":"Education "}]},{"id":"SE.TER.GRAD.EN.FE.ZS","name":"Percentage of female graduates from tertiary education graduating from Engineering, Manufacturing and Construction programmes, female (%)","source":{"id":"12","value":"Education Statistics"},"sourceNote":"Share of all female tertiary graduates who completed engineering, manufacturing and construction programmes in the reference year.","sourceOrganization":"UNESCO Institute for Statistics","topics":[{"id":"4","value":"Education "}]},{"id":"SE.TER.GRAD.ED.ZS","name":"Percentage of graduates from tertiary education graduating from Education programmes, both sexes (%)","source":{"id":"12","value":"Education Statistics"},"sourceNote":"Share of all tertiary graduates who completed education programmes in the reference year.","sourceOrganization":"UNESCO Institute for Statistics","topics":[{"id":"4","value":"Education "}]},{"id":"SE.TER.GRAD.ED.FE.ZS","name":"Percentage of female graduates from tertiary education graduating from Education programmes, female (%)","source":{"id":"12","value":"Education Statistics"},"sourceNote":"Share of all female tertiary graduates who completed education programmes in the reference year.","sourceOrganization":"UNESCO Institute for Statistics","topics":[{"id":"4","value":"Education "}]},{"id":"SE.TER.GRAD.AG.ZS","name":"Percentage of graduates from tertiary education graduating from Agriculture programmes, both sexes (%)","source":{"id":"12","value":"Education Statistics"},"sourceNote":"Share of all tertiary graduates who completed agriculture programmes in the reference year.","sourceOrganization":"UNESCO Institute for Statistics","topics":[{"id":"4","value":"Education "}]},{"id":"SE.TER.GRAD.AG.FE.ZS","name":"Percentage of female graduates from tertiary education graduating from Agriculture programmes, female (%)","source":{"id":"12","value":"Education Statistics"},"sourceNote":"Share of all female tertiary graduates who completed agriculture programmes in the reference year.","sourceOrganization":"UNESCO Institute for Statistics","topics":[{"id":"4","value":"Education "}]},{"id":"SE.TER.GRAD","name":"Graduates from tertiary education, both sexes (number)","source":{"id":"12","value":"Education Statistics"},"sourceNote":"Total number of students successfully completing tertiary education programmes (ISCED 5 to 8) in public and private tertiary education institutions during the reference academic year.","sourceOrganization":"UNESCO Institute for Statistics","topics":[{"id":"4","value":"Education "}]},{"id":"SE.TER.ENRR.MA","name":"School enrollment, tertiary, male (% gross)","source":{"id":"2","value":"World Development Indicators"},"sourceNote":"Gross enrollment ratio is the ratio of total enrollment, regardless of age, to the population of the age group that officially corresponds to the level of education shown. Tertiary education, whether or not to an advanced research qualification, normally requires, as a minimum condition of admission, the successful completion of education at the secondary level.","sourceOrganization":"United Nations Educational, Scientific, and Cultural Organization (UNESCO) Institute for Statistics.","topics":[{"id":"4","value":"Education "},{"id":"17","value":"Gender"}]},{"id":"SE.TER.ENRR.FE","name":"School enrollment, tertiary, female (% gross)","source":{"id":"2","value":"World Development Indicators"},"sourceNote":"Gross enrollment ratio is the ratio of total enrollment, regardless of age, to the population of the age group that officially corresponds to the level of education shown. Tertiary education, whether or not to an advanced research qualification, normally requires, as a minimum condition of admission, the successful completion of education at the secondary level.","sourceOrganization":"United Nations Educational, Scientific, and Cultural Organization (UNESCO) Institute for Statistics.","topics":[{"id":"4","value":"Education "},{"id":"17","value":"Gender"}]},{"id":"SE.TER.ENRR","name":"Gross enrolment ratio, tertiary, both sexes (%)","source":{"id":"2","value":"World Development Indicators"},"sourceNote":"Total enrollment in tertiary education (ISCED 5 to 8), regardless of age, expressed as a percentage of the total population of the five-year age group following on from secondary school leaving.","sourceOrganization":"UNESCO Institute for Statistics","topics":[{"id":"4","value":"Education "}]},{"id":"SE.TER.ENRL.TC.ZS","name":"Pupil-teacher ratio, tertiary","source":{"id":"2","value":"World Development Indicators"},"sourceNote":"Tertiary school pupil-teacher ratio is the average number of pupils per teacher in tertiary school.","sourceOrganization":"United Nations Educational, Scientific, and Cultural Organization (UNESCO) Institute for Statistics.","topics":[{"id":"4","value":"Education "}]},{"id":"SE.TER.ENRL.FE.ZS","name":"Percentage of students in tertiary education who are female (%)","source":{"id":"12","value":"Education Statistics"},"sourceNote":"Number of female students at the tertiary education level (ISCED 5 to 8) expressed as a percentage of the total number of students (male and female) at the tertiary education level (ISCED 5 to 8) in a given school year.","sourceOrganization":"UNESCO Institute for Statistics","topics":[{"id":"4","value":"Education "}]},{"id":"SE.TER.ENRL.FE","name":"Enrolment in tertiary education, all programmes, female (number)","source":{"id":"12","value":"Education Statistics"},"sourceNote":"The total number of female students enrolled at public and private tertiary education institutions.","sourceOrganization":"UNESCO Institute for Statistics","topics":[{"id":"4","value":"Education "}]},{"id":"SE.TER.ENRL","name":"Enrolment in tertiary education, all programmes, both sexes (number)","source":{"id":"12","value":"Education Statistics"},"sourceNote":"The total number of students enrolled at public and private tertiary education institutions.","sourceOrganization":"UNESCO Institute for Statistics","topics":[{"id":"4","value":"Education "}]},{"id":"SE.TER.CUAT.ST.ZS","name":"Educational attainment, at least completed short-cycle tertiary, population 25+, total (%) (cumulative)","source":{"id":"2","value":"World Development Indicators"},"sourceNote":"The percentage of population ages 25 and over that attained or completed short-cycle tertiary education.","sourceOrganization":"United Nations Educational, Scientific, and Cultural Organization (UNESCO) Institute for Statistics.","topics":[{"id":"4","value":"Education "},{"id":"17","value":"Gender"}]},{"id":"SE.TER.CUAT.ST.MA.ZS","name":"Educational attainment, at least completed short-cycle tertiary, population 25+, male (%) (cumulative)","source":{"id":"2","value":"World Development Indicators"},"sourceNote":"The percentage of population ages 25 and over that attained or completed short-cycle tertiary education.","sourceOrganization":"United Nations Educational, Scientific, and Cultural Organization (UNESCO) Institute for Statistics.","topics":[{"id":"4","value":"Education "},{"id":"17","value":"Gender"}]},{"id":"SE.TER.CUAT.ST.FE.ZS","name":"Educational attainment, at least completed short-cycle tertiary, population 25+, female (%) (cumulative)","source":{"id":"2","value":"World Development Indicators"},"sourceNote":"The percentage of population ages 25 and over that attained or completed short-cycle tertiary education.","sourceOrganization":"United Nations Educational, Scientific, and Cultural Organization (UNESCO) Institute for Statistics.","topics":[{"id":"4","value":"Education "},{"id":"17","value":"Gender"}]},{"id":"SE.TER.CUAT.MS.ZS","name":"Educational attainment, at least Master's or equivalent, population 25+, total (%) (cumulative)","source":{"id":"2","value":"World Development Indicators"},"sourceNote":"The percentage of population ages 25 and over that attained or completed Master's or equivalent.","sourceOrganization":"United Nations Educational, Scientific, and Cultural Organization (UNESCO) Institute for Statistics.","topics":[{"id":"4","value":"Education "},{"id":"17","value":"Gender"}]},{"id":"SE.TER.CUAT.MS.MA.ZS","name":"Educational attainment, at least Master's or equivalent, population 25+, male (%) (cumulative)","source":{"id":"2","value":"World Development Indicators"},"sourceNote":"The percentage of population ages 25 and over that attained or completed Master's or equivalent.","sourceOrganization":"United Nations Educational, Scientific, and Cultural Organization (UNESCO) Institute for Statistics.","topics":[{"id":"4","value":"Education "},{"id":"17","value":"Gender"}]},{"id":"SE.TER.CUAT.MS.FE.ZS","name":"Educational attainment, at least Master's or equivalent, population 25+, female (%) (cumulative)","source":{"id":"2","value":"World Development Indicators"},"sourceNote":"The percentage of population ages 25 and over that attained or completed Master's or equivalent.","sourceOrganization":"United Nations Educational, Scientific, and Cultural Organization (UNESCO) Institute for Statistics.","topics":[{"id":"4","value":"Education "},{"id":"17","value":"Gender"}]},{"id":"SE.TER.CUAT.DO.ZS","name":"Educational attainment, Doctoral or equivalent, population 25+, total (%) (cumulative)","source":{"id":"2","value":"World Development Indicators"},"sourceNote":"The percentage of population ages 25 and over that attained or completed Doctoral or equivalent.","sourceOrganization":"United Nations Educational, Scientific, and Cultural Organization (UNESCO) Institute for Statistics.","topics":[{"id":"4","value":"Education "},{"id":"17","value":"Gender"}]}]]