[{"page":247,"pages":324,"per_page":"50","total":16174},[{"id":"SABER.WORK.GOAL2.LVL2","name":"SABER: (Workforce Development) Policy Goal 2 Lever 2: Assuring Relevant and Reliable Standards","source":{"id":"12","value":"Education Statistics"},"sourceNote":"Data Read: 1=Latent; 2=Emerging; 3Established; 4=Advanced","sourceOrganization":"The Systems Approach for Better Education Results (SABER), World Bank","topics":[]},{"id":"SABER.WORK.GOAL2.LVL1","name":"SABER: (Workforce Development) Policy Goal 2 Lever 1: Ensuring Efficiency and Equity in Funding","source":{"id":"12","value":"Education Statistics"},"sourceNote":"Data Read: 1=Latent; 2=Emerging; 3Established; 4=Advanced","sourceOrganization":"The Systems Approach for Better Education Results (SABER), World Bank","topics":[]},{"id":"SABER.WORK.GOAL2","name":"SABER: (Workforce Development) Policy Goal 2: System Oversight","source":{"id":"12","value":"Education Statistics"},"sourceNote":"Data Read: 1=Latent; 2=Emerging; 3Established; 4=Advanced","sourceOrganization":"The Systems Approach for Better Education Results (SABER), World Bank","topics":[]},{"id":"SABER.WORK.GOAL1.LVL3","name":"SABER: (Workforce Development) Policy Goal 1 Lever 3: Strengthening Critical Coordination","source":{"id":"12","value":"Education Statistics"},"sourceNote":"Data Read: 1=Latent; 2=Emerging; 3Established; 4=Advanced","sourceOrganization":"The Systems Approach for Better Education Results (SABER), World Bank","topics":[]},{"id":"SABER.WORK.GOAL1.LVL2","name":"SABER: (Workforce Development) Policy Goal 1 Lever 2: Fostering a Demand-Driven Approach","source":{"id":"12","value":"Education Statistics"},"sourceNote":"Data Read: 1=Latent; 2=Emerging; 3Established; 4=Advanced","sourceOrganization":"The Systems Approach for Better Education Results (SABER), World Bank","topics":[]},{"id":"SABER.WORK.GOAL1.LVL1","name":"SABER: (Workforce Development) Policy Goal 1 Lever 1: Setting a Strategic Direction","source":{"id":"12","value":"Education Statistics"},"sourceNote":"Data Read: 1=Latent; 2=Emerging; 3Established; 4=Advanced","sourceOrganization":"The Systems Approach for Better Education Results (SABER), World Bank","topics":[]},{"id":"SABER.WORK.GOAL1","name":"SABER: (Workforce Development) Policy Goal 1: Strategic Framework","source":{"id":"12","value":"Education Statistics"},"sourceNote":"Data Read: 1=Latent; 2=Emerging; 3Established; 4=Advanced","sourceOrganization":"The Systems Approach for Better Education Results (SABER), World Bank","topics":[]},{"id":"SABER.TECH.GOAL8.LVL3","name":"SABER: (Teachers) Policy Goal 8 Lever 3: Is teacher compensation linked to performance?","source":{"id":"12","value":"Education Statistics"},"sourceNote":"Data Read: 1=Latent; 2=Emerging; 3Established; 4=Advanced","sourceOrganization":"The Systems Approach for Better Education Results (SABER), World Bank","topics":[]},{"id":"SABER.TECH.GOAL8.LVL2","name":"SABER: (Teachers) Policy Goal 8 Lever 2: Are there mechanisms to hold teachers accountable?","source":{"id":"12","value":"Education Statistics"},"sourceNote":"Data Read: 1=Latent; 2=Emerging; 3Established; 4=Advanced","sourceOrganization":"The Systems Approach for Better Education Results (SABER), World Bank","topics":[]},{"id":"SABER.TECH.GOAL8.LVL1","name":"SABER: (Teachers) Policy Goal 8 Lever 1: Are career opportunities linked to performance?","source":{"id":"12","value":"Education Statistics"},"sourceNote":"Data Read: 1=Latent; 2=Emerging; 3Established; 4=Advanced","sourceOrganization":"The Systems Approach for Better Education Results (SABER), World Bank","topics":[]},{"id":"SABER.TECH.GOAL8","name":"SABER: (Teachers) Policy Goal 8: Motivating teachers to perform","source":{"id":"12","value":"Education Statistics"},"sourceNote":"Data Read: 1=Latent; 2=Emerging; 3Established; 4=Advanced","sourceOrganization":"The Systems Approach for Better Education Results (SABER), World Bank","topics":[]},{"id":"SABER.TECH.GOAL7.LVL3","name":"SABER: (Teachers) Policy Goal 7 Lever 3: Is teacher professional development assigned based on perceived needs?","source":{"id":"12","value":"Education Statistics"},"sourceNote":"Data Read: 1=Latent; 2=Emerging; 3Established; 4=Advanced","sourceOrganization":"The Systems Approach for Better Education Results (SABER), World Bank","topics":[]},{"id":"SABER.TECH.GOAL7.LVL2","name":"SABER: (Teachers) Policy Goal 7 Lever 2: Is teacher professional development collaborative and focused on instructional improvement?","source":{"id":"12","value":"Education Statistics"},"sourceNote":"Data Read: 1=Latent; 2=Emerging; 3Established; 4=Advanced","sourceOrganization":"The Systems Approach for Better Education Results (SABER), World Bank","topics":[]},{"id":"SABER.TECH.GOAL7.LVL1","name":"SABER: (Teachers) Policy Goal 7 Lever 1: Are there opportunities for professional development?","source":{"id":"12","value":"Education Statistics"},"sourceNote":"Data Read: 1=Latent; 2=Emerging; 3Established; 4=Advanced","sourceOrganization":"The Systems Approach for Better Education Results (SABER), World Bank","topics":[]},{"id":"SABER.TECH.GOAL7","name":"SABER: (Teachers) Policy Goal 7: Supporting teachers to improve instruction","source":{"id":"12","value":"Education Statistics"},"sourceNote":"Data Read: 1=Latent; 2=Emerging; 3Established; 4=Advanced","sourceOrganization":"The Systems Approach for Better Education Results (SABER), World Bank","topics":[]},{"id":"SABER.TECH.GOAL6.LVL3","name":"SABER: (Teachers) Policy Goal 6 Lever 3: Are there multiple mechanisms to evaluate teacher performance?","source":{"id":"12","value":"Education Statistics"},"sourceNote":"Data Read: 1=Latent; 2=Emerging; 3Established; 4=Advanced","sourceOrganization":"The Systems Approach for Better Education Results (SABER), World Bank","topics":[]},{"id":"SABER.TECH.GOAL6.LVL2","name":"SABER: (Teachers) Policy Goal 6 Lever 2: Are there systems in place to monitor teacher performance?","source":{"id":"12","value":"Education Statistics"},"sourceNote":"Data Read: 1=Latent; 2=Emerging; 3Established; 4=Advanced","sourceOrganization":"The Systems Approach for Better Education Results (SABER), World Bank","topics":[]},{"id":"SABER.TECH.GOAL6.LVL1","name":"SABER: (Teachers) Policy Goal 6 Lever 1: Are there systems in place to assess student learning in order to inform teaching and policy?","source":{"id":"12","value":"Education Statistics"},"sourceNote":"Data Read: 1=Latent; 2=Emerging; 3Established; 4=Advanced","sourceOrganization":"The Systems Approach for Better Education Results (SABER), World Bank","topics":[]},{"id":"SABER.TECH.GOAL6","name":"SABER: (Teachers) Policy Goal 6: Monitoring teaching and learning","source":{"id":"12","value":"Education Statistics"},"sourceNote":"Data Read: 1=Latent; 2=Emerging; 3Established; 4=Advanced","sourceOrganization":"The Systems Approach for Better Education Results (SABER), World Bank","topics":[]},{"id":"SABER.TECH.GOAL5.LVL2","name":"SABER: (Teachers) Policy Goal 5 Lever 2: Are principals expected to support and improve instructional practice?","source":{"id":"12","value":"Education Statistics"},"sourceNote":"Data Read: 1=Latent; 2=Emerging; 3Established; 4=Advanced","sourceOrganization":"The Systems Approach for Better Education Results (SABER), World Bank","topics":[]},{"id":"SABER.TECH.GOAL5.LVL1","name":"SABER: (Teachers) Policy Goal 5 Lever 1: Does the education system invest in developing qualified school leaders?","source":{"id":"12","value":"Education Statistics"},"sourceNote":"Data Read: 1=Latent; 2=Emerging; 3Established; 4=Advanced","sourceOrganization":"The Systems Approach for Better Education Results (SABER), World Bank","topics":[]},{"id":"SABER.TECH.GOAL5","name":"SABER: (Teachers) Policy Goal 5: Leading teachers with strong principals","source":{"id":"12","value":"Education Statistics"},"sourceNote":"Data Read: 1=Latent; 2=Emerging; 3Established; 4=Advanced","sourceOrganization":"The Systems Approach for Better Education Results (SABER), World Bank","topics":[]},{"id":"SABER.TECH.GOAL4.LVL2","name":"SABER: (Teachers) Policy Goal 4 Lever 2: Are there incentives for teachers to teach critical shortage subjects?","source":{"id":"12","value":"Education Statistics"},"sourceNote":"Data Read: 1=Latent; 2=Emerging; 3Established; 4=Advanced","sourceOrganization":"The Systems Approach for Better Education Results (SABER), World Bank","topics":[]},{"id":"SABER.TECH.GOAL4.LVL1","name":"SABER: (Teachers) Policy Goal 4 Lever 1: Are there incentives for teachers to work at hard-to-staff schools?","source":{"id":"12","value":"Education Statistics"},"sourceNote":"Data Read: 1=Latent; 2=Emerging; 3Established; 4=Advanced","sourceOrganization":"The Systems Approach for Better Education Results (SABER), World Bank","topics":[]},{"id":"SABER.TECH.GOAL4","name":"SABER: (Teachers) Policy Goal 4: Matching teachers' skills with students' needs","source":{"id":"12","value":"Education Statistics"},"sourceNote":"Data Read: 1=Latent; 2=Emerging; 3Established; 4=Advanced","sourceOrganization":"The Systems Approach for Better Education Results (SABER), World Bank","topics":[]},{"id":"SABER.TECH.GOAL3.LVL2","name":"SABER: (Teachers) Policy Goal 3 Lever 2: To what extent are teacher-entrants required to be familiar with classroom practice?","source":{"id":"12","value":"Education Statistics"},"sourceNote":"Data Read: 1=Latent; 2=Emerging; 3Established; 4=Advanced","sourceOrganization":"The Systems Approach for Better Education Results (SABER), World Bank","topics":[]},{"id":"SABER.TECH.GOAL3.LVL1","name":"SABER: (Teachers) Policy Goal 3 Lever 1: Are there minimum standards for pre-service teaching education programs?","source":{"id":"12","value":"Education Statistics"},"sourceNote":"Data Read: 1=Latent; 2=Emerging; 3Established; 4=Advanced","sourceOrganization":"The Systems Approach for Better Education Results (SABER), World Bank","topics":[]},{"id":"SABER.TECH.GOAL3","name":"SABER: (Teachers) Policy Goal 3: Preparing teachers with useful Training and experience","source":{"id":"12","value":"Education Statistics"},"sourceNote":"Data Read: 1=Latent; 2=Emerging; 3Established; 4=Advanced","sourceOrganization":"The Systems Approach for Better Education Results (SABER), World Bank","topics":[]},{"id":"SABER.TECH.GOAL2.LVL4","name":"SABER: (Teachers) Policy Goal 2 Lever 4: Are there attractive career opportunities?","source":{"id":"12","value":"Education Statistics"},"sourceNote":"Data Read: 1=Latent; 2=Emerging; 3Established; 4=Advanced","sourceOrganization":"The Systems Approach for Better Education Results (SABER), World Bank","topics":[]},{"id":"SABER.TECH.GOAL2.LVL3","name":"SABER: (Teachers) Policy Goal 2 Lever 3: Are working conditions appealing for talented applicants?","source":{"id":"12","value":"Education Statistics"},"sourceNote":"Data Read: 1=Latent; 2=Emerging; 3Established; 4=Advanced","sourceOrganization":"The Systems Approach for Better Education Results (SABER), World Bank","topics":[]},{"id":"SABER.TECH.GOAL2.LVL2","name":"SABER: (Teachers) Policy Goal 2 Lever 2: Is teacher pay appealing for talented candidates?","source":{"id":"12","value":"Education Statistics"},"sourceNote":"Data Read: 1=Latent; 2=Emerging; 3Established; 4=Advanced","sourceOrganization":"The Systems Approach for Better Education Results (SABER), World Bank","topics":[]},{"id":"SABER.TECH.GOAL2.LVL1","name":"SABER: (Teachers) Policy Goal 2 Lever 1: Are entry requirements set up to attract talented candidates?","source":{"id":"12","value":"Education Statistics"},"sourceNote":"Data Read: 1=Latent; 2=Emerging; 3Established; 4=Advanced","sourceOrganization":"The Systems Approach for Better Education Results (SABER), World Bank","topics":[]},{"id":"SABER.TECH.GOAL2","name":"SABER: (Teachers) Policy Goal 2: Attracting the best into teaching","source":{"id":"12","value":"Education Statistics"},"sourceNote":"Data Read: 1=Latent; 2=Emerging; 3Established; 4=Advanced","sourceOrganization":"The Systems Approach for Better Education Results (SABER), World Bank","topics":[]},{"id":"SABER.TECH.GOAL1.LVL2","name":"SABER: (Teachers) Policy Goal 1 Lever 2: Is there useful guidance on the use of teachers' working time?","source":{"id":"12","value":"Education Statistics"},"sourceNote":"Data Read: 1=Latent; 2=Emerging; 3Established; 4=Advanced","sourceOrganization":"The Systems Approach for Better Education Results (SABER), World Bank","topics":[]},{"id":"SABER.TECH.GOAL1.LVL1","name":"SABER: (Teachers) Policy Goal 1 Lever 1: Are there clear expectations for teachers?","source":{"id":"12","value":"Education Statistics"},"sourceNote":"Data Read: 1=Latent; 2=Emerging; 3Established; 4=Advanced","sourceOrganization":"The Systems Approach for Better Education Results (SABER), World Bank","topics":[]},{"id":"SABER.TECH.GOAL1","name":"SABER: (Teachers) Policy Goal 1: Setting clear expectations for teachers","source":{"id":"12","value":"Education Statistics"},"sourceNote":"Data Read: 1=Latent; 2=Emerging; 3Established; 4=Advanced","sourceOrganization":"The Systems Approach for Better Education Results (SABER), World Bank","topics":[]},{"id":"SABER.STD.ASS.GOAL4.LVL3","name":"SABER: (Student Assessment) Policy Goal 4 Lever 3: Assessment Quality","source":{"id":"12","value":"Education Statistics"},"sourceNote":"Data Read: 1=Latent; 2=Emerging; 3Established; 4=Advanced","sourceOrganization":"The Systems Approach for Better Education Results (SABER), World Bank","topics":[]},{"id":"SABER.STD.ASS.GOAL4.LVL2","name":"SABER: (Student Assessment) Policy Goal 4 Lever 2: System Alignment","source":{"id":"12","value":"Education Statistics"},"sourceNote":"Data Read: 1=Latent; 2=Emerging; 3Established; 4=Advanced","sourceOrganization":"The Systems Approach for Better Education Results (SABER), World Bank","topics":[]},{"id":"SABER.STD.ASS.GOAL4.LVL1","name":"SABER: (Student Assessment) Policy Goal 4 Lever 1: Enabling Context","source":{"id":"12","value":"Education Statistics"},"sourceNote":"Data Read: 1=Latent; 2=Emerging; 3Established; 4=Advanced","sourceOrganization":"The Systems Approach for Better Education Results (SABER), World Bank","topics":[]},{"id":"SABER.STD.ASS.GOAL4","name":"SABER: (Student Assessment) Policy Goal 4: International Large-Scale Assessment (ILSA)","source":{"id":"12","value":"Education Statistics"},"sourceNote":"Data Read: 1=Latent; 2=Emerging; 3Established; 4=Advanced","sourceOrganization":"The Systems Approach for Better Education Results (SABER), World Bank","topics":[]},{"id":"SABER.STD.ASS.GOAL3.LVL3","name":"SABER: (Student Assessment) Policy Goal 3 Lever 3: Assessment Quality","source":{"id":"12","value":"Education Statistics"},"sourceNote":"Data Read: 1=Latent; 2=Emerging; 3Established; 4=Advanced","sourceOrganization":"The Systems Approach for Better Education Results (SABER), World Bank","topics":[]},{"id":"SABER.STD.ASS.GOAL3.LVL2","name":"SABER: (Student Assessment) Policy Goal 3 Lever 2: System Alignment","source":{"id":"12","value":"Education Statistics"},"sourceNote":"Data Read: 1=Latent; 2=Emerging; 3Established; 4=Advanced","sourceOrganization":"The Systems Approach for Better Education Results (SABER), World Bank","topics":[]},{"id":"SABER.STD.ASS.GOAL3.LVL1","name":"SABER: (Student Assessment) Policy Goal 3 Lever 1: Enabling Context","source":{"id":"12","value":"Education Statistics"},"sourceNote":"Data Read: 1=Latent; 2=Emerging; 3Established; 4=Advanced","sourceOrganization":"The Systems Approach for Better Education Results (SABER), World Bank","topics":[]},{"id":"SABER.STD.ASS.GOAL3","name":"SABER: (Student Assessment) Policy Goal 3: National Large-Scale Assessment (NLSA)","source":{"id":"12","value":"Education Statistics"},"sourceNote":"Data Read: 1=Latent; 2=Emerging; 3Established; 4=Advanced","sourceOrganization":"The Systems Approach for Better Education Results (SABER), World Bank","topics":[]},{"id":"SABER.STD.ASS.GOAL2.LVL3","name":"SABER: (Student Assessment) Policy Goal 2 Lever 3: Assessment Quality","source":{"id":"12","value":"Education Statistics"},"sourceNote":"Data Read: 1=Latent; 2=Emerging; 3Established; 4=Advanced","sourceOrganization":"The Systems Approach for Better Education Results (SABER), World Bank","topics":[]},{"id":"SABER.STD.ASS.GOAL2.LVL2","name":"SABER: (Student Assessment) Policy Goal 2 Lever 2: System Alignment","source":{"id":"12","value":"Education Statistics"},"sourceNote":"Data Read: 1=Latent; 2=Emerging; 3Established; 4=Advanced","sourceOrganization":"The Systems Approach for Better Education Results (SABER), World Bank","topics":[]},{"id":"SABER.STD.ASS.GOAL2.LVL1","name":"SABER: (Student Assessment) Policy Goal 2 Lever 1: Enabling Context","source":{"id":"12","value":"Education Statistics"},"sourceNote":"Data Read: 1=Latent; 2=Emerging; 3Established; 4=Advanced","sourceOrganization":"The Systems Approach for Better Education Results (SABER), World Bank","topics":[]},{"id":"SABER.STD.ASS.GOAL2","name":"SABER: (Student Assessment) Policy Goal 2: Examinations","source":{"id":"12","value":"Education Statistics"},"sourceNote":"Data Read: 1=Latent; 2=Emerging; 3Established; 4=Advanced","sourceOrganization":"The Systems Approach for Better Education Results (SABER), World Bank","topics":[]},{"id":"SABER.STD.ASS.GOAL1.LVL2","name":"SABER: (Student Assessment) Policy Goal 1 Lever 2: Assessment Quality","source":{"id":"12","value":"Education Statistics"},"sourceNote":"Data Read: 1=Latent; 2=Emerging; 3Established; 4=Advanced","sourceOrganization":"The Systems Approach for Better Education Results (SABER), World Bank","topics":[]},{"id":"SABER.STD.ASS.GOAL1.LVL1","name":"SABER: (Student Assessment) Policy Goal 1 Lever 1: Enabling Context and System Alignment","source":{"id":"12","value":"Education Statistics"},"sourceNote":"Data Read: 1=Latent; 2=Emerging; 3Established; 4=Advanced","sourceOrganization":"The Systems Approach for Better Education Results (SABER), World Bank","topics":[{}]}]]