[{"page":276,"pages":324,"per_page":"50","total":16174},[{"id":"SP.POP.1317.MA.UN","name":"Population, ages 13-17, male","source":{"id":"12","value":"Education Statistics"},"sourceNote":"Population, ages 13-17, male is the total number of males age 13-17.","sourceOrganization":"UNESCO Institute for Statistics (Derived)","topics":[{"id":"4","value":"Education "}]},{"id":"SP.POP.1317.FE.UN","name":"Population, ages 13-17, female","source":{"id":"12","value":"Education Statistics"},"sourceNote":"Population, ages 13-17, female is the total number of females age 13-17.","sourceOrganization":"UNESCO Institute for Statistics (Derived)","topics":[{"id":"4","value":"Education "}]},{"id":"SP.POP.1316.TO.UN","name":"Population, ages 13-16, total","source":{"id":"12","value":"Education Statistics"},"sourceNote":"Population, ages 13-16, total is the total population age 13-16.","sourceOrganization":"UNESCO Institute for Statistics (Derived)","topics":[{"id":"4","value":"Education "}]},{"id":"SP.POP.1316.MA.UN","name":"Population, ages 13-16, male","source":{"id":"12","value":"Education Statistics"},"sourceNote":"Population, ages 13-16, male is the total number of males age 13-16.","sourceOrganization":"UNESCO Institute for Statistics (Derived)","topics":[{"id":"4","value":"Education "}]},{"id":"SP.POP.1316.FE.UN","name":"Population, ages 13-16, female","source":{"id":"12","value":"Education Statistics"},"sourceNote":"Population, ages 13-16, female is the total number of females age 13-16.","sourceOrganization":"UNESCO Institute for Statistics (Derived)","topics":[{"id":"4","value":"Education "}]},{"id":"SP.POP.1218.TO.UN","name":"Population, ages 12-18, total","source":{"id":"12","value":"Education Statistics"},"sourceNote":"Population, ages 12-18, total is the total population age 12-18.","sourceOrganization":"UNESCO Institute for Statistics (Derived)","topics":[{"id":"4","value":"Education "}]},{"id":"SP.POP.1218.MA.UN","name":"Population, ages 12-18, male","source":{"id":"12","value":"Education Statistics"},"sourceNote":"Population, ages 12-18, male is the total number of males age 12-18.","sourceOrganization":"UNESCO Institute for Statistics (Derived)","topics":[{"id":"4","value":"Education "}]},{"id":"SP.POP.1218.FE.UN","name":"Population, ages 12-18, female","source":{"id":"12","value":"Education Statistics"},"sourceNote":"Population, ages 12-18, female is the total number of females age 12-18.","sourceOrganization":"UNESCO Institute for Statistics (Derived)","topics":[{"id":"4","value":"Education "}]},{"id":"SP.POP.1217.TO.UN","name":"Population, ages 12-17, total","source":{"id":"12","value":"Education Statistics"},"sourceNote":"Population, ages 12-17, total is the total population age 12-17.","sourceOrganization":"UNESCO Institute for Statistics (Derived)","topics":[{"id":"4","value":"Education "}]},{"id":"SP.POP.1217.MA.UN","name":"Population, ages 12-17, male","source":{"id":"12","value":"Education Statistics"},"sourceNote":"Population, ages 12-17, male is the total number of males age 12-17.","sourceOrganization":"UNESCO Institute for Statistics (Derived)","topics":[{"id":"4","value":"Education "}]},{"id":"SP.POP.1217.FE.UN","name":"Population, ages 12-17, female","source":{"id":"12","value":"Education Statistics"},"sourceNote":"Population, ages 12-17, female is the total number of females age 12-17.","sourceOrganization":"UNESCO Institute for Statistics (Derived)","topics":[{"id":"4","value":"Education "}]},{"id":"SP.POP.1216.TO.UN","name":"Population, ages 12-16, total","source":{"id":"12","value":"Education Statistics"},"sourceNote":"Population, ages 12-16, total is the total population age 12-16.","sourceOrganization":"UNESCO Institute for Statistics (Derived)","topics":[{"id":"4","value":"Education "}]},{"id":"SP.POP.1216.MA.UN","name":"Population, ages 12-16, male","source":{"id":"12","value":"Education Statistics"},"sourceNote":"Population, ages 12-16, male is the total number of males age 12-16.","sourceOrganization":"UNESCO Institute for Statistics (Derived)","topics":[{"id":"4","value":"Education "}]},{"id":"SP.POP.1216.FE.UN","name":"Population, ages 12-16, female","source":{"id":"12","value":"Education Statistics"},"sourceNote":"Population, ages 12-16, female is the total number of females age 12-16.","sourceOrganization":"UNESCO Institute for Statistics (Derived)","topics":[{"id":"4","value":"Education "}]},{"id":"SP.POP.1215.TO.UN","name":"Population, ages 12-15, total","source":{"id":"12","value":"Education Statistics"},"sourceNote":"Population, ages 12-15, total is the total population age 12-15.","sourceOrganization":"UNESCO Institute for Statistics (Derived)","topics":[{"id":"4","value":"Education "}]},{"id":"SP.POP.1215.MA.UN","name":"Population, ages 12-15, male","source":{"id":"12","value":"Education Statistics"},"sourceNote":"Population, ages 12-15, male is the total number of males age 12-15.","sourceOrganization":"UNESCO Institute for Statistics (Derived)","topics":[{"id":"4","value":"Education "}]},{"id":"SP.POP.1215.FE.UN","name":"Population, ages 12-15, female","source":{"id":"12","value":"Education Statistics"},"sourceNote":"Population, ages 12-15, female is the total number of females age 12-15.","sourceOrganization":"UNESCO Institute for Statistics (Derived)","topics":[{"id":"4","value":"Education "}]},{"id":"SP.POP.1118.TO.UN","name":"Population, ages 11-18, total","source":{"id":"12","value":"Education Statistics"},"sourceNote":"Population, ages 11-18, total is the total population age 11-18.","sourceOrganization":"UNESCO Institute for Statistics (Derived)","topics":[{"id":"4","value":"Education "}]},{"id":"SP.POP.1118.MA.UN","name":"Population, ages 11-18, male","source":{"id":"12","value":"Education Statistics"},"sourceNote":"Population, ages 11-18, male is the total number of males age 11-18.","sourceOrganization":"UNESCO Institute for Statistics (Derived)","topics":[{"id":"4","value":"Education "}]},{"id":"SP.POP.1118.FE.UN","name":"Population, ages 11-18, female","source":{"id":"12","value":"Education Statistics"},"sourceNote":"Population, ages 11-18, female is the total number of females age 11-18.","sourceOrganization":"UNESCO Institute for Statistics (Derived)","topics":[{"id":"4","value":"Education "}]},{"id":"SP.POP.1117.TO.UN","name":"Population, ages 11-17, total","source":{"id":"12","value":"Education Statistics"},"sourceNote":"Population, ages 11-17, total is the total population age 11-17.","sourceOrganization":"UNESCO Institute for Statistics (Derived)","topics":[{"id":"4","value":"Education "}]},{"id":"SP.POP.1117.MA.UN","name":"Population, ages 11-17, male","source":{"id":"12","value":"Education Statistics"},"sourceNote":"Population, ages 11-17, male is the total number of males age 11-17.","sourceOrganization":"UNESCO Institute for Statistics (Derived)","topics":[{"id":"4","value":"Education "}]},{"id":"SP.POP.1117.FE.UN","name":"Population, ages 11-17, female","source":{"id":"12","value":"Education Statistics"},"sourceNote":"Population, ages 11-17, female is the total number of females age 11-17.","sourceOrganization":"UNESCO Institute for Statistics (Derived)","topics":[{"id":"4","value":"Education "}]},{"id":"SP.POP.1116.TO.UN","name":"Population, ages 11-16, total","source":{"id":"12","value":"Education Statistics"},"sourceNote":"Population, ages 11-16, total is the total population age 11-16.","sourceOrganization":"UNESCO Institute for Statistics (Derived)","topics":[{"id":"4","value":"Education "}]},{"id":"SP.POP.1116.MA.UN","name":"Population, ages 11-16, male","source":{"id":"12","value":"Education Statistics"},"sourceNote":"Population, ages 11-16, male is the total number of males age 11-16.","sourceOrganization":"UNESCO Institute for Statistics (Derived)","topics":[{"id":"4","value":"Education "}]},{"id":"SP.POP.1116.FE.UN","name":"Population, ages 11-16, female","source":{"id":"12","value":"Education Statistics"},"sourceNote":"Population, ages 11-16, female is the total number of females age 11-16.","sourceOrganization":"UNESCO Institute for Statistics (Derived)","topics":[{"id":"4","value":"Education "}]},{"id":"SP.POP.1115.TO.UN","name":"Population, ages 11-15, total","source":{"id":"12","value":"Education Statistics"},"sourceNote":"Population, ages 11-15, total is the total population age 11-15.","sourceOrganization":"UNESCO Institute for Statistics (Derived)","topics":[{"id":"4","value":"Education "}]},{"id":"SP.POP.1115.MA.UN","name":"Population, ages 11-15, male","source":{"id":"12","value":"Education Statistics"},"sourceNote":"Population, ages 11-15, male is the total number of males age 11-15.","sourceOrganization":"UNESCO Institute for Statistics (Derived)","topics":[{"id":"4","value":"Education "}]},{"id":"SP.POP.1115.FE.UN","name":"Population, ages 11-15, female","source":{"id":"12","value":"Education Statistics"},"sourceNote":"Population, ages 11-15, female is the total number of females age 11-15.","sourceOrganization":"UNESCO Institute for Statistics (Derived)","topics":[{"id":"4","value":"Education "}]},{"id":"SP.POP.1018.TO.UN","name":"Population, ages 10-18, total","source":{"id":"12","value":"Education Statistics"},"sourceNote":"Population, ages 10-18, total is the total population age 10-18.","sourceOrganization":"UNESCO Institute for Statistics (Derived)","topics":[{"id":"4","value":"Education "}]},{"id":"SP.POP.1018.MA.UN","name":"Population, ages 10-18, male","source":{"id":"12","value":"Education Statistics"},"sourceNote":"Population, ages 10-18, male is the total number of males age 10-18.","sourceOrganization":"UNESCO Institute for Statistics (Derived)","topics":[{"id":"4","value":"Education "}]},{"id":"SP.POP.1018.FE.UN","name":"Population, ages 10-18, female","source":{"id":"12","value":"Education Statistics"},"sourceNote":"Population, ages 10-18, female is the total number of females age 10-18.","sourceOrganization":"UNESCO Institute for Statistics (Derived)","topics":[{"id":"4","value":"Education "}]},{"id":"SP.POP.1017.TO.UN","name":"Population, ages 10-17, total","source":{"id":"12","value":"Education Statistics"},"sourceNote":"Population, ages 10-17, total is the total population age 10-17.","sourceOrganization":"UNESCO Institute for Statistics (Derived)","topics":[{"id":"4","value":"Education "}]},{"id":"SP.POP.1017.MA.UN","name":"Population, ages 10-17, male","source":{"id":"12","value":"Education Statistics"},"sourceNote":"Population, ages 10-17, male is the total number of males age 10-17.","sourceOrganization":"UNESCO Institute for Statistics (Derived)","topics":[{"id":"4","value":"Education "}]},{"id":"SP.POP.1017.FE.UN","name":"Population, ages 10-17, female","source":{"id":"12","value":"Education Statistics"},"sourceNote":"Population, ages 10-17, female is the total number of females age 10-17.","sourceOrganization":"UNESCO Institute for Statistics (Derived)","topics":[{"id":"4","value":"Education "}]},{"id":"SP.POP.1016.TO.UN","name":"Population, ages 10-16, total","source":{"id":"12","value":"Education Statistics"},"sourceNote":"Population, ages 10-16, total is the total population age 10-16.","sourceOrganization":"UNESCO Institute for Statistics (Derived)","topics":[{"id":"4","value":"Education "}]},{"id":"SP.POP.1016.MA.UN","name":"Population, ages 10-16, male","source":{"id":"12","value":"Education Statistics"},"sourceNote":"Population, ages 10-16, male is the total number of males age 10-16.","sourceOrganization":"UNESCO Institute for Statistics (Derived)","topics":[{"id":"4","value":"Education "}]},{"id":"SP.POP.1016.FE.UN","name":"Population, ages 10-16, female","source":{"id":"12","value":"Education Statistics"},"sourceNote":"Population, ages 10-16, female is the total number of females age 10-16.","sourceOrganization":"UNESCO Institute for Statistics (Derived)","topics":[{"id":"4","value":"Education "}]},{"id":"SP.POP.1015.TO.UN","name":"Population, ages 10-15, total","source":{"id":"12","value":"Education Statistics"},"sourceNote":"Population, ages 10-15, total is the total population age 10-15.","sourceOrganization":"UNESCO Institute for Statistics (Derived)","topics":[{"id":"4","value":"Education "}]},{"id":"SP.POP.1015.MA.UN","name":"Population, ages 10-15, male","source":{"id":"12","value":"Education Statistics"},"sourceNote":"Population, ages 10-15, male is the total number of males age 10-15.","sourceOrganization":"UNESCO Institute for Statistics (Derived)","topics":[{"id":"4","value":"Education "}]},{"id":"SP.POP.1015.FE.UN","name":"Population, ages 10-15, female","source":{"id":"12","value":"Education Statistics"},"sourceNote":"Population, ages 10-15, female is the total number of females age 10-15.","sourceOrganization":"UNESCO Institute for Statistics (Derived)","topics":[{"id":"4","value":"Education "}]},{"id":"SP.POP.1014.TO.UN","name":"Population, ages 10-14, total","source":{"id":"12","value":"Education Statistics"},"sourceNote":"Population, ages 10-14, total is the total population age 10-14.","sourceOrganization":"UNESCO Institute for Statistics (Derived)","topics":[{"id":"4","value":"Education "}]},{"id":"SP.POP.1014.MA.UN","name":"Population, ages 10-14, male","source":{"id":"12","value":"Education Statistics"},"sourceNote":"Population, ages 10-14, male is the total number of males age 10-14.","sourceOrganization":"UNESCO Institute for Statistics (Derived)","topics":[{"id":"4","value":"Education "}]},{"id":"SP.POP.1014.MA.5Y","name":"Population ages 10-14, male (% of male population)","source":{"id":"2","value":"World Development Indicators"},"sourceNote":"Male population between the ages 10 to 14 as a percentage of the total male population.","sourceOrganization":"World Bank staff estimates based on age\/sex distributions of United Nations Population Division's World Population Prospects.","topics":[{"id":"8","value":"Health "}]},{"id":"SP.POP.1014.MA","name":"Male population 10-14","source":{"id":"16","value":"Health Nutrition and Population Statistics"},"sourceNote":"Male population between the ages 10 to 14.","sourceOrganization":"World Bank staff estimates using the World Bank's total population and age distributions of the United Nations Population Division's World Population Prospects.","topics":[]},{"id":"SP.POP.1014.FE.UN","name":"Population, ages 10-14, female","source":{"id":"12","value":"Education Statistics"},"sourceNote":"Population, ages 10-14, female is the total number of females age 10-14.","sourceOrganization":"UNESCO Institute for Statistics (Derived)","topics":[{"id":"4","value":"Education "}]},{"id":"SP.POP.1014.FE.5Y","name":"Population ages 10-14, female (% of female population)","source":{"id":"2","value":"World Development Indicators"},"sourceNote":"Female population between the ages 10 to 14 as a percentage of the total female population.","sourceOrganization":"World Bank staff estimates based on age\/sex distributions of United Nations Population Division's World Population Prospects.","topics":[{"id":"8","value":"Health "}]},{"id":"SP.POP.1014.FE","name":"Female population 10-14","source":{"id":"16","value":"Health Nutrition and Population Statistics"},"sourceNote":"Female population between the ages 10 to 14.","sourceOrganization":"World Bank staff estimates using the World Bank's total population and age distributions of the United Nations Population Division's World Population Prospects.","topics":[]},{"id":"SP.POP.0713.TO.UN","name":"Population, ages 7-13, total","source":{"id":"12","value":"Education Statistics"},"sourceNote":"Population, ages 7-13, total is the total population age 7-13.","sourceOrganization":"UNESCO Institute for Statistics (Derived)","topics":[{"id":"4","value":"Education "}]},{"id":"SP.POP.0713.MA.UN","name":"Population, ages 7-13, male","source":{"id":"12","value":"Education Statistics"},"sourceNote":"Population, ages 7-13, male is the total number of males age 7-13.","sourceOrganization":"UNESCO Institute for Statistics (Derived)","topics":[{"id":"4","value":"Education "}]}]]