[{"page":263,"pages":324,"per_page":"50","total":16174},[{"id":"SH.MLR.SPF2.ZS","name":"Use of Intermittent Preventive Treatment of malaria, 2+ doses of SP\/Fansidar (% of pregnant women)","source":{"id":"16","value":"Health Nutrition and Population Statistics"},"sourceNote":"Percentage of women with a live birth in the recent years preceding the survey who received 2+ doses of sulfadoxine-pyrimethamine (SP\/Fansidar), at least one during an antenatal care visit. Intermittent Preventive Treatment (IPT) is preventive treatment with SP\/Fansidar during an antenatal care (ANC) visit treatment with a dose of sulfadoxine-pyrimethamine (SP\/Fansidar) to pregnant women at each scheduled antenatal visit after the first trimester, but not more frequently than once a month.","sourceOrganization":"UNICEF Childinfo, Multiple Indicator Cluster Surveys, Demographic and Health Surveys.","topics":[]},{"id":"SH.MLR.PREG.ZS","name":"Use of any antimalarial drug","source":{"id":"16","value":"Health Nutrition and Population Statistics"},"sourceNote":"Demographic and Health Surveys.","sourceOrganization":"Demographic and Health Surveys.","topics":[]},{"id":"SH.MLR.PREG.Q5.ZS","name":"Anti-malarial drug use by pregnant women (any antimalarial drug) (% of women with a birth): Q5 (highest)","source":{"id":"39","value":"Health Nutrition and Population Statistics by Wealth Quintile"},"sourceNote":"Anti-malarial drug use by pregnant women: Percentage of women with a live birth in the two years preceding the survey who during the pregnancy took any antimalarial drug for prevention, and who took SP\/Fansidar two or more doses.","sourceOrganization":"Household Surveys (DHS, MICS)","topics":[{"id":"8","value":"Health "}]},{"id":"SH.MLR.PREG.Q4.ZS","name":"Anti-malarial drug use by pregnant women (any antimalarial drug) (% of women with a birth): Q4","source":{"id":"39","value":"Health Nutrition and Population Statistics by Wealth Quintile"},"sourceNote":"Anti-malarial drug use by pregnant women: Percentage of women with a live birth in the two years preceding the survey who during the pregnancy took any antimalarial drug for prevention, and who took SP\/Fansidar two or more doses.","sourceOrganization":"Household Surveys (DHS, MICS)","topics":[{"id":"8","value":"Health "}]},{"id":"SH.MLR.PREG.Q3.ZS","name":"Anti-malarial drug use by pregnant women (any antimalarial drug) (% of women with a birth): Q3","source":{"id":"39","value":"Health Nutrition and Population Statistics by Wealth Quintile"},"sourceNote":"Anti-malarial drug use by pregnant women: Percentage of women with a live birth in the two years preceding the survey who during the pregnancy took any antimalarial drug for prevention, and who took SP\/Fansidar two or more doses.","sourceOrganization":"Household Surveys (DHS, MICS)","topics":[{"id":"8","value":"Health "}]},{"id":"SH.MLR.PREG.Q2.ZS","name":"Anti-malarial drug use by pregnant women (any antimalarial drug) (% of women with a birth): Q2","source":{"id":"39","value":"Health Nutrition and Population Statistics by Wealth Quintile"},"sourceNote":"Anti-malarial drug use by pregnant women: Percentage of women with a live birth in the two years preceding the survey who during the pregnancy took any antimalarial drug for prevention, and who took SP\/Fansidar two or more doses.","sourceOrganization":"Household Surveys (DHS, MICS)","topics":[{"id":"8","value":"Health "}]},{"id":"SH.MLR.PREG.Q1.ZS","name":"Anti-malarial drug use by pregnant women (any antimalarial drug) (% of women with a birth): Q1 (lowest)","source":{"id":"39","value":"Health Nutrition and Population Statistics by Wealth Quintile"},"sourceNote":"Anti-malarial drug use by pregnant women: Percentage of women with a live birth in the two years preceding the survey who during the pregnancy took any antimalarial drug for prevention, and who took SP\/Fansidar two or more doses.","sourceOrganization":"Household Surveys (DHS, MICS)","topics":[{"id":"8","value":"Health "}]},{"id":"SH.MLR.PREG.2IPT.ZS","name":"Pregnant women who took at least 2 doses of intermittent preventative treatment (%)","source":{"id":"11","value":"Africa Development Indicators"},"sourceNote":"Percentage of pregnant women reporting to have received IPT (intermittent preventive treatment; 2 or more doses).  ","sourceOrganization":"DHS, MICS, MIS or MoH surveys.","topics":[]},{"id":"SH.MLR.NTPI.Q5.ZS","name":"Mosquito net use by pregnant women (insecticide-treated net) (% of pregnant women): Q5 (highest)","source":{"id":"39","value":"Health Nutrition and Population Statistics by Wealth Quintile"},"sourceNote":"Mosquito net use by pregnant women: Percentage of pregnant women who slept under any mosquito net (treated or untreated), and an insecticide-treated net (ITN) the night before the survey.","sourceOrganization":"Household Surveys (DHS, MICS)","topics":[{"id":"8","value":"Health "}]},{"id":"SH.MLR.NTPI.Q4.ZS","name":"Mosquito net use by pregnant women (insecticide-treated net) (% of pregnant women): Q4","source":{"id":"39","value":"Health Nutrition and Population Statistics by Wealth Quintile"},"sourceNote":"Mosquito net use by pregnant women: Percentage of pregnant women who slept under any mosquito net (treated or untreated), and an insecticide-treated net (ITN) the night before the survey.","sourceOrganization":"Household Surveys (DHS, MICS)","topics":[{"id":"8","value":"Health "}]},{"id":"SH.MLR.NTPI.Q3.ZS","name":"Mosquito net use by pregnant women (insecticide-treated net) (% of pregnant women): Q3","source":{"id":"39","value":"Health Nutrition and Population Statistics by Wealth Quintile"},"sourceNote":"Mosquito net use by pregnant women: Percentage of pregnant women who slept under any mosquito net (treated or untreated), and an insecticide-treated net (ITN) the night before the survey.","sourceOrganization":"Household Surveys (DHS, MICS)","topics":[{"id":"8","value":"Health "}]},{"id":"SH.MLR.NTPI.Q2.ZS","name":"Mosquito net use by pregnant women (insecticide-treated net) (% of pregnant women): Q2","source":{"id":"39","value":"Health Nutrition and Population Statistics by Wealth Quintile"},"sourceNote":"Mosquito net use by pregnant women: Percentage of pregnant women who slept under any mosquito net (treated or untreated), and an insecticide-treated net (ITN) the night before the survey.","sourceOrganization":"Household Surveys (DHS, MICS)","topics":[{"id":"8","value":"Health "}]},{"id":"SH.MLR.NTPI.Q1.ZS","name":"Mosquito net use by pregnant women (insecticide-treated net) (% of pregnant women): Q1 (lowest)","source":{"id":"39","value":"Health Nutrition and Population Statistics by Wealth Quintile"},"sourceNote":"Mosquito net use by pregnant women: Percentage of pregnant women who slept under any mosquito net (treated or untreated), and an insecticide-treated net (ITN) the night before the survey.","sourceOrganization":"Household Surveys (DHS, MICS)","topics":[{"id":"8","value":"Health "}]},{"id":"SH.MLR.NTHI.Q5.ZS","name":"Household posession of mosquito nets (insecticide-treated net) (% of households): Q5 (highest)","source":{"id":"39","value":"Health Nutrition and Population Statistics by Wealth Quintile"},"sourceNote":"Household possession of mosquito nets: Percentage of households with at least one any type of mosquito net (treated or untreated), and insecticide-treated net (ITN).","sourceOrganization":"Household Surveys (DHS, MICS)","topics":[{"id":"8","value":"Health "}]},{"id":"SH.MLR.NTHI.Q4.ZS","name":"Household posession of mosquito nets (insecticide-treated net) (% of households): Q4","source":{"id":"39","value":"Health Nutrition and Population Statistics by Wealth Quintile"},"sourceNote":"Household possession of mosquito nets: Percentage of households with at least one any type of mosquito net (treated or untreated), and insecticide-treated net (ITN).","sourceOrganization":"Household Surveys (DHS, MICS)","topics":[{"id":"8","value":"Health "}]},{"id":"SH.MLR.NTHI.Q3.ZS","name":"Household posession of mosquito nets (insecticide-treated net) (% of households): Q3","source":{"id":"39","value":"Health Nutrition and Population Statistics by Wealth Quintile"},"sourceNote":"Household possession of mosquito nets: Percentage of households with at least one any type of mosquito net (treated or untreated), and insecticide-treated net (ITN).","sourceOrganization":"Household Surveys (DHS, MICS)","topics":[{"id":"8","value":"Health "}]},{"id":"SH.MLR.NTHI.Q2.ZS","name":"Household posession of mosquito nets (insecticide-treated net) (% of households): Q2","source":{"id":"39","value":"Health Nutrition and Population Statistics by Wealth Quintile"},"sourceNote":"Household possession of mosquito nets: Percentage of households with at least one any type of mosquito net (treated or untreated), and insecticide-treated net (ITN).","sourceOrganization":"Household Surveys (DHS, MICS)","topics":[{"id":"8","value":"Health "}]},{"id":"SH.MLR.NTHI.Q1.ZS","name":"Household posession of mosquito nets (insecticide-treated net) (% of households): Q1 (lowest)","source":{"id":"39","value":"Health Nutrition and Population Statistics by Wealth Quintile"},"sourceNote":"Household possession of mosquito nets: Percentage of households with at least one any type of mosquito net (treated or untreated), and insecticide-treated net (ITN).","sourceOrganization":"Household Surveys (DHS, MICS)","topics":[{"id":"8","value":"Health "}]},{"id":"SH.MLR.NETS.ZS","name":"Use of insecticide-treated bed nets (% of under-5 population)","source":{"id":"2","value":"World Development Indicators"},"sourceNote":"Use of insecticide-treated bed nets refers to the percentage of children under age five who slept under an insecticide-treated bednet to prevent malaria.","sourceOrganization":"UNICEF, State of the World's Children, Childinfo, and Demographic and Health Surveys.","topics":[{"id":"8","value":"Health "}]},{"id":"SH.MLR.NETS.Q4.ZS","name":"Mosquito net use by children (insecticide-treated net) (% of children under 5): Q4","source":{"id":"39","value":"Health Nutrition and Population Statistics by Wealth Quintile"},"sourceNote":"Mosquito net use by children: Percentage of children under age five years who slept under any mosquito net (treated or untreated), and an insecticide-treated net (ITN) the night before the survey.","sourceOrganization":"Household Surveys (DHS, MICS)","topics":[{"id":"8","value":"Health "}]},{"id":"SH.MLR.NETS.Q3.ZS","name":"Mosquito net use by children (insecticide-treated net) (% of children under 5): Q3","source":{"id":"39","value":"Health Nutrition and Population Statistics by Wealth Quintile"},"sourceNote":"Mosquito net use by children: Percentage of children under age five years who slept under any mosquito net (treated or untreated), and an insecticide-treated net (ITN) the night before the survey.","sourceOrganization":"Household Surveys (DHS, MICS)","topics":[{"id":"8","value":"Health "}]},{"id":"SH.MLR.NETS.Q2.ZS","name":"Mosquito net use by children (insecticide-treated net) (% of children under 5): Q2","source":{"id":"39","value":"Health Nutrition and Population Statistics by Wealth Quintile"},"sourceNote":"Mosquito net use by children: Percentage of children under age five years who slept under any mosquito net (treated or untreated), and an insecticide-treated net (ITN) the night before the survey.","sourceOrganization":"Household Surveys (DHS, MICS)","topics":[{"id":"8","value":"Health "}]},{"id":"SH.MLR.NETP.Q5.ZS","name":"Mosquito net use by pregnant women (any mosquito net) (% of pregnant women): Q5 (highest)","source":{"id":"39","value":"Health Nutrition and Population Statistics by Wealth Quintile"},"sourceNote":"Mosquito net use by pregnant women: Percentage of pregnant women who slept under any mosquito net (treated or untreated), and an insecticide-treated net (ITN) the night before the survey.","sourceOrganization":"Household Surveys (DHS, MICS)","topics":[{"id":"8","value":"Health "}]},{"id":"SH.MLR.NETP.Q4.ZS","name":"Mosquito net use by pregnant women (any mosquito net) (% of pregnant women): Q4","source":{"id":"39","value":"Health Nutrition and Population Statistics by Wealth Quintile"},"sourceNote":"Mosquito net use by pregnant women: Percentage of pregnant women who slept under any mosquito net (treated or untreated), and an insecticide-treated net (ITN) the night before the survey.","sourceOrganization":"Household Surveys (DHS, MICS)","topics":[{"id":"8","value":"Health "}]},{"id":"SH.MLR.NETP.Q3.ZS","name":"Mosquito net use by pregnant women (any mosquito net) (% of pregnant women): Q3","source":{"id":"39","value":"Health Nutrition and Population Statistics by Wealth Quintile"},"sourceNote":"Mosquito net use by pregnant women: Percentage of pregnant women who slept under any mosquito net (treated or untreated), and an insecticide-treated net (ITN) the night before the survey.","sourceOrganization":"Household Surveys (DHS, MICS)","topics":[{"id":"8","value":"Health "}]},{"id":"SH.MLR.NETP.Q2.ZS","name":"Mosquito net use by pregnant women (any mosquito net) (% of pregnant women): Q2","source":{"id":"39","value":"Health Nutrition and Population Statistics by Wealth Quintile"},"sourceNote":"Mosquito net use by pregnant women: Percentage of pregnant women who slept under any mosquito net (treated or untreated), and an insecticide-treated net (ITN) the night before the survey.","sourceOrganization":"Household Surveys (DHS, MICS)","topics":[{"id":"8","value":"Health "}]},{"id":"SH.MLR.NETP.Q1.ZS","name":"Mosquito net use by pregnant women (any mosquito net) (% of pregnant women): Q1 (lowest)","source":{"id":"39","value":"Health Nutrition and Population Statistics by Wealth Quintile"},"sourceNote":"Mosquito net use by pregnant women: Percentage of pregnant women who slept under any mosquito net (treated or untreated), and an insecticide-treated net (ITN) the night before the survey.","sourceOrganization":"Household Surveys (DHS, MICS)","topics":[{"id":"8","value":"Health "}]},{"id":"SH.MLR.NETH.Q5.ZS","name":"Household posession of mosquito nets (any type of mosquito net) (% of households): Q5 (highest)","source":{"id":"39","value":"Health Nutrition and Population Statistics by Wealth Quintile"},"sourceNote":"Household possession of mosquito nets: Percentage of households with at least one any type of mosquito net (treated or untreated), and insecticide-treated net (ITN).","sourceOrganization":"Household Surveys (DHS, MICS)","topics":[{"id":"8","value":"Health "}]},{"id":"SH.MLR.NETH.Q4.ZS","name":"Household posession of mosquito nets (any type of mosquito net) (% of households): Q4","source":{"id":"39","value":"Health Nutrition and Population Statistics by Wealth Quintile"},"sourceNote":"Household possession of mosquito nets: Percentage of households with at least one any type of mosquito net (treated or untreated), and insecticide-treated net (ITN).","sourceOrganization":"Household Surveys (DHS, MICS)","topics":[{"id":"8","value":"Health "}]},{"id":"SH.MLR.NETH.Q3.ZS","name":"Household posession of mosquito nets (any type of mosquito net) (% of households): Q3","source":{"id":"39","value":"Health Nutrition and Population Statistics by Wealth Quintile"},"sourceNote":"Household possession of mosquito nets: Percentage of households with at least one any type of mosquito net (treated or untreated), and insecticide-treated net (ITN).","sourceOrganization":"Household Surveys (DHS, MICS)","topics":[{"id":"8","value":"Health "}]},{"id":"SH.MLR.NETH.Q2.ZS","name":"Household posession of mosquito nets (any type of mosquito net) (% of households): Q2","source":{"id":"39","value":"Health Nutrition and Population Statistics by Wealth Quintile"},"sourceNote":"Household possession of mosquito nets: Percentage of households with at least one any type of mosquito net (treated or untreated), and insecticide-treated net (ITN).","sourceOrganization":"Household Surveys (DHS, MICS)","topics":[{"id":"8","value":"Health "}]},{"id":"SH.MLR.NETH.Q1.ZS","name":"Household posession of mosquito nets (any type of mosquito net) (% of households): Q1 (lowest)","source":{"id":"39","value":"Health Nutrition and Population Statistics by Wealth Quintile"},"sourceNote":"Household possession of mosquito nets: Percentage of households with at least one any type of mosquito net (treated or untreated), and insecticide-treated net (ITN).","sourceOrganization":"Household Surveys (DHS, MICS)","topics":[{"id":"8","value":"Health "}]},{"id":"SH.MLR.NETA.Q5.ZS","name":"Mosquito net use by children (any mosquito net) (% of children under 5): Q5 (highest)","source":{"id":"39","value":"Health Nutrition and Population Statistics by Wealth Quintile"},"sourceNote":"Mosquito net use by children: Percentage of children under age five years who slept under any mosquito net (treated or untreated), and an insecticide-treated net (ITN) the night before the survey.","sourceOrganization":"Household Surveys (DHS, MICS)","topics":[{"id":"8","value":"Health "}]},{"id":"SH.MLR.NETA.Q4.ZS","name":"Mosquito net use by children (any mosquito net) (% of children under 5): Q4","source":{"id":"39","value":"Health Nutrition and Population Statistics by Wealth Quintile"},"sourceNote":"Mosquito net use by children: Percentage of children under age five years who slept under any mosquito net (treated or untreated), and an insecticide-treated net (ITN) the night before the survey.","sourceOrganization":"Household Surveys (DHS, MICS)","topics":[{"id":"8","value":"Health "}]},{"id":"SH.MLR.NETA.Q3.ZS","name":"Mosquito net use by children (any mosquito net) (% of children under 5): Q3","source":{"id":"39","value":"Health Nutrition and Population Statistics by Wealth Quintile"},"sourceNote":"Mosquito net use by children: Percentage of children under age five years who slept under any mosquito net (treated or untreated), and an insecticide-treated net (ITN) the night before the survey.","sourceOrganization":"Household Surveys (DHS, MICS)","topics":[{"id":"8","value":"Health "}]},{"id":"SH.MLR.NETA.Q2.ZS","name":"Mosquito net use by children (any mosquito net) (% of children under 5): Q2","source":{"id":"39","value":"Health Nutrition and Population Statistics by Wealth Quintile"},"sourceNote":"Mosquito net use by children: Percentage of children under age five years who slept under any mosquito net (treated or untreated), and an insecticide-treated net (ITN) the night before the survey.","sourceOrganization":"Household Surveys (DHS, MICS)","topics":[{"id":"8","value":"Health "}]},{"id":"SH.MLR.NETA.Q1.ZS","name":"Mosquito net use by children (any mosquito net) (% of children under 5): Q1 (lowest)","source":{"id":"39","value":"Health Nutrition and Population Statistics by Wealth Quintile"},"sourceNote":"Mosquito net use by children: Percentage of children under age five years who slept under any mosquito net (treated or untreated), and an insecticide-treated net (ITN) the night before the survey.","sourceOrganization":"Household Surveys (DHS, MICS)","topics":[{"id":"8","value":"Health "}]},{"id":"SH.MLR.ITN.1HH.ZS","name":"Households with one or more insect-treated mosquito net (%)","source":{"id":"11","value":"Africa Development Indicators"},"sourceNote":"Percentage of households owning at least one insecticide-treated bednet (ITN).  ","sourceOrganization":"DHS, MICS, MIS or MoH surveys.","topics":[]},{"id":"SH.MLR.INCD.P3","name":"Incidence of malaria (per 1,000 population at risk)","source":{"id":"2","value":"World Development Indicators"},"sourceNote":"Incidence of malaria is the number of new cases of malaria in a year per 1,000 population at risk.","sourceOrganization":"World Health Organization, Global Health Observatory Data Repository\/World Health Statistics (http:\/\/apps.who.int\/ghodata\/).","topics":[{"id":"8","value":"Health "}]},{"id":"SH.MLR.DTHS.TOTL","name":"Reported malaria deaths (total)","source":{"id":"11","value":"Africa Development Indicators"},"sourceNote":"Reported malaria deaths include all deaths in health facilities that are attributed to malaria, whether or not confirmed by microscopy or by RDT.   Deaths reported before 2000 can be probable and confirmed or only confirmed deaths depending on the country","sourceOrganization":"World Health Organization Global Malaria Programme (http:\/\/www.who.int\/malaria\/world_malaria_report_2009\/all_mal2009_annexes.pdf)","topics":[]},{"id":"SH.MLR.DTHS.CHLD.ZS","name":"Deaths among children under five years of age due to malaria (%)","source":{"id":"11","value":"Africa Development Indicators"},"sourceNote":"\"Malaria mortality is the percentage of deaths due to malaria among children under five years.  Malaria was the underlying cause of death, that is, the disease which initiated the train of morbid events leading directly to death. This is the distribution of main causes of death among children aged < 5 years, expressed as percentage of total deaths.\u000d \"","sourceOrganization":"World Health Organisation.","topics":[]},{"id":"SH.MLR.CSES.TOTL","name":"Reported clinical malaria cases (total)","source":{"id":"11","value":"Africa Development Indicators"},"sourceNote":"Number of clinical malaria cases reported are the sum of cases confirmed by slide examination or RDT and probable and unconfirmed cases (cases that were not tested but treated as malaria). NMCPs often collect data on the number of suspected cases, those t","sourceOrganization":"World Health Organization Global Malaria Programme (http:\/\/www.who.int\/malaria\/world_malaria_report_2009\/all_mal2009_annexes.pdf)","topics":[]},{"id":"SH.MED.SAOP.P5","name":"Specialist surgical workforce (per 100,000 population)","source":{"id":"2","value":"World Development Indicators"},"sourceNote":"Specialist surgical workforce is the number of specialist surgical, anaesthetic, and obstetric (SAO) providers who are working in each country per 100,000 population.","sourceOrganization":"The Lancet Commission on Global Surgery (www.lancetglobalsurgery.org).","topics":[{"id":"8","value":"Health "}]},{"id":"SH.MED.PHYS.ZS","name":"Physicians (per 1,000 people)","source":{"id":"2","value":"World Development Indicators"},"sourceNote":"Physicians include generalist and specialist medical practitioners.","sourceOrganization":"World Health Organization's Global Health Workforce Statistics, OECD, supplemented by country data.","topics":[{"id":"8","value":"Health "}]},{"id":"SH.MED.NUMW.P3","name":"Nurses and midwives (per 1,000 people)","source":{"id":"2","value":"World Development Indicators"},"sourceNote":"Nurses and midwives include professional nurses, professional midwives, auxiliary nurses, auxiliary midwives, enrolled nurses, enrolled midwives and other associated personnel, such as dental nurses and primary care nurses.","sourceOrganization":"World Health Organization's Global Health Workforce Statistics, OECD, supplemented by country data.","topics":[{"id":"8","value":"Health "}]},{"id":"SH.MED.MWIV.TOTL","name":"Number of Midwives","source":{"id":"45","value":"INDO-DAPOER"},"sourceNote":"","sourceOrganization":"BADAN PUSAT STATISTIK - Statistics Indonesia, Village Census (PODES)","topics":[]},{"id":"SH.MED.CMHW.P3","name":"Community health workers (per 1,000 people)","source":{"id":"2","value":"World Development Indicators"},"sourceNote":"Community health workers include various types of community health aides, many with country-specific occupational titles such as community health officers, community health-education workers, family health workers, lady health visitors and health extension package workers.","sourceOrganization":"World Health Organization's Global Health Workforce Statistics, OECD, supplemented by country data.","topics":[{"id":"8","value":"Health "},{"id":"19","value":"Climate Change"}]},{"id":"SH.MED.BEDS.ZS","name":"Hospital beds (per 1,000 people)","source":{"id":"2","value":"World Development Indicators"},"sourceNote":"Hospital beds include inpatient beds available in public, private, general, and specialized hospitals and rehabilitation centers. In most cases beds for both acute and chronic care are included.","sourceOrganization":"Data are from the World Health Organization, supplemented by country data.","topics":[{"id":"8","value":"Health "}]},{"id":"SH.IMM.POL3","name":"Immunization, Pol3 (% of one-year-old children)","source":{"id":"16","value":"Health Nutrition and Population Statistics"},"sourceNote":"Child immunization rate, Polio is the percentage of children ages 12-23 months who received vaccinations before 12 months or at any time before the survey. A child is considered adequately immunized after three doses.","sourceOrganization":"WHO and UNICEF (http:\/\/www.who.int\/immunization_monitoring\/routine\/en\/).","topics":[]},{"id":"SH.IMM.NONE.Q5.ZS","name":"Vaccinations (no vaccinations) (% of children ages 12-23 months): Q5 (highest)","source":{"id":"39","value":"Health Nutrition and Population Statistics by Wealth Quintile"},"sourceNote":"Vaccinations: Percentage of children 12-23 months who have received specific vaccines by the time of the survey (according to the vaccination card or the mother's report). Children with all vaccinations refer children who have received BCG, measles, and three doses each of DPT and polio vaccine (excluding polio 0). Some MICS surveys refer children in different age groups (e.g. 18-29 months, or 15-26 months).","sourceOrganization":"Household Surveys (DHS, MICS)","topics":[{"id":"8","value":"Health "}]}]]