[{"page":78,"pages":324,"per_page":"50","total":16174},[{"id":"DT.DOR.DSTM.CD.GG.AR.US","name":"Gross Ext. Debt Pos., ST Rem., General Government, ST debt on orig. maturity, Debt securities, USD","source":{"id":"22","value":"Quarterly External Debt Statistics\/SDDS (New)"},"sourceNote":"","sourceOrganization":"","topics":[]},{"id":"DT.DOR.DSTM.CD.CB.AR.US","name":"Gross Ext. Debt Pos., ST Rem., Deposit-Taking Corp., exc. CB, ST debt on orig. maturity, Debt securities, USD","source":{"id":"22","value":"Quarterly External Debt Statistics\/SDDS (New)"},"sourceNote":"","sourceOrganization":"","topics":[]},{"id":"DT.DOR.DSTL.CD.OT.AR.US","name":"Gross Ext. Debt Pos., ST Rem., Other Sectors, ST debt on orig. maturity, Loans, USD","source":{"id":"22","value":"Quarterly External Debt Statistics\/SDDS (New)"},"sourceNote":"","sourceOrganization":"","topics":[]},{"id":"DT.DOR.DSTL.CD.MA.AR.US","name":"Gross Ext. Debt Pos., ST Rem., Central Bank, ST debt on orig. maturity, Loans, USD","source":{"id":"22","value":"Quarterly External Debt Statistics\/SDDS (New)"},"sourceNote":"","sourceOrganization":"","topics":[]},{"id":"DT.DOR.DSTL.CD.GG.AR.US","name":"Gross Ext. Debt Pos., ST Rem., General Government, ST debt on orig. maturity, Loans, USD","source":{"id":"22","value":"Quarterly External Debt Statistics\/SDDS (New)"},"sourceNote":"","sourceOrganization":"","topics":[]},{"id":"DT.DOR.DSTL.CD.CB.AR.US","name":"Gross Ext. Debt Pos., ST Rem., Deposit-Taking Corp., exc. CB, ST debt on orig. maturity, Loans, USD","source":{"id":"22","value":"Quarterly External Debt Statistics\/SDDS (New)"},"sourceNote":"","sourceOrganization":"","topics":[]},{"id":"DT.DOR.DSTC.CD.RM.AR.US","name":"Gross Ext. Debt Pos., ST Rem., All Sectors, All maturities, All instruments, USD","source":{"id":"22","value":"Quarterly External Debt Statistics\/SDDS (New)"},"sourceNote":"","sourceOrganization":"","topics":[]},{"id":"DT.DOR.DSTC.CD.OT.AR.US","name":"Gross Ext. Debt Pos., ST Rem., Other Sectors, ST debt on orig. maturity, All instruments, USD","source":{"id":"22","value":"Quarterly External Debt Statistics\/SDDS (New)"},"sourceNote":"","sourceOrganization":"","topics":[]},{"id":"DT.DOR.DSTC.CD.MA.AR.US","name":"Gross Ext. Debt Pos., ST Rem., Central Bank, ST debt on orig. maturity, All instruments, USD","source":{"id":"22","value":"Quarterly External Debt Statistics\/SDDS (New)"},"sourceNote":"","sourceOrganization":"","topics":[]},{"id":"DT.DOR.DSTC.CD.IL.AR.US","name":"Gross Ext. Debt Pos., ST Rem., DI: Intercom Lending, ST debt on orig. maturity, All instruments, USD","source":{"id":"22","value":"Quarterly External Debt Statistics\/SDDS (New)"},"sourceNote":"","sourceOrganization":"","topics":[]},{"id":"DT.DOR.DSTC.CD.GG.AR.US","name":"Gross Ext. Debt Pos., ST Rem., General Government, ST debt on orig. maturity, All instruments, USD","source":{"id":"22","value":"Quarterly External Debt Statistics\/SDDS (New)"},"sourceNote":"","sourceOrganization":"","topics":[]},{"id":"DT.DOR.DSTC.CD.CB.AR.US","name":"Gross Ext. Debt Pos., ST Rem., Deposit-Taking Corp., exc. CB, ST debt on orig. maturity, All instruments, USD","source":{"id":"22","value":"Quarterly External Debt Statistics\/SDDS (New)"},"sourceNote":"","sourceOrganization":"","topics":[]},{"id":"DT.DOR.DSOO.CD.OT.AR.US","name":"Gross Ext. Debt Pos., ST Rem., Other Sectors, ST debt on orig. maturity, Other debt liabilities, USD","source":{"id":"22","value":"Quarterly External Debt Statistics\/SDDS (New)"},"sourceNote":"","sourceOrganization":"","topics":[]},{"id":"DT.DOR.DSOO.CD.MA.AR.US","name":"Gross Ext. Debt Pos., ST Rem., Central Bank, ST debt on orig. maturity, Other debt liabilities, USD","source":{"id":"22","value":"Quarterly External Debt Statistics\/SDDS (New)"},"sourceNote":"","sourceOrganization":"","topics":[]},{"id":"DT.DOR.DSOO.CD.GG.AR.US","name":"Gross Ext. Debt Pos., ST Rem., General Government, ST debt on orig. maturity, Other debt liabilities, USD","source":{"id":"22","value":"Quarterly External Debt Statistics\/SDDS (New)"},"sourceNote":"","sourceOrganization":"","topics":[]},{"id":"DT.DOR.DSOO.CD.CB.AR.US","name":"Gross Ext. Debt Pos., ST Rem., Deposit-Taking Corp., exc. CB, ST debt on orig. maturity, Other debt liabilities, USD","source":{"id":"22","value":"Quarterly External Debt Statistics\/SDDS (New)"},"sourceNote":"","sourceOrganization":"","topics":[]},{"id":"DT.DOR.DSCD.CD.OT.AR.US","name":"Gross Ext. Debt Pos., ST Rem., Other Sectors, ST debt on orig. maturity, Currency and deposits, USD","source":{"id":"22","value":"Quarterly External Debt Statistics\/SDDS (New)"},"sourceNote":"","sourceOrganization":"","topics":[]},{"id":"DT.DOR.DSCD.CD.MA.AR.US","name":"Gross Ext. Debt Pos., ST Rem., Central Bank, ST debt on orig. maturity, Currency and deposits, USD","source":{"id":"22","value":"Quarterly External Debt Statistics\/SDDS (New)"},"sourceNote":"","sourceOrganization":"","topics":[]},{"id":"DT.DOR.DSCD.CD.GG.AR.US","name":"Gross Ext. Debt Pos., ST Rem., General Government, ST debt on orig. maturity, Currency and deposits, USD","source":{"id":"22","value":"Quarterly External Debt Statistics\/SDDS (New)"},"sourceNote":"","sourceOrganization":"","topics":[]},{"id":"DT.DOR.DSCD.CD.CB.AR.US","name":"Gross Ext. Debt Pos., ST Rem., Deposit-Taking Corp., exc. CB, ST debt on orig. maturity, Currency and deposits, USD","source":{"id":"22","value":"Quarterly External Debt Statistics\/SDDS (New)"},"sourceNote":"","sourceOrganization":"","topics":[]},{"id":"DT.DOR.DLXF.CD.OT.AR.US","name":"Gross Ext. Debt Pos., ST Rem., Other Sectors, LT debt obg pmt 1year or less, All instruments, USD","source":{"id":"22","value":"Quarterly External Debt Statistics\/SDDS (New)"},"sourceNote":"","sourceOrganization":"","topics":[]},{"id":"DT.DOR.DLXF.CD.MA.AR.US","name":"Gross Ext. Debt Pos., ST Rem., Central Bank, LT debt obg pmt 1year or less, All instruments, USD","source":{"id":"22","value":"Quarterly External Debt Statistics\/SDDS (New)"},"sourceNote":"","sourceOrganization":"","topics":[]},{"id":"DT.DOR.DLXF.CD.GG.AR.US","name":"Gross Ext. Debt Pos., ST Rem., General Government, LT debt obg pmt 1year or less, All instruments, USD","source":{"id":"22","value":"Quarterly External Debt Statistics\/SDDS (New)"},"sourceNote":"","sourceOrganization":"","topics":[]},{"id":"DT.DOR.DLXF.CD.CB.AR.US","name":"Gross Ext. Debt Pos., ST Rem., Deposit-Taking Corp., exc. CB, LT debt obg pmt 1year or less, All instruments, USD","source":{"id":"22","value":"Quarterly External Debt Statistics\/SDDS (New)"},"sourceNote":"","sourceOrganization":"","topics":[]},{"id":"DT.DOR.DLTT.CD.OT.AR.US","name":"Gross Ext. Debt Pos., ST Rem., Other Sectors, LT debt obg pmt 1year or less, Trade credit and advances, USD","source":{"id":"22","value":"Quarterly External Debt Statistics\/SDDS (New)"},"sourceNote":"","sourceOrganization":"","topics":[]},{"id":"DT.DOR.DLTT.CD.MA.AR.US","name":"Gross Ext. Debt Pos., ST Rem., Central Bank, LT debt obg pmt 1year or less, Trade credit and advances, USD","source":{"id":"22","value":"Quarterly External Debt Statistics\/SDDS (New)"},"sourceNote":"","sourceOrganization":"","topics":[]},{"id":"DT.DOR.DLTT.CD.GG.AR.US","name":"Gross Ext. Debt Pos., ST Rem., General Government, LT debt obg pmt 1year or less, Trade credit and advances, USD","source":{"id":"22","value":"Quarterly External Debt Statistics\/SDDS (New)"},"sourceNote":"","sourceOrganization":"","topics":[]},{"id":"DT.DOR.DLTT.CD.CB.US","name":"Gross Ext. Debt Pos., ST Rem., Deposit-Taking Corp., exc. CB, LT debt obg pmt 1year or less, Trade credit and advances, USD","source":{"id":"22","value":"Quarterly External Debt Statistics\/SDDS (New)"},"sourceNote":"","sourceOrganization":"","topics":[]},{"id":"DT.DOR.DLTO.CD.OT.AR.US","name":"Gross Ext. Debt Pos., ST Rem., Other Sectors, LT debt obg pmt 1year or less, Other debt liabilities, USD","source":{"id":"22","value":"Quarterly External Debt Statistics\/SDDS (New)"},"sourceNote":"","sourceOrganization":"","topics":[]},{"id":"DT.DOR.DLTO.CD.MA.AR.US","name":"Gross Ext. Debt Pos., ST Rem., Central Bank, LT debt obg pmt 1year or less, Other debt liabilities, USD","source":{"id":"22","value":"Quarterly External Debt Statistics\/SDDS (New)"},"sourceNote":"","sourceOrganization":"","topics":[]},{"id":"DT.DOR.DLTO.CD.GG.AR.US","name":"Gross Ext. Debt Pos., ST Rem., General Government, LT debt obg pmt 1year or less, Other debt liabilities, USD","source":{"id":"22","value":"Quarterly External Debt Statistics\/SDDS (New)"},"sourceNote":"","sourceOrganization":"","topics":[]},{"id":"DT.DOR.DLTO.CD.CB.AR.US","name":"Gross Ext. Debt Pos., ST Rem., Deposit-Taking Corp., exc. CB, LT debt obg pmt 1year or less, Other debt liabilities, USD","source":{"id":"22","value":"Quarterly External Debt Statistics\/SDDS (New)"},"sourceNote":"","sourceOrganization":"","topics":[]},{"id":"DT.DOR.DLTL.CD.OT.AR.US","name":"Gross Ext. Debt Pos., ST Rem., Other Sectors, LT debt obg pmt 1year or less, Loans, USD","source":{"id":"22","value":"Quarterly External Debt Statistics\/SDDS (New)"},"sourceNote":"","sourceOrganization":"","topics":[]},{"id":"DT.DOR.DLTL.CD.MA.AR.US","name":"Gross Ext. Debt Pos., ST Rem., Central Bank, LT debt obg pmt 1year or less, Loans, USD","source":{"id":"22","value":"Quarterly External Debt Statistics\/SDDS (New)"},"sourceNote":"","sourceOrganization":"","topics":[]},{"id":"DT.DOR.DLTL.CD.GG.AR.US","name":"Gross Ext. Debt Pos., ST Rem., General Government, LT debt obg pmt 1year or less, Loans, USD","source":{"id":"22","value":"Quarterly External Debt Statistics\/SDDS (New)"},"sourceNote":"","sourceOrganization":"","topics":[]},{"id":"DT.DOR.DLTL.CD.CB.AR.US","name":"Gross Ext. Debt Pos., ST Rem., Deposit-Taking Corp., exc. CB, LT debt obg pmt 1year or less, Loans, USD","source":{"id":"22","value":"Quarterly External Debt Statistics\/SDDS (New)"},"sourceNote":"","sourceOrganization":"","topics":[]},{"id":"DT.DOR.DLTC.CD.GG.AR.US","name":"Gross Ext. Debt Pos., ST Rem., General Government, LT debt obg pmt 1year or less, Currency and deposits, USD","source":{"id":"22","value":"Quarterly External Debt Statistics\/SDDS (New)"},"sourceNote":"","sourceOrganization":"","topics":[]},{"id":"DT.DOR.DLCD.CD.OT.AR.US","name":"Gross Ext. Debt Pos., ST Rem., Other Sectors, LT debt obg pmt 1year or less, Currency and deposits, USD","source":{"id":"22","value":"Quarterly External Debt Statistics\/SDDS (New)"},"sourceNote":"","sourceOrganization":"","topics":[]},{"id":"DT.DOR.DLCD.CD.MA.AR.US","name":"Gross Ext. Debt Pos., ST Rem., Central Bank, LT debt obg pmt 1year or less, Currency and deposits, USD","source":{"id":"22","value":"Quarterly External Debt Statistics\/SDDS (New)"},"sourceNote":"","sourceOrganization":"","topics":[]},{"id":"DT.DOR.DLCD.CD.CB.AR.US","name":"Gross Ext. Debt Pos., ST Rem., Deposit-Taking Corp., exc. CB, LT debt obg pmt 1year or less, Currency and deposits, USD","source":{"id":"22","value":"Quarterly External Debt Statistics\/SDDS (New)"},"sourceNote":"","sourceOrganization":"","topics":[]},{"id":"DT.DOR.DLBN.CD.OT.AR.US","name":"Gross Ext. Debt Pos., ST Rem., Other Sectors, LT debt obg pmt 1year or less, Debt securities, USD","source":{"id":"22","value":"Quarterly External Debt Statistics\/SDDS (New)"},"sourceNote":"","sourceOrganization":"","topics":[]},{"id":"DT.DOR.DLBN.CD.MA.AR.US","name":"Gross Ext. Debt Pos., ST Rem., Central Bank, LT debt obg pmt 1year or less, Debt securities, USD","source":{"id":"22","value":"Quarterly External Debt Statistics\/SDDS (New)"},"sourceNote":"","sourceOrganization":"","topics":[]},{"id":"DT.DOR.DLBN.CD.GG.AR.US","name":"Gross Ext. Debt Pos., ST Rem., General Government, LT debt obg pmt 1year or less, Debt securities, USD","source":{"id":"22","value":"Quarterly External Debt Statistics\/SDDS (New)"},"sourceNote":"","sourceOrganization":"","topics":[]},{"id":"DT.DOR.DLBN.CD.CB.AR.US","name":"Gross Ext. Debt Pos., ST Rem., Deposit-Taking Corp., exc. CB, LT debt obg pmt 1year or less, Debt securities, USD","source":{"id":"22","value":"Quarterly External Debt Statistics\/SDDS (New)"},"sourceNote":"","sourceOrganization":"","topics":[]},{"id":"DT.DOR.DIIE.CD.IL.US","name":"Gross Ext. Debt Pos., ST Rem., DI: Intercom Lending, ST debt on orig. maturity, Debt liab. of dir. investors to DI ent., USD","source":{"id":"22","value":"Quarterly External Debt Statistics\/SDDS (New)"},"sourceNote":"","sourceOrganization":"","topics":[]},{"id":"DT.DOR.DIFE.CD.IL.US","name":"Gross Ext. Debt Pos., ST Rem., DI: Intercom Lending, ST debt on orig. maturity, Debt liab. to fellow ent., USD","source":{"id":"22","value":"Quarterly External Debt Statistics\/SDDS (New)"},"sourceNote":"","sourceOrganization":"","topics":[]},{"id":"DT.DOR.DIDI.CD.IL.US","name":"Gross Ext. Debt Pos., ST Rem., DI: Intercom Lending, ST debt on orig. maturity, Debt liab. of DI ent. to dir. investors, USD","source":{"id":"22","value":"Quarterly External Debt Statistics\/SDDS (New)"},"sourceNote":"","sourceOrganization":"","topics":[]},{"id":"DT.DOR.DECT.RL.US","name":"Gross Ext. Debt Pos., ST Rem., All Sectors, All maturities, All instruments, Reserve related liabilities, USD","source":{"id":"22","value":"Quarterly External Debt Statistics\/SDDS (New)"},"sourceNote":"","sourceOrganization":"","topics":[]},{"id":"DT.DOR.DECT.OT.DS.US","name":"Gross Ext. Debt Pos., ST Rem., Other Sectors, All maturities, Debt securities, Memo item, USD","source":{"id":"22","value":"Quarterly External Debt Statistics\/SDDS (New)"},"sourceNote":"","sourceOrganization":"","topics":[]},{"id":"DT.DOR.DECT.OT.AR.US","name":"Gross Ext. Debt Pos., ST Rem., Other Sectors, All maturities, All instruments, Arrears, USD","source":{"id":"22","value":"Quarterly External Debt Statistics\/SDDS (New)"},"sourceNote":"","sourceOrganization":"","topics":[{}]}]]