[{"page":292,"pages":324,"per_page":"50","total":16174},[{"id":"UIS.FOSEP.56.F140.M","name":"Percentage of male students in tertiary education enrolled in Education programmes, male (%)","source":{"id":"12","value":"Education Statistics"},"sourceNote":"Percentage of all male tertiary students who are enrolled in education programmes.","sourceOrganization":"UNESCO Institute for Statistics","topics":[]},{"id":"UIS.FOSEP.56.F140.F","name":"Percentage of female students in tertiary education enrolled in Education programmes, female (%)","source":{"id":"12","value":"Education Statistics"},"sourceNote":"Percentage of all female tertiary students who are enrolled in education programmes.","sourceOrganization":"UNESCO Institute for Statistics","topics":[{"id":"4","value":"Education "}]},{"id":"UIS.FOSEP.56.F140","name":"Percentage of students in tertiary education enrolled in Education programmes, both sexes (%)","source":{"id":"12","value":"Education Statistics"},"sourceNote":"Percentage of all tertiary students who are enrolled in education programmes.","sourceOrganization":"UNESCO Institute for Statistics","topics":[{"id":"4","value":"Education "}]},{"id":"UIS.FOFSTP.2","name":"Out-of-school adolescents of lower secondary school age, percentage female (%)","source":{"id":"12","value":"Education Statistics"},"sourceNote":"Total number of female lower secondary school age adolescents who are not enrolled in lower secondary education as a percentage of the total number of lower secondary school age adolescents (male and female) who are not enrolled in lower secondary education.","sourceOrganization":"UNESCO Institute for Statistics","topics":[]},{"id":"UIS.FOFSTP.1","name":"Out-of-school children of primary school age, percentage female (%)","source":{"id":"12","value":"Education Statistics"},"sourceNote":"Number of female primary-school-age children who are not enrolled in either primary or secondary schools as a percentage of the total (male and female) number of primary-school-age children who are not enrolled in either primary or secondary schools.","sourceOrganization":"UNESCO Institute for Statistics","topics":[]},{"id":"UIS.FNP.1","name":"New entrants to Grade 1 of primary education, percentage female (%)","source":{"id":"12","value":"Education Statistics"},"sourceNote":"Number of female pupils entering grade 1 of primary education for the first time during the course of the reference school or academic year as a share of the total (male and female) number of new entrants to grade 1 of primary education in that year.","sourceOrganization":"UNESCO Institute for Statistics","topics":[]},{"id":"UIS.FGP.8","name":"Percentage of graduates from tertiary ISCED 8 programmes who are female (%)","source":{"id":"12","value":"Education Statistics"},"sourceNote":"Number of female students completing doctoral or equivalent tertiary degree programmes (ISCED 8) expressed as a percentage of the total number of students (male and female) completing those programmes in a given school year.","sourceOrganization":"UNESCO Institute for Statistics","topics":[{"id":"4","value":"Education "}]},{"id":"UIS.FGP.7","name":"Percentage of graduates from tertiary ISCED 7 programmes who are female (%)","source":{"id":"12","value":"Education Statistics"},"sourceNote":"Number of female students completing masters or equivalent tertiary degree programmes (ISCED 7) expressed as a percentage of the total number of students (male and female) completing those programmes in a given school year.","sourceOrganization":"UNESCO Institute for Statistics","topics":[{"id":"4","value":"Education "}]},{"id":"UIS.FGP.6","name":"Percentage of graduates from tertiary ISCED 6 programmes who are female (%)","source":{"id":"12","value":"Education Statistics"},"sourceNote":"Number of female students completing bachelors or equivalent tertiary degree programmes (ISCED 6) expressed as a percentage of the total number of students (male and female) completing those programmes in a given school year.\u000d\u000a","sourceOrganization":"UNESCO Institute for Statistics","topics":[]},{"id":"UIS.FGP.56.F400500","name":"Percentage of graduates from Science and Technology programmes in tertiary education who are female (%)","source":{"id":"12","value":"Education Statistics"},"sourceNote":"Number of female graduates in science and technology programmes expressed as a percentage of the total number of tertiary graduates in science and technology programmes.","sourceOrganization":"UNESCO Institute for Statistics","topics":[]},{"id":"UIS.FGP.5.B","name":"Percentage of graduates from tertiary ISCED 5 programmes who are female (%)","source":{"id":"12","value":"Education Statistics"},"sourceNote":"Number of female students completing short-cycle tertiary education programmes (ISCED 5) expressed as a percentage of the total number of students (male and female) completing short-cycle tertiary programmes in a given school year.","sourceOrganization":"UNESCO Institute for Statistics","topics":[]},{"id":"UIS.FEP.8","name":"Percentage of students in tertiary ISCED 8 programmes who are female (%)","source":{"id":"12","value":"Education Statistics"},"sourceNote":"Number of female students at the doctoral or equivalent level of tertiary education (ISCED 8) expressed as a percentage of the total number of students (male and female) at that level in a given school year. ","sourceOrganization":"UNESCO Institute for Statistics","topics":[{"id":"4","value":"Education "}]},{"id":"UIS.FEP.7","name":"Percentage of students in tertiary ISCED 7 programmes who are female (%)","source":{"id":"12","value":"Education Statistics"},"sourceNote":"Number of female students at the masters or equivalent level of tertiary education (ISCED 7) expressed as a percentage of the total number of students (male and female) at that level in a given school year. ","sourceOrganization":"UNESCO Institute for Statistics","topics":[{"id":"4","value":"Education "}]},{"id":"UIS.FEP.6","name":"Percentage of students in tertiary ISCED 6 programmes who are female (%)","source":{"id":"12","value":"Education Statistics"},"sourceNote":"Number of female students at the bachelors or equivalent level of tertiary education (ISCED 6) expressed as a percentage of the total number of students (male and female) at that level in a given school year. \u000d\u000a","sourceOrganization":"UNESCO Institute for Statistics","topics":[{"id":"4","value":"Education "}]},{"id":"UIS.FEP.56.FUK","name":"Percentage of students enrolled in programmes in unspecified fields in tertiary education who are female (%)","source":{"id":"12","value":"Education Statistics"},"sourceNote":"Total number of female students in unspecified tertiary education programmes, expressed as a percentage of the total number of students enrolled in unspecified tertiary education programmes.","sourceOrganization":"UNESCO Institute for Statistics","topics":[]},{"id":"UIS.FEP.56.FOREIGN","name":"Percentage of all inbound internationally mobile students in tertiary education in the host country who are female, (%)","source":{"id":"12","value":"Education Statistics"},"sourceNote":"Female share of students who have crossed a national or territorial border for the purposes of education and are now enrolled outside their country of origin.","sourceOrganization":"UNESCO Institute for Statistics","topics":[{"id":"4","value":"Education "}]},{"id":"UIS.FEP.56.F800","name":"Percentage of students enrolled in Services programmes in tertiary education who are female (%)","source":{"id":"12","value":"Education Statistics"},"sourceNote":"Total number of female students in a given tertiary education programme, expressed as a percentage of the total number of students enrolled in the given tertiary education programme.","sourceOrganization":"UNESCO Institute for Statistics","topics":[]},{"id":"UIS.FEP.56.F700","name":"Percentage of students enrolled in Health and Welfare programmes in tertiary education who are female (%)","source":{"id":"12","value":"Education Statistics"},"sourceNote":"Total number of female students in a given tertiary education programme, expressed as a percentage of the total number of students enrolled in the given tertiary education programme.","sourceOrganization":"UNESCO Institute for Statistics","topics":[]},{"id":"UIS.FEP.56.F600","name":"Percentage of students enrolled in Agriculture programmes in tertiary education who are female (%)","source":{"id":"12","value":"Education Statistics"},"sourceNote":"Total number of female students in a given tertiary education programme, expressed as a percentage of the total number of students enrolled in the given tertiary education programme.","sourceOrganization":"UNESCO Institute for Statistics","topics":[]},{"id":"UIS.FEP.56.F500","name":"Percentage of students enrolled in Engineering, Manufacturing and Construction programmes in tertiary education who are female (%)","source":{"id":"12","value":"Education Statistics"},"sourceNote":"Total number of female students in a given tertiary education programme, expressed as a percentage of the total number of students enrolled in the given tertiary education programme.","sourceOrganization":"UNESCO Institute for Statistics","topics":[]},{"id":"UIS.FEP.56.F400","name":"Percentage of students enrolled in Science programmes in tertiary education who are female (%)","source":{"id":"12","value":"Education Statistics"},"sourceNote":"Total number of female students in a given tertiary education programme, expressed as a percentage of the total number of students enrolled in the given tertiary education programme.","sourceOrganization":"UNESCO Institute for Statistics","topics":[]},{"id":"UIS.FEP.56.F300","name":"Percentage of students enrolled in Social Sciences, Business and Law programmes in tertiary education who are female (%)","source":{"id":"12","value":"Education Statistics"},"sourceNote":"Total number of female students in a given tertiary education programme, expressed as a percentage of the total number of students enrolled in the given tertiary education programme.","sourceOrganization":"UNESCO Institute for Statistics","topics":[]},{"id":"UIS.FEP.56.F200","name":"Percentage of students enrolled in Humanities and Arts programmes in tertiary education who are female (%)","source":{"id":"12","value":"Education Statistics"},"sourceNote":"Total number of female students in a given tertiary education programme, expressed as a percentage of the total number of students enrolled in the given tertiary education programme.","sourceOrganization":"UNESCO Institute for Statistics","topics":[]},{"id":"UIS.FEP.56.F140","name":"Percentage of students enrolled in Education programmes in tertiary education who are female (%)","source":{"id":"12","value":"Education Statistics"},"sourceNote":"Total number of female students in a given tertiary education programme, expressed as a percentage of the total number of students enrolled in the given tertiary education programme.","sourceOrganization":"UNESCO Institute for Statistics","topics":[]},{"id":"UIS.FEP.5.B","name":"Percentage of students in tertiary ISCED 5 programmes who are female (%)","source":{"id":"12","value":"Education Statistics"},"sourceNote":"Number of female students enrolled in short-cycle tertiary programmes (ISCED 5) expressed as a percentage of the total number of students (male and female) enrolled in short-cycle tertiary programmes (ISCED 5) in a given school year.","sourceOrganization":"UNESCO Institute for Statistics","topics":[{"id":"4","value":"Education "}]},{"id":"UIS.FEP.4.V","name":"Percentage of students in post-secondary non-tertiary vocational education who are female (%)","source":{"id":"12","value":"Education Statistics"},"sourceNote":"Number of female vocational education students at the post-secondary non-tertiary level expressed as a percentage of the total number of vocational education students (male and female) at the post-secondary non-tertiary level in a given school year.","sourceOrganization":"UNESCO Institute for Statistics","topics":[]},{"id":"UIS.FEP.4.GPV","name":"Percentage of students in post-secondary non-tertiary general education who are female (%)","source":{"id":"12","value":"Education Statistics"},"sourceNote":"Number of female general education students at the post-secondary non-tertiary level expressed as a percentage of the total number of general education students (male and female) at the post-secondary non-tertiary level in a given school year.","sourceOrganization":"UNESCO Institute for Statistics","topics":[]},{"id":"UIS.FEP.4","name":"Percentage of students in post-secondary non-tertiary education who are female (%)","source":{"id":"12","value":"Education Statistics"},"sourceNote":"Number of female students at the post-secondary non-tertiary level expressed as a percentage of the total number of students (male and female) at the post-secondary non-tertiary level in a given school year.","sourceOrganization":"UNESCO Institute for Statistics","topics":[{"id":"4","value":"Education "}]},{"id":"UIS.FEP.3.V","name":"Percentage of students in upper secondary vocational education who are female (%)","source":{"id":"12","value":"Education Statistics"},"sourceNote":"Number of female vocational education students at the upper secondary level expressed as a percentage of the total number of vocational education students (male and female) at the upper secondary level in a given school year.","sourceOrganization":"UNESCO Institute for Statistics","topics":[]},{"id":"UIS.FEP.3.GPV","name":"Percentage of students in upper secondary general education who are female (%)","source":{"id":"12","value":"Education Statistics"},"sourceNote":"Number of female general education students at the upper secondary level expressed as a percentage of the total number of general education students (male and female) at the upper secondary level in a given school year.","sourceOrganization":"UNESCO Institute for Statistics","topics":[]},{"id":"UIS.FEP.3","name":"Percentage of students in upper secondary education who are female (%)","source":{"id":"12","value":"Education Statistics"},"sourceNote":"Number of female students at the upper secondary level expressed as a percentage of the total number of students (male and female) at the upper secondary level in a given school year.","sourceOrganization":"UNESCO Institute for Statistics","topics":[]},{"id":"UIS.FEP.2.V","name":"Percentage of students in lower secondary vocational education who are female (%)","source":{"id":"12","value":"Education Statistics"},"sourceNote":"Number of female vocational education students at the lower secondary level expressed as a percentage of the total number of vocational education students (male and female) at the lower secondary level in a given school year.","sourceOrganization":"UNESCO Institute for Statistics","topics":[]},{"id":"UIS.FEP.2.GPV","name":"Percentage of students in lower secondary general education who are female (%)","source":{"id":"12","value":"Education Statistics"},"sourceNote":"Number of female general education students at the lower secondary level expressed as a percentage of the total number of general education students (male and female) at the lower secondary level in a given school year.","sourceOrganization":"UNESCO Institute for Statistics","topics":[]},{"id":"UIS.FEP.2","name":"Percentage of students in lower secondary education who are female (%)","source":{"id":"12","value":"Education Statistics"},"sourceNote":"Number of female students at the lower secondary level expressed as a percentage of the total number of students (male and female) at the lower secondary level in a given school year.","sourceOrganization":"UNESCO Institute for Statistics","topics":[]},{"id":"UIS.ESL.1.T","name":"Early school leavers from primary education, both sexes (number)","source":{"id":"12","value":"Education Statistics"},"sourceNote":"Total number of students from a cohort enrolled in a given school year who are no longer enrolled in the following school year and did not complete the grade or level of education in which they were enrolled.","sourceOrganization":"UNESCO Institute for Statistics","topics":[]},{"id":"UIS.ESL.1.M","name":"Early school leavers from primary education, male (number)","source":{"id":"12","value":"Education Statistics"},"sourceNote":"Total number of male students from a cohort enrolled in a given school year who are no longer enrolled in the following school year and did not complete the grade or level of education in which they were enrolled.","sourceOrganization":"UNESCO Institute for Statistics","topics":[]},{"id":"UIS.ESL.1.F","name":"Early school leavers from primary education, female (number)","source":{"id":"12","value":"Education Statistics"},"sourceNote":"Total number of female students from a cohort enrolled in a given school year who are no longer enrolled in the following school year and did not complete the grade or level of education in which they were enrolled.","sourceOrganization":"UNESCO Institute for Statistics","topics":[]},{"id":"UIS.ECDP.1.M","name":"Percentage of new entrants to Grade 1 of primary education with early childhood educational experience, male (%)","source":{"id":"12","value":"Education Statistics"},"sourceNote":"Number of new male entrants to primary grade 1 who have attended some form of organized early childhood care and education (ECCE) program, expressed as a percentage of total number of new male entrants to primary grade 1.","sourceOrganization":"UNESCO Institute for Statistics","topics":[{"id":"4","value":"Education "}]},{"id":"UIS.ECDP.1.GPI","name":"Percentage of new entrants to Grade 1 of primary education with early childhood educational experience, gender parity index (GPI)","source":{"id":"12","value":"Education Statistics"},"sourceNote":"Ratio of the female percentage of new entrants to primary education with ECCE experience to the male value for the same indicator. It is calculated by dividing the female value for the indicator by the male value for the indicator. A GPI equal to 1 indicates parity between females and males. In general, a value less than 1 indicates disparity in favor of males and a value greater than 1 indicates disparity in favor of females.","sourceOrganization":"UNESCO Institute for Statistics","topics":[{"id":"4","value":"Education "}]},{"id":"UIS.ECDP.1.F","name":"Percentage of new entrants to Grade 1 of primary education with early childhood educational experience, female (%)","source":{"id":"12","value":"Education Statistics"},"sourceNote":"Number of new female entrants to primary grade 1 who have attended some form of organized early childhood care and education (ECCE) program, expressed as a percentage of total number of new female entrants to primary grade 1.","sourceOrganization":"UNESCO Institute for Statistics","topics":[{"id":"4","value":"Education "}]},{"id":"UIS.ECDP.1","name":"Percentage of new entrants to Grade 1 of primary education with early childhood educational experience, both sexes (%)","source":{"id":"12","value":"Education Statistics"},"sourceNote":"Total number of new entrants to Grade 1 of primary education who have attended some form of organised early childhood care and education (ECCE) programmes, expressed as a percentage of the total number of new entrants to primary education.","sourceOrganization":"UNESCO Institute for Statistics","topics":[{"id":"4","value":"Education "}]},{"id":"UIS.EA.UK.AG25T99.M","name":"UIS: Percentage of population age 25+ with unknown educational attainment. Male","source":{"id":"12","value":"Education Statistics"},"sourceNote":"The percentage of the male population (age 25 and over) with unknown educational attainment. This indicator is calculated by dividing the number of males aged 25 years and above with unknown educational attainment by the total male population of the same age group and multiplying the result by 100. The UNESCO Institute for Statistics (UIS) educational attainment dataset shows the educational composition of the population aged 25 years and above and hence the stock and quality of human capital within a country. The dataset also reflects the structure and performance of the education system and its accumulated impact on human capital formation. For more information, visit the UNESCO Institute for Statistics website: http:\/\/www.uis.unesco.org\/","sourceOrganization":"UNESCO Institute for Statistics","topics":[]},{"id":"UIS.EA.UK.AG25T99.F","name":"UIS: Percentage of population age 25+ with unknown educational attainment. Female","source":{"id":"12","value":"Education Statistics"},"sourceNote":"The percentage of the female population (age 25 and over) with unknown educational attainment. This indicator is calculated by dividing the number of females aged 25 years and above with unknown educational attainment by the total female population of the same age group and multiplying the result by 100. The UNESCO Institute for Statistics (UIS) educational attainment dataset shows the educational composition of the population aged 25 years and above and hence the stock and quality of human capital within a country. The dataset also reflects the structure and performance of the education system and its accumulated impact on human capital formation. For more information, visit the UNESCO Institute for Statistics website: http:\/\/www.uis.unesco.org\/","sourceOrganization":"UNESCO Institute for Statistics","topics":[]},{"id":"UIS.EA.UK.AG25T99","name":"UIS: Percentage of population age 25+ with unknown educational attainment. Total","source":{"id":"12","value":"Education Statistics"},"sourceNote":"The percentage of the population (age 25 and over) with unknown educational attainment. This indicator is calculated by dividing the number of persons aged 25 years and above with unknown educational attainment by the total population of the same age group and multiplying the result by 100. The UNESCO Institute for Statistics (UIS) educational attainment dataset shows the educational composition of the population aged 25 years and above and hence the stock and quality of human capital within a country. The dataset also reflects the structure and performance of the education system and its accumulated impact on human capital formation. For more information, visit the UNESCO Institute for Statistics website: http:\/\/www.uis.unesco.org\/","sourceOrganization":"UNESCO Institute for Statistics","topics":[]},{"id":"UIS.EA.S1.AG25T99.M","name":"UIS: Percentage of population age 25+ with some primary education. Male","source":{"id":"12","value":"Education Statistics"},"sourceNote":"The percentage of male population (age 25 and over) with incomplete primary as the highest level of educational attainment. This indicator is calculated by dividing the number of males aged 25 years and above with incomplete primary education by the total male population of the same age group and multiplying the result by 100. The UNESCO Institute for Statistics (UIS) educational attainment dataset shows the educational composition of the population aged 25 years and above and hence the stock and quality of human capital within a country. The dataset also reflects the structure and performance of the education system and its accumulated impact on human capital formation. For more information, visit the UNESCO Institute for Statistics website: http:\/\/www.uis.unesco.org\/","sourceOrganization":"UNESCO Institute for Statistics","topics":[]},{"id":"UIS.EA.S1.AG25T99.F","name":"UIS: Percentage of population age 25+ with some primary education. Female","source":{"id":"12","value":"Education Statistics"},"sourceNote":"The percentage of female population (age 25 and over) with incomplete primary as the highest level of educational attainment. This indicator is calculated by dividing the number of females aged 25 years and above with incomplete primary education by the total female population of the same age group and multiplying the result by 100. The UNESCO Institute for Statistics (UIS) educational attainment dataset shows the educational composition of the population aged 25 years and above and hence the stock and quality of human capital within a country. The dataset also reflects the structure and performance of the education system and its accumulated impact on human capital formation. For more information, visit the UNESCO Institute for Statistics website: http:\/\/www.uis.unesco.org\/","sourceOrganization":"UNESCO Institute for Statistics","topics":[]},{"id":"UIS.EA.S1.AG25T99","name":"UIS: Percentage of population age 25+ with some primary education. Total","source":{"id":"12","value":"Education Statistics"},"sourceNote":"The percentage of population (age 25 and over) with incomplete primary as the highest level of educational attainment. This indicator is calculated by dividing the number of persons aged 25 years and above with incomplete primary education by the total population of the same age group and multiplying the result by 100. The UNESCO Institute for Statistics (UIS) educational attainment dataset shows the educational composition of the population aged 25 years and above and hence the stock and quality of human capital within a country. The dataset also reflects the structure and performance of the education system and its accumulated impact on human capital formation. For more information, visit the UNESCO Institute for Statistics website: http:\/\/www.uis.unesco.org\/","sourceOrganization":"UNESCO Institute for Statistics","topics":[]},{"id":"UIS.EA.NS.AG25T99.M","name":"UIS: Percentage of population age 25+ with no schooling. Male","source":{"id":"12","value":"Education Statistics"},"sourceNote":"The percentage of the male population (age 25 and over) with no education. This indicator is calculated by dividing the number of males aged 25 years and above with no education by the total male population of the same age group and multiplying the result by 100. The UNESCO Institute for Statistics (UIS) educational attainment dataset shows the educational composition of the population aged 25 years and above and hence the stock and quality of human capital within a country. The dataset also reflects the structure and performance of the education system and its accumulated impact on human capital formation. For more information, visit the UNESCO Institute for Statistics website: http:\/\/www.uis.unesco.org\/","sourceOrganization":"UNESCO Institute for Statistics","topics":[]},{"id":"UIS.EA.NS.AG25T99.F","name":"UIS: Percentage of population age 25+ with no schooling. Female","source":{"id":"12","value":"Education Statistics"},"sourceNote":"The percentage of the female population (age 25 and over) with no education. This indicator is calculated by dividing the number of females aged 25 years and above with no education by the total female population of the same age group and multiplying the result by 100. The UNESCO Institute for Statistics (UIS) educational attainment dataset shows the educational composition of the population aged 25 years and above and hence the stock and quality of human capital within a country. The dataset also reflects the structure and performance of the education system and its accumulated impact on human capital formation. For more information, visit the UNESCO Institute for Statistics website: http:\/\/www.uis.unesco.org\/","sourceOrganization":"UNESCO Institute for Statistics","topics":[]},{"id":"UIS.EA.NS.AG25T99","name":"UIS: Percentage of population age 25+ with no schooling. Total","source":{"id":"12","value":"Education Statistics"},"sourceNote":"The percentage of the population (age 25 and over) with no education. This indicator is calculated by dividing the number of persons aged 25 years and above with no education by the total population of the same age group and multiplying the result by 100. The UNESCO Institute for Statistics (UIS) educational attainment dataset shows the educational composition of the population aged 25 years and above and hence the stock and quality of human capital within a country. The dataset also reflects the structure and performance of the education system and its accumulated impact on human capital formation. For more information, visit the UNESCO Institute for Statistics website: http:\/\/www.uis.unesco.org\/","sourceOrganization":"UNESCO Institute for Statistics","topics":[{}]}]]